time,x,y,z,yaw
0.000824928,-0.013719,-0.027597,0.676796,0.525662
0.034186125,-0.014303,-0.009536,0.679284,0.525575
0.070012093,-0.013726,-0.027392,0.676824,0.524800
0.100853920,-0.013719,-0.027597,0.676796,0.525518
0.134237051,-0.018009,-0.029173,0.680555,0.526304
0.167428970,-0.018061,-0.029193,0.680601,0.526313
0.201316118,-0.014320,-0.009690,0.679340,0.526684
0.233986139,-0.014310,-0.009312,0.679315,0.526684
0.267446041,-0.013719,-0.027597,0.676796,0.526349
0.300800085,-0.018737,-0.009446,0.679279,0.528392
0.334114075,-0.014315,-0.010765,0.683144,0.527458
0.367416143,-0.014262,-0.010781,0.683191,0.527447
0.400897980,-0.014309,-0.009331,0.679365,0.527628
0.434251070,-0.013725,-0.027375,0.676826,0.527930
0.467499018,-0.013718,-0.027598,0.676796,0.528994
0.500906944,-0.013717,-0.027598,0.676796,0.529196
0.534182072,-0.013764,-0.026158,0.672996,0.529173
0.567492008,-0.014302,-0.009528,0.679233,0.531442
0.600856066,-0.018679,-0.009446,0.679280,0.532659
0.634047031,-0.018736,-0.009447,0.679279,0.532675
0.667418003,-0.014262,-0.010782,0.683191,0.531610
0.700835943,-0.013722,-0.027389,0.676875,0.532924
0.734139919,-0.013716,-0.027599,0.676796,0.532927
0.767720938,-0.013721,-0.027409,0.676822,0.535345
0.800967932,-0.013714,-0.027599,0.676796,0.535263
0.834169149,-0.013715,-0.027599,0.676796,0.535029
0.867483139,-0.018686,-0.009627,0.679255,0.534437
0.900802135,-0.014352,-0.009315,0.679314,0.535435
0.934055090,-0.014309,-0.009314,0.679315,0.535445
0.967386961,-0.018736,-0.009448,0.679279,0.534999
1.001084089,-0.013714,-0.027600,0.676796,0.536336
1.034099102,-0.013714,-0.027600,0.676796,0.536909
1.067451954,-0.018674,-0.009669,0.679249,0.537517
1.100794077,-0.013774,-0.027380,0.676826,0.537641
1.134246111,-0.018673,-0.009675,0.679248,0.537555
1.167505980,-0.014005,-0.026543,0.676940,0.539052
1.200938940,-0.013715,-0.027589,0.676797,0.540190
1.234127045,-0.013713,-0.027600,0.676796,0.539375
1.267354012,-0.013713,-0.027600,0.676796,0.539375
1.300899982,-0.018735,-0.009450,0.679279,0.539567
1.334185123,-0.013760,-0.027425,0.676820,0.540897
1.367552996,-0.013712,-0.027601,0.676796,0.540910
1.400882006,-0.013711,-0.027601,0.676796,0.542741
1.434073925,-0.018675,-0.009667,0.679250,0.543109
1.467499971,-0.018110,-0.027513,0.676791,0.544904
1.500821114,-0.018728,-0.009625,0.679255,0.545383
1.534156084,-0.018734,-0.009452,0.679279,0.545388
1.567538977,-0.013709,-0.027602,0.676796,0.545903
1.600937128,-0.013709,-0.027602,0.676796,0.546966
1.634137154,-0.013709,-0.027602,0.676796,0.547072
1.667315960,-0.013709,-0.027602,0.676796,0.547073
1.700947046,-0.013708,-0.027603,0.676796,0.548762
1.734427929,-0.018620,-0.011131,0.683075,0.548554
1.767444134,-0.018683,-0.010921,0.683155,0.548552
1.801162958,-0.013772,-0.027583,0.676740,0.548508
1.834079027,-0.013708,-0.027602,0.676796,0.548488
1.867522955,-0.013708,-0.027602,0.676796,0.548488
1.900731087,-0.013708,-0.027603,0.676796,0.549521
1.934092045,-0.013707,-0.027603,0.676796,0.550367
1.967514038,-0.013707,-0.027603,0.676796,0.551616
2.000916004,-0.013706,-0.027603,0.676796,0.552007
2.034533978,-0.018063,-0.026306,0.672987,0.552822
2.067508936,-0.013758,-0.027588,0.676749,0.553925
2.101186991,-0.013705,-0.027604,0.676796,0.554121
2.133995056,-0.013705,-0.027604,0.676796,0.554124
2.167456150,-0.013705,-0.027604,0.676796,0.555434
2.200736046,-0.013705,-0.027604,0.676796,0.555595
2.234133959,-0.013705,-0.027604,0.676796,0.555204
2.267491102,-0.013704,-0.027604,0.676796,0.556535
2.300863981,-0.013704,-0.027604,0.676796,0.556325
2.334017038,-0.013704,-0.027604,0.676796,0.556322
2.367579937,-0.013704,-0.027604,0.676796,0.556120
2.400705099,-0.013704,-0.027604,0.676796,0.556120
2.434242964,-0.014298,-0.009545,0.679283,0.556089
2.468023062,-0.013704,-0.027604,0.676796,0.556466
2.500826120,-0.014298,-0.009540,0.679284,0.556633
2.534173012,-0.013711,-0.027384,0.676826,0.558208
2.567389965,-0.013703,-0.027605,0.676796,0.558228
2.600814104,-0.013703,-0.027605,0.676796,0.558752
2.634109020,-0.013703,-0.027605,0.676796,0.558758
2.667518139,-0.013706,-0.027466,0.676815,0.561668
2.700709105,-0.013702,-0.027606,0.676796,0.561687
2.734087944,-0.014256,-0.010789,0.683191,0.561936
2.767498016,-0.014256,-0.010789,0.683191,0.562383
2.800853968,-0.018056,-0.027575,0.676824,0.563102
2.834172010,-0.013755,-0.027608,0.676795,0.563343
2.867480993,-0.013749,-0.026162,0.672985,0.562876
2.900857925,-0.013749,-0.026148,0.672947,0.564118
2.934236050,-0.018672,-0.009656,0.679204,0.564472
2.967956066,-0.013784,-0.027302,0.676837,0.565997
3.000719070,-0.013700,-0.027607,0.676796,0.566023
3.034234047,-0.013759,-0.027393,0.676825,0.566277
3.067403078,-0.013700,-0.027607,0.676796,0.566288
3.101046085,-0.013700,-0.027581,0.676728,0.567491
3.134124041,-0.013699,-0.027607,0.676796,0.567897
3.167456150,-0.013698,-0.027607,0.676796,0.568808
3.200838089,-0.013698,-0.027608,0.676796,0.570106
3.234249115,-0.018078,-0.026305,0.672967,0.570654
3.267517090,-0.013750,-0.027592,0.676750,0.570084
3.300717115,-0.013698,-0.027608,0.676796,0.570077
3.334017992,-0.013697,-0.027608,0.676796,0.571651
3.367561102,-0.013696,-0.027609,0.676796,0.573939
3.400963068,-0.013696,-0.027609,0.676796,0.574416
3.434163094,-0.018669,-0.009677,0.679250,0.575928
3.467910051,-0.013828,-0.025866,0.673055,0.577307
3.500735998,-0.013743,-0.026151,0.672947,0.577331
3.534089088,-0.013694,-0.027609,0.676796,0.577880
3.567589998,-0.013694,-0.027609,0.676796,0.577947
3.600963116,-0.013693,-0.027610,0.676796,0.579236
3.634105921,-0.013693,-0.027610,0.676796,0.580441
3.670695066,-0.013741,-0.026170,0.672994,0.580758
3.700695038,-0.013741,-0.026152,0.672947,0.580762
3.734091043,-0.013692,-0.027610,0.676796,0.581589
3.767423153,-0.013692,-0.027611,0.676796,0.582799
3.800991058,-0.013691,-0.027611,0.676796,0.583329
3.834219933,-0.013691,-0.027611,0.676796,0.583334
3.867391109,-0.013691,-0.027611,0.676796,0.583572
3.901087046,-0.013690,-0.027612,0.676796,0.586466
3.934242010,-0.018028,-0.027747,0.676761,0.586855
3.967493057,-0.013751,-0.027614,0.676795,0.587874
4.000785112,-0.013689,-0.027612,0.676796,0.588434
4.034053087,-0.013688,-0.027612,0.676796,0.589242
4.067430973,-0.013688,-0.027612,0.676796,0.589252
4.100996971,-0.013688,-0.027612,0.676796,0.590532
4.134550095,-0.013688,-0.027613,0.676796,0.591208
4.167428017,-0.013736,-0.026172,0.672992,0.591743
4.200765133,-0.013687,-0.027599,0.676759,0.592431
4.234324932,-0.018656,-0.009719,0.679245,0.592658
4.267596960,-0.013749,-0.027388,0.676826,0.592690
4.300725937,-0.013687,-0.027613,0.676796,0.592691
4.334175110,-0.013687,-0.027613,0.676796,0.593196
4.367430925,-0.014250,-0.010797,0.683191,0.593893
4.401847124,-0.013740,-0.026010,0.673044,0.594101
4.434134007,-0.014244,-0.010952,0.683087,0.595877
4.467381001,-0.018673,-0.009484,0.679325,0.597152
4.500803947,-0.013734,-0.027435,0.676820,0.598037
4.533982992,-0.013684,-0.027614,0.676796,0.598045
4.567466021,-0.013732,-0.027440,0.676819,0.599362
4.600969076,-0.013683,-0.027615,0.676796,0.600591
4.634328127,-0.013683,-0.027615,0.676796,0.600591
4.668904066,-0.013683,-0.027615,0.676796,0.600873
4.700691938,-0.013683,-0.027615,0.676796,0.600872
4.734137058,-0.013682,-0.027601,0.676759,0.603174
4.767924070,-0.013633,-0.029047,0.680553,0.603512
4.800661087,-0.013632,-0.029078,0.680637,0.603520
4.834039927,-0.013730,-0.026158,0.672947,0.604327
4.867495060,-0.009194,-0.030415,0.684503,0.605710
4.900874138,-0.013681,-0.027616,0.676796,0.604454
4.934330940,-0.013727,-0.026279,0.673268,0.603476
4.967428923,-0.014291,-0.009528,0.679244,0.603368
5.000700951,-0.014297,-0.009331,0.679315,0.603367
5.034034014,-0.018074,-0.027754,0.676760,0.602941
5.067367077,-0.013779,-0.024704,0.669092,0.604109
5.101076126,-0.018630,-0.009786,0.679160,0.605275
5.134187937,-0.014350,-0.009333,0.679314,0.606201
5.167422056,-0.014297,-0.009331,0.679315,0.606212
5.200885057,-0.013729,-0.026158,0.672947,0.606927
5.234030008,-0.013729,-0.026158,0.672947,0.606933
5.267777920,-0.014239,-0.011041,0.683099,0.608307
5.300797939,-0.013685,-0.027451,0.676859,0.609081
5.333997011,-0.013679,-0.027617,0.676796,0.609088
5.367421150,-0.013728,-0.026176,0.672994,0.608917
5.400779963,-0.013728,-0.026159,0.672947,0.608918
5.434076071,-0.010574,-0.033715,0.675875,0.610794
5.467420101,-0.010538,-0.033803,0.675909,0.610816
5.500797033,-0.013685,-0.027400,0.676878,0.611805
5.534013987,-0.013678,-0.027618,0.676796,0.611817
5.567682981,-0.013677,-0.027618,0.676796,0.612411
5.600799084,-0.013677,-0.027618,0.676796,0.613916
5.634098053,-0.013725,-0.026177,0.672993,0.614772
5.667529106,-0.013677,-0.027600,0.676748,0.614769
5.700768948,-0.018017,-0.027756,0.676761,0.614923
5.734300137,-0.018069,-0.027758,0.676760,0.614925
5.767465115,-0.013676,-0.027601,0.676748,0.615942
5.800954103,-0.014238,-0.011007,0.683113,0.617289
5.834089994,-0.014245,-0.010803,0.683191,0.617306
5.867536068,-0.018669,-0.009491,0.679326,0.618484
5.900727034,-0.014297,-0.010788,0.683145,0.620434
5.934138060,-0.014244,-0.010804,0.683191,0.622606
5.967435122,-0.013679,-0.027419,0.676872,0.622799
6.000874043,-0.018608,-0.011146,0.683079,0.622704
6.034039974,-0.018668,-0.010945,0.683155,0.622703
6.067459106,-0.018019,-0.027540,0.676791,0.623570
6.100889921,-0.014079,-0.027633,0.676792,0.623463
6.134046078,-0.014242,-0.011005,0.683115,0.624288
6.167353153,-0.014244,-0.010805,0.683191,0.624298
6.200853109,-0.018614,-0.010945,0.683156,0.626633
6.234138966,-0.013778,-0.025984,0.673068,0.627445
6.267359018,-0.013720,-0.026163,0.672947,0.627454
6.300806046,-0.013669,-0.027620,0.676791,0.629104
6.334169149,-0.013669,-0.027622,0.676796,0.628947
6.367457151,-0.013669,-0.027622,0.676796,0.629744
6.400645971,-0.013669,-0.027622,0.676796,0.629752
6.434092999,-0.014344,-0.009357,0.679360,0.633031
6.467303038,-0.014293,-0.009338,0.679315,0.633045
6.500914097,-0.018719,-0.009481,0.679279,0.633950
6.534218073,-0.013666,-0.027624,0.676796,0.636765
6.567516088,-0.013665,-0.027624,0.676796,0.637324
6.600849152,-0.013566,-0.030519,0.684379,0.637103
6.636953115,-0.014234,-0.011022,0.683205,0.637430
6.667851925,-0.013675,-0.027344,0.676902,0.636862
6.700940132,-0.013665,-0.027624,0.676796,0.638254
6.734058142,-0.013665,-0.027624,0.676796,0.638277
6.767408133,-0.014294,-0.010793,0.683145,0.639496
6.800905943,-0.018011,-0.027565,0.676837,0.640964
6.834216118,-0.013731,-0.027627,0.676795,0.641351
6.868005991,-0.013663,-0.027625,0.676796,0.643046
6.900972128,-0.014232,-0.011070,0.683092,0.642724
6.934025049,-0.014241,-0.010809,0.683191,0.642719
6.967396975,-0.018233,-0.010939,0.683159,0.644761
7.000744104,-0.014932,-0.010832,0.683185,0.645387
7.034129143,-0.013676,-0.027425,0.676872,0.646487
7.067498922,-0.014282,-0.009590,0.679280,0.646797
7.100736141,-0.014240,-0.010793,0.683144,0.648261
7.134139061,-0.013617,-0.028873,0.680667,0.648892
7.167846918,-0.014231,-0.011054,0.683157,0.650889
7.204286098,-0.018195,-0.010940,0.683159,0.651733
7.234075069,-0.018663,-0.010955,0.683155,0.651830
7.267395973,-0.014293,-0.010796,0.683143,0.653468
7.301423073,-0.014238,-0.010812,0.683191,0.655183
7.334161997,-0.014238,-0.010812,0.683191,0.655523
7.367519140,-0.018608,-0.010955,0.683156,0.656494
7.401261091,-0.014355,-0.009369,0.679373,0.657732
7.434237003,-0.018608,-0.010937,0.683108,0.659019
7.467517138,-0.013652,-0.028918,0.680661,0.659525
7.500864983,-0.018647,-0.009752,0.679297,0.660325
7.534069061,-0.018715,-0.009489,0.679279,0.660336
7.567623138,-0.013654,-0.027629,0.676796,0.660718
7.600723982,-0.013654,-0.027629,0.676796,0.660719
7.636001110,-0.013723,-0.027377,0.676830,0.662806
7.669572115,-0.013603,-0.029074,0.680588,0.662736
7.700816154,-0.014229,-0.011034,0.683160,0.663374
7.734141111,-0.014237,-0.010814,0.683191,0.663382
7.767364979,-0.014237,-0.010814,0.683191,0.663697
7.800904989,-0.013661,-0.027382,0.676890,0.665154
7.834142923,-0.013652,-0.027630,0.676796,0.665155
7.867387056,-0.013652,-0.027630,0.676796,0.665489
7.901008129,-0.017747,-0.012956,0.678805,0.665347
7.934165001,-0.014270,-0.010833,0.683149,0.666169
7.967581987,-0.014236,-0.010815,0.683191,0.666864
8.000752926,-0.014236,-0.010816,0.683191,0.668360
8.034173012,-0.014236,-0.010815,0.683191,0.667858
8.067631960,-0.018605,-0.010959,0.683156,0.668695
8.100700140,-0.018660,-0.010960,0.683155,0.668705
8.134171963,-0.018669,-0.009506,0.679318,0.670650
8.167565107,-0.014289,-0.010800,0.683144,0.669851
8.201288939,-0.014236,-0.010816,0.683191,0.668961
8.234092951,-0.018607,-0.010959,0.683156,0.669414
8.267504930,-0.018713,-0.009507,0.679316,0.670679
8.300843000,-0.018713,-0.009493,0.679279,0.671358
8.334146976,-0.014288,-0.010801,0.683145,0.671807
8.367471933,-0.014235,-0.010816,0.683191,0.671812
8.400861025,-0.014297,-0.010799,0.683136,0.673991
8.434237957,-0.018588,-0.010961,0.683156,0.676097
8.467643976,-0.018658,-0.010963,0.683155,0.676130
8.500935078,-0.014234,-0.010818,0.683191,0.677261
8.534045935,-0.014285,-0.009366,0.679360,0.677773
8.567487955,-0.014234,-0.010801,0.683144,0.678982
8.600758076,-0.014234,-0.010818,0.683191,0.679660
8.634068012,-0.014234,-0.010819,0.683191,0.680209
8.667457104,-0.014234,-0.010818,0.683191,0.679661
8.700763941,-0.014284,-0.009367,0.679361,0.679152
8.734163046,-0.014234,-0.010801,0.683145,0.678919
8.767369032,-0.014234,-0.010818,0.683191,0.678916
8.800953150,-0.018712,-0.009496,0.679279,0.679767
8.834038019,-0.018712,-0.009496,0.679279,0.679782
8.867545128,-0.014233,-0.010819,0.683191,0.680916
8.900766134,-0.018659,-0.009512,0.679325,0.681821
8.934121132,-0.018711,-0.009497,0.679279,0.682807
8.967482090,-0.014285,-0.010804,0.683145,0.684584
9.000829935,-0.018659,-0.009513,0.679325,0.684589
9.034079075,-0.018711,-0.009497,0.679279,0.684899
9.067640066,-0.014290,-0.010803,0.683141,0.685455
9.100847006,-0.014283,-0.009369,0.679360,0.686718
9.134104967,-0.014284,-0.009351,0.679315,0.686733
9.167727947,-0.018602,-0.010946,0.683108,0.686425
9.200685978,-0.018656,-0.010966,0.683155,0.686420
9.234035969,-0.018701,-0.009764,0.679981,0.686555
9.267478943,-0.014284,-0.009352,0.679315,0.687001
9.300763130,-0.014238,-0.010812,0.683191,0.654889
9.334110022,-0.018020,-0.027754,0.676761,0.608306
9.367377043,-0.018071,-0.027756,0.676760,0.609757
9.400730133,-0.017967,-0.027824,0.676760,0.824791
9.435545921,-0.014241,-0.010808,0.683191,0.638340
9.467651129,-0.014274,-0.027314,0.676796,-0.633050
9.500828981,-0.014676,-0.042309,0.666701,-1.423459
9.534533024,-0.018726,-0.039881,0.660140,-1.991751
9.568135977,-0.020200,-0.043330,0.670188,-2.960551
9.600827932,-0.020666,-0.038812,0.658994,-3.795219
9.634431124,-0.020122,-0.020558,0.661288,-4.351871
9.667562962,-0.020570,-0.024196,0.620543,-4.945667
9.701075077,-0.020247,-0.015933,0.596984,-5.557173
9.734123945,-0.021602,-0.031060,0.586898,-6.020484
9.768039942,-0.024111,-0.007664,0.573034,-6.297949
9.801001072,-0.024209,-0.006956,0.572705,-6.646828
9.834192038,-0.020974,-0.018947,0.551416,-6.818357
9.867404938,-0.028860,-0.009295,0.523331,-7.157885
9.900798082,-0.028955,-0.009176,0.522997,-7.161935
9.934160948,-0.031675,0.000338,0.493288,-7.509587
9.967507124,-0.041238,0.001191,0.494460,-7.801264
10.000911951,-0.044357,0.014732,0.449714,-8.114703
10.034078121,-0.048374,0.018862,0.436828,-8.268081
10.067426920,-0.050020,0.003912,0.428175,-8.281429
10.101294994,-0.058092,0.011154,0.403323,-8.272198
10.134176016,-0.058188,0.011243,0.403026,-8.272085
10.167554140,-0.063369,0.004715,0.361611,-8.193791
10.200840950,-0.071285,0.007934,0.349365,-7.960615
10.234018087,-0.071381,0.007974,0.349222,-7.957814
10.267570972,-0.089239,0.011851,0.335745,-7.412620
10.300853968,-0.089447,0.011893,0.335593,-7.406416
10.333975077,-0.089447,0.011893,0.335593,-7.406416
10.367425919,-0.104170,-0.011372,0.281787,-6.684553
10.400838137,-0.112350,-0.012523,0.285489,-6.268485
10.433937073,-0.112350,-0.012523,0.285489,-6.268485
10.467404127,-0.122131,-0.025526,0.269734,-6.096011
10.500935078,-0.139385,-0.022344,0.252594,-5.746896
10.534054995,-0.139635,-0.022299,0.252345,-5.741835
10.567815065,-0.152215,-0.018140,0.227075,-5.358763
10.601252079,-0.164520,-0.047707,0.213322,-5.115183
10.634613991,-0.182366,-0.029311,0.185751,-4.956491
10.667443037,-0.182577,-0.029088,0.185425,-4.954645
10.700979948,-0.182577,-0.029088,0.185425,-4.954645
10.734101057,-0.202636,-0.061986,0.171501,-4.134431
10.767473936,-0.202871,-0.062384,0.171334,-4.124594
10.800950050,-0.202871,-0.062384,0.171334,-4.124594
10.834255934,-0.227081,-0.062003,0.129389,-2.807412
10.867357969,-0.227405,-0.062006,0.128829,-2.789825
10.900946140,-0.242448,-0.079350,0.113913,-2.039179
10.934158087,-0.242494,-0.079353,0.113761,-2.034358
10.967472076,-0.265125,-0.064621,0.102873,-2.090868
11.000843048,-0.273849,-0.063931,0.094273,-2.132384
11.034151077,-0.273952,-0.063924,0.094171,-2.132862
11.067454100,-0.282727,-0.063130,0.093898,-2.457921
11.100857973,-0.291453,-0.062063,0.085511,-2.617668
11.134063959,-0.291579,-0.062047,0.085387,-2.619972
11.167629004,-0.299715,-0.061149,0.067404,-2.519798
11.200832129,-0.300146,-0.061364,0.068246,-2.506549
11.234138012,-0.303624,-0.027880,0.037886,-2.207864
11.267516136,-0.316183,-0.031013,0.045867,-1.982304
11.300902128,-0.312039,-0.031345,0.037496,-1.669801
11.334077120,-0.316081,-0.033166,0.041597,-1.511200
11.367449999,-0.316130,-0.033188,0.041647,-1.509339
11.400788069,-0.316130,-0.033188,0.041647,-1.509339
11.436304092,-0.316130,-0.033188,0.041647,-1.509339
11.467503071,-0.325110,-0.002493,0.001179,-0.561899
11.500967979,-0.321331,-0.002202,-0.006730,-0.356349
11.534765959,-0.320900,-0.003270,-0.007601,-0.140876
11.567464113,-0.323458,0.013197,-0.010591,-0.061360
11.600768089,-0.323489,0.013398,-0.010627,-0.060455
11.634097099,-0.319320,0.014110,-0.023812,0.118060
11.667531013,-0.319321,0.014120,-0.023922,0.117959
11.700855017,-0.324766,0.047966,-0.043643,0.265418
11.734226942,-0.324834,0.047805,-0.039429,0.319533
11.767554998,-0.324834,0.047798,-0.039375,0.320169
11.800912142,-0.320556,0.049257,-0.052909,0.343818
11.834305048,-0.304700,0.056267,-0.073058,0.233422
11.867766142,-0.302865,0.053981,-0.075405,0.218630
11.900891066,-0.294087,0.056506,-0.093324,0.145535
11.934108019,-0.289582,0.056669,-0.089029,0.197839
11.967827082,-0.285375,0.057980,-0.115890,0.294020
12.000783920,-0.285317,0.057999,-0.116268,0.295363
12.034035921,-0.280984,0.058207,-0.120804,0.413829
12.067757130,-0.272157,0.059811,-0.134331,0.429951
12.100888014,-0.268005,0.061291,-0.150902,0.327967
12.134273052,-0.267576,0.061392,-0.152678,0.328966
12.167680025,-0.267571,0.061394,-0.152699,0.328993
12.203063965,-0.249010,0.047042,-0.170024,0.575610
12.234171152,-0.247819,0.045804,-0.183377,0.681367
12.267547131,-0.244005,0.045996,-0.186373,0.770597
12.301069975,-0.238999,0.046908,-0.202815,0.733432
12.334095955,-0.238939,0.046919,-0.203015,0.732964
12.367697954,-0.232488,0.030377,-0.212093,0.854006
12.400818110,-0.232384,0.030117,-0.225213,0.848659
12.434598923,-0.232384,0.030117,-0.225342,0.848605
12.467879057,-0.227885,0.030918,-0.234674,0.770853
12.501057148,-0.221374,0.015323,-0.247777,0.596756
12.534079075,-0.221268,0.015145,-0.252387,0.565556
12.567551136,-0.216858,0.015977,-0.256880,0.461120
12.600914955,-0.216768,0.016494,-0.256933,0.325730
12.634060144,-0.216767,0.016501,-0.256933,0.323879
12.667566061,-0.216715,0.017326,-0.256972,0.064682
12.700814009,-0.210628,0.003109,-0.252232,-0.148457
12.734184027,-0.206106,0.002934,-0.287385,-0.274108
12.767506123,-0.202000,0.003348,-0.291902,-0.319209
12.800859928,-0.201642,0.003756,-0.287877,-0.386652
12.834331036,-0.197235,0.004628,-0.296640,-0.607919
12.870727062,-0.192826,0.005331,-0.292357,-0.655157
12.901051044,-0.192778,0.005338,-0.292309,-0.655650
12.934229136,-0.189636,0.022228,-0.297292,-0.944478
12.967675924,-0.176361,0.023264,-0.310649,-1.049244
13.000966072,-0.176214,0.023097,-0.306433,-0.933455
13.034620047,-0.176215,0.023095,-0.306374,-0.931902
13.067662001,-0.173047,0.040358,-0.302560,-0.871128
13.100934029,-0.164375,0.040227,-0.302589,-0.603825
13.134606123,-0.156731,0.056742,-0.312230,-0.430154
13.167510986,-0.156620,0.056987,-0.312373,-0.427625
13.200885057,-0.149439,0.072900,-0.308042,-0.037566
13.234437943,-0.136355,0.073319,-0.317591,0.402769
13.267308950,-0.136355,0.073319,-0.317591,0.402769
13.300848961,-0.124520,0.090095,-0.323098,0.871024
13.335010052,-0.117261,0.107816,-0.323992,1.119676
13.367818117,-0.123676,0.125611,-0.310980,1.348834
13.400848150,-0.123783,0.125891,-0.310770,1.352436
13.434329987,-0.103612,0.144726,-0.302441,1.696121
13.467514038,-0.098329,0.144748,-0.325442,1.808311
13.500947952,-0.094062,0.145120,-0.321173,1.939315
13.537169933,-0.094009,0.145125,-0.321116,1.940940
13.567564011,-0.091017,0.164066,-0.302811,2.025526
13.600933075,-0.071899,0.164989,-0.321630,1.915581
13.634784937,-0.071661,0.164999,-0.321865,1.914213
13.667573929,-0.057734,0.166563,-0.307758,1.956607
13.700819969,-0.054138,0.184588,-0.332027,1.966962
13.734225988,-0.054454,0.184466,-0.337061,2.083180
13.767506123,-0.049786,0.185014,-0.332394,2.095499
13.800850153,-0.049725,0.185021,-0.332332,2.095642
13.834412098,-0.045194,0.183307,-0.322653,2.020708
13.867511988,-0.039919,0.185466,-0.336946,2.007100
13.900968075,-0.035584,0.186369,-0.324570,1.971678
13.934189081,-0.029179,0.167835,-0.326661,1.986994
13.967561007,-0.029269,0.167795,-0.321988,2.039958
14.000905037,-0.025542,0.167823,-0.325864,2.112205
14.034057140,-0.025494,0.167823,-0.325915,2.113122
14.067579031,-0.019829,0.168348,-0.321938,2.064804
14.101192951,-0.012778,0.150770,-0.321290,1.571549
14.134329081,-0.007679,0.151014,-0.321150,1.407346
14.169713974,-0.007403,0.150817,-0.325794,1.329002
14.200839043,-0.002737,0.150998,-0.325881,1.329062
14.234329939,-0.007075,0.151032,-0.321354,1.278698
14.267496109,-0.007518,0.151418,-0.311809,1.363699
14.300915003,-0.007523,0.151422,-0.311692,1.364752
14.334686041,-0.007523,0.151422,-0.311692,1.364752
14.367586136,-0.007523,0.151422,-0.311692,1.364752
14.400928020,-0.007523,0.151422,-0.311692,1.364752
14.434180975,0.014845,0.153348,-0.283659,1.721480
14.467648983,0.015130,0.153375,-0.283302,1.726019
14.500935078,0.014699,0.170064,-0.283790,1.656181
14.534235954,0.019140,0.171516,-0.283828,1.728682
14.567505121,0.018704,0.189800,-0.298607,1.678106
14.601144075,0.018698,0.190034,-0.298797,1.677446
14.634170055,0.033744,0.171862,-0.293436,1.589015
14.667514086,0.033937,0.172055,-0.279245,1.582764
14.700916052,0.038818,0.172017,-0.283766,1.525334
14.734357119,0.047917,0.190695,-0.293869,1.521583
14.767522097,0.047502,0.209995,-0.285051,1.554025
14.800905943,0.047106,0.227276,-0.276795,1.558066
14.834286928,0.056862,0.211089,-0.270491,1.600862
14.867476940,0.066747,0.229652,-0.270845,1.483304
14.900852919,0.072036,0.230040,-0.261210,1.393438
14.936537027,0.071471,0.250003,-0.256621,1.492497
14.967528105,0.071463,0.250256,-0.256564,1.493766
15.000919104,0.085101,0.250469,-0.258691,1.583677
15.034767151,0.095080,0.250639,-0.261432,1.678541
15.067569017,0.105384,0.250476,-0.261469,1.571392
15.101845026,0.111152,0.250299,-0.251753,1.393106
15.138227940,0.116691,0.250038,-0.246802,1.242715
15.168061972,0.132951,0.268858,-0.232442,0.932166
15.200951099,0.141709,0.252612,-0.224077,0.735716
15.234826088,0.149421,0.247813,-0.236711,0.491529
15.267498970,0.155400,0.247050,-0.222262,0.250192
15.301012039,0.166268,0.245879,-0.217268,-0.019793
15.334483147,0.176917,0.244542,-0.217193,-0.298736
15.367989063,0.188071,0.242957,-0.217192,-0.605076
15.400799036,0.194971,0.241278,-0.217191,-0.996334
15.434195042,0.201555,0.239497,-0.217190,-1.397925
15.467495918,0.215060,0.217762,-0.197833,-1.592054
15.500874996,0.213476,0.198804,-0.192951,-1.602400
15.534146070,0.213454,0.198566,-0.192892,-1.602507
15.569893122,0.222407,0.198438,-0.207405,-1.413891
15.601338148,0.229105,0.180095,-0.193330,-1.133884
15.634459972,0.233115,0.180256,-0.183554,-0.863500
15.667654037,0.241997,0.180245,-0.188189,-0.670366
15.700889111,0.240323,0.164525,-0.184318,-0.563211
15.734117031,0.240301,0.164327,-0.184269,-0.561884
15.767537117,0.239354,0.162384,-0.159933,-0.319165
15.800707102,0.239350,0.162387,-0.159838,-0.318008
15.834121943,0.239069,0.162902,-0.164597,-0.216187
15.867497921,0.241450,0.146281,-0.174260,0.100620
15.900785923,0.240340,0.127716,-0.165364,-0.014233
15.934160948,0.240980,0.126240,-0.165249,-0.311567
15.967569113,0.240002,0.107105,-0.156371,-0.609606
16.001192093,0.240682,0.105290,-0.156258,-0.988184
16.034188986,0.241238,0.104009,-0.156258,-1.292757
16.067495108,0.241795,0.102578,-0.151663,-1.607708
16.100921154,0.242277,0.101565,-0.156201,-1.871725
16.135630131,0.243102,0.099188,-0.144023,-2.362854
16.167417049,0.243112,0.099159,-0.143872,-2.368896
16.200820923,0.244544,0.095356,-0.142419,-3.197829
16.234174013,0.249478,0.093766,-0.142302,-3.475098
16.267527103,0.249993,0.092430,-0.137694,-3.748990
16.300910950,0.254527,0.091913,-0.142254,-3.741478
16.334114075,0.254536,0.091860,-0.137718,-3.722949
16.367396116,0.254536,0.091859,-0.137661,-3.722719
16.402029991,0.256030,0.074943,-0.138091,-3.457360
16.434214115,0.257928,0.091485,-0.133612,-3.174991
16.467553139,0.257912,0.094102,-0.128434,-3.004463
16.500854969,0.257289,0.095249,-0.116504,-2.660222
16.534155130,0.257281,0.095263,-0.116350,-2.655784
16.567494154,0.261321,0.096294,-0.119086,-2.318460
16.600883961,0.273186,0.134414,-0.122468,-1.496762
16.634196997,0.272231,0.136117,-0.101670,-1.060388
16.667443037,0.272217,0.136132,-0.101400,-1.054874
16.700879097,0.269681,0.176532,-0.111523,-0.438881
16.734310150,0.269681,0.176532,-0.111523,-0.438881
16.767889023,0.280403,0.158942,-0.107767,0.083062
16.800871134,0.281886,0.178178,-0.106923,0.209609
16.834667921,0.286279,0.177733,-0.102546,0.196504
16.867727995,0.286384,0.177717,-0.102441,0.196155
16.900933981,0.288021,0.196132,-0.086935,0.294032
16.934196949,0.288097,0.196585,-0.091337,0.285385
16.967489004,0.295085,0.214992,-0.110004,0.166469
17.002349138,0.298058,0.232838,-0.095132,-0.092695
17.034215927,0.299342,0.231600,-0.094840,-0.400054
17.067978144,0.304321,0.229535,-0.081875,-0.588427
17.101244926,0.312293,0.246616,-0.074638,-0.756937
17.134300947,0.312761,0.246783,-0.064637,-0.798865
17.167499065,0.312765,0.246782,-0.064512,-0.799368
17.200829029,0.322591,0.245162,-0.059840,-0.835352
17.235233068,0.326925,0.245037,-0.059692,-0.755290
17.267497063,0.332016,0.243950,-0.054877,-0.789269
17.300806999,0.338667,0.261186,-0.058182,-0.796602
17.334129095,0.343940,0.262901,-0.053757,-0.723383
17.367671967,0.344152,0.262390,-0.048846,-0.762561
17.400857925,0.344561,0.260768,-0.034193,-0.878304
17.434458971,0.346144,0.244315,-0.039239,-0.793699
17.467522144,0.346672,0.281031,-0.037621,-0.777514
17.500909090,0.348762,0.261610,-0.038912,-0.728044
17.534183025,0.349854,0.280209,-0.028737,-0.485632
17.567765951,0.349578,0.282902,-0.032120,-0.378120
17.600863934,0.347120,0.262323,-0.019380,-0.391933
17.634542942,0.350169,0.280350,-0.012894,-0.538225
17.667436123,0.350169,0.280350,-0.012894,-0.538225
17.700844049,0.356666,0.278621,-0.022456,-0.871169
17.734138966,0.356936,0.277658,-0.012951,-0.913337
17.767414093,0.352655,0.277589,-0.012812,-1.027790
17.800750971,0.352603,0.277588,-0.012811,-1.029180
17.834068060,0.353182,0.276419,-0.007999,-1.161086
17.867414951,0.349498,0.275528,-0.007809,-1.414621
17.900753975,0.345920,0.275113,-0.007771,-1.583981
17.934281111,0.339337,0.272350,-0.003467,-2.223218
17.969151020,0.331837,0.271572,0.001440,-2.515863
18.000999928,0.327364,0.268997,0.016079,-2.921242
18.034534931,0.324401,0.268566,0.009023,-3.222929
18.067729950,0.319016,0.288164,0.014090,-3.621446
18.100865126,0.311459,0.267561,0.017358,-3.778064
18.134232044,0.304034,0.267309,0.021548,-3.953024
18.167454004,0.293023,0.251963,0.024977,-4.155382
18.200875998,0.280949,0.249106,0.025760,-4.241703
18.234044075,0.280799,0.249073,0.025769,-4.242756
18.267478943,0.255062,0.254006,0.030920,-3.918724
18.300740957,0.254870,0.253852,0.030867,-3.915882
18.334177017,0.235215,0.259238,0.040464,-3.596780
18.367442131,0.216642,0.238935,0.043873,-3.584404
18.401685953,0.209493,0.239632,0.043954,-3.552244
18.434184074,0.191417,0.242075,0.048693,-3.281966
18.467560053,0.175344,0.244288,0.049000,-3.083697
18.500853062,0.158124,0.226118,0.051904,-2.925265
18.534127951,0.157907,0.225886,0.051941,-2.923278
18.567651033,0.138129,0.228020,0.056848,-2.496519
18.600841045,0.127429,0.213258,0.062631,-2.304029
18.634300947,0.111154,0.209140,0.068802,-2.176777
18.667629004,0.098840,0.190177,0.076673,-2.115042
18.700830936,0.092754,0.173222,0.060696,-2.037447
18.734188080,0.083617,0.173102,0.064877,-1.964696
18.767528057,0.068217,0.154484,0.067860,-2.070780
18.800894976,0.068020,0.154245,0.067897,-2.072153
18.834126949,0.068020,0.154245,0.067897,-2.072153
18.867422104,0.062518,0.118814,0.059325,-2.437616
18.900926113,0.052844,0.101185,0.057388,-2.647686
18.934253931,0.052787,0.101187,0.057388,-2.648817
18.967499971,0.042434,0.065856,0.062620,-3.053184
19.000966072,0.041635,0.049861,0.060912,-3.253047
19.034214973,0.040011,0.019784,0.061297,-3.432703
19.067471027,0.039989,0.019411,0.061302,-3.434916
19.101114035,0.038612,-0.003650,0.076918,-3.688780
19.134348154,0.038595,-0.003907,0.077144,-3.690086
19.167755127,0.037433,-0.022310,0.088116,-3.646646
19.201009989,0.037431,-0.022342,0.088135,-3.646643
19.234436035,0.037431,-0.022342,0.088135,-3.646643
19.267441034,0.039833,-0.054895,0.092600,-3.478416
19.300771952,0.039863,-0.055287,0.092654,-3.476392
19.334182978,0.052986,-0.055787,0.092725,-3.308568
19.367469072,0.053160,-0.055378,0.088652,-3.223342
19.400778055,0.053161,-0.055372,0.088612,-3.222492
19.434178114,0.065229,-0.070713,0.086482,-3.096341
19.467389107,0.065315,-0.070896,0.086427,-3.095378
19.500919104,0.065528,-0.070700,0.086427,-2.923382
19.534125090,0.066146,-0.071178,0.094929,-2.370517
19.567382097,0.066151,-0.071173,0.094929,-2.366985
19.604043961,0.074905,-0.084329,0.084797,-1.529941
19.634691000,0.075252,-0.084269,0.084493,-1.504790
19.667361021,0.075257,-0.084268,0.084488,-1.504448
19.700731993,0.075257,-0.084268,0.084488,-1.504448
19.734246969,0.075257,-0.084268,0.084488,-1.504448
19.767508984,0.066112,-0.053870,0.105087,1.079009
19.800876141,0.062299,-0.067020,0.099258,1.565381
19.835047007,0.062299,-0.067020,0.099258,1.565381
19.867474079,0.059035,-0.055539,0.107782,2.107465
19.900766134,0.054885,-0.070015,0.124606,2.532321
19.934194088,0.050225,-0.051987,0.105480,2.947756
19.967643023,0.050224,-0.051982,0.105475,2.947830
20.000733137,0.050224,-0.051982,0.105475,2.947830
20.034246922,0.027342,-0.070557,0.121985,3.329460
20.067408085,0.027256,-0.070551,0.121902,3.328458
20.101031065,0.016548,-0.070265,0.116031,2.938690
20.134248972,0.004209,-0.045061,0.109245,2.773102
20.167711973,-0.005975,-0.054929,0.109564,2.542032
20.200784922,-0.007373,-0.044615,0.121814,2.372111
20.235315084,-0.006727,-0.055733,0.109854,2.324081
20.267490149,-0.015287,-0.056440,0.109646,2.312413
20.300898075,-0.028277,-0.030914,0.116987,2.293903
20.334244967,-0.033813,-0.027132,0.121565,2.427825
20.367496967,-0.033877,-0.027091,0.121618,2.429422
20.400947094,-0.039267,-0.025057,0.101239,2.940915
20.434175014,-0.045667,-0.015454,0.105115,3.174587
20.467389107,-0.045746,-0.015337,0.105166,3.177441
20.500819921,-0.049318,-0.010541,0.108843,3.845504
20.534353971,-0.052999,-0.012510,0.118999,4.023804
20.567791939,-0.053751,-0.010509,0.103383,4.089340
20.600780010,-0.053761,-0.010479,0.103147,4.090286
20.637239933,-0.053616,-0.011438,0.107458,4.501527
20.667515993,-0.053615,-0.011447,0.107508,4.504512
20.700729132,-0.049471,-0.009956,0.099103,4.645371
20.734786987,-0.050767,0.002047,0.104854,4.712614
20.767758131,-0.051090,0.004443,0.109607,4.890214
20.800840139,-0.046744,0.004915,0.109691,5.005941
20.834201097,-0.038921,0.004814,0.117284,5.023855
20.867430925,-0.033154,0.004119,0.127188,5.010745
20.900938988,-0.027747,-0.008097,0.117686,4.859691
20.934160948,-0.018458,-0.007595,0.107779,4.673415
20.967409134,-0.018346,-0.007587,0.107661,4.671188
21.001034975,-0.005141,-0.006802,0.112127,4.476285
21.034260035,-0.005075,-0.006786,0.112060,4.473500
21.067578077,-0.005075,-0.006786,0.112060,4.473500
21.100958109,0.020075,-0.021567,0.121729,3.894501
21.134223938,0.022767,-0.023166,0.122764,3.871442
21.167371035,0.022791,-0.023179,0.122773,3.871288
21.200819969,0.051917,-0.023620,0.122997,3.079202
21.234266996,0.057022,-0.019263,0.102761,2.678014
21.267358065,0.057083,-0.019213,0.102514,2.673160
21.300750971,0.069165,-0.033296,0.103041,2.347335
21.334213972,0.079036,-0.035148,0.094797,1.512869
21.367579937,0.079134,-0.035146,0.094695,1.503803
21.400838137,0.087313,-0.051672,0.092622,0.886023
21.434314013,0.090629,-0.052437,0.092584,0.548037
21.467700005,0.098901,-0.069365,0.110319,0.296463
21.500910997,0.106506,-0.081172,0.092176,0.230223
21.534126997,0.107633,-0.086138,0.110720,0.186003
21.567805052,0.107656,-0.086570,0.113863,0.199274
21.600691080,0.107656,-0.086574,0.113898,0.199440
21.634222984,0.106554,-0.098668,0.107970,0.230844
21.667936087,0.106581,-0.098799,0.108102,0.231410
21.700824976,0.103278,-0.099815,0.095103,0.308039
21.734323025,0.100041,-0.099454,0.094951,0.459723
21.767549038,0.091006,-0.098170,0.086795,0.492373
21.800776005,0.090917,-0.098157,0.086715,0.492673
21.834358931,0.086384,-0.101081,0.107583,0.397746
21.867491007,0.086339,-0.101076,0.107540,0.397014
21.900990009,0.073483,-0.101654,0.111656,0.296885
21.934302092,0.073385,-0.101671,0.111747,0.293269
21.967512131,0.073384,-0.101671,0.111747,0.293236
22.002638102,0.060359,-0.083666,0.097190,0.063476
22.034284115,0.060352,-0.083656,0.097182,0.063377
22.067511082,0.047612,-0.069515,0.103434,-0.165982
22.100887060,0.039872,-0.069468,0.103443,-0.172606
22.134315968,0.038471,-0.068079,0.092527,-0.290933
22.167480946,0.038454,-0.068062,0.092388,-0.292439
22.200819016,0.029902,-0.053917,0.096781,-0.430432
22.234292030,0.033240,-0.051801,0.082822,-0.484121
22.267662048,0.034109,-0.051343,0.079843,-0.359820
22.300823927,0.030263,-0.036084,0.077656,-0.159690
22.334130049,0.030208,-0.035872,0.077626,-0.156934
22.367504120,0.029914,-0.006041,0.096504,0.165958
22.400782108,0.029903,-0.003522,0.094680,0.270197
22.434193134,0.033677,-0.002882,0.090945,0.449222
22.467446089,0.033713,-0.002876,0.090908,0.450952
22.500978947,0.034200,0.008661,0.091725,0.666586
22.534065962,0.034197,0.008840,0.091747,0.669761
22.567618132,0.041508,0.028479,0.090340,0.968743
22.600852013,0.042726,0.046445,0.091935,1.208846
22.634369135,0.059371,0.083772,0.078450,1.409845
22.667526007,0.058941,0.099707,0.088232,1.702139
22.700933933,0.058867,0.101536,0.089445,1.722368
22.734130144,0.081048,0.103294,0.080511,1.929429
22.767368078,0.081315,0.103316,0.080403,1.931924
22.800719023,0.085729,0.104164,0.075921,2.100732
22.834296942,0.094503,0.104397,0.075660,2.146496
22.867406130,0.094552,0.104398,0.075659,2.146751
22.901005983,0.109226,0.103302,0.084747,2.049578
22.934080124,0.109250,0.103298,0.084769,2.049164
22.967668056,0.132403,0.105324,0.062262,1.790465
23.000790119,0.137096,0.105176,0.061761,1.719872
23.034060955,0.137148,0.105174,0.061758,1.719071
23.067677021,0.138027,0.103648,0.070819,1.509609
23.100929976,0.147186,0.102756,0.075639,1.436147
23.134454012,0.147429,0.102744,0.075462,1.424939
23.167454958,0.147432,0.102744,0.075458,1.424742
23.201776028,0.161032,0.084843,0.064459,1.162286
23.234686136,0.161268,0.084872,0.064220,1.165629
23.267473936,0.161187,0.084973,0.064699,1.221311
23.300915956,0.160958,0.084966,0.068414,1.367783
23.334690094,0.156458,0.071640,0.063301,1.567391
23.367696047,0.155513,0.069235,0.066389,1.737068
23.401005030,0.152118,0.067668,0.080140,1.742780
23.434256077,0.147000,0.055742,0.072805,1.932419
23.467498064,0.146942,0.055603,0.072718,1.934624
23.500868082,0.136761,0.054125,0.061060,2.220980
23.534198046,0.136615,0.054197,0.060546,2.226339
23.567692041,0.132105,0.035040,0.080664,2.267831
23.600763083,0.132049,0.034802,0.080913,2.268345
23.634315968,0.118530,0.036919,0.063186,2.303633
23.667357922,0.118530,0.036919,0.063186,2.303633
23.700881004,0.092402,0.035855,0.068859,2.252404
23.734267950,0.087574,0.017571,0.082792,2.175611
23.767383099,0.087500,0.017281,0.083016,2.174414
23.801197052,0.087390,0.016777,0.083431,2.174184
23.835335016,0.087390,0.016777,0.083431,2.174184
23.868230104,0.065647,0.015677,0.083472,1.647151
23.900923967,0.052660,-0.015915,0.070895,1.610030
23.934217930,0.048835,-0.017067,0.054582,1.591402
23.967540026,0.048788,-0.017077,0.054375,1.591168
24.000844955,0.040194,-0.048938,0.071222,1.622174
24.034218073,0.029241,-0.048556,0.064758,1.521241
24.067429066,0.027039,-0.048373,0.062647,1.516264
24.100898981,0.018429,-0.048663,0.062615,1.529723
24.134221077,0.019429,-0.063772,0.063884,1.471513
24.167454958,0.015779,-0.063562,0.059482,1.312851
24.201403141,0.014216,-0.063296,0.056626,1.228575
24.234199047,0.014360,-0.079052,0.063254,0.971962
24.267327070,0.014362,-0.079249,0.063338,0.968770
24.300909996,0.014029,-0.093688,0.061614,0.759755
24.334167004,0.014389,-0.095178,0.061436,0.713364
24.367470026,0.014393,-0.095194,0.061434,0.712798
24.400774002,0.014393,-0.095194,0.061434,0.712798
24.434150934,0.026357,-0.094411,0.053163,0.304803
24.467643976,0.034571,-0.106119,0.040110,0.448503
24.500844002,0.035419,-0.107407,0.038726,0.452942
24.534282923,0.043808,-0.106855,0.036376,0.777488
24.567408085,0.043911,-0.106848,0.036347,0.781469
24.601345062,0.053429,-0.090991,0.031931,1.185693
24.635977030,0.058435,-0.090773,0.036184,1.610243
24.667460918,0.058659,-0.075557,0.037737,1.980083
24.700783014,0.058666,-0.074468,0.037851,2.008081
24.734126091,0.058666,-0.074457,0.037852,2.008362
24.767491102,0.076978,-0.071435,0.029315,3.296868
24.800902128,0.077508,-0.071369,0.029313,3.323322
24.835191965,0.082151,-0.070221,0.025149,3.699009
24.867649078,0.078609,-0.060500,0.039032,3.755682
24.900828123,0.077366,-0.057311,0.043682,3.747952
24.934149027,0.081415,-0.057040,0.040996,3.553642
24.967414141,0.081305,-0.055665,0.026758,3.456169
25.000855923,0.081303,-0.055648,0.026577,3.454963
25.034322977,0.081303,-0.055648,0.026577,3.454963
25.067525148,0.080922,-0.058619,0.047975,2.980783
25.100974083,0.080701,-0.058926,0.048008,2.765669
25.134293079,0.080109,-0.057393,0.026919,2.242427
25.167392015,0.080099,-0.057368,0.026577,2.233999
25.202548981,0.079730,-0.060213,0.047808,1.831755
25.234265089,0.082705,-0.059072,0.029348,1.210485
25.267692089,0.083317,-0.058874,0.026605,1.143463
25.300822973,0.078532,-0.074690,0.029281,0.716107
25.334130049,0.079862,-0.074997,0.027642,0.481214
25.367486954,0.079875,-0.074998,0.027626,0.478988
25.400814056,0.077380,-0.092794,0.040200,0.068606
25.434204102,0.077072,-0.093244,0.040325,-0.119091
25.467602015,0.080975,-0.091853,0.023623,-0.336130
25.500924110,0.080670,-0.093887,0.040114,-0.530942
25.534145117,0.080666,-0.093912,0.040317,-0.533278
25.567647934,0.085267,-0.091549,0.019181,-0.363783
25.600950956,0.087181,-0.096981,0.021195,-0.079959
25.634079933,0.089727,-0.105940,0.017680,-0.021983
25.667537928,0.089777,-0.107742,0.034297,0.010140
25.700881958,0.089778,-0.107758,0.034454,0.010436
25.734117031,0.098613,-0.106658,0.025933,0.238510
25.767441034,0.103109,-0.104922,0.009379,0.328678
25.800715923,0.103161,-0.104901,0.009184,0.329706
25.834259033,0.107973,-0.107694,0.008456,0.276317
25.867469072,0.107295,-0.105154,0.009159,0.263643
25.900763035,0.114968,-0.119031,0.003669,0.106903
25.934219122,0.127008,-0.120582,0.007700,-0.150024
25.967433929,0.127151,-0.120599,0.007748,-0.153071
26.000894070,0.134326,-0.122601,0.011844,-0.678984
26.034116983,0.134424,-0.122630,0.011899,-0.686118
26.067532063,0.145955,-0.125139,0.019929,-1.144144
26.100883007,0.145515,-0.125542,0.016072,-1.378805
26.134192944,0.150461,-0.110982,0.000761,-1.557674
26.167437077,0.150524,-0.110799,0.000569,-1.559886
26.200843096,0.166371,-0.112489,0.004644,-1.565070
26.234187126,0.168555,-0.098653,0.002125,-1.568696
26.267645121,0.168682,-0.097324,0.001880,-1.567426
26.300796032,0.168821,-0.097070,0.001877,-1.486022
26.334134102,0.171592,-0.114136,0.021251,-1.481511
26.367568016,0.171592,-0.114400,0.021492,-1.498616
26.400856018,0.173179,-0.097765,0.006300,-1.392075
26.434108973,0.173518,-0.096971,0.006093,-1.203274
26.467479944,0.173455,-0.098868,0.027005,-1.142147
26.500718117,0.173297,-0.099166,0.027252,-1.232372
26.534119129,0.170457,-0.080845,0.003643,-1.294472
26.567371130,0.170424,-0.080628,0.003364,-1.295195
26.601231098,0.166377,-0.079932,0.003386,-1.170745
26.634899139,0.160084,-0.049952,0.006161,-1.117325
26.667727947,0.155677,-0.049359,0.010500,-1.083743
26.701050043,0.150246,-0.065027,0.021909,-1.079959
26.734255075,0.146825,-0.050434,0.023550,-1.151726
26.768146992,0.138344,-0.048392,0.010889,-1.137176
26.801324129,0.133876,-0.048169,0.010657,-1.169199
26.834106922,0.133802,-0.048166,0.010658,-1.169755
26.867437124,0.133802,-0.048166,0.010658,-1.169755
26.901024103,0.112210,-0.048629,0.027823,-1.162066
26.934107065,0.108464,-0.031545,0.016754,-1.228597
26.967504025,0.108423,-0.031342,0.016620,-1.229387
27.000735044,0.108334,-0.030975,0.007903,-1.473931
27.034101963,0.090763,-0.031167,0.016716,-1.633880
27.067572117,0.087040,-0.015807,0.022534,-1.735252
27.100877047,0.087814,0.001931,0.011370,-1.972795
27.134143114,0.083484,0.001520,0.019769,-2.023098
27.168303013,0.083431,0.001512,0.019873,-2.023674
27.200883150,0.079857,0.018965,0.008073,-1.983171
27.234199047,0.079857,0.018964,0.008073,-1.983361
27.267562151,0.071006,0.020118,-0.000777,-2.046062
27.301025152,0.070938,0.018767,0.012310,-2.182721
27.334115028,0.071753,0.035964,0.009669,-2.097110
27.367614031,0.071678,0.036779,0.005201,-1.933017
27.400762081,0.071677,0.036787,0.005146,-1.930976
27.434215069,0.071457,0.038050,-0.003726,-1.542457
27.467515945,0.071704,0.054089,0.011008,-1.150112
27.501101971,0.071980,0.071264,0.012715,-0.926984
27.534187078,0.071983,0.071478,0.012734,-0.924223
27.567575932,0.071983,0.071478,0.012734,-0.924223
27.601288080,0.076007,0.090036,0.005016,-0.219096
27.634119034,0.076005,0.090030,0.005109,-0.217652
27.668385983,0.070959,0.091282,-0.003935,0.101116
27.700900078,0.070887,0.091299,-0.004064,0.105678
27.734236002,0.074621,0.091539,0.000465,0.623176
27.767364979,0.074667,0.091542,0.000521,0.629570
27.800943136,0.069955,0.092062,-0.003995,0.731767
27.834208965,0.069883,0.092070,-0.004064,0.733328
27.867471933,0.070572,0.090553,0.009719,0.298800
27.901026011,0.070574,0.090339,0.009700,0.296180
27.934862137,0.066763,0.108276,0.006693,-0.074939
27.967517138,0.066766,0.108275,0.006693,-0.076373
28.000702143,0.066766,0.108275,0.006693,-0.076373
28.034147024,0.057421,0.107851,0.011304,-0.009142
28.067506075,0.057315,0.108036,0.011320,-0.000192
28.100861073,0.052810,0.090658,0.005206,-0.111672
28.134212017,0.048141,0.073668,0.003658,-0.150918
28.167797089,0.043593,0.072694,0.012648,-0.179251
28.200945139,0.034484,0.055997,0.011221,-0.184849
28.234264135,0.034484,0.055997,0.011221,-0.184849
28.267565012,0.030022,0.038528,0.014211,-0.388335
28.300748110,0.029966,0.038325,0.014137,-0.389398
28.334257126,0.016669,0.020886,0.016954,-0.713063
28.367624998,0.007759,0.037582,0.018581,-0.804581
28.400799036,0.003252,0.021085,0.017003,-0.922614
28.434111118,0.003194,0.020868,0.016982,-0.924136
28.467389107,0.003194,0.020868,0.016982,-0.924136
28.500904083,-0.023391,0.005845,0.006529,-0.946572
28.534058094,-0.023554,0.005643,0.006565,-0.945438
28.567407131,-0.023554,0.005643,0.006565,-0.945438
28.601268053,-0.046235,0.020822,0.008054,-0.431281
28.634232998,-0.050275,0.004398,0.010870,-0.230036
28.667639017,-0.050325,0.004182,0.010908,-0.227446
28.702893972,-0.068661,0.019513,0.003541,0.171417
28.734308958,-0.077810,0.017638,0.016531,0.517955
28.767538071,-0.091382,0.017566,0.003455,0.803271
28.800908089,-0.095832,0.014860,0.025260,1.005052
28.834202051,-0.104759,0.013818,0.025477,1.191702
28.867563963,-0.109436,0.014149,0.012253,1.487257
28.900795937,-0.119960,0.030139,0.009201,1.639395
28.934085131,-0.120065,0.030299,0.009172,1.640887
28.967453957,-0.124473,0.026581,0.031483,2.081389
29.000802040,-0.124549,0.026769,0.031503,2.084303
29.034104109,-0.135533,0.041228,0.033104,2.511991
29.067440987,-0.135634,0.041619,0.033144,2.514025
29.100882053,-0.129406,0.024328,0.031472,2.958273
29.134572029,-0.125113,0.024437,0.031503,3.150147
29.167443037,-0.118604,0.008218,0.029849,3.236773
29.200748920,-0.118526,0.008022,0.029829,3.237773
29.234260082,-0.110520,0.011243,0.004927,3.311195
29.267478943,-0.105636,0.011646,0.003272,3.499874
29.300867081,-0.105571,0.011651,0.003253,3.502423
29.334054947,-0.105571,0.011651,0.003253,3.502423
29.368129015,-0.087861,0.013656,0.003344,3.561388
29.400996923,-0.083397,0.014297,0.003365,3.471079
29.434211016,-0.065705,0.016851,-0.000963,3.249662
29.467489958,-0.065496,0.016881,-0.001015,3.247055
29.500873089,-0.047773,0.018331,0.003450,3.088125
29.534141064,-0.047557,0.018348,0.003505,3.086189
29.567569017,-0.047557,0.018348,0.003505,3.086189
29.600992918,-0.019769,0.004613,0.006538,2.757644
29.634082079,-0.019769,0.004613,0.006538,2.757644
29.667510033,-0.002768,0.021773,0.003649,2.354982
29.700850964,0.011622,0.006905,0.002218,1.806887
29.734730005,0.024973,0.006331,0.010895,1.530606
29.767776012,0.025228,0.006322,0.011064,1.525380
29.800899029,0.025228,0.006322,0.011064,1.525380
29.834136009,0.051772,0.022486,0.003733,0.312880
29.867532015,0.052107,0.022680,0.003642,0.297786
29.900874138,0.070121,0.021290,0.008028,-0.461340
29.934488058,0.079372,0.020941,0.003669,-0.850996
29.967646122,0.083958,0.020206,0.003609,-1.259072
30.000895023,0.088590,0.018310,0.016798,-1.575204
30.035233021,0.087953,0.003420,0.006872,-1.696366
30.068052053,0.096737,0.016690,0.003909,-1.977533
30.101709127,0.101253,0.002239,0.002173,-2.101132
30.134171009,0.101295,0.001867,0.006521,-1.955991
30.167432070,0.101295,0.001865,0.006571,-1.954308
30.200935125,0.113503,-0.015673,0.004987,-1.859657
30.234213114,0.109268,-0.014798,0.004999,-1.543170
30.267581940,0.109221,-0.014789,0.004999,-1.539681
30.300931931,0.113741,-0.014236,0.004987,-1.133756
30.334298134,0.109387,-0.013900,0.004999,-1.072695
30.367613077,0.105752,0.003855,0.002168,-0.834008
30.401906967,0.096411,-0.012254,0.004955,-0.716818
30.434281111,0.096161,-0.012695,0.005032,-0.713732
30.467446089,0.096161,-0.012695,0.005032,-0.713732
30.501351118,0.092359,0.004718,0.002309,-0.884299
30.534336090,0.087968,0.004328,0.002172,-1.104621
30.567543983,0.083512,0.004169,0.002180,-1.331939
30.601109028,0.075397,0.019767,0.003604,-1.695990
30.634230137,0.075297,0.019964,0.003622,-1.700548
30.667541981,0.075734,0.018457,0.003622,-2.841488
30.700917959,0.068246,0.035370,0.000691,-3.479614
30.734137058,0.068168,0.035552,0.000659,-3.486382
30.767578125,0.069044,0.033343,0.005150,-4.999976
30.801021099,0.064980,0.033033,0.005154,-5.656941
30.834245920,0.065260,0.031370,0.014031,-6.414555
30.867432117,0.065264,0.031352,0.014130,-6.422868
30.900736094,0.061185,0.032124,0.005158,-6.972069
30.934095144,0.059463,0.049212,0.002155,-7.632391
30.967507124,0.052791,0.032829,0.000670,-7.881165
31.000935078,0.062022,0.063168,0.026116,-8.163853
31.034192085,0.057687,0.064883,0.017397,-8.119601
31.067552090,0.057640,0.064900,0.017301,-8.119114
31.100940943,0.048197,0.066496,0.017410,-7.756050
31.134527922,0.051534,0.031697,0.042427,-12.774133
31.167516947,0.059253,-0.002756,0.075818,-16.881327
31.201056957,0.063150,-0.035408,0.104002,-21.140556
31.234319925,0.060001,-0.064560,0.119047,-24.872791
31.267410994,0.059961,-0.064946,0.119241,-24.921890
31.300889969,0.066392,-0.076255,0.132840,-28.142471
31.334123135,0.076854,-0.131365,0.185237,-33.770557
31.367542982,0.077002,-0.131627,0.185364,-33.795269
31.400804043,0.090350,-0.180536,0.224165,-38.345348
31.434216022,0.095870,-0.184283,0.240487,-39.538651
31.467587948,0.096329,-0.186569,0.242219,-40.721329
31.500919104,0.105359,-0.187632,0.247600,-41.961887
31.534409046,0.125779,-0.202512,0.255579,-42.294109
31.567470074,0.130625,-0.207338,0.269781,-43.307301
31.601004124,0.138440,-0.223662,0.285427,-46.265965
31.634205103,0.138911,-0.218738,0.264861,-44.657787
31.667532921,0.150573,-0.236466,0.279906,-47.690414
31.700896978,0.153030,-0.210037,0.246461,-43.716331
31.734121084,0.153029,-0.209754,0.246085,-43.671070
31.767537117,0.160545,-0.200180,0.234498,-43.538139
31.800954103,0.186913,-0.228127,0.262094,-49.051640
31.834198952,0.199576,-0.241549,0.275347,-51.699608
31.867546082,0.211859,-0.254568,0.288202,-54.268135
31.900913000,0.223774,-0.267197,0.300672,-56.759609
31.934185982,0.235332,-0.279447,0.312768,-59.176338
31.967641115,0.246543,-0.291329,0.324501,-61.520565
32.000885963,0.257417,-0.302855,0.335882,-63.794464
32.034245968,0.168720,-0.154530,0.118267,-41.796814
32.067875147,0.180975,-0.159133,0.126433,-43.667236
32.100847960,0.194366,-0.164596,0.136820,-45.742565
32.134258032,0.138739,-0.123148,0.072423,-41.130642
32.167701960,0.151017,-0.126350,0.081339,-43.007099
32.201102018,0.163737,-0.129876,0.090819,-44.901196
32.234200001,0.132458,-0.086064,0.012527,-37.209602
32.267508030,0.100308,-0.075683,0.004714,-36.222561
32.301062107,0.087285,-0.074221,-0.012639,-36.239140
32.334173918,0.080736,-0.065120,-0.035602,-33.874428
32.367919922,0.091862,-0.064520,-0.027795,-35.457729
32.400824070,0.102845,-0.064021,-0.019899,-37.035458
32.434354067,0.043748,-0.044121,-0.057175,-29.973120
32.467489958,0.028105,-0.030679,-0.065416,-28.552975
32.500930071,0.036782,-0.027845,-0.058819,-29.931078
32.534240007,0.046210,-0.025461,-0.051833,-31.327450
32.567477942,0.055365,-0.023151,-0.045052,-32.682301
32.601047039,0.064245,-0.020910,-0.038475,-33.996502
32.634220123,0.072858,-0.018736,-0.032095,-35.271278
32.667480946,0.081213,-0.016628,-0.025906,-36.507812
32.701029062,-0.027178,-0.009873,-0.061182,-21.566793
32.734249115,-0.028741,-0.010234,-0.061700,-21.348349
32.767540932,-0.080171,-0.015411,-0.053967,-18.615347
32.800971031,-0.074365,-0.010979,-0.048476,-19.688833
32.834365129,-0.068346,-0.006675,-0.043161,-20.750687
32.867656946,-0.062507,-0.002500,-0.038006,-21.780685
32.900819063,-0.056843,0.001550,-0.033006,-22.779783
32.934126139,-0.056782,0.001594,-0.032951,-22.790632
32.967595100,-0.111106,-0.020556,-0.039803,-15.431315
33.000854969,-0.106626,-0.016089,-0.035246,-16.341555
33.034251928,-0.172825,-0.039402,-0.028771,-14.503673
33.068195105,-0.146107,-0.012541,-0.019459,-14.126577
33.100841045,-0.172267,-0.027399,-0.020338,-13.878152
33.134160042,-0.172552,-0.027571,-0.020350,-13.875223
33.167410135,-0.168923,-0.023265,-0.016306,-14.683288
33.201107979,-0.178780,-0.004904,-0.008887,-13.171312
33.234141111,-0.178599,-0.004469,-0.008788,-13.166914
33.267769098,-0.172510,0.003635,-0.001555,-14.609189
33.300840139,-0.169598,0.007490,0.001915,-15.302405
33.334181070,-0.166774,0.011229,0.005280,-15.974826
33.367543936,-0.164034,0.014856,0.008545,-16.627073
33.400995970,-0.161377,0.018374,0.011711,-17.259754
33.434303045,-0.158799,0.021787,0.014783,-17.873453
33.467518091,-0.156299,0.025097,0.017762,-18.468742
33.501065969,-0.153873,0.028308,0.020652,-19.046171
33.534327030,-0.153847,0.028343,0.020684,-19.052483
33.567494154,-0.149239,0.034444,0.026175,-20.149584
33.600831032,-0.247397,-0.001974,0.024377,-11.376099
33.634258986,-0.246814,0.000562,0.026886,-11.783435
33.667567015,-0.245209,0.003623,0.029368,-12.279294
33.700875044,-0.243653,0.006591,0.031775,-12.760277
33.734378099,-0.242144,0.009471,0.034110,-13.226830
33.767637968,-0.240680,0.012264,0.036375,-13.679387
33.800753117,-0.240660,0.012303,0.036407,-13.685625
33.834192038,-0.239245,0.015002,0.038595,-14.122881
33.867584944,-0.237867,0.017631,0.040727,-14.548810
33.901019096,-0.235250,0.022624,0.044776,-15.357861
33.934263945,-0.233993,0.025023,0.046721,-15.746487
33.967669964,-0.232773,0.027350,0.048608,-16.123453
34.000756979,-0.232759,0.027377,0.048630,-16.127836
34.034296036,-0.336522,-0.078954,0.035438,-7.076860
34.067903996,-0.335786,-0.076672,0.037160,-7.420908
34.100969076,-0.335071,-0.074459,0.038830,-7.754634
34.134230137,-0.334378,-0.072312,0.040450,-8.078349
34.167694092,-0.333706,-0.070230,0.042022,-8.392352
34.200917959,-0.333053,-0.068210,0.043546,-8.696935
34.234342098,-0.333047,-0.068189,0.043562,-8.700071
34.267439127,-0.344195,-0.184639,0.034887,-1.473171
34.301046133,-0.343846,-0.184064,0.036152,-1.666420
34.334242105,-0.343520,-0.182213,0.037502,-1.936066
34.367439032,-0.343203,-0.180418,0.038811,-2.197621
34.400967121,-0.325764,-0.336962,0.021901,1.992936
34.434132099,-0.325277,-0.337034,0.022927,1.797041
34.467574120,-0.325117,-0.335378,0.024122,1.558326
34.501024008,-0.324962,-0.333772,0.025281,1.326773
34.534168959,-0.281776,-0.397735,0.020162,3.209153
34.567595959,-0.267742,-0.398955,0.014128,2.885381
34.601031065,-0.267504,-0.397508,0.015108,2.672634
34.634238958,-1.593157,0.408547,0.303083,2.550752
34.667505026,-1.607884,0.418889,0.307281,2.352837
34.700817108,-1.607804,0.420231,0.308246,2.159959
34.734302044,-1.607726,0.421532,0.309183,1.972868
34.767540932,-0.253330,-0.467841,0.018470,1.999312
34.801238060,-0.200329,-0.501108,0.008009,1.846073
34.835019112,-0.199684,-0.500296,0.008740,1.675630
34.867949009,-0.155756,-0.461655,0.009444,2.120412
34.900974989,-0.155008,-0.459928,0.010246,1.969553
34.934190035,-0.154959,-0.458843,0.011026,1.813712
34.967445135,-0.154959,-0.458831,0.011034,1.812106
35.000952005,-0.154866,-0.456769,0.012517,1.515913
35.034203053,-0.154822,-0.455779,0.013228,1.373681
35.069273949,-0.154821,-0.455769,0.013236,1.372229
35.100857973,-0.089897,-0.465089,0.001027,-0.790201
35.134958982,-0.089826,-0.464187,0.001677,-0.920013
35.167482138,-0.089825,-0.464173,0.001687,-0.922113
35.200859070,-0.089692,-0.462464,0.002918,-1.168070
35.234494925,-0.089691,-0.462455,0.002924,-1.169337
35.267516136,-0.048770,-0.519354,0.005188,-2.194711
35.300858974,-0.030619,-0.477582,0.020089,-3.011098
35.334155083,-0.021995,-0.480178,0.035266,-2.921690
35.367479086,-0.021903,-0.480211,0.035429,-2.920585
35.400814056,0.007099,-0.392498,0.049651,-2.829465
35.434162140,0.007099,-0.392490,0.049657,-2.830552
35.468164921,0.007228,-0.391149,0.050624,-3.023879
35.501279116,0.007289,-0.390505,0.051089,-3.116733
35.534207106,0.007349,-0.389880,0.051540,-3.206802
35.567986012,0.007407,-0.389274,0.051977,-3.294169
35.600811005,0.007464,-0.388686,0.052401,-3.378915
35.634211063,0.007518,-0.388116,0.052813,-3.461119
35.667495012,0.007571,-0.387563,0.053212,-3.540856
35.700757027,0.007572,-0.387557,0.053216,-3.541681
35.734190941,0.007672,-0.386506,0.053974,-3.693226
35.767524004,0.007673,-0.386500,0.053978,-3.694002
35.800971985,0.007767,-0.385511,0.054692,-3.836591
35.834157944,0.007813,-0.385036,0.055035,-3.905065
35.867639065,0.007857,-0.384575,0.055367,-3.971484
35.900990009,0.000815,-0.348290,0.096412,-6.500907
35.934453964,-0.014352,-0.386336,0.091513,-6.227313
35.967538118,-0.014453,-0.386329,0.091755,-6.283992
36.000760078,-0.014452,-0.386325,0.091758,-6.284643
36.034240007,-0.018153,-0.339204,0.097812,-5.354920
36.067530155,-0.024578,-0.336121,0.097903,-4.303442
36.100767136,-0.024649,-0.336090,0.097904,-4.291930
36.134833097,-0.030047,-0.333785,0.098323,-4.014570
36.167432070,-0.030062,-0.333777,0.098326,-4.014594
36.200930119,-0.058227,-0.326327,0.098374,-3.085522
36.234153986,-0.071769,-0.324006,0.105423,-2.914882
36.267619133,-0.071896,-0.323665,0.105729,-2.958610
36.300823927,-0.071875,-0.323354,0.105952,-3.003312
36.334397078,-0.090842,-0.318026,0.098947,-2.765514
36.367457151,-0.104701,-0.313704,0.091912,-2.797696
36.400886059,-0.104799,-0.313386,0.092055,-2.838439
36.434191942,-0.104782,-0.313111,0.092253,-2.878013
36.467576027,-0.104782,-0.313108,0.092255,-2.878442
36.500976086,-0.145491,-0.298727,0.071171,-4.190971
36.534829140,-0.146448,-0.298003,0.071276,-4.401215
36.567443132,-0.146441,-0.297753,0.071451,-4.438924
36.600764990,-0.146441,-0.297751,0.071453,-4.439202
36.634349108,-0.173315,-0.287127,0.064539,-5.780385
36.667407036,-0.173432,-0.287083,0.064538,-5.785198
36.700953007,-0.173385,-0.286650,0.064851,-5.847766
36.734630108,-0.184284,-0.280670,0.057951,-6.764141
36.767395020,-0.184375,-0.280618,0.057893,-6.771863
36.800820112,-0.172688,-0.198422,0.077160,-6.541920
36.834216118,-0.182709,-0.236795,0.064625,-6.214015
36.867630005,-0.182800,-0.237054,0.064614,-6.236705
36.901014090,-0.179328,-0.239498,0.064743,-5.432413
36.934194088,-0.179289,-0.239525,0.064744,-5.423438
36.967508078,-0.155463,-0.166351,0.070399,-4.546767
37.000781059,-0.155332,-0.165917,0.070399,-4.542317
37.034206152,-0.157945,-0.162493,0.070486,-3.539378
37.067604065,-0.153943,-0.124349,0.076393,-2.968220
37.102143049,-0.152237,-0.126949,0.083014,-2.128854
37.134194136,-0.157088,-0.127624,0.083364,-1.330537
37.167572021,-0.148487,-0.090455,0.082512,-0.891517
37.200917959,-0.148368,-0.089796,0.082597,-0.904793
37.234198093,-0.146921,-0.053869,0.088209,-0.152073
37.267380953,-0.146911,-0.053481,0.088270,-0.143948
37.301084995,-0.152887,-0.015946,0.093985,0.623309
37.334311008,-0.152889,-0.015825,0.094072,0.605921
37.367422104,-0.152889,-0.015824,0.094073,0.605744
37.400838137,-0.173086,0.019912,0.099510,2.202466
37.434057951,-0.173150,0.020223,0.099556,2.205259
37.467391968,-0.173155,0.020334,0.099636,2.189357
37.500694036,-0.173159,0.020441,0.099713,2.173971
37.534428120,-0.173167,0.020645,0.099859,2.144713
37.567562103,-0.180030,0.096463,0.097707,1.427344
37.600688934,-0.180096,0.097312,0.097683,1.419322
37.634485960,-0.180102,0.097498,0.097817,1.392626
37.667583942,-0.190257,0.139592,0.090697,0.414460
37.701200962,-0.190397,0.140298,0.090654,0.387858
37.734192133,-0.190397,0.140382,0.090714,0.375794
37.767467976,-0.190397,0.140383,0.090715,0.375671
37.801092148,-0.196806,0.121238,0.074261,-2.177196
37.834141970,-0.196923,0.120942,0.074001,-2.217183
37.867403984,-0.202410,0.122717,0.079005,-3.138478
37.900880098,-0.198537,0.129144,0.079184,-4.951976
37.935672998,-0.198504,0.129197,0.079185,-4.967027
37.967435122,-0.198330,0.129525,0.079235,-5.051570
38.000975132,-0.198319,0.129657,0.079331,-5.070672
38.034178972,-0.198313,0.129721,0.079376,-5.079844
38.067435026,-0.198313,0.129722,0.079377,-5.079941
38.100882053,-0.198303,0.129843,0.079464,-5.097370
38.134202957,-0.198299,0.129901,0.079506,-5.105741
38.167426109,-0.198299,0.129902,0.079506,-5.105826
38.200855017,-0.198289,0.130012,0.079586,-5.121737
38.237120152,-0.198285,0.130065,0.079624,-5.129376
38.267389059,-0.198285,0.130066,0.079625,-5.129464
38.300945044,-0.198277,0.130166,0.079697,-5.143975
38.334464073,-0.198273,0.130215,0.079732,-5.150948
38.367475986,-0.198273,0.130216,0.079733,-5.151038
38.401592970,-0.147176,0.008568,0.057513,-4.934285
38.434288979,-0.134796,0.001859,0.051601,-4.594303
38.467605114,-0.126542,-0.002966,0.063374,-4.244907
38.500842094,-0.115511,-0.043757,0.051304,-3.774859
38.534166098,-0.115391,-0.044191,0.051174,-3.769879
38.567657948,-0.091956,-0.090265,0.052138,-2.856621
38.600950956,-0.075893,-0.056693,0.051695,-2.631743
38.634180069,-0.068431,-0.057421,0.058255,-2.278558
38.667410135,-0.068350,-0.057433,0.058328,-2.274662
38.700957060,-0.054979,-0.060108,0.058532,-2.085726
38.734200954,-0.054978,-0.060075,0.058556,-2.090564
38.767521143,-0.054977,-0.060042,0.058580,-2.095256
38.801217079,-0.054976,-0.060010,0.058602,-2.099808
38.834172964,-0.054975,-0.059979,0.058624,-2.104224
38.867416143,-0.054974,-0.059950,0.058646,-2.108507
38.901428938,-0.054974,-0.059949,0.058646,-2.108550
38.934414148,-0.054973,-0.059893,0.058687,-2.116691
38.967456102,-0.054972,-0.059865,0.058706,-2.120600
39.001356125,-0.054971,-0.059839,0.058725,-2.124392
39.034196138,-0.054971,-0.059813,0.058744,-2.128070
39.067580938,-0.054970,-0.059789,0.058762,-2.131638
39.101706982,-0.054969,-0.059764,0.058779,-2.135098
39.134242058,-0.054968,-0.059741,0.058796,-2.138455
39.167470932,-0.054968,-0.059718,0.058812,-2.141711
39.200961113,-0.054967,-0.059696,0.058828,-2.144870
39.234251976,-0.054967,-0.059675,0.058843,-2.147933
39.267521143,-0.054967,-0.059675,0.058843,-2.147964
39.301466942,-0.054966,-0.059634,0.058873,-2.153787
39.334512949,-0.054965,-0.059615,0.058887,-2.156584
39.367902040,-0.054964,-0.059596,0.058900,-2.159296
39.401057005,-0.054964,-0.059578,0.058913,-2.161927
39.434446096,-0.054963,-0.059560,0.058926,-2.164479
39.467715979,-0.054963,-0.059542,0.058938,-2.166954
39.501354933,-0.054962,-0.059526,0.058950,-2.169355
39.534163952,0.034633,-0.028577,0.046715,6.877392
39.567739010,0.035548,-0.028077,0.046592,6.973946
39.603322983,0.035546,-0.028061,0.046603,6.971755
39.634227037,0.035544,-0.028047,0.046614,6.969629
39.667623043,0.022495,0.013839,0.020867,8.165961
39.701261044,0.022293,0.014450,0.020507,8.181169
39.734074116,0.022293,0.014451,0.020507,8.181132
39.769201994,0.022289,0.014477,0.020526,8.177346
39.800879955,0.008915,0.115920,0.025859,8.066167
39.834337950,0.002243,0.120860,0.026032,7.947821
39.867771149,0.002166,0.120918,0.026042,7.944785
39.901302099,0.002165,0.120929,0.026050,7.943119
39.934309959,0.002163,0.120940,0.026058,7.941503
39.967709064,0.002161,0.120951,0.026066,7.939935
40.000922918,0.002160,0.120962,0.026074,7.938415
40.034183025,0.002158,0.120972,0.026081,7.936940
40.067716122,0.002157,0.120982,0.026088,7.935509
40.101629972,-0.028817,0.222902,0.030669,3.205608
40.134101152,-0.029060,0.224040,0.030719,3.154297
40.168512106,-0.014837,0.253209,0.042083,1.881130
40.201004028,-0.014346,0.254171,0.042465,1.837908
40.234173059,-0.014346,0.254172,0.042465,1.837894
40.267584085,-0.028959,0.230209,0.026090,0.524086
40.301568031,-0.041600,0.229029,0.030439,0.135203
40.334094048,-0.041626,0.229031,0.030452,0.134700
40.367489100,-0.041626,0.229046,0.030463,0.132503
40.401067972,-0.041626,0.229046,0.030463,0.132503
40.434309006,-0.041626,0.229061,0.030473,0.130425
40.468146086,-0.041626,0.229067,0.030478,0.129432
40.501034975,-0.074212,0.237062,0.024174,-0.682144
40.534219980,-0.068564,0.236097,0.024162,-0.703865
40.568156958,-0.074439,0.237148,0.024107,-0.694139
40.601298094,-0.084638,0.211431,0.024285,-0.663439
40.634200096,-0.092689,0.173539,0.024536,-0.623959
40.667895079,-0.092780,0.173115,0.024543,-0.624329
40.700989008,-0.099336,0.173599,0.024495,-0.306782
40.734270096,-0.094698,0.173117,0.018522,0.044715
40.768317938,-0.095154,0.171853,0.024461,0.162826
40.801466942,-0.094528,0.172188,0.024558,-0.047114
40.834268093,-0.094495,0.172211,0.024562,-0.058781
40.867422104,-0.094495,0.172212,0.024562,-0.058887
40.901031017,-0.094495,0.172221,0.024568,-0.060236
40.934226990,-0.094495,0.172225,0.024572,-0.060884
40.968042135,-0.094495,0.172225,0.024572,-0.060891
41.000890017,-0.094495,0.172234,0.024578,-0.062122
41.034219027,-0.094495,0.172238,0.024581,-0.062713
41.068021059,-0.094495,0.172242,0.024584,-0.063287
41.101391077,-0.094495,0.172246,0.024587,-0.063844
41.134206057,-0.086232,-0.007717,0.038495,-1.087737
41.168264151,-0.086103,-0.012147,0.038836,-1.075177
41.200803995,-0.086101,-0.012215,0.038841,-1.074532
41.234295130,-0.086101,-0.012208,0.038846,-1.075519
41.268051147,-0.086101,-0.012204,0.038848,-1.075997
41.300949097,-0.086101,-0.012201,0.038851,-1.076460
41.337671995,-0.086101,-0.012198,0.038853,-1.076910
41.368267059,-0.086101,-0.012195,0.038855,-1.077346
41.400926113,-0.086101,-0.012192,0.038857,-1.077769
41.434227943,-0.086101,-0.012189,0.038859,-1.078179
41.467756987,-0.086101,-0.012186,0.038861,-1.078578
41.501296997,-0.086101,-0.012184,0.038863,-1.078964
41.534172058,-0.086101,-0.012181,0.038865,-1.079338
41.567940950,0.023179,-0.177174,0.008857,3.720823
41.601248980,0.028937,-0.141865,0.021456,4.366210
41.634397030,0.036930,-0.140307,0.015580,5.046371
41.668498039,-1.218602,-0.019738,0.294812,5.379387
41.701281071,-1.328090,-0.009602,0.319180,5.393947
41.734204054,-1.329129,-0.009503,0.319413,5.393758
41.767612934,-1.329129,-0.009503,0.319413,5.393755
41.800884962,0.073922,-0.061353,0.008868,5.584379
41.834377050,0.073922,-0.061351,0.008870,5.584095
41.868165016,0.073922,-0.061350,0.008871,5.583818
41.901176929,0.073922,-0.061348,0.008873,5.583550
41.934185982,0.073921,-0.061346,0.008874,5.583291
41.967433929,0.073921,-0.061346,0.008874,5.583288
42.001111984,0.119460,-0.024934,0.003501,4.458648
42.034369946,0.131163,-0.024069,-0.001809,4.347354
42.067641020,0.133074,-0.023527,-0.002664,4.531049
42.100871086,0.133094,-0.023516,-0.002671,4.534355
42.136454105,0.133094,-0.023515,-0.002670,4.534155
42.167575121,0.133094,-0.023515,-0.002670,4.534149
42.200861931,0.133094,-0.023512,-0.002668,4.533741
42.234390974,0.133094,-0.023510,-0.002667,4.533544
42.267540932,0.133093,-0.023509,-0.002666,4.533352
42.300905943,0.133093,-0.023508,-0.002665,4.533166
42.334274054,0.133093,-0.023506,-0.002664,4.532986
42.368052959,0.133093,-0.023505,-0.002664,4.532812
42.400983095,0.133093,-0.023504,-0.002663,4.532642
42.434278965,0.133093,-0.023503,-0.002662,4.532477
42.467767000,0.133093,-0.023502,-0.002661,4.532318
42.500895023,0.133093,-0.023501,-0.002660,4.532163
42.535001993,0.178592,0.035958,0.073238,4.369839
42.567811966,0.179094,0.036612,0.074073,4.367909
42.600878954,0.179094,0.036613,0.074074,4.367768
42.634163141,0.154558,0.029734,0.092319,2.784736
42.667384148,0.154292,0.029668,0.092516,2.767669
42.701062918,0.154292,0.029670,0.092517,2.767409
42.734344006,0.154292,0.029670,0.092518,2.767284
42.767827988,0.154292,0.029671,0.092518,2.767162
42.801311016,0.154292,0.029672,0.092519,2.767045
42.834178925,0.113306,-0.015330,0.105403,-1.696484
42.868144035,0.118932,-0.018023,0.105655,-2.419696
42.905158997,0.107072,-0.053933,0.100150,-2.923458
42.934180975,0.088473,-0.018556,0.104627,-3.421044
42.967630148,0.080220,-0.013932,0.104987,-3.596172
43.001224995,0.080127,-0.013883,0.104991,-3.598235
43.034263134,0.061561,-0.007621,0.085611,-3.614998
43.067976952,0.061356,-0.007551,0.085396,-3.615275
43.101051092,0.061356,-0.007550,0.085397,-3.615364
43.134366035,0.042802,-0.036803,0.053956,-3.646312
43.168285131,0.042603,-0.037116,0.053620,-3.646727
43.201035976,0.042583,-0.037138,0.053620,-3.678378
43.234077930,0.042582,-0.037139,0.053620,-3.678763
43.267430067,0.042582,-0.037138,0.053621,-3.678842
43.300981998,0.042582,-0.037137,0.053622,-3.678992
43.334316969,0.042582,-0.037137,0.053622,-3.679065
43.369224072,0.042582,-0.037136,0.053622,-3.679135
43.401124001,0.042583,-0.037136,0.053623,-3.679203
43.434184074,0.042583,-0.037136,0.053623,-3.679204
43.467525959,0.042583,-0.037135,0.053623,-3.679270
43.500939131,0.051261,-0.067131,-0.004318,-2.968809
43.534304142,0.051261,-0.067130,-0.004318,-2.968869
43.567439079,0.051261,-0.067130,-0.004318,-2.968870
43.600876093,0.051261,-0.067130,-0.004317,-2.968984
43.634099007,0.051261,-0.067130,-0.004317,-2.968985
43.667824030,0.051261,-0.067129,-0.004317,-2.969040
43.701041937,0.051261,-0.067128,-0.004316,-2.969144
43.736181974,0.051261,-0.067128,-0.004316,-2.969195
43.767493010,0.051261,-0.067128,-0.004316,-2.969195
43.800913095,0.069743,0.013074,-0.016309,1.023343
43.836333990,0.069903,0.014079,-0.016457,1.072663
43.867455959,0.067077,0.046010,-0.016324,1.491334
43.900856018,0.066569,0.051634,-0.016300,1.516855
43.934324026,0.066569,0.051635,-0.016300,1.516813
43.967985153,0.066569,0.051635,-0.016299,1.516773
44.001763105,0.066569,0.051635,-0.016299,1.516733
44.034243107,0.066569,0.051635,-0.016299,1.516695
44.067791939,0.066569,0.051636,-0.016299,1.516658
44.102394104,0.066569,0.051636,-0.016299,1.516622
44.134196043,0.066569,0.051636,-0.016299,1.516588
44.167674065,0.066569,0.051636,-0.016298,1.516554
44.201381922,0.066569,0.051637,-0.016298,1.516521
44.234533072,0.066569,0.051637,-0.016298,1.516521
44.267337084,0.066569,0.051637,-0.016298,1.516489
44.300889015,0.066569,0.051637,-0.016298,1.516458
44.334383011,-0.018305,0.222024,0.036179,-1.196307
44.367619991,-0.018352,0.225846,0.036844,-1.209824
44.401041985,-0.018353,0.225885,0.036851,-1.209972
44.434206009,-0.018353,0.225886,0.036851,-1.209998
44.467504978,-0.018353,0.225886,0.036851,-1.210024
44.500977039,-0.018353,0.225886,0.036851,-1.210049
44.534300089,-0.018353,0.225886,0.036851,-1.210073
44.567681074,-0.018353,0.225886,0.036851,-1.210096
44.600976944,-0.123917,0.306871,0.058260,-1.280593
44.634701967,-0.134504,0.308687,0.058799,-0.706515
44.668771982,-0.134504,0.308687,0.058799,-0.706515
44.706757069,-0.176104,0.341751,0.064034,0.307819
44.743957996,-0.189146,0.315876,0.058652,0.364825
44.767609119,-0.189294,0.315573,0.058590,0.365437
44.800827026,-0.189294,0.315573,0.058590,0.365419
44.834964991,-0.189294,0.315574,0.058590,0.365400
44.867555141,-0.189294,0.315574,0.058590,0.365382
44.901165962,-0.210859,0.382678,0.063264,0.175126
44.934235096,-0.221059,0.416261,0.068510,0.031406
44.967584133,-0.221171,0.416634,0.068569,0.029783
45.000922918,-0.241005,0.394393,0.063372,-0.524725
45.037127018,-0.241230,0.394146,0.063313,-0.530966
45.071438074,-0.247262,0.401473,0.051882,-1.151602
45.100996017,-0.247803,0.401798,0.051762,-1.178611
45.134864092,-0.240438,0.401340,0.051754,-1.415231
45.167576075,-0.240140,0.402321,0.046043,-1.411758
45.200884104,-0.245587,0.403968,0.045988,-1.448481
45.234079123,-0.245587,0.403968,0.045988,-1.448481
45.268159151,-0.266849,0.414343,0.046164,-1.315412
45.300837994,-0.290137,0.427500,0.046253,-1.581905
45.334347963,-0.312761,0.440276,0.046384,-1.842499
45.367893934,-0.316093,0.473122,0.051864,-1.430447
45.400912046,-0.316125,0.473472,0.051923,-1.425896
45.434499025,-0.351633,0.458062,0.064070,-1.462467
45.467744112,-0.371874,0.468931,0.064201,-1.692175
45.501049042,-0.373262,0.440027,0.064935,-1.342531
45.535103083,-0.383553,0.475775,0.064489,-1.191371
45.567503929,-0.399010,0.451202,0.065200,-1.020403
45.600849152,-0.401927,0.485458,0.070505,-1.033424
45.634253979,-0.406825,0.490336,0.070727,-0.974507
45.667760134,-0.422795,0.496996,0.070836,-0.971668
45.701208115,-0.409436,0.472283,0.054493,-1.041468
45.735192060,-0.425174,0.479786,0.054349,-1.220643
45.774373055,-0.429416,0.491004,0.055923,-1.088116
45.800888062,-0.441225,0.489950,0.054676,-1.221597
45.834223032,-0.441344,0.489910,0.054658,-1.222972
45.867684126,-0.470333,0.503991,0.054820,-1.546221
45.900879145,-0.470488,0.504066,0.054821,-1.547943
45.934342146,-0.446068,0.530979,0.055087,-0.642635
45.968013048,-0.459302,0.537065,0.055160,-0.788727
46.000908136,-0.446652,0.560622,0.055320,0.288222
46.036260128,-0.458950,0.566280,0.055390,0.164096
46.067611933,-0.454599,0.560077,0.055871,1.289277
46.100825071,-0.466345,0.564821,0.055941,1.174516
46.136359930,-0.477927,0.569545,0.056004,1.049062
46.167577028,-0.478059,0.569599,0.056005,1.047625
46.205150127,-0.451427,0.588965,0.045873,3.369737
46.234425068,-0.456908,0.590321,0.057043,3.376173
46.274595976,-0.467282,0.593985,0.057247,3.266370
46.301082134,-0.477407,0.597572,0.057301,3.158638
46.334516048,-0.425224,0.602487,0.047776,3.626716
46.367457151,-0.424544,0.602556,0.047653,3.632824
46.400877953,-0.411806,0.664868,0.059093,3.728298
46.438692093,-0.379137,0.673216,0.057570,3.503309
46.467461109,-0.378841,0.673305,0.057555,3.500852
46.500927925,-0.362783,0.662606,0.047449,3.276646
46.534273148,-0.362536,0.662432,0.047360,3.275171
46.567714930,-0.327669,0.695923,0.057568,2.890662
46.600923061,-0.335071,0.698679,0.057637,2.806097
46.634248018,-0.291011,0.684289,0.049009,2.223234
46.667425156,-0.290512,0.684122,0.048912,2.216703
46.700771093,-0.295956,0.709874,0.052949,1.877088
46.735569954,-0.269732,0.700649,0.039210,1.349985
46.767759085,-0.275891,0.702865,0.039089,1.275982
46.801016092,-0.245552,0.711019,0.040466,0.863128
46.834380150,-0.213460,0.719562,0.046149,-0.075637
46.867486954,-0.212986,0.719680,0.046233,-0.089437
46.900913000,-0.182481,0.731594,0.048371,-1.455990
46.934665918,-0.186796,0.734109,0.048438,-1.548528
46.967473984,-0.153979,0.715211,0.039120,-2.247187
47.000930071,-0.133351,0.697726,0.035572,-2.747572
47.034368038,-0.125445,0.719251,0.034907,-3.308139
47.067582130,-0.113339,0.730893,0.030124,-3.817012
47.100932121,-0.103191,0.712532,0.026232,-4.181541
47.134289980,-0.078299,0.711335,0.026181,-4.776153
47.167705059,-0.067636,0.742760,0.032253,-5.220196
47.200936079,-0.071605,0.745442,0.032403,-5.274474
47.234210014,-0.054660,0.752424,0.017229,-5.732965
47.267568111,-0.045219,0.753423,0.028365,-5.962430
47.300895929,-0.045119,0.753432,0.028485,-5.964813
47.334156036,-0.033080,0.756762,0.029399,-5.996183
47.367398024,-0.026326,0.760653,0.024631,-6.032109
47.400885105,0.007715,0.771113,0.016853,-5.688099
47.434809923,0.011047,0.796403,0.017646,-5.497900
47.467657089,0.011083,0.796728,0.017658,-5.495497
47.500981092,0.021920,0.835779,0.034955,-4.797553
47.534279108,0.028270,0.866836,0.028050,-4.487736
47.567589998,0.030627,0.873923,0.027730,-4.113637
47.601040125,0.040091,0.880687,0.019539,-3.779910
47.634276152,0.047698,0.885504,0.019884,-3.440863
47.667567015,0.047781,0.885557,0.019888,-3.437177
47.700662136,0.044989,0.886779,0.019904,-3.467746
47.734694004,0.064140,0.955006,0.020069,-2.692163
47.767913103,0.064269,0.955136,0.020037,-2.689717
47.801211119,0.064702,0.989177,0.026686,-1.920274
47.834223986,0.072591,0.998387,0.013584,-1.527346
47.867515087,0.081126,1.005249,0.004902,-1.420590
47.904065132,0.078608,1.008345,0.010011,-0.935718
47.934219122,0.075236,1.030679,0.005181,-0.661452
47.968265057,0.065334,1.089088,0.028252,-0.228293
48.000936031,0.063077,1.090743,0.028615,-0.244176
48.034384012,0.069575,1.073656,0.014830,0.112453
48.068140030,0.069874,1.079253,0.006101,0.398862
48.101210117,0.068056,1.111229,-0.006219,0.553049
48.134345055,0.078546,1.115541,-0.000435,0.567300
48.167524099,0.087876,1.119871,-0.004172,0.396656
48.201025009,0.092843,1.124627,-0.017634,0.196016
48.234241962,0.109498,1.130880,-0.016057,0.094747
48.267566919,0.105481,1.155491,-0.014885,-0.010133
48.301020145,0.097372,1.179649,-0.009132,0.093070
48.334419012,0.099897,1.185551,-0.017201,0.233597
48.367676020,0.090892,1.234843,-0.014302,0.338370
48.401153088,0.088325,1.237698,-0.013825,0.553329
48.434236050,0.093847,1.220444,-0.023010,0.764238
48.470685959,0.092522,1.220727,-0.023105,0.751850
48.501065969,0.100146,1.253882,-0.028311,0.966681
48.534292936,0.098932,1.254728,-0.028368,0.955479
48.567518950,0.093525,1.282560,-0.039392,1.015496
48.600935936,0.101405,1.287014,-0.033822,1.122548
48.634369135,0.085354,1.313801,-0.049371,1.471350
48.667544127,0.097888,1.300232,-0.053444,1.724522
48.703789949,0.083544,1.319162,-0.048421,2.107632
48.735460043,0.068553,1.361315,-0.044674,2.225383
48.767852068,0.065947,1.366666,-0.044283,2.223028
48.800858021,0.059313,1.392210,-0.050245,2.313490
48.834218025,0.057862,1.395472,-0.053914,2.447170
48.867831945,0.055028,1.422288,-0.062993,2.505929
48.900857925,0.053692,1.439145,-0.058660,2.463931
48.934236050,0.061404,1.447847,-0.059557,2.304519
48.969577074,0.062287,1.448907,-0.060094,2.271997
49.000895977,0.056344,1.469746,-0.062360,2.231534
49.034224987,0.050097,1.508946,-0.064444,2.287609
49.067594051,0.047651,1.515096,-0.065508,2.276970
49.100960970,0.064902,1.499397,-0.062040,2.196224
49.134840965,0.080516,1.506483,-0.072072,1.897187
49.167562962,0.082412,1.523123,-0.058733,1.634047
49.201203108,0.081717,1.523535,-0.058582,1.623673
49.234251022,0.081016,1.523760,-0.058578,1.616290
49.267436981,0.081008,1.523762,-0.058578,1.616214
49.300917149,0.079676,1.524190,-0.058571,1.602181
49.334316969,0.079037,1.524396,-0.058567,1.595442
49.367486000,0.078416,1.524595,-0.058564,1.588906
49.400979042,0.077814,1.524788,-0.058561,1.582566
49.434345961,0.077231,1.524976,-0.058558,1.576415
49.467425108,0.077224,1.524978,-0.058558,1.576347
49.501011133,0.076115,1.525334,-0.058552,1.564663
49.534372091,0.075582,1.525505,-0.058549,1.559050
49.567436934,0.075576,1.525507,-0.058549,1.558987
49.600917101,0.074564,1.525832,-0.058544,1.548324
49.634160042,0.074560,1.525834,-0.058544,1.548280
49.667547941,0.073606,1.526140,-0.058539,1.538232
49.701797009,0.073148,1.526287,-0.058536,1.533412
49.734735012,0.072705,1.526430,-0.058534,1.528736
49.767660141,0.072274,1.526568,-0.058532,1.524201
49.800872087,0.071856,1.526702,-0.058530,1.519801
49.834342957,0.071451,1.526832,-0.058527,1.515534
49.867567062,0.071058,1.526958,-0.058525,1.511395
49.901024103,0.070677,1.527081,-0.058523,1.507380
49.934245110,0.070308,1.527200,-0.058521,1.503485
49.967579126,0.069949,1.527315,-0.058519,1.499707
50.000950098,0.069601,1.527426,-0.058518,1.496043
50.034276009,0.069264,1.527535,-0.058516,1.492489
50.067404985,0.069260,1.527536,-0.058516,1.492451
50.100997925,0.068619,1.527742,-0.058512,1.485696
50.134238958,0.068311,1.527841,-0.058511,1.482452
50.169054985,0.068308,1.527842,-0.058511,1.482420
50.200997114,0.067723,1.528030,-0.058508,1.476253
50.234597921,0.067442,1.528120,-0.058506,1.473292
50.267492056,0.067169,1.528208,-0.058505,1.470420
50.300965071,0.066904,1.528293,-0.058503,1.467634
50.334313154,0.066648,1.528375,-0.058502,1.464932
50.367561102,0.066399,1.528455,-0.058501,1.462311
50.400962114,0.066158,1.528533,-0.058499,1.459768
50.434186935,0.066155,1.528533,-0.058499,1.459741
50.467536926,0.065697,1.528681,-0.058497,1.454910
50.501479149,0.065476,1.528751,-0.058496,1.452589
50.534264088,0.065263,1.528820,-0.058495,1.450338
50.567677021,0.065055,1.528887,-0.058494,1.448155
50.601042032,0.064854,1.528951,-0.058493,1.446037
50.634259939,0.064659,1.529014,-0.058492,1.443983
50.667707920,0.064470,1.529075,-0.058491,1.441990
50.701223135,0.064287,1.529134,-0.058490,1.440057
50.734549046,0.064109,1.529191,-0.058489,1.438182
50.767555952,0.063936,1.529246,-0.058488,1.436364
50.801373005,0.063769,1.529300,-0.058487,1.434600
50.834202051,0.063606,1.529352,-0.058486,1.432888
50.867618084,0.063449,1.529403,-0.058485,1.431228
50.900937080,0.063296,1.529452,-0.058484,1.429618
50.934172153,0.063148,1.529500,-0.058484,1.428057
50.967759132,0.063004,1.529546,-0.058483,1.426542
51.000960112,0.062864,1.529591,-0.058482,1.425072
51.034222126,0.062729,1.529634,-0.058481,1.423647
51.067913055,0.062598,1.529676,-0.058481,1.422264
51.100876093,0.062470,1.529717,-0.058480,1.420923
51.134246111,0.062347,1.529757,-0.058479,1.419622
51.167623043,0.062227,1.529795,-0.058479,1.418360
51.207189083,0.062111,1.529833,-0.058478,1.417136
51.234189034,0.061998,1.529869,-0.058477,1.415949
51.267501116,0.061889,1.529904,-0.058477,1.414797
51.301038027,0.061783,1.529938,-0.058476,1.413680
51.334928036,0.061680,1.529971,-0.058476,1.412596
51.367552996,0.061580,1.530003,-0.058475,1.411545
51.401104927,0.061483,1.530034,-0.058475,1.410526
51.434817076,0.061390,1.530064,-0.058474,1.409537
51.467508078,0.061388,1.530065,-0.058474,1.409515
51.500992060,0.061210,1.530122,-0.058473,1.407647
51.534209013,0.061124,1.530149,-0.058473,1.406744
51.567430019,0.061124,1.530150,-0.058473,1.406735
51.600877047,0.060961,1.530202,-0.058472,1.405020
51.634264946,0.060883,1.530227,-0.058472,1.404196
51.667422056,0.060882,1.530227,-0.058472,1.404187
51.700859070,0.060733,1.530275,-0.058471,1.402622
51.734267950,0.060662,1.530298,-0.058470,1.401870
51.767950058,0.060592,1.530320,-0.058470,1.401140
51.801084995,0.060525,1.530342,-0.058470,1.400433
51.834198952,0.060460,1.530363,-0.058469,1.399747
51.867493153,0.060397,1.530383,-0.058469,1.399081
51.900967121,0.060336,1.530403,-0.058469,1.398435
51.934208155,0.060276,1.530422,-0.058468,1.397809
51.967450142,0.060276,1.530422,-0.058468,1.397803
52.000864983,0.060163,1.530458,-0.058468,1.396612
52.034453154,0.060108,1.530476,-0.058467,1.396041
52.068136930,0.060056,1.530493,-0.058467,1.395486
52.100795984,0.060055,1.530493,-0.058467,1.395479
52.134356976,0.059955,1.530525,-0.058467,1.394427
52.167488098,0.059907,1.530540,-0.058466,1.393921
52.200860023,0.059861,1.530555,-0.058466,1.393430
52.234135151,0.059815,1.530570,-0.058466,1.392954
52.267532110,0.059772,1.530584,-0.058466,1.392492
52.301389933,-1.567257,0.181076,1.177263,-8.980049
52.334075928,-1.602458,0.161837,1.200489,-9.175007
52.367614985,-1.602532,0.161878,1.200490,-9.175855
52.401045084,-1.602568,0.161897,1.200490,-9.176264
52.434221029,-1.602603,0.161916,1.200490,-9.176661
52.467590094,-1.602637,0.161934,1.200490,-9.177045
52.500894070,-1.602669,0.161952,1.200491,-9.177419
52.534163952,-1.602670,0.161952,1.200491,-9.177423
52.567713022,-1.602732,0.161985,1.200491,-9.178131
52.600922108,-1.602762,0.162002,1.200491,-9.178472
52.634390116,-1.602791,0.162017,1.200491,-9.178802
52.667540073,-1.602819,0.162032,1.200491,-9.179123
52.700937033,-1.602819,0.162033,1.200491,-9.179127
52.734182119,-1.602873,0.162061,1.200492,-9.179735
52.767614126,-1.602898,0.162075,1.200492,-9.180028
52.800976038,-1.602923,0.162089,1.200492,-9.180311
52.834223986,-1.602947,0.162102,1.200492,-9.180587
52.868500948,-1.602971,0.162114,1.200492,-9.180853
52.901072979,-1.602993,0.162127,1.200493,-9.181112
52.934490919,-1.603015,0.162139,1.200493,-9.181363
52.967507124,-1.603016,0.162139,1.200493,-9.181367
53.003005028,-1.603058,0.162161,1.200493,-9.181844
53.034111977,-1.603058,0.162161,1.200493,-9.181847
53.067656994,-1.603097,0.162183,1.200493,-9.182295
53.100921154,-1.603116,0.162193,1.200493,-9.182510
53.134540081,-1.603134,0.162203,1.200493,-9.182720
53.167586088,-1.603135,0.162203,1.200493,-9.182723
53.200901985,-1.603152,0.162213,1.200493,-9.182925
53.234346151,-1.603186,0.162231,1.200494,-9.183311
53.267647028,-1.603202,0.162240,1.200494,-9.183496
53.301486969,-1.603218,0.162248,1.200494,-9.183675
53.334140062,-1.603218,0.162248,1.200494,-9.183678
53.367594957,-1.603248,0.162264,1.200494,-9.184018
53.400897026,-1.603263,0.162272,1.200494,-9.184182
53.434155941,-1.603263,0.162272,1.200494,-9.184184
53.467617035,-1.603277,0.162280,1.200494,-9.184343
53.500872135,-1.603303,0.162294,1.200494,-9.184646
53.534248114,-1.603316,0.162301,1.200494,-9.184791
53.567652941,-1.603328,0.162308,1.200494,-9.184932
53.600970984,-1.603340,0.162314,1.200494,-9.185068
53.634307146,-1.603352,0.162320,1.200495,-9.185201
53.667470932,-2.405049,1.737103,0.449771,15.350027
53.700948954,-2.423349,1.750773,0.441355,15.624962
53.734197140,-2.423361,1.750774,0.441355,15.624841
53.767676115,-2.423373,1.750775,0.441355,15.624723
53.800926924,-2.464029,1.891307,0.852375,19.511412
53.834097147,-2.464652,1.892883,0.856945,19.554626
53.867509127,-2.463005,1.905399,0.876723,19.609142
53.901122093,-2.476978,1.924171,0.876029,19.744534
53.934123993,-2.476988,1.924171,0.876029,19.744432
53.967556953,-2.476989,1.924171,0.876029,19.744432
54.001019955,-2.477008,1.924170,0.876029,19.744242
54.034574032,-2.477017,1.924170,0.876029,19.744148
54.067517042,-2.477026,1.924170,0.876030,19.744061
54.100970984,-2.477034,1.924170,0.876030,19.743973
54.134271145,-2.477043,1.924170,0.876030,19.743889
54.167671919,-2.477051,1.924170,0.876030,19.743809
54.200768948,-2.477051,1.924170,0.876030,19.743807
54.234522104,-2.477066,1.924170,0.876030,19.743652
54.267534971,-2.477074,1.924170,0.876030,19.743578
54.301017046,-2.477081,1.924170,0.876030,19.743505
54.334167004,-2.477088,1.924170,0.876030,19.743437
54.367448092,-2.477088,1.924170,0.876030,19.743435
54.401005030,-2.477101,1.924169,0.876030,19.743303
54.434253931,-2.477108,1.924169,0.876030,19.743238
54.467689037,-2.477114,1.924169,0.876030,19.743177
54.501881123,-2.477120,1.924169,0.876030,19.743116
54.534281969,-2.477125,1.924169,0.876030,19.743059
54.567527056,-2.477125,1.924169,0.876030,19.743059
54.601022005,-2.477137,1.924169,0.876030,19.742949
54.634514093,-2.477142,1.924169,0.876030,19.742895
54.667568922,-2.477147,1.924169,0.876030,19.742844
54.700973988,-2.477152,1.924169,0.876030,19.742794
54.734251022,-2.477157,1.924169,0.876030,19.742744
54.767818928,-2.477161,1.924169,0.876030,19.742697
54.800996065,-2.477166,1.924169,0.876030,19.742653
54.834244967,-2.477170,1.924169,0.876030,19.742607
54.867414951,-2.477170,1.924169,0.876030,19.742607
54.900918961,-2.477179,1.924169,0.876030,19.742523
54.934303045,-2.477183,1.924169,0.876030,19.742483
54.967630148,-2.477187,1.924169,0.876030,19.742443
55.000921011,-2.477190,1.924169,0.876030,19.742405
55.034227133,-2.477194,1.924169,0.876030,19.742369
55.067456007,-2.477194,1.924169,0.876030,19.742369
55.101640940,-2.477201,1.924168,0.876030,19.742298
55.134243011,-2.477205,1.924168,0.876030,19.742266
55.167667150,-2.477208,1.924168,0.876030,19.742231
55.201313019,-2.477211,1.924168,0.876031,19.742201
55.234403133,-2.477211,1.924168,0.876031,19.742201
55.267611027,-2.477217,1.924168,0.876031,19.742140
55.300981045,-2.477220,1.924168,0.876031,19.742111
55.334198952,-2.477220,1.924168,0.876031,19.742111
55.367393970,-2.477223,1.924168,0.876031,19.742083
55.401288986,-2.477228,1.924168,0.876031,19.742029
55.434548140,-2.477231,1.924168,0.876031,19.742004
55.467987061,-2.477233,1.924168,0.876031,19.741980
55.501224995,-2.477236,1.924168,0.876031,19.741955
55.534604073,-2.477236,1.924168,0.876031,19.741955
55.567510128,-2.477240,1.924168,0.876031,19.741909
55.600979090,-2.477242,1.924168,0.876031,19.741888
55.634202003,-2.477244,1.924168,0.876031,19.741865
55.667621136,-2.477247,1.924168,0.876031,19.741846
55.700865984,-2.477248,1.924168,0.876031,19.741825
55.734255075,-2.477250,1.924168,0.876031,19.741806
55.767836094,-2.477252,1.924168,0.876031,19.741787
55.800981998,-2.477254,1.924168,0.876031,19.741768
55.834353924,-2.477256,1.924168,0.876031,19.741751
55.867319107,-2.477256,1.924168,0.876031,19.741751
55.901025057,-2.477259,1.924168,0.876031,19.741716
55.934215069,-2.477261,1.924168,0.876031,19.741701
55.967913151,-2.477262,1.924168,0.876031,19.741686
56.000888109,-2.477264,1.924168,0.876031,19.741671
56.034204006,-2.477265,1.924168,0.876031,19.741655
56.067544937,-2.477267,1.924168,0.876031,19.741640
56.101021051,-2.477268,1.924168,0.876031,19.741627
56.134634972,-2.477270,1.924168,0.876031,19.741613
56.167531967,-2.477271,1.924168,0.876031,19.741600
56.201018095,-2.477272,1.924168,0.876031,19.741587
56.234229088,-2.477273,1.924168,0.876031,19.741575
56.267451048,-2.477273,1.924168,0.876031,19.741575
56.300995111,-2.477276,1.924168,0.876031,19.741552
56.334336996,-2.477277,1.924168,0.876031,19.741541
56.367444992,-2.477277,1.924168,0.876031,19.741541
56.400990009,-2.477279,1.924168,0.876031,19.741518
56.434621096,-2.477279,1.924168,0.876031,19.741518
56.467621088,-2.477281,1.924168,0.876031,19.741499
56.501368046,-2.381383,1.896871,0.901613,25.541849
56.534574032,-2.288363,1.870394,0.926428,31.168188
56.567547083,-2.198132,1.844711,0.950498,36.625736
56.600914955,-2.110609,1.819799,0.973847,41.919559
56.634232044,-2.025712,1.795633,0.996494,47.054565
56.667820930,-1.943361,1.772193,1.018463,52.035522
56.700865030,-1.863481,1.749456,1.039772,56.867054
56.734297991,-1.785997,1.727401,1.060442,61.553635
56.767491102,-1.710838,1.706008,1.080492,66.099625
56.800874949,-1.637934,1.685256,1.099941,70.509224
56.834113121,-1.637178,1.685041,1.100142,70.554947
56.867640972,-1.498621,1.645603,1.137105,78.935539
56.900784016,-1.497912,1.645401,1.137294,78.978424
56.934198141,-1.367541,1.608292,1.172072,86.863861
56.967515945,-1.367012,1.608142,1.172214,86.895874
57.001266003,-1.244208,1.573187,1.204973,94.323624
57.034285069,-1.185303,1.556420,1.220688,97.886505
57.067633152,-1.128164,1.540156,1.235930,101.342506
57.100810051,-1.127573,1.539988,1.236088,101.378235
57.134181976,-1.018979,1.509078,1.265057,107.946571
57.167541027,-0.966830,1.494234,1.278969,111.100769
57.200901985,-0.916246,1.479836,1.292463,114.160347
57.234364033,-0.867179,1.465870,1.305552,117.128128
57.267447948,-0.866503,1.465677,1.305733,117.169037
57.300950050,-0.773418,1.439181,1.330565,122.799263
57.334365129,-0.728636,1.426435,1.342511,125.507881
57.367430925,-0.728128,1.426290,1.342646,125.538597
57.401076078,-0.643062,1.402077,1.365339,130.683777
57.434214115,-0.642517,1.401922,1.365485,130.716751
57.467638016,-0.562546,1.379159,1.386818,135.553772
57.500916004,-0.524091,1.368213,1.397077,137.879761
57.534315109,-0.486789,1.357596,1.407028,140.135956
57.568318129,-0.450606,1.347296,1.416680,142.324478
57.601119041,-0.415508,1.337306,1.426043,144.447342
57.634160995,-0.415059,1.337179,1.426163,144.474487
57.667618990,-0.381096,1.327511,1.435223,146.528732
57.701144934,-0.316408,1.309098,1.452480,150.441391
57.734185934,-0.315962,1.308972,1.452598,150.468338
57.767537117,-0.255197,1.291676,1.468809,154.143707
57.801257133,-0.254852,1.291577,1.468901,154.164566
57.834209919,-0.197604,1.275282,1.484173,157.627228
57.867438078,-0.197296,1.275195,1.484255,157.645859
57.900851965,-0.143414,1.259858,1.498628,160.904877
57.934203148,-0.143115,1.259773,1.498708,160.922989
57.967539072,-0.092427,1.245345,1.512230,163.988800
58.000836134,-0.068075,1.238413,1.518726,165.461731
58.034160137,-0.067823,1.238341,1.518794,165.476990
58.067836046,-0.021541,1.225168,1.531140,168.276352
58.101045132,0.000685,1.218842,1.537069,169.620667
58.134521961,0.022243,1.212705,1.542820,170.924637
58.167956114,0.043155,1.206753,1.548399,172.189499
58.201282024,0.063440,1.200979,1.553810,173.416397
58.234378099,0.083116,1.195378,1.559059,174.606506
58.267424107,0.083324,1.195319,1.559115,174.619095
58.300935030,0.120715,1.184676,1.569089,176.880676
58.334046125,0.120868,1.184633,1.569130,176.889938
58.367661953,0.156092,1.174607,1.578527,179.020432
58.400929928,0.172988,1.169797,1.583034,-179.957581
58.434191942,0.189378,1.165132,1.587406,-178.966263
58.467641115,0.205276,1.160607,1.591648,-178.004684
58.500937939,0.220697,1.156217,1.595761,-177.071945
58.534196138,0.235655,1.151960,1.599752,-176.167191
58.567402124,0.235815,1.151914,1.599794,-176.157516
58.600886106,0.264239,1.143824,1.607377,-174.438293
58.634345055,0.277891,1.139938,1.611019,-173.612549
58.667505980,0.278046,1.139894,1.611060,-173.603226
58.701028109,0.303979,1.132512,1.617978,-172.034637
58.734496117,0.316439,1.128965,1.621302,-171.281006
58.767446995,0.316629,1.128911,1.621353,-171.269516
58.800886154,0.340249,1.122188,1.627654,-169.840897
58.834583044,0.351620,1.118951,1.630687,-169.153076
58.867702007,0.362651,1.115812,1.633630,-168.485886
58.901335955,0.373351,1.112766,1.636484,-167.838715
58.934168100,0.373547,1.112710,1.636536,-167.826859
58.967477083,0.383842,1.109780,1.639283,-167.204132
59.000855923,0.403562,1.104167,1.644544,-166.011383
59.034224987,0.413035,1.101470,1.647071,-165.438446
59.067582130,0.422223,1.098855,1.649522,-164.882690
59.100857019,0.431136,1.096318,1.651899,-164.343613
59.134248972,0.439781,1.093858,1.654206,-163.820709
59.167595148,0.439781,1.093858,1.654206,-163.820709
59.200845003,0.456301,1.089155,1.658612,-162.821503
59.234199047,0.464191,1.086909,1.660717,-162.344254
59.268762112,0.471845,1.084731,1.662759,-161.881332
59.300754070,0.472106,1.084657,1.662829,-161.865540
59.334470987,0.486470,1.080568,1.666661,-160.996735
59.367552996,0.493455,1.078580,1.668524,-160.574249
59.400910139,0.500231,1.076651,1.670331,-160.164413
59.434330940,0.506803,1.074780,1.672085,-159.766891
59.468295097,0.513178,1.072966,1.673785,-159.381287
59.500972986,0.519362,1.071206,1.675435,-159.007263
59.534346104,0.519427,1.071187,1.675452,-159.003357
59.567541122,0.531179,1.067842,1.678587,-158.292526
59.600963116,0.536823,1.066236,1.680093,-157.951141
59.634192944,0.542297,1.064677,1.681553,-157.620026
59.667479992,0.547608,1.063166,1.682970,-157.298828
59.701029062,0.552759,1.061700,1.684344,-156.987259
59.734159946,0.557755,1.060277,1.685677,-156.685059
59.767591953,0.562602,1.058898,1.686970,-156.391907
59.801847935,0.567303,1.057560,1.688224,-156.107559
59.834897041,0.571863,1.056262,1.689441,-155.831741
59.868263006,0.576287,1.055003,1.690621,-155.564194
59.901577950,0.580577,1.053781,1.691765,-155.304672
59.934172153,0.584739,1.052597,1.692876,-155.052933
59.967530966,0.588776,1.051448,1.693953,-154.808746
60.000849962,0.588818,1.051436,1.693964,-154.806244
60.034209013,0.592734,1.050321,1.695008,-154.569382
60.067599058,0.600175,1.048203,1.696993,-154.119278
60.100976944,0.603749,1.047186,1.697947,-153.903107
60.134272099,0.607216,1.046199,1.698872,-153.693420
60.167567015,0.610579,1.045242,1.699769,-153.490021
60.201008081,0.613841,1.044313,1.700639,-153.292725
60.235152006,0.617005,1.043413,1.701483,-153.101349
60.267658949,0.620074,1.042539,1.702302,-152.915726
60.301522970,0.623051,1.041692,1.703096,-152.735657
60.334051132,0.623103,1.041677,1.703110,-152.732483
60.367438078,0.625969,1.040861,1.703874,-152.559189
60.401179075,0.631457,1.039299,1.705338,-152.227219
60.434273958,0.634093,1.038549,1.706041,-152.067810
60.467456102,0.634121,1.038541,1.706049,-152.066086
60.501055956,0.636676,1.037814,1.706730,-151.911575
60.534107924,0.639156,1.037108,1.707392,-151.761566
60.567420006,0.641560,1.036423,1.708033,-151.616165
60.601005077,0.646131,1.035122,1.709253,-151.339691
60.634194136,0.648326,1.034497,1.709838,-151.206894
60.667653084,0.650456,1.033891,1.710407,-151.078094
60.700865984,0.652521,1.033303,1.710958,-150.953156
60.734312057,0.652543,1.033297,1.710963,-150.951859
60.767579079,0.654546,1.032727,1.711498,-150.830704
60.800869942,0.658354,1.031643,1.712513,-150.600388
60.834439039,0.658373,1.031638,1.712519,-150.599197
60.867411137,0.660182,1.031123,1.713001,-150.489792
60.900833130,0.661956,1.030618,1.713474,-150.382492
60.934360981,0.665346,1.029653,1.714379,-150.177475
60.967495918,0.665346,1.029653,1.714379,-150.177475
61.000944138,0.668535,1.028745,1.715229,-149.984573
61.034347057,0.670058,1.028312,1.715636,-149.892441
61.067394972,0.670078,1.028306,1.715641,-149.891235
61.101257086,0.672969,1.027483,1.716412,-149.716400
61.134169102,0.674359,1.027087,1.716783,-149.632309
61.167595148,0.675707,1.026704,1.717143,-149.550735
61.200881958,0.677015,1.026331,1.717492,-149.471619
61.234287977,0.678284,1.025970,1.717830,-149.394882
61.267400980,0.678295,1.025967,1.717833,-149.394257
61.300922155,0.680709,1.025280,1.718477,-149.248230
61.334264040,0.680719,1.025277,1.718480,-149.247650
61.367717981,0.682990,1.024631,1.719086,-149.110245
61.400888920,0.684080,1.024320,1.719376,-149.044357
61.434082985,0.684091,1.024317,1.719379,-149.043655
61.467488050,0.685148,1.024016,1.719661,-148.979752
61.500958920,0.687156,1.023445,1.720197,-148.858276
61.534388065,0.688121,1.023170,1.720454,-148.799927
61.567652941,0.689056,1.022904,1.720704,-148.743332
61.601185083,0.689964,1.022646,1.720946,-148.688446
61.634207964,0.690844,1.022395,1.721181,-148.635193
61.667510986,0.690853,1.022393,1.721183,-148.634644
61.701065063,0.692527,1.021916,1.721630,-148.533447
61.734444141,0.693330,1.021688,1.721844,-148.484848
61.767456055,0.693339,1.021685,1.721846,-148.484283
61.800953150,0.694865,1.021250,1.722254,-148.391983
61.834217072,0.695599,1.021042,1.722449,-148.347626
61.867535114,0.696310,1.020839,1.722639,-148.304596
61.900761127,0.697000,1.020643,1.722823,-148.262863
61.934407949,0.697669,1.020452,1.723002,-148.222382
61.967467070,0.697676,1.020450,1.723003,-148.221970
62.000848055,0.698948,1.020088,1.723343,-148.145035
62.034250975,0.699559,1.019915,1.723506,-148.108093
62.067467928,0.700152,1.019746,1.723664,-148.072250
62.100939035,0.700726,1.019582,1.723817,-148.037491
62.134192944,0.701284,1.019424,1.723966,-148.003769
62.168147087,0.701824,1.019270,1.724110,-147.971069
62.200752974,0.702349,1.019120,1.724250,-147.939331
62.234189987,0.702858,1.018975,1.724386,-147.908569
62.267580032,0.703351,1.018835,1.724517,-147.878708
62.301141977,0.703830,1.018699,1.724645,-147.849762
62.334867954,0.704294,1.018567,1.724769,-147.821671
62.367689133,0.704745,1.018438,1.724889,-147.794418
62.400952101,0.705182,1.018314,1.725006,-147.767990
62.434195042,0.705606,1.018193,1.725119,-147.742355
62.467857122,0.706017,1.018076,1.725228,-147.717499
62.501147985,0.706415,1.017963,1.725335,-147.693375
62.534101963,0.706802,1.017853,1.725438,-147.669983
62.567954063,0.707177,1.017746,1.725538,-147.647293
62.600837946,0.707541,1.017642,1.725635,-147.625275
62.634927988,0.707894,1.017542,1.725729,-147.603928
62.667624950,0.708237,1.017444,1.725821,-147.583206
62.700823069,0.708569,1.017350,1.725909,-147.563126
62.734238148,0.708891,1.017258,1.725995,-147.543625
62.767585039,0.709204,1.017169,1.726079,-147.524719
62.800985098,0.709507,1.017083,1.726159,-147.506393
62.834269047,0.709511,1.017082,1.726161,-147.506134
62.868499041,0.710086,1.016918,1.726314,-147.471344
62.900913954,0.710363,1.016839,1.726388,-147.454620
62.934266090,0.710631,1.016763,1.726459,-147.438385
62.967621088,0.710892,1.016689,1.726529,-147.422638
63.001080036,0.711144,1.016617,1.726596,-147.407364
63.034204960,0.711389,1.016547,1.726662,-147.392548
63.068264008,0.711627,1.016479,1.726725,-147.378174
63.101356983,0.711857,1.016414,1.726786,-147.364243
63.134438038,0.712081,1.016350,1.726846,-147.350723
63.167528152,0.712298,1.016289,1.726904,-147.337601
63.200930119,0.712508,1.016229,1.726960,-147.324875
63.234107018,0.712510,1.016228,1.726961,-147.324738
63.267590046,0.712910,1.016114,1.727067,-147.300568
63.300751925,0.712912,1.016114,1.727068,-147.300446
63.334228039,0.713288,1.016007,1.727168,-147.277695
63.367475986,0.713469,1.015955,1.727216,-147.266769
63.400854111,0.713644,1.015905,1.727263,-147.256165
63.434226990,0.713814,1.015857,1.727308,-147.245895
63.467533112,0.713979,1.015810,1.727352,-147.235916
63.500807047,0.714139,1.015765,1.727395,-147.226242
63.534235001,0.714294,1.015720,1.727436,-147.216858
63.567418098,0.714444,1.015678,1.727476,-147.207764
63.600872993,0.714590,1.015636,1.727515,-147.198929
63.634321928,0.714592,1.015636,1.727516,-147.198837
63.667633057,0.714869,1.015557,1.727590,-147.182068
