time,x,y,z,yaw
0.000000000,0.000000,0.000000,0.000000,-90.000000
0.009634018,0.000000,0.000000,0.000000,-90.000000
0.019608974,0.000000,0.000000,0.000000,-90.000000
0.029633999,0.000000,0.000000,0.000000,-90.000000
0.039707899,0.000000,0.000000,0.000000,-90.000000
0.049637079,0.000000,0.000000,0.000000,-90.000000
0.059659958,0.000000,0.000000,0.000000,-90.000000
0.069669962,0.000000,0.000000,0.000000,-90.000000
0.079631090,0.000000,0.000000,0.000000,-90.000000
0.089673996,0.000000,0.000000,0.000000,-90.000000
0.099680901,0.000000,0.000000,0.000000,-90.000000
0.109594107,0.000000,0.000000,0.000000,-90.000000
0.119666100,0.000000,0.000000,0.000000,-90.000000
0.129646063,0.000000,0.000000,0.000000,-90.000000
0.139739037,0.000000,0.000000,0.000000,-90.000000
0.149708033,0.000000,0.000000,0.000000,-90.000000
0.159661055,0.000000,0.000000,0.000000,-90.000000
0.169703007,0.000000,0.000000,0.000000,-90.000000
0.179693937,0.000000,0.000000,0.000000,-90.000000
0.189640045,0.000000,0.000000,0.000000,-90.000000
0.199697018,0.000000,0.000000,0.000000,-90.000000
0.209599018,0.000000,0.000000,0.000000,-90.000000
0.219660997,0.000000,0.000000,0.000000,-90.000000
0.229646921,0.000000,0.000000,0.000000,-90.000000
0.239726067,0.000000,0.000000,0.000000,-90.000000
0.249665976,0.000000,0.000000,0.000000,-90.000000
0.259645939,0.000000,0.000000,0.000000,-90.000000
0.269702911,0.000000,0.000000,0.000000,-90.000000
0.279715061,0.000000,0.000000,0.000000,-90.000000
0.289725065,0.000000,0.000000,0.000000,-90.000000
0.299604893,0.000000,0.000000,0.000000,-90.000000
0.309636116,0.000000,0.000000,0.000000,-90.000000
0.319655895,0.000000,0.000000,0.000000,-90.000000
0.329670906,0.000000,0.000000,0.000000,-90.000000
0.339692116,0.000000,0.000000,0.000000,-90.000000
0.349658012,0.000000,0.000000,0.000000,-90.000000
0.359612942,0.000000,0.000000,0.000000,-90.000000
0.369615078,0.000000,0.000000,0.000000,-90.000000
0.380276918,0.000000,0.000000,0.000000,-90.000000
0.389672041,0.000000,0.000000,0.000000,-90.000000
0.399719954,0.000000,0.000000,0.000000,-90.000000
0.409727097,0.000000,0.000000,0.000000,-90.000000
0.419662952,0.000000,0.000000,0.000000,-90.000000
0.429677010,0.000000,0.000000,0.000000,-90.000000
0.440176964,0.000000,0.000000,0.000000,-90.000000
0.449645042,0.000000,0.000000,0.000000,-90.000000
0.459721088,0.000000,0.000000,0.000000,-90.000000
0.469655991,0.000000,0.000000,0.000000,-90.000000
0.479795933,0.000000,0.000000,0.000000,-90.000000
0.489710093,0.000000,0.000000,0.000000,-90.000000
0.499665976,0.000000,0.000000,0.000000,-90.000000
0.509634972,0.000000,0.000000,0.000000,-90.000000
0.519716978,0.000000,0.000000,0.000000,-90.000000
0.529661894,0.000000,0.000000,0.000000,-90.000000
0.539635897,0.000000,0.000000,0.000000,-90.000000
0.549663067,0.000000,0.000000,0.000000,-90.000000
0.559653044,0.000000,0.000000,0.000000,-90.000000
0.569622993,0.000000,0.000000,0.000000,-90.000000
0.579885006,0.000000,0.000000,0.000000,-90.000000
0.589663982,0.000000,0.000000,0.000000,-90.000000
0.599725962,0.000000,0.000000,0.000000,-90.000000
0.609699011,0.000000,0.000000,0.000000,-90.000000
0.619784117,0.000000,0.000000,0.000000,-90.000000
0.629672050,0.000000,0.000000,0.000000,-90.000000
0.639621973,0.000000,0.000000,0.000000,-90.000000
0.649679899,0.000000,0.000000,0.000000,-90.000000
0.659713984,0.000000,0.000000,0.000000,-90.000000
0.669730902,0.000000,0.000000,0.000000,-90.000000
0.679634094,0.000000,0.000000,0.000000,-90.000000
0.689721107,0.000000,0.000000,0.000000,-90.000000
0.699714899,0.000000,0.000000,0.000000,-90.000000
0.709702015,0.000000,0.000000,0.000000,-90.000000
0.719738960,0.000000,0.000000,0.000000,-90.000000
0.729640961,0.000000,0.000000,0.000000,-90.000000
0.739692926,0.000000,0.000000,0.000000,-90.000000
0.749700069,0.000000,0.000000,0.000000,-90.000000
0.759721994,0.000000,0.000000,0.000000,-90.000000
0.769666910,0.000000,0.000000,0.000000,-90.000000
0.779671907,0.000000,0.000000,0.000000,-90.000000
0.789688110,0.000000,0.000000,0.000000,-90.000000
0.799693108,0.000000,0.000000,0.000000,-90.000000
0.809655905,0.000000,0.000000,0.000000,-90.000000
0.819711924,0.000000,0.000000,0.000000,-90.000000
0.829731941,0.000000,0.000000,0.000000,-90.000000
0.839693069,0.000000,0.000000,0.000000,-90.000000
0.849706888,0.000000,0.000000,0.000000,-90.000000
0.859765053,0.000000,0.000000,0.000000,-90.000000
0.869904995,0.000000,0.000000,0.000000,-90.000000
0.879662991,0.000000,0.000000,0.000000,-90.000000
0.889664888,0.000000,0.000000,0.000000,-90.000000
0.899722099,0.000000,0.000000,0.000000,-90.000000
0.909676075,0.000000,0.000000,0.000000,-90.000000
0.919708967,0.000000,0.000000,0.000000,-90.000000
0.929641962,0.000000,0.000000,0.000000,-90.000000
0.939673901,0.000000,0.000000,0.000000,-90.000000
0.949654102,0.000000,0.000000,0.000000,-90.000000
0.959671974,0.000000,0.000000,0.000000,-90.000000
0.969696999,0.000000,0.000000,0.000000,-90.000000
0.979640007,0.000000,0.000000,0.000000,-90.000000
0.989734888,0.000000,0.000000,0.000000,-90.000000
0.999650955,0.000000,0.000000,0.000000,-90.000000
1.009628057,0.000000,0.000000,0.000000,-90.000000
1.019696951,0.000000,0.000000,0.000000,-90.000000
1.029707909,0.000000,0.000000,0.000000,-90.000000
1.039673090,0.000000,0.000000,0.000000,-90.000000
1.049711943,0.000000,0.000000,0.000000,-90.000000
1.059721947,0.000000,0.000000,0.000000,-90.000000
1.069691896,0.000000,0.000000,0.000000,-90.000000
1.079598904,0.000000,0.000000,0.000000,-90.000000
1.089668036,0.000000,0.000000,0.000000,-90.000000
1.099674940,0.000000,0.000000,0.000000,-90.000000
1.109646082,0.000000,0.000000,0.000000,-90.000000
1.119673014,0.000000,0.000000,0.000000,-90.000000
1.129714966,0.000000,0.000000,0.000000,-90.000000
1.139653921,0.000000,0.000000,0.000000,-90.000000
1.149714947,0.000000,0.000000,0.000000,-90.000000
1.159888983,0.000000,0.000000,0.000000,-90.000000
1.169694901,0.000000,0.000000,0.000000,-90.000000
1.179682016,0.000000,0.000000,0.000000,-90.000000
1.189649105,0.000000,0.000000,0.000000,-90.000000
1.199680090,0.000000,0.000000,0.000000,-90.000000
1.209613085,0.000000,0.000000,0.000000,-90.000000
1.219620943,0.000000,0.000000,0.000000,-90.000000
1.229717016,0.000000,0.000000,0.000000,-90.000000
1.239660978,0.000000,0.000000,0.000000,-90.000000
1.249649048,0.000000,0.000000,0.000000,-90.000000
1.259644032,0.000000,0.000000,0.000000,-90.000000
1.269721985,0.000000,0.000000,0.000000,-90.000000
1.279654980,0.000000,0.000000,0.000000,-90.000000
1.289644003,0.000000,0.000000,0.000000,-90.000000
1.299736977,0.000000,0.000000,0.000000,-90.000000
1.309618950,0.000000,0.000000,0.000000,-90.000000
1.319724083,0.000000,0.000000,0.000000,-90.000000
1.329685926,0.000000,0.000000,0.000000,-90.000000
1.339667082,0.000000,0.000000,0.000000,-90.000000
1.349771976,0.000000,0.000000,0.000000,-90.000000
1.359651089,0.000000,0.000000,0.000000,-90.000000
1.369676113,0.000000,0.000000,0.000000,-90.000000
1.379704952,0.000000,0.000000,0.000000,-90.000000
1.389648914,0.000000,0.000000,0.000000,-90.000000
1.399636030,0.000000,0.000000,0.000000,-90.000000
1.409647942,0.000000,0.000000,0.000000,-90.000000
1.419698000,0.000000,0.000000,0.000000,-90.000000
1.429632902,0.000000,0.000000,0.000000,-90.000000
1.439728975,0.000000,0.000000,0.000000,-90.000000
1.449652910,0.000000,0.000000,0.000000,-90.000000
1.459709883,0.000000,0.000000,0.000000,-90.000000
1.469613075,0.000000,0.000000,0.000000,-90.000000
1.479598999,0.000000,0.000000,0.000000,-90.000000
1.489660025,0.000000,0.000000,0.000000,-90.000000
1.499731064,0.000000,0.000000,0.000000,-90.000000
1.509634972,0.000000,0.000000,0.000000,-90.000000
1.519820929,0.000000,0.000000,0.000000,-90.000000
1.529666901,0.000000,0.000000,0.000000,-90.000000
1.539695978,0.000000,0.000000,0.000000,-90.000000
1.549683094,0.000000,0.000000,0.000000,-90.000000
1.559700966,0.000000,0.000000,0.000000,-90.000000
1.569658041,0.000000,0.000000,0.000000,-90.000000
1.579685926,0.000000,0.000000,0.000000,-90.000000
1.589705944,0.000000,0.000000,0.000000,-90.000000
1.599687099,0.000000,0.000000,0.000000,-90.000000
1.609658003,0.000000,0.000000,0.000000,-90.000000
1.619682074,0.000000,0.000000,0.000000,-90.000000
1.629667997,0.000000,0.000000,0.000000,-90.000000
1.639657021,0.000000,0.000000,0.000000,-90.000000
1.649568081,0.000000,0.000000,0.000000,-90.000000
1.659693956,0.000000,0.000000,0.000000,-90.000000
1.669713974,0.000000,0.000000,0.000000,-90.000000
1.679620028,0.000000,0.000000,0.000000,-90.000000
1.689748049,0.000000,0.000000,0.000000,-90.000000
1.699626923,0.000000,0.000000,0.000000,-90.000000
1.709652901,0.000000,0.000000,0.000000,-90.000000
1.719664097,0.000000,0.000000,0.000000,-90.000000
1.729671001,0.000000,0.000000,0.000000,-90.000000
1.739620924,0.000000,0.000000,0.000000,-90.000000
1.749638081,0.000000,0.000000,0.000000,-90.000000
1.759700060,0.000000,0.000000,0.000000,-90.000000
1.769649029,0.000000,0.000000,0.000000,-90.000000
1.779669046,0.000000,0.000000,0.000000,-90.000000
1.789724112,0.000000,0.000000,0.000000,-90.000000
1.799668074,0.000000,0.000000,0.000000,-90.000000
1.809680939,0.000000,0.000000,0.000000,-90.000000
1.819663048,0.000000,0.000000,0.000000,-90.000000
1.829684019,0.000000,0.000000,0.000000,-90.000000
1.839692116,0.000000,0.000000,0.000000,-90.000000
1.849668026,0.000000,0.000000,0.000000,-90.000000
1.859638929,0.000000,0.000000,0.000000,-90.000000
1.869729996,0.000000,0.000000,0.000000,-90.000000
1.879693031,0.000000,0.000000,0.000000,-90.000000
1.889672995,0.000000,0.000000,0.000000,-90.000000
1.899646044,0.000000,0.000000,0.000000,-90.000000
1.909583092,0.000000,0.000000,0.000000,-90.000000
1.919701099,0.000000,0.000000,0.000000,-90.000000
1.929627895,0.000000,0.000000,0.000000,-90.000000
1.939677000,0.000000,0.000000,0.000000,-90.000000
1.949610949,0.000000,0.000000,0.000000,-90.000000
1.959697962,0.000000,0.000000,0.000000,-90.000000
1.969727993,0.000000,0.000000,0.000000,-90.000000
1.979614019,0.000000,0.000000,0.000000,-90.000000
1.989720106,0.000000,0.000000,0.000000,-90.000000
1.999631882,0.000000,0.000000,0.000000,-90.000000
2.009618044,0.000000,0.000000,0.000000,-90.000000
2.019700050,0.000000,0.000000,0.000000,-90.000000
2.029656887,0.000000,0.000000,0.000000,-90.000000
2.039690018,0.000000,0.000000,0.000000,-90.000000
2.049726009,0.000000,0.000000,0.000000,-90.000000
2.059751987,0.000000,0.000000,0.000000,-90.000000
2.069839954,0.000000,0.000000,0.000000,-90.000000
2.079669952,0.000000,0.000000,0.000000,-90.000000
2.089675903,0.000000,0.000000,0.000000,-90.000000
2.099661112,0.000000,0.000000,0.000000,-90.000000
2.109600067,0.000000,0.000000,0.000000,-90.000000
2.119707108,0.000000,0.000000,0.000000,-90.000000
2.129692078,0.000000,0.000000,0.000000,-90.000000
2.139678955,0.000000,0.000000,0.000000,-90.000000
2.149682045,0.000000,0.000000,0.000000,-90.000000
2.159722090,0.000000,0.000000,0.000000,-90.000000
2.169680119,0.000000,0.000000,0.000000,-90.000000
2.179620028,0.000000,0.000000,0.000000,-90.000000
2.189683914,0.000000,0.000000,0.000000,-90.000000
2.199635029,0.000000,0.000000,0.000000,-90.000000
2.209608078,0.000000,0.000000,0.000000,-90.000000
2.219707966,0.000000,0.000000,0.000000,-90.000000
2.229620934,0.000000,0.000000,0.000000,-90.000000
2.239696980,0.000000,0.000000,0.000000,-90.000000
2.249689102,0.000000,0.000000,0.000000,-90.000000
2.259689093,0.000000,0.000000,0.000000,-90.000000
2.269655943,0.000000,0.000000,0.000000,-90.000000
2.279684067,0.000000,0.000000,0.000000,-90.000000
2.289676905,0.000000,0.000000,0.000000,-90.000000
2.299654007,0.000000,0.000000,0.000000,-90.000000
2.309608936,0.000000,0.000000,0.000000,-90.000000
2.319731951,0.000000,0.000000,0.000000,-90.000000
2.329715967,0.000000,0.000000,0.000000,-90.000000
2.339669943,0.000000,0.000000,0.000000,-90.000000
2.349690914,0.000000,0.000000,0.000000,-90.000000
2.359668016,0.000000,0.000000,0.000000,-90.000000
2.369667053,0.000000,0.000000,0.000000,-90.000000
2.379647970,0.000000,0.000000,0.000000,-90.000000
2.389694929,0.000000,0.000000,0.000000,-90.000000
2.399708986,0.000000,0.000000,0.000000,-90.000000
2.409595966,0.000000,0.000000,0.000000,-90.000000
2.419686079,0.000000,0.000000,0.000000,-90.000000
2.429658890,0.000000,0.000000,0.000000,-90.000000
2.439641953,0.000000,0.000000,0.000000,-90.000000
2.449697018,0.000000,0.000000,0.000000,-90.000000
2.459722042,0.000000,0.000000,0.000000,-90.000000
2.469769001,0.000000,0.000000,0.000000,-90.000000
2.479706049,0.000000,0.000000,0.000000,-90.000000
2.489726067,0.000000,0.000000,0.000000,-90.000000
2.499715090,0.000000,0.000000,0.000000,-90.000000
2.509537935,0.000000,0.000000,0.000000,-90.000000
2.519741058,0.000000,0.000000,0.000000,-90.000000
2.529731035,0.000000,0.000000,0.000000,-90.000000
2.539639950,0.000000,0.000000,0.000000,-90.000000
2.549710035,0.000000,0.000000,0.000000,-90.000000
2.559664965,0.000000,0.000000,0.000000,-90.000000
2.569713116,0.000000,0.000000,0.000000,-90.000000
2.579714060,0.000000,0.000000,0.000000,-90.000000
2.589683056,0.000000,0.000000,0.000000,-90.000000
2.599636078,0.000000,0.000000,0.000000,-90.000000
2.609605074,0.000000,0.000000,0.000000,-90.000000
2.622710943,0.000000,0.000000,0.000000,-90.000000
2.629699945,0.000000,0.000000,0.000000,-90.000000
2.639602900,0.000000,0.000000,0.000000,-90.000000
2.649655104,0.000000,0.000000,0.000000,-90.000000
2.659611940,0.000000,0.000000,0.000000,-90.000000
2.669688940,0.000000,0.000000,0.000000,-90.000000
2.679689884,0.000000,0.000000,0.000000,-90.000000
2.689722061,0.000000,0.000000,0.000000,-90.000000
2.699702024,0.000000,0.000000,0.000000,-90.000000
2.709657907,0.000000,0.000000,0.000000,-90.000000
