time,x,y,z,yaw
0.009649038,0.000000,0.000000,0.000000,-90.000000
0.019624949,0.000000,0.000000,0.000000,-90.000000
0.029649973,0.000000,0.000000,0.000000,-90.000000
0.039722919,0.000000,0.000000,0.000000,-90.000000
0.049654007,0.000000,0.000000,0.000000,-90.000000
0.059675932,0.000000,0.000000,0.000000,-90.000000
0.069684982,0.000000,0.000000,0.000000,-90.000000
0.079647064,0.000000,0.000000,0.000000,-90.000000
0.089689970,0.000000,0.000000,0.000000,-90.000000
0.099695921,0.000000,0.000000,0.000000,-90.000000
0.109608889,0.000000,0.000000,0.000000,-90.000000
0.119682074,0.000000,0.000000,0.000000,-90.000000
0.129661083,0.000000,0.000000,0.000000,-90.000000
0.139755011,0.000000,0.000000,0.000000,-90.000000
0.149724007,0.000000,0.000000,0.000000,-90.000000
0.159676075,0.000000,0.000000,0.000000,-90.000000
0.169718027,0.000000,0.000000,0.000000,-90.000000
0.179708958,0.000000,0.000000,0.000000,-90.000000
0.189656019,0.000000,0.000000,0.000000,-90.000000
0.199712038,0.000000,0.000000,0.000000,-90.000000
0.209614992,0.000000,0.000000,0.000000,-90.000000
0.219676971,0.000000,0.000000,0.000000,-90.000000
0.229660988,0.000000,0.000000,0.000000,-90.000000
0.239739895,0.000000,0.000000,0.000000,-90.000000
0.249680996,0.000000,0.000000,0.000000,-90.000000
0.259660006,0.000000,0.000000,0.000000,-90.000000
0.269718885,0.000000,0.000000,0.000000,-90.000000
0.279730082,0.000000,0.000000,0.000000,-90.000000
0.289741039,0.000000,0.000000,0.000000,-90.000000
0.299626112,0.000000,0.000000,0.000000,-90.000000
0.309649944,0.000000,0.000000,0.000000,-90.000000
0.319670916,0.000000,0.000000,0.000000,-90.000000
0.329685926,0.000000,0.000000,0.000000,-90.000000
0.339708090,0.000000,0.000000,0.000000,-90.000000
0.349673033,0.000000,0.000000,0.000000,-90.000000
0.359627962,0.000000,0.000000,0.000000,-90.000000
0.369631052,0.000000,0.000000,0.000000,-90.000000
0.380291939,0.000000,0.000000,0.000000,-90.000000
0.389687061,0.000000,0.000000,0.000000,-90.000000
0.399739981,0.000000,0.000000,0.000000,-90.000000
0.409748077,0.000000,0.000000,0.000000,-90.000000
0.419678926,0.000000,0.000000,0.000000,-90.000000
0.429692984,0.000000,0.000000,0.000000,-90.000000
0.440191984,0.000000,0.000000,0.000000,-90.000000
0.449660063,0.000000,0.000000,0.000000,-90.000000
0.459736109,0.000000,0.000000,0.000000,-90.000000
0.469675064,0.000000,0.000000,0.000000,-90.000000
0.479813099,0.000000,0.000000,0.000000,-90.000000
0.489725113,0.000000,0.000000,0.000000,-90.000000
0.499680996,0.000000,0.000000,0.000000,-90.000000
0.509649992,0.000000,0.000000,0.000000,-90.000000
0.519731998,0.000000,0.000000,0.000000,-90.000000
0.529678106,0.000000,0.000000,0.000000,-90.000000
0.539652109,0.000000,0.000000,0.000000,-90.000000
0.549679041,0.000000,0.000000,0.000000,-90.000000
0.559667110,0.000000,0.000000,0.000000,-90.000000
0.569638968,0.000000,0.000000,0.000000,-90.000000
0.579900980,0.000000,0.000000,0.000000,-90.000000
0.589679003,0.000000,0.000000,0.000000,-90.000000
0.599746943,0.000000,0.000000,0.000000,-90.000000
0.609713078,0.000000,0.000000,0.000000,-90.000000
0.619798899,0.000000,0.000000,0.000000,-90.000000
0.629772902,0.000000,0.000000,0.000000,-90.000000
0.639636993,0.000000,0.000000,0.000000,-90.000000
0.649694920,0.000000,0.000000,0.000000,-90.000000
0.659729004,0.000000,0.000000,0.000000,-90.000000
0.669747114,0.000000,0.000000,0.000000,-90.000000
0.679649115,0.000000,0.000000,0.000000,-90.000000
0.689737082,0.000000,0.000000,0.000000,-90.000000
0.699731112,0.000000,0.000000,0.000000,-90.000000
0.709716082,0.000000,0.000000,0.000000,-90.000000
0.719753981,0.000000,0.000000,0.000000,-90.000000
0.729655981,0.000000,0.000000,0.000000,-90.000000
0.739708900,0.000000,0.000000,0.000000,-90.000000
0.749720097,0.000000,0.000000,0.000000,-90.000000
0.759737968,0.000000,0.000000,0.000000,-90.000000
0.769682884,0.000000,0.000000,0.000000,-90.000000
0.779685974,0.000000,0.000000,0.000000,-90.000000
0.789702892,0.000000,0.000000,0.000000,-90.000000
0.799709082,0.000000,0.000000,0.000000,-90.000000
0.809669971,0.000000,0.000000,0.000000,-90.000000
0.819727898,0.000000,0.000000,0.000000,-90.000000
0.829747915,0.000000,0.000000,0.000000,-90.000000
0.839708090,0.000000,0.000000,0.000000,-90.000000
0.849723101,0.000000,0.000000,0.000000,-90.000000
0.859780073,0.000000,0.000000,0.000000,-90.000000
0.869920969,0.000000,0.000000,0.000000,-90.000000
0.879678011,0.000000,0.000000,0.000000,-90.000000
0.889679909,0.000000,0.000000,0.000000,-90.000000
0.899737120,0.000000,0.000000,0.000000,-90.000000
0.909691095,0.000000,0.000000,0.000000,-90.000000
0.919724941,0.000000,0.000000,0.000000,-90.000000
0.929657936,0.000000,0.000000,0.000000,-90.000000
0.939688921,0.000000,0.000000,0.000000,-90.000000
0.949670076,0.000000,0.000000,0.000000,-90.000000
0.959692001,0.000000,0.000000,0.000000,-90.000000
0.969715118,0.000000,0.000000,0.000000,-90.000000
0.979654074,0.000000,0.000000,0.000000,-90.000000
0.989751101,0.000000,0.000000,0.000000,-90.000000
0.999666929,0.000000,0.000000,0.000000,-90.000000
1.009641886,0.000000,0.000000,0.000000,-90.000000
1.019711971,0.000000,0.000000,0.000000,-90.000000
1.029722929,0.000000,0.000000,0.000000,-90.000000
1.039689064,0.000000,0.000000,0.000000,-90.000000
1.049726963,0.000000,0.000000,0.000000,-90.000000
1.059736967,0.000000,0.000000,0.000000,-90.000000
1.069708109,0.000000,0.000000,0.000000,-90.000000
1.079613924,0.000000,0.000000,0.000000,-90.000000
1.089684010,0.000000,0.000000,0.000000,-90.000000
1.099690914,0.000000,0.000000,0.000000,-90.000000
1.109659910,0.000000,0.000000,0.000000,-90.000000
1.119688988,0.000000,0.000000,0.000000,-90.000000
1.129731894,0.000000,0.000000,0.000000,-90.000000
1.139668941,0.000000,0.000000,0.000000,-90.000000
1.149729967,0.000000,0.000000,0.000000,-90.000000
1.159905910,0.000000,0.000000,0.000000,-90.000000
1.169709921,0.000000,0.000000,0.000000,-90.000000
1.179696083,0.000000,0.000000,0.000000,-90.000000
1.189663887,0.000000,0.000000,0.000000,-90.000000
1.199696064,0.000000,0.000000,0.000000,-90.000000
1.209628105,0.000000,0.000000,0.000000,-90.000000
1.219636917,0.000000,0.000000,0.000000,-90.000000
1.229732990,0.000000,0.000000,0.000000,-90.000000
1.239675999,0.000000,0.000000,0.000000,-90.000000
1.249665976,0.000000,0.000000,0.000000,-90.000000
1.259659052,0.000000,0.000000,0.000000,-90.000000
1.269737959,0.000000,0.000000,0.000000,-90.000000
1.279675007,0.000000,0.000000,0.000000,-90.000000
1.289659023,0.000000,0.000000,0.000000,-90.000000
1.299752951,0.000000,0.000000,0.000000,-90.000000
1.309633017,0.000000,0.000000,0.000000,-90.000000
1.319740057,0.000000,0.000000,0.000000,-90.000000
1.329701900,0.000000,0.000000,0.000000,-90.000000
1.339682102,0.000000,0.000000,0.000000,-90.000000
1.349786997,0.000000,0.000000,0.000000,-90.000000
1.359668970,0.000000,0.000000,0.000000,-90.000000
1.369693041,0.000000,0.000000,0.000000,-90.000000
1.379719973,0.000000,0.000000,0.000000,-90.000000
1.389663935,0.000000,0.000000,0.000000,-90.000000
1.399652004,0.000000,0.000000,0.000000,-90.000000
1.409662008,0.000000,0.000000,0.000000,-90.000000
1.419713974,0.000000,0.000000,0.000000,-90.000000
1.429649115,0.000000,0.000000,0.000000,-90.000000
1.439743996,0.000000,0.000000,0.000000,-90.000000
1.449667931,0.000000,0.000000,0.000000,-90.000000
1.459724903,0.000000,0.000000,0.000000,-90.000000
1.469628096,0.000000,0.000000,0.000000,-90.000000
1.479613066,0.000000,0.000000,0.000000,-90.000000
1.489675045,0.000000,0.000000,0.000000,-90.000000
1.499746084,0.000000,0.000000,0.000000,-90.000000
1.509650946,0.000000,0.000000,0.000000,-90.000000
1.519848108,0.000000,0.000000,0.000000,-90.000000
1.529685974,0.000000,0.000000,0.000000,-90.000000
1.539714098,0.000000,0.000000,0.000000,-90.000000
1.549698114,0.000000,0.000000,0.000000,-90.000000
1.559716940,0.000000,0.000000,0.000000,-90.000000
1.569677114,0.000000,0.000000,0.000000,-90.000000
1.579699993,0.000000,0.000000,0.000000,-90.000000
1.589721918,0.000000,0.000000,0.000000,-90.000000
1.599703074,0.000000,0.000000,0.000000,-90.000000
1.609672070,0.000000,0.000000,0.000000,-90.000000
1.619697094,0.000000,0.000000,0.000000,-90.000000
1.629683018,0.000000,0.000000,0.000000,-90.000000
1.639672041,0.000000,0.000000,0.000000,-90.000000
1.649586916,0.000000,0.000000,0.000000,-90.000000
1.659709930,0.000000,0.000000,0.000000,-90.000000
1.669729948,0.000000,0.000000,0.000000,-90.000000
1.679634094,0.000000,0.000000,0.000000,-90.000000
1.689763069,0.000000,0.000000,0.000000,-90.000000
1.699642897,0.000000,0.000000,0.000000,-90.000000
1.709666967,0.000000,0.000000,0.000000,-90.000000
1.719680071,0.000000,0.000000,0.000000,-90.000000
1.729686975,0.000000,0.000000,0.000000,-90.000000
1.739634991,0.000000,0.000000,0.000000,-90.000000
1.749651909,0.000000,0.000000,0.000000,-90.000000
1.759715080,0.000000,0.000000,0.000000,-90.000000
1.769668102,0.000000,0.000000,0.000000,-90.000000
1.779683113,0.000000,0.000000,0.000000,-90.000000
1.789741039,0.000000,0.000000,0.000000,-90.000000
1.799685001,0.000000,0.000000,0.000000,-90.000000
1.809695005,0.000000,0.000000,0.000000,-90.000000
1.819679022,0.000000,0.000000,0.000000,-90.000000
1.829699039,0.000000,0.000000,0.000000,-90.000000
1.839706898,0.000000,0.000000,0.000000,-90.000000
1.849683046,0.000000,0.000000,0.000000,-90.000000
1.859654903,0.000000,0.000000,0.000000,-90.000000
1.869745016,0.000000,0.000000,0.000000,-90.000000
1.879708052,0.000000,0.000000,0.000000,-90.000000
1.889688015,0.000000,0.000000,0.000000,-90.000000
1.899661064,0.000000,0.000000,0.000000,-90.000000
1.909595966,0.000000,0.000000,0.000000,-90.000000
1.919717073,0.000000,0.000000,0.000000,-90.000000
1.929644108,0.000000,0.000000,0.000000,-90.000000
1.939692020,0.000000,0.000000,0.000000,-90.000000
1.949625969,0.000000,0.000000,0.000000,-90.000000
1.959712982,0.000000,0.000000,0.000000,-90.000000
1.969743967,0.000000,0.000000,0.000000,-90.000000
1.979629040,0.000000,0.000000,0.000000,-90.000000
1.989736080,0.000000,0.000000,0.000000,-90.000000
1.999648094,0.000000,0.000000,0.000000,-90.000000
2.009630919,0.000000,0.000000,0.000000,-90.000000
2.019716024,0.000000,0.000000,0.000000,-90.000000
2.029673100,0.000000,0.000000,0.000000,-90.000000
2.039705038,0.000000,0.000000,0.000000,-90.000000
2.049740076,0.000000,0.000000,0.000000,-90.000000
2.059767008,0.000000,0.000000,0.000000,-90.000000
2.069855928,0.000000,0.000000,0.000000,-90.000000
2.079684973,0.000000,0.000000,0.000000,-90.000000
2.089693069,0.000000,0.000000,0.000000,-90.000000
2.099677086,0.000000,0.000000,0.000000,-90.000000
2.109613895,0.000000,0.000000,0.000000,-90.000000
2.119723082,0.000000,0.000000,0.000000,-90.000000
2.129708052,0.000000,0.000000,0.000000,-90.000000
2.139693975,0.000000,0.000000,0.000000,-90.000000
2.149697065,0.000000,0.000000,0.000000,-90.000000
2.159738064,0.000000,0.000000,0.000000,-90.000000
2.169694901,0.000000,0.000000,0.000000,-90.000000
2.179634094,0.000000,0.000000,0.000000,-90.000000
2.189699888,0.000000,0.000000,0.000000,-90.000000
2.199651003,0.000000,0.000000,0.000000,-90.000000
2.209620953,0.000000,0.000000,0.000000,-90.000000
2.219727993,0.000000,0.000000,0.000000,-90.000000
2.229635954,0.000000,0.000000,0.000000,-90.000000
2.239717007,0.000000,0.000000,0.000000,-90.000000
2.249703884,0.000000,0.000000,0.000000,-90.000000
2.259705067,0.000000,0.000000,0.000000,-90.000000
2.269671917,0.000000,0.000000,0.000000,-90.000000
2.279697895,0.000000,0.000000,0.000000,-90.000000
2.289693117,0.000000,0.000000,0.000000,-90.000000
2.299669981,0.000000,0.000000,0.000000,-90.000000
2.309622049,0.000000,0.000000,0.000000,-90.000000
2.319746971,0.000000,0.000000,0.000000,-90.000000
2.329730988,0.000000,0.000000,0.000000,-90.000000
2.339684963,0.000000,0.000000,0.000000,-90.000000
2.349705935,0.000000,0.000000,0.000000,-90.000000
2.359683037,0.000000,0.000000,0.000000,-90.000000
2.369683027,0.000000,0.000000,0.000000,-90.000000
2.379662991,0.000000,0.000000,0.000000,-90.000000
2.389714003,0.000000,0.000000,0.000000,-90.000000
2.399724007,0.000000,0.000000,0.000000,-90.000000
2.409611940,0.000000,0.000000,0.000000,-90.000000
2.419702053,0.000000,0.000000,0.000000,-90.000000
2.429673910,0.000000,0.000000,0.000000,-90.000000
2.439656973,0.000000,0.000000,0.000000,-90.000000
2.449712038,0.000000,0.000000,0.000000,-90.000000
2.459737062,0.000000,0.000000,0.000000,-90.000000
2.469784021,0.000000,0.000000,0.000000,-90.000000
2.479721069,0.000000,0.000000,0.000000,-90.000000
2.489742041,0.000000,0.000000,0.000000,-90.000000
2.499730110,0.000000,0.000000,0.000000,-90.000000
2.509551048,0.000000,0.000000,0.000000,-90.000000
2.519757032,0.000000,0.000000,0.000000,-90.000000
2.529746056,0.000000,0.000000,0.000000,-90.000000
2.539654970,0.000000,0.000000,0.000000,-90.000000
2.549725056,0.000000,0.000000,0.000000,-90.000000
2.559679985,0.000000,0.000000,0.000000,-90.000000
2.569735050,0.000000,0.000000,0.000000,-90.000000
2.579729080,0.000000,0.000000,0.000000,-90.000000
2.589698076,0.000000,0.000000,0.000000,-90.000000
2.599652052,0.000000,0.000000,0.000000,-90.000000
2.609618902,0.000000,0.000000,0.000000,-90.000000
2.622725964,0.000000,0.000000,0.000000,-90.000000
2.629714966,0.000000,0.000000,0.000000,-90.000000
2.639616966,0.000000,0.000000,0.000000,-90.000000
2.649669886,0.000000,0.000000,0.000000,-90.000000
2.659627914,0.000000,0.000000,0.000000,-90.000000
2.669703960,0.000000,0.000000,0.000000,-90.000000
2.679704905,0.000000,0.000000,0.000000,-90.000000
2.689738035,0.000000,0.000000,0.000000,-90.000000
2.699717999,0.000000,0.000000,0.000000,-90.000000
2.709671974,0.000000,0.000000,0.000000,-90.000000
