time,x,y,z,yaw
0.001130104,-0.807957,0.583199,-0.766463,-154.053421
0.010891914,-0.793701,0.563501,-0.771812,-154.050095
0.020864964,-0.793059,0.562614,-0.772053,-154.049942
0.030958891,-0.793059,0.562614,-0.772053,-154.049942
0.040888071,-0.788938,0.565536,-0.771864,-154.047409
0.050895929,-0.788774,0.565653,-0.771857,-154.047318
0.060966969,-0.788774,0.565653,-0.771857,-154.047318
0.070955038,-0.788774,0.565653,-0.771857,-154.047318
0.080910921,-0.788798,0.565619,-0.771857,-154.044846
0.090867043,-0.788798,0.565619,-0.771857,-154.044846
0.100845098,-0.788798,0.565619,-0.771857,-154.044846
0.110847950,-0.788798,0.565619,-0.771857,-154.044846
0.120932102,-0.788823,0.565584,-0.771857,-154.042313
0.130775928,-0.788823,0.565584,-0.771857,-154.042313
0.140820026,-0.793515,0.563516,-0.776860,-154.039673
0.150887012,-0.793819,0.563382,-0.777184,-154.039490
0.160775900,-0.793824,0.563380,-0.777189,-154.039490
0.170866966,-0.793824,0.563380,-0.777189,-154.039490
0.180878878,-0.788950,0.565460,-0.771916,-154.035019
0.190866947,-0.788896,0.565483,-0.771857,-154.034958
0.200906038,-0.789885,0.564771,-0.771902,-154.034195
0.210879087,-0.789917,0.564749,-0.771903,-154.034164
0.220865965,-0.793222,0.562384,-0.772053,-154.033325
0.231010914,-0.793222,0.562384,-0.772053,-154.033325
0.240834951,-0.789104,0.565308,-0.771864,-154.030991
0.250844955,-0.788936,0.565427,-0.771857,-154.030899
0.260886908,-0.788936,0.565427,-0.771857,-154.030899
0.270936012,-0.795974,0.559146,-0.767675,-154.028702
0.280746937,-0.796324,0.558834,-0.767467,-154.028580
0.290940046,-0.796905,0.558314,-0.767123,-154.028183
0.301111937,-0.796905,0.558314,-0.767123,-154.028183
0.311251879,-0.807643,0.581477,-0.766498,-154.024628
0.321032047,-0.808252,0.582790,-0.766463,-154.024429
0.330980062,-0.808252,0.582790,-0.766463,-154.024429
0.340985060,-0.793425,0.569287,-0.770625,-154.021713
0.351073980,-0.789220,0.565471,-0.771803,-154.021454
0.360934019,-0.789029,0.565297,-0.771857,-154.021439
0.370980024,-0.792790,0.562596,-0.772027,-154.019272
0.380893946,-0.793350,0.562191,-0.772053,-154.018631
0.390733957,-0.793366,0.562180,-0.772053,-154.018600
0.401124001,-0.793366,0.562180,-0.772053,-154.018600
0.410963058,-0.788671,0.564192,-0.766998,-154.015991
0.420712948,-0.788418,0.564301,-0.766725,-154.015854
0.430941105,-0.788418,0.564301,-0.766725,-154.015854
0.440809965,-0.788418,0.564301,-0.766725,-154.015854
0.450865030,-0.789108,0.565186,-0.771857,-154.013397
0.460844040,-0.789108,0.565186,-0.771857,-154.013397
0.470838070,-0.789131,0.565155,-0.771857,-154.011139
0.480846882,-0.789134,0.565150,-0.771857,-154.010757
0.490851879,-0.789134,0.565150,-0.771857,-154.010742
0.500988960,-0.789134,0.565150,-0.771857,-154.010742
0.511569023,-0.792785,0.562527,-0.772022,-154.008575
0.521269083,-0.793454,0.562047,-0.772053,-154.008347
0.531105042,-0.793467,0.562038,-0.772053,-154.008347
0.541158915,-0.806818,0.580280,-0.767072,-154.005157
0.551028967,-0.808417,0.582469,-0.766475,-154.004959
0.560962915,-0.808450,0.582515,-0.766463,-154.004959
0.570899963,-0.808450,0.582515,-0.766463,-154.004959
0.580926895,-0.789246,0.565060,-0.771849,-154.002365
0.591106892,-0.789217,0.565034,-0.771857,-154.002365
0.601119041,-0.789217,0.565034,-0.771857,-154.002365
0.610704899,-0.789217,0.565034,-0.771857,-154.002365
0.620822906,-0.789244,0.564997,-0.771857,-153.999680
0.630898952,-0.789244,0.564997,-0.771857,-153.999680
0.640954971,-0.789272,0.564957,-0.771857,-153.996796
0.650918961,-0.789273,0.564956,-0.771857,-153.996704
0.660809994,-0.789273,0.564956,-0.771857,-153.996704
0.670917034,-0.791912,0.562056,-0.768296,-153.995514
0.680934906,-0.792889,0.560982,-0.766974,-153.995377
0.690885067,-0.792926,0.560941,-0.766923,-153.995361
0.700879097,-0.792926,0.560941,-0.766923,-153.995361
0.710746050,-0.792926,0.560941,-0.766923,-153.995361
0.720908880,-0.789315,0.564898,-0.771857,-153.992462
0.731132030,-0.789315,0.564898,-0.771857,-153.992462
0.740746021,-0.789315,0.564898,-0.771857,-153.992462
0.750972033,-0.793256,0.562058,-0.772035,-153.989304
0.760878086,-0.793639,0.561784,-0.772053,-153.989273
0.770839930,-0.789699,0.564585,-0.771872,-153.986923
0.780854940,-0.789377,0.564815,-0.771857,-153.986771
0.790944099,-0.789371,0.564819,-0.771857,-153.986771
0.800966978,-0.789371,0.564819,-0.771857,-153.986771
0.810844898,-0.807885,0.581547,-0.766677,-153.985397
0.820915937,-0.808650,0.582238,-0.766463,-153.985352
0.830939054,-0.808650,0.582238,-0.766463,-153.985352
0.840745926,-0.808650,0.582238,-0.766463,-153.985352
0.850836992,-0.808679,0.582197,-0.766463,-153.982452
0.860893011,-0.808679,0.582197,-0.766463,-153.982452
0.870876074,-0.808679,0.582197,-0.766463,-153.982452
0.880899906,-0.793696,0.561558,-0.766905,-153.979279
0.891026020,-0.793085,0.560717,-0.766923,-153.979156
0.900997877,-0.793085,0.560717,-0.766923,-153.979156
0.910896063,-0.793517,0.561276,-0.770149,-153.977905
0.920906067,-0.793759,0.561599,-0.771983,-153.977600
0.930942059,-0.793768,0.561612,-0.772053,-153.977600
0.940865993,-0.793800,0.561567,-0.772053,-153.974335
0.950964928,-0.793804,0.561561,-0.772053,-153.973953
0.960797071,-0.793804,0.561561,-0.772053,-153.973938
0.970915079,-0.793804,0.561561,-0.772053,-153.973938
0.980854988,-0.793831,0.561523,-0.772053,-153.971222
0.990921021,-0.793831,0.561523,-0.772053,-153.971191
1.000942945,-0.793831,0.561523,-0.772053,-153.971191
1.010858059,-0.790207,0.564097,-0.771887,-153.968307
1.020699978,-0.790053,0.564206,-0.771879,-153.968185
1.030910969,-0.789555,0.564561,-0.771857,-153.968033
1.041392088,-0.789594,0.564507,-0.771857,-153.964127
1.050798893,-0.789596,0.564504,-0.771857,-153.963882
1.060816050,-0.789598,0.564502,-0.771857,-153.963730
1.071046114,-0.793790,0.561491,-0.772047,-153.962112
1.081470013,-0.793921,0.561397,-0.772053,-153.962067
1.090812922,-0.793921,0.561397,-0.772053,-153.962067
1.100976944,-0.793921,0.561397,-0.772053,-153.962067
1.110903978,-0.789824,0.564305,-0.771865,-153.958557
1.120858908,-0.789650,0.564428,-0.771857,-153.958405
1.130811930,-0.789650,0.564428,-0.771857,-153.958405
1.145010948,-0.792629,0.562277,-0.771991,-153.955597
1.150818110,-0.793759,0.561461,-0.772043,-153.954529
1.160896063,-0.793986,0.561298,-0.772053,-153.954529
1.170892954,-0.793994,0.561292,-0.772053,-153.954529
1.180849075,-0.789870,0.564237,-0.771864,-153.953323
1.190825939,-0.789701,0.564358,-0.771857,-153.953278
1.200890064,-0.789701,0.564358,-0.771857,-153.953278
1.210911989,-0.789076,0.563455,-0.766932,-153.951691
1.220942974,-0.789050,0.563417,-0.766725,-153.951630
1.230885983,-0.789050,0.563417,-0.766725,-153.951630
1.240721941,-0.789050,0.563417,-0.766725,-153.951630
1.250802040,-0.789735,0.564310,-0.771857,-153.949814
1.260806084,-0.789735,0.564310,-0.771857,-153.949814
1.270869970,-0.807808,0.580572,-0.766809,-153.946487
1.280831099,-0.809029,0.581669,-0.766468,-153.946198
1.290697098,-0.809047,0.581685,-0.766463,-153.946182
1.300702095,-0.809047,0.581685,-0.766463,-153.946182
1.310838938,-0.794709,0.561952,-0.771829,-153.942810
1.320966005,-0.794111,0.561128,-0.772053,-153.942673
1.330935955,-0.794111,0.561128,-0.772053,-153.942673
1.340827942,-0.794111,0.561128,-0.772053,-153.942673
1.350759029,-0.789843,0.564158,-0.771857,-153.938828
1.360846043,-0.789843,0.564158,-0.771857,-153.938828
1.370992899,-0.792401,0.562312,-0.771973,-153.936722
1.380893946,-0.792533,0.562217,-0.771979,-153.936600
1.390995979,-0.794176,0.561035,-0.772053,-153.935974
1.401025057,-0.794176,0.561035,-0.772053,-153.935974
1.411132097,-0.809049,0.581344,-0.766509,-153.933929
1.421073914,-0.809172,0.581512,-0.766463,-153.933899
1.431214094,-0.809172,0.581512,-0.766463,-153.933899
1.440823078,-0.795861,0.563187,-0.771445,-153.930283
1.450943947,-0.794279,0.561011,-0.772037,-153.929916
1.460864067,-0.794236,0.560951,-0.772053,-153.929916
1.470804930,-0.794236,0.560951,-0.772053,-153.929916
1.480832100,-0.790613,0.563527,-0.771887,-153.927002
1.490814924,-0.790613,0.563527,-0.771887,-153.927002
1.500912905,-0.789993,0.563968,-0.771858,-153.926514
1.510840893,-0.789997,0.563943,-0.771857,-153.923203
1.520891905,-0.789998,0.563941,-0.771857,-153.923065
1.530870914,-0.789998,0.563941,-0.771857,-153.923065
1.540922880,-0.790041,0.563881,-0.771857,-153.918732
1.550882101,-0.790042,0.563879,-0.771857,-153.918594
1.560781002,-0.790042,0.563879,-0.771857,-153.918594
1.571007013,-0.789430,0.562956,-0.766924,-153.915588
1.580914974,-0.789405,0.562919,-0.766725,-153.915466
1.590761900,-0.789405,0.562919,-0.766725,-153.915466
1.600964069,-0.789405,0.562919,-0.766725,-153.915466
1.610822916,-0.793301,0.560102,-0.766903,-153.911896
1.620891094,-0.793743,0.559786,-0.766923,-153.911896
1.630820036,-0.793743,0.559786,-0.766923,-153.911896
1.640872002,-0.793743,0.559786,-0.766923,-153.911896
1.651082993,-0.794410,0.560642,-0.771880,-153.909836
1.660778999,-0.794433,0.560672,-0.772053,-153.909760
1.671046972,-0.794433,0.560672,-0.772053,-153.909760
1.680882931,-0.790315,0.563594,-0.771863,-153.905212
1.690965891,-0.790175,0.563693,-0.771857,-153.905060
1.700865030,-0.790175,0.563693,-0.771857,-153.905060
1.710902929,-0.790206,0.563651,-0.771857,-153.902008
1.720952034,-0.790208,0.563648,-0.771857,-153.901794
1.730902910,-0.790208,0.563648,-0.771857,-153.901779
1.740880966,-0.790251,0.563587,-0.771857,-153.897400
1.750932932,-0.790254,0.563584,-0.771857,-153.897125
1.760817051,-0.790254,0.563584,-0.771857,-153.897125
1.770859957,-0.793080,0.560466,-0.768037,-153.895828
1.781008959,-0.793867,0.559598,-0.766969,-153.895660
1.790743113,-0.793901,0.559561,-0.766923,-153.895645
1.801028967,-0.793901,0.559561,-0.766923,-153.895645
1.810843945,-0.812258,0.575997,-0.761768,-153.892563
1.820924997,-0.813242,0.576878,-0.761491,-153.892395
1.830986023,-0.813249,0.576884,-0.761490,-153.892395
1.840857983,-0.790601,0.563125,-0.766517,-153.889221
1.850861073,-0.789664,0.562555,-0.766725,-153.889084
1.860811949,-0.789664,0.562555,-0.766725,-153.889084
1.870935917,-0.790123,0.563127,-0.770086,-153.886978
1.880740881,-0.790143,0.563152,-0.770234,-153.886887
1.890945911,-0.790361,0.563433,-0.771857,-153.886246
1.900906086,-0.790361,0.563433,-0.771857,-153.886246
1.910846949,-0.794352,0.560546,-0.772038,-153.882904
1.920711040,-0.794352,0.560546,-0.772038,-153.882904
1.931039095,-0.794689,0.560302,-0.772053,-153.882675
1.940996885,-0.790597,0.563226,-0.771865,-153.880615
1.950871944,-0.790418,0.563353,-0.771857,-153.880524
1.960850000,-0.790417,0.563355,-0.771857,-153.880524
1.970861912,-0.790435,0.563329,-0.771857,-153.878677
1.981008053,-0.790436,0.563328,-0.771857,-153.878601
1.990803003,-0.790436,0.563328,-0.771857,-153.878601
2.000998974,-0.790436,0.563328,-0.771857,-153.878586
2.010927916,-0.790470,0.563280,-0.771857,-153.875092
2.020920038,-0.790474,0.563275,-0.771857,-153.874756
2.031380892,-0.790474,0.563275,-0.771857,-153.874756
2.041018963,-0.790487,0.563256,-0.771857,-153.873398
2.050940037,-0.790487,0.563255,-0.771857,-153.873352
2.060820103,-0.790487,0.563255,-0.771857,-153.873352
2.071121931,-0.790525,0.563202,-0.771857,-153.869476
2.080913067,-0.790534,0.563190,-0.771857,-153.868607
2.090986967,-0.790534,0.563190,-0.771857,-153.868591
2.101309061,-0.790534,0.563190,-0.771857,-153.868591
2.111100912,-0.794701,0.560170,-0.772045,-153.864578
2.120811939,-0.794876,0.560043,-0.772053,-153.864395
2.131072998,-0.794876,0.560043,-0.772053,-153.864395
2.141011953,-0.794891,0.560022,-0.772053,-153.862930
2.151027918,-0.794894,0.560018,-0.772053,-153.862640
2.161161900,-0.794894,0.560018,-0.772053,-153.862640
2.171418905,-0.794894,0.560018,-0.772053,-153.862640
2.180926085,-0.794932,0.559963,-0.772053,-153.858673
2.191171885,-0.794934,0.559961,-0.772053,-153.858505
2.201656103,-0.794934,0.559961,-0.772053,-153.858505
2.210983038,-0.790497,0.561865,-0.767256,-153.854721
2.220979929,-0.790014,0.562073,-0.766735,-153.854370
2.230978966,-0.790005,0.562077,-0.766725,-153.854370
2.240940094,-0.794749,0.559981,-0.771789,-153.852219
2.250946045,-0.794997,0.559872,-0.772053,-153.852097
2.260761023,-0.794997,0.559872,-0.772053,-153.852097
2.270987034,-0.791811,0.562153,-0.771907,-153.850952
2.281063080,-0.790750,0.562914,-0.771859,-153.850616
2.291121006,-0.790711,0.562942,-0.771857,-153.850601
2.301115990,-0.790711,0.562942,-0.771857,-153.850601
2.311120987,-0.807729,0.578173,-0.767114,-153.846252
2.320945978,-0.808659,0.579005,-0.766855,-153.846024
2.331068993,-0.808659,0.579005,-0.766855,-153.846024
2.341176987,-0.797045,0.562442,-0.771318,-153.842590
2.350975990,-0.796418,0.561548,-0.771559,-153.842407
2.360862970,-0.795143,0.559805,-0.772035,-153.842316
2.371018887,-0.791494,0.562309,-0.771888,-153.840302
2.380861044,-0.790839,0.562777,-0.771858,-153.839798
2.390757084,-0.790817,0.562792,-0.771857,-153.839783
2.401170015,-0.790817,0.562792,-0.771857,-153.839783
2.410917044,-0.794278,0.560287,-0.772014,-153.837234
2.420952082,-0.795116,0.559682,-0.772052,-153.836990
2.430964947,-0.795144,0.559662,-0.772053,-153.836990
2.440916061,-0.795144,0.559662,-0.772053,-153.836990
2.450885057,-0.805868,0.574243,-0.768066,-153.835175
2.460728884,-0.810182,0.580104,-0.766463,-153.834259
2.470936060,-0.793230,0.564775,-0.771206,-153.831390
2.480806112,-0.790952,0.562718,-0.771843,-153.831161
2.490844011,-0.790902,0.562673,-0.771857,-153.831161
2.500909090,-0.790902,0.562673,-0.771857,-153.831161
2.510929108,-0.790902,0.562673,-0.771857,-153.831161
2.520909071,-0.790930,0.562633,-0.771857,-153.828247
2.530914068,-0.790930,0.562633,-0.771857,-153.828247
2.542455912,-0.793551,0.559735,-0.768314,-153.826736
2.550865889,-0.794543,0.558638,-0.766971,-153.826309
2.560843945,-0.794578,0.558599,-0.766923,-153.826294
2.570894003,-0.807267,0.575837,-0.762168,-153.823868
2.580753088,-0.807808,0.576572,-0.761965,-153.823761
2.590684891,-0.809614,0.579030,-0.761288,-153.823532
2.600744009,-0.809614,0.579030,-0.761288,-153.823532
2.610807896,-0.809614,0.579030,-0.761288,-153.823532
2.620994091,-0.795314,0.559421,-0.772053,-153.819595
2.630847931,-0.795314,0.559421,-0.772053,-153.819595
2.640950918,-0.791523,0.562122,-0.771878,-153.815720
2.650913954,-0.791402,0.562208,-0.771873,-153.815598
2.660737991,-0.791402,0.562208,-0.771873,-153.815598
2.670954943,-0.791075,0.562430,-0.771857,-153.813522
2.680923939,-0.791080,0.562423,-0.771857,-153.813049
2.690852880,-0.791080,0.562423,-0.771857,-153.813034
2.700862885,-0.791080,0.562423,-0.771857,-153.813034
2.710803032,-0.791080,0.562423,-0.771857,-153.813034
2.720884085,-0.791133,0.562349,-0.771857,-153.807648
2.730921984,-0.791134,0.562347,-0.771857,-153.807510
2.740911007,-0.791179,0.562283,-0.771857,-153.802902
2.751020908,-0.791181,0.562281,-0.771857,-153.802750
2.761373997,-0.791182,0.562279,-0.771857,-153.802597
2.771194935,-0.794441,0.559924,-0.772005,-153.801361
2.780761003,-0.794660,0.559766,-0.772015,-153.801285
2.791240931,-0.795496,0.559162,-0.772053,-153.800949
2.801246881,-0.795496,0.559162,-0.772053,-153.800949
2.810909986,-0.793702,0.560440,-0.771970,-153.798950
2.820842981,-0.791301,0.562163,-0.771860,-153.797989
2.830961943,-0.791228,0.562215,-0.771857,-153.797958
2.840975046,-0.791257,0.562174,-0.771857,-153.794983
2.850842953,-0.791258,0.562172,-0.771857,-153.794846
2.860872030,-0.791260,0.562170,-0.771857,-153.794693
2.870922089,-0.791260,0.562170,-0.771857,-153.794693
