time,x,y,z,yaw
0.000961065,-0.019550,-0.045361,0.672525,0.312073
0.034076929,-0.022034,-0.044612,0.670353,0.312604
0.067394972,-0.022063,-0.044603,0.670328,0.312610
0.100800991,-0.021964,-0.046054,0.674142,0.314470
0.134155035,-0.022013,-0.046056,0.674141,0.315878
0.167526007,-0.022059,-0.044625,0.670383,0.316468
0.200821877,-0.022017,-0.045899,0.673726,0.317522
0.234128952,-0.022011,-0.046055,0.674137,0.318286
0.267384052,-0.022056,-0.044622,0.670370,0.320682
0.300785065,-0.022055,-0.044607,0.670328,0.322410
0.334095001,-0.018209,-0.029302,0.680486,0.322565
0.367522955,-0.020582,-0.038749,0.674216,0.324282
0.400881052,-0.018190,-0.029237,0.680530,0.325903
0.434082031,-0.021961,-0.045870,0.674214,0.327345
0.467418909,-0.022050,-0.044626,0.670371,0.328963
0.500870943,-0.017696,-0.045922,0.674134,0.328897
0.534074068,-0.022001,-0.044624,0.670371,0.328418
0.567416906,-0.022050,-0.044609,0.670328,0.328956
0.600827932,-0.017697,-0.045922,0.674133,0.329062
0.634062052,-0.022000,-0.044624,0.670371,0.329815
0.667760849,-0.022002,-0.046042,0.674088,0.330876
0.700824022,-0.022001,-0.046062,0.674141,0.331126
0.734153032,-0.022046,-0.044627,0.670371,0.333507
0.767400980,-0.022046,-0.044611,0.670328,0.334407
0.800726891,-0.022046,-0.044611,0.670328,0.334606
0.834082842,-0.022044,-0.044612,0.670328,0.336548
0.867424965,-0.022044,-0.044612,0.670328,0.336570
0.900773048,-0.021993,-0.044628,0.670372,0.337979
0.934326887,-0.017688,-0.045925,0.674134,0.338439
0.967453957,-0.022490,-0.029451,0.680490,0.338124
1.000724077,-0.022048,-0.044440,0.670443,0.338780
1.034085035,-0.022042,-0.044613,0.670328,0.339398
1.067590952,-0.022041,-0.044614,0.670328,0.341005
1.101933956,-0.022040,-0.044614,0.670328,0.342024
1.134050846,-0.022539,-0.029436,0.680446,0.343211
1.167401075,-0.022125,-0.041958,0.672099,0.345164
1.200770855,-0.022586,-0.027960,0.676669,0.346105
1.233993053,-0.022591,-0.027799,0.676722,0.346115
1.267400980,-0.022036,-0.044616,0.670328,0.346767
1.300788879,-0.017680,-0.045928,0.674136,0.346973
1.334274054,-0.022520,-0.028057,0.676686,0.347470
1.367534876,-0.018203,-0.029121,0.680557,0.347807
1.400721073,-0.021944,-0.045880,0.674213,0.349181
1.434109926,-0.022033,-0.044634,0.670371,0.350948
1.467417002,-0.022582,-0.027995,0.676649,0.352221
1.500725985,-0.022038,-0.044432,0.670399,0.353165
1.534023046,-0.022031,-0.044618,0.670328,0.353175
1.567550898,-0.022030,-0.044636,0.670374,0.353743
1.600797892,-0.021982,-0.046050,0.674085,0.355278
1.634093046,-0.022029,-0.044636,0.670371,0.355505
1.668061018,-0.022029,-0.044620,0.670328,0.356721
1.700996876,-0.022028,-0.044620,0.670328,0.356874
1.734053850,-0.022028,-0.044620,0.670328,0.357637
1.767454863,-0.021979,-0.046056,0.674098,0.358638
1.800797939,-0.022026,-0.044637,0.670371,0.359614
1.838546038,-0.022026,-0.044621,0.670328,0.360072
1.867383003,-0.022025,-0.044622,0.670328,0.361578
1.900923014,-0.022024,-0.044622,0.670328,0.362009
1.934103966,-0.022071,-0.043192,0.666552,0.363290
1.967507839,-0.021976,-0.046041,0.674054,0.363714
2.000716925,-0.022023,-0.044639,0.670372,0.363823
2.034282923,-0.022023,-0.044623,0.670328,0.363711
2.067548037,-0.021975,-0.046059,0.674099,0.364479
2.100735903,-0.022527,-0.029460,0.680490,0.365018
2.134475946,-0.022033,-0.044291,0.670549,0.364859
2.167526960,-0.022022,-0.044623,0.670328,0.364990
2.200793028,-0.022490,-0.030531,0.679723,0.366846
2.234308004,-0.022091,-0.042506,0.671740,0.367381
2.267554045,-0.022021,-0.044597,0.670346,0.367915
2.300878048,-0.022020,-0.044624,0.670328,0.367388
2.334154844,-0.022525,-0.029470,0.680430,0.367616
2.367562056,-0.017718,-0.044311,0.670490,0.368879
2.400743961,-0.017613,-0.045919,0.674097,0.369600
2.434161901,-0.021517,-0.044776,0.670765,0.370867
2.467643976,-0.021965,-0.046062,0.674103,0.370833
2.500947952,-0.022017,-0.044642,0.670371,0.371067
2.534133911,-0.017747,-0.045909,0.674059,0.371730
2.567582846,-0.021915,-0.046076,0.674141,0.372948
2.600972891,-0.017658,-0.045953,0.674178,0.373488
2.634093046,-0.021917,-0.046077,0.674141,0.373519
2.667437077,-0.017904,-0.045960,0.674176,0.374122
2.700923920,-0.021958,-0.044645,0.670380,0.374338
2.734056950,-0.017659,-0.045936,0.674134,0.375899
2.767771959,-0.021963,-0.044642,0.670372,0.376349
2.800988913,-0.022013,-0.044627,0.670328,0.376553
2.834269047,-0.022013,-0.044628,0.670328,0.377083
2.867598057,-0.017658,-0.045937,0.674132,0.379230
2.900979996,-0.021748,-0.044708,0.670557,0.379871
2.934095860,-0.022008,-0.044630,0.670330,0.380462
2.967432022,-0.017999,-0.045835,0.673832,0.381935
3.001114845,-0.021877,-0.046077,0.674136,0.382245
3.034098864,-0.022006,-0.044647,0.670371,0.384640
3.067396879,-0.022005,-0.044632,0.670328,0.387208
3.100954056,-0.022004,-0.044632,0.670328,0.388032
3.134336948,-0.017695,-0.044505,0.670365,0.388334
3.167573929,-0.021951,-0.044631,0.670328,0.389838
3.200832844,-0.022001,-0.044633,0.670328,0.391723
3.234138966,-0.022513,-0.029458,0.680445,0.393036
3.267457008,-0.017799,-0.045257,0.674447,0.394074
3.300821066,-0.021894,-0.046078,0.674144,0.394625
3.334091902,-0.021995,-0.044718,0.670547,0.396134
3.367789984,-0.021949,-0.046071,0.674098,0.396806
3.400835991,-0.021996,-0.044657,0.670384,0.397577
3.434468031,-0.021995,-0.044636,0.670328,0.399463
3.467583895,-0.021995,-0.044636,0.670328,0.400089
3.500984907,-0.022517,-0.029184,0.676478,0.402722
3.534106016,-0.021999,-0.044457,0.670400,0.402785
3.567487955,-0.021993,-0.044638,0.670328,0.402815
3.600772858,-0.022557,-0.028010,0.676651,0.403616
3.634137869,-0.021997,-0.044445,0.670401,0.405075
3.667398930,-0.018625,-0.045649,0.673268,0.406337
3.700796843,-0.021949,-0.044651,0.670364,0.406157
3.734248877,-0.021990,-0.044639,0.670328,0.406676
3.767405033,-0.021989,-0.044639,0.670328,0.407210
3.800798893,-0.021989,-0.044639,0.670328,0.407650
3.834348917,-0.021988,-0.044640,0.670328,0.408548
3.867531061,-0.021988,-0.044640,0.670328,0.408602
3.900774002,-0.021988,-0.044640,0.670328,0.408358
3.934146881,-0.026246,-0.046210,0.674056,0.407849
3.967304945,-0.026297,-0.046228,0.674101,0.407843
4.000767946,-0.021989,-0.044640,0.670328,0.408032
4.034071922,-0.021988,-0.044640,0.670328,0.408965
4.067432880,-0.022383,-0.033020,0.678075,0.409824
4.100754023,-0.022508,-0.029327,0.680537,0.411411
4.134113073,-0.021991,-0.044462,0.670447,0.412335
4.167403936,-0.018164,-0.029336,0.680483,0.412888
4.200870991,-0.021942,-0.044469,0.670442,0.412928
4.235605001,-0.018162,-0.029329,0.680488,0.413782
4.267499924,-0.021885,-0.045877,0.674224,0.414865
4.300941944,-0.021982,-0.044664,0.670384,0.415499
4.334118843,-0.018704,-0.031510,0.679041,0.416284
4.367511034,-0.017586,-0.045799,0.674235,0.416984
4.400809050,-0.021930,-0.044659,0.670373,0.417380
4.434280872,-0.021981,-0.044643,0.670328,0.417722
4.467417955,-0.018160,-0.029333,0.680485,0.418061
4.500812054,-0.022506,-0.027843,0.676766,0.418938
4.534069061,-0.021987,-0.044449,0.670402,0.418221
4.567398071,-0.021981,-0.044644,0.670328,0.418445
4.601129055,-0.021979,-0.044644,0.670328,0.420071
4.634135008,-0.021978,-0.044645,0.670328,0.422182
4.667402029,-0.022547,-0.028019,0.676650,0.422898
4.700989008,-0.018187,-0.029138,0.680537,0.424112
4.734057903,-0.017575,-0.045778,0.674251,0.424052
4.767829895,-0.022447,-0.029480,0.680492,0.424756
4.800770998,-0.022057,-0.042279,0.671906,0.424263
4.836045980,-0.021977,-0.044621,0.670344,0.424082
4.867756844,-0.018172,-0.029397,0.680444,0.425341
4.900804996,-0.021445,-0.042521,0.671737,0.425087
4.934094906,-0.021969,-0.044625,0.670343,0.426720
4.967730999,-0.026804,-0.029698,0.680345,0.428190
5.000756979,-0.026890,-0.029433,0.680523,0.428216
5.034106970,-0.022026,-0.044479,0.670441,0.429877
5.067520857,-0.021971,-0.044648,0.670328,0.430397
5.100812912,-0.017615,-0.045953,0.674134,0.430375
5.134110928,-0.021921,-0.044663,0.670371,0.431413
5.168050051,-0.021920,-0.046083,0.674094,0.432788
5.201079845,-0.021968,-0.044666,0.670372,0.433613
5.234179020,-0.021969,-0.044649,0.670328,0.433370
5.267518997,-0.018155,-0.029349,0.680478,0.433785
5.300878048,-0.021172,-0.041457,0.672446,0.434351
5.334089994,-0.018137,-0.029279,0.680525,0.434975
5.367537975,-0.021929,-0.044496,0.670430,0.435273
5.403025866,-0.021969,-0.044649,0.670328,0.433646
5.434256077,-0.021968,-0.044650,0.670328,0.434023
5.467766047,-0.018154,-0.029346,0.680480,0.434142
5.500787973,-0.018108,-0.029164,0.680601,0.435268
5.534151077,-0.021924,-0.044466,0.670449,0.433060
5.567471027,-0.022492,-0.029470,0.680447,0.433012
5.600811005,-0.022583,-0.027822,0.676767,0.360628
5.634111881,-0.022580,-0.027808,0.676722,0.368598
5.669262886,-0.022681,-0.027726,0.676722,0.161428
5.701288939,-0.021536,-0.028047,0.677777,0.037903
5.734127045,-0.018719,-0.028788,0.680568,-0.698974
5.767505884,-0.023402,-0.043698,0.670454,-1.490584
5.800859928,-0.019648,-0.028384,0.680471,-2.522957
5.835237980,-0.024489,-0.038759,0.659107,-3.077127
5.867568016,-0.024914,-0.038655,0.658845,-3.621775
5.900815964,-0.025508,-0.041202,0.666416,-4.301264
5.934181929,-0.022987,0.009275,0.632586,-4.923875
5.967414856,-0.022973,0.008660,0.636083,-5.321349
6.000788927,-0.026973,0.011767,0.628538,-5.649485
6.035223007,-0.031934,0.005330,0.595414,-5.983809
6.067873001,-0.032091,0.005117,0.594354,-5.988950
6.100842953,-0.020632,0.035876,0.556029,-6.407281
6.134639025,-0.020490,0.036248,0.555564,-6.412358
6.167547941,-0.020490,0.036248,0.555564,-6.412358
6.200748920,-0.029859,0.027999,0.525827,-6.973354
6.234664917,-0.028329,0.046004,0.513525,-6.959110
6.267462969,-0.027848,0.051247,0.510063,-6.962710
6.301045895,-0.034801,0.071010,0.443610,-7.187985
6.334188938,-0.040371,0.047600,0.429143,-7.323850
6.367542028,-0.042264,0.039575,0.424674,-7.315073
6.401891947,-0.042286,0.039484,0.424623,-7.314950
6.434242010,-0.047316,0.032465,0.382581,-7.452901
6.467618942,-0.051574,0.035759,0.369448,-7.353370
6.501076937,-0.056822,0.027732,0.331795,-7.259275
6.534258842,-0.057621,0.019379,0.317938,-7.173652
6.570091009,-0.059215,0.000079,0.298541,-6.975154
6.600785017,-0.061065,0.001049,0.292770,-6.824336
6.634196043,-0.063108,0.006895,0.264559,-6.664382
6.667464972,-0.061055,-0.028369,0.270328,-6.128630
6.701014996,-0.061028,-0.028776,0.270399,-6.122476
6.734112024,-0.064637,-0.020870,0.228558,-5.593803
6.767595053,-0.069337,-0.036364,0.216585,-4.865287
6.800710917,-0.069389,-0.036547,0.216450,-4.856834
6.834182024,-0.069423,-0.067282,0.202489,-3.893722
6.867662907,-0.069135,-0.079592,0.183613,-3.496258
6.900647879,-0.069131,-0.079736,0.183387,-3.491616
6.934180975,-0.072143,-0.094192,0.172268,-2.635466
6.967510939,-0.068251,-0.106131,0.159516,-2.437706
7.001114845,-0.067067,-0.102935,0.120294,-2.144960
7.034142017,-0.066474,-0.119015,0.125812,-1.926141
7.067553043,-0.065048,-0.128916,0.091317,-1.340847
7.101319075,-0.060281,-0.129247,0.090891,-1.059078
7.134151936,-0.063403,-0.128756,0.082697,-0.618957
7.167544842,-0.058857,-0.124371,0.045713,-0.343258
7.200883865,-0.057684,-0.151010,0.025767,-0.298986
7.235949993,-0.048242,-0.165145,0.015896,-0.046927
7.267818928,-0.051598,-0.164449,0.004164,0.123329
7.300812006,-0.047722,-0.164224,0.003492,0.133645
7.334087849,-0.047695,-0.161341,-0.029032,0.170021
7.367506027,-0.047493,-0.160412,-0.041637,0.257395
7.400815964,-0.042652,-0.173160,-0.054985,0.323793
7.434221983,-0.042874,-0.172426,-0.067311,0.243661
7.467597961,-0.043078,-0.171857,-0.075594,0.183046
7.500916004,-0.041882,-0.183657,-0.096644,0.406099
7.534189939,-0.045888,-0.171576,-0.092213,0.615713
7.567785025,-0.040625,-0.196849,-0.113691,0.614168
7.600797892,-0.041366,-0.182535,-0.133592,0.585909
7.634207964,-0.044507,-0.195127,-0.123564,0.532628
7.667568922,-0.041441,-0.196041,-0.142991,0.545538
7.703696966,-0.049985,-0.182379,-0.146131,0.434064
7.734171867,-0.049391,-0.195343,-0.178796,0.442880
7.767915010,-0.049456,-0.195451,-0.182551,0.422147
7.801131964,-0.053158,-0.195687,-0.187335,0.517218
7.834753036,-0.053918,-0.169725,-0.211101,0.744294
7.867600918,-0.053918,-0.169725,-0.211101,0.744294
7.900850058,-0.064055,-0.183098,-0.224034,1.200371
7.934205055,-0.071532,-0.183795,-0.220282,1.319952
7.968641996,-0.071481,-0.183983,-0.224182,1.433758
8.000827074,-0.071826,-0.174725,-0.245951,1.563846
8.034188986,-0.071093,-0.171832,-0.241996,1.897964
8.067466021,-0.075765,-0.159104,-0.265695,2.102750
8.100972891,-0.087823,-0.160064,-0.257747,2.195775
8.134227991,-0.086772,-0.173309,-0.253394,2.154610
8.167435884,-0.084447,-0.159820,-0.269916,1.981169
8.203707933,-0.084938,-0.160461,-0.302975,1.755431
8.234118938,-0.088684,-0.160517,-0.306415,1.515989
8.267716885,-0.094744,-0.148113,-0.307992,1.344935
8.300907850,-0.095853,-0.145668,-0.308106,1.246678
8.334188938,-0.101600,-0.132345,-0.304789,0.912384
8.367496014,-0.102138,-0.131535,-0.312812,0.839937
8.400780916,-0.102144,-0.131527,-0.312911,0.839090
8.434993982,-0.101552,-0.133654,-0.346325,1.032241
8.467488050,-0.101573,-0.133646,-0.346455,1.023252
8.500848055,-0.098751,-0.118707,-0.351541,0.956910
8.534214020,-0.103051,-0.118463,-0.347423,0.878606
8.567487001,-0.099039,-0.118550,-0.355716,0.815044
8.600951910,-0.095086,-0.118617,-0.359592,0.876856
8.634368896,-0.095630,-0.105432,-0.369337,0.883429
8.667536020,-0.095796,-0.105408,-0.373638,0.784630
8.701401949,-0.083316,-0.104460,-0.373739,0.746965
8.734910965,-0.080018,-0.104315,-0.377081,0.635798
8.767550945,-0.075177,-0.104186,-0.382168,0.494629
8.804187059,-0.071346,-0.104598,-0.394799,0.226668
8.834192038,-0.064104,-0.104355,-0.398695,0.067839
8.867547989,-0.058988,-0.116932,-0.394059,-0.202470
8.900795937,-0.059263,-0.119361,-0.418730,-0.472482
8.935834885,-0.051465,-0.118579,-0.414988,-0.656157
8.967661858,-0.043142,-0.132856,-0.413553,-0.912600
9.001086950,-0.043904,-0.120484,-0.426057,-1.218606
9.034216881,-0.037287,-0.144706,-0.432249,-1.627830
9.067739010,-0.036921,-0.146607,-0.416679,-1.895888
9.100883961,-0.036917,-0.146634,-0.416422,-1.900209
9.135731936,-0.029565,-0.161649,-0.419173,-2.206354
9.167479038,-0.021437,-0.175763,-0.421837,-2.113660
9.201257944,-0.021336,-0.175935,-0.421870,-2.112498
9.234160900,-0.017114,-0.178408,-0.442267,-2.098808
9.267438889,-0.016819,-0.178866,-0.446337,-2.034826
9.303833008,-0.016817,-0.178871,-0.446385,-2.034065
9.334235907,-0.012355,-0.203177,-0.445987,-1.821380
9.367444992,-0.011853,-0.206691,-0.451450,-1.687488
9.401022911,-0.012056,-0.207161,-0.455450,-1.742482
9.434160948,-0.011787,-0.220490,-0.450018,-1.641057
9.467485905,-0.014935,-0.219520,-0.439622,-1.556645
9.500808954,-0.014995,-0.219373,-0.437994,-1.429396
9.534214973,-0.018208,-0.219801,-0.441626,-1.301491
9.567473888,-0.018112,-0.219449,-0.438011,-1.189750
9.601266861,-0.021286,-0.218318,-0.426111,-0.973947
9.634222984,-0.024587,-0.231592,-0.428596,-0.830793
9.667464018,-0.022866,-0.231231,-0.421709,-0.390764
9.700852871,-0.027227,-0.231744,-0.423596,-0.012191
9.734240055,-0.028236,-0.233258,-0.436386,0.244406
9.768110991,-0.031343,-0.231675,-0.418686,0.388471
9.803508043,-0.031328,-0.233119,-0.432397,0.477356
9.834143877,-0.035172,-0.233698,-0.436346,0.471406
9.867634058,-0.040353,-0.221062,-0.437854,0.349436
9.901875973,-0.042982,-0.221259,-0.440319,0.322246
9.934408903,-0.051739,-0.221585,-0.437898,0.480882
9.967462063,-0.052098,-0.207777,-0.431612,0.647679
10.000849962,-0.052101,-0.207605,-0.431534,0.649724
10.034123898,-0.050767,-0.195394,-0.436585,1.248223
10.067399979,-0.049539,-0.194023,-0.432941,1.644532
10.100868940,-0.042434,-0.182646,-0.433865,1.923866
10.134095907,-0.042348,-0.182507,-0.433877,1.927234
10.167603970,-0.041069,-0.165392,-0.415202,2.442949
10.200754881,-0.036802,-0.164548,-0.410926,2.525504
10.234174013,-0.024570,-0.162856,-0.402811,2.540616
10.267564058,-0.021774,-0.148347,-0.400069,2.481279
10.301208973,-0.017876,-0.148346,-0.416259,2.276206
10.334091902,-0.016494,-0.121048,-0.396876,2.045434
10.367722034,-0.008505,-0.116153,-0.389856,1.744167
10.400738001,-0.008406,-0.116096,-0.389772,1.740466
10.434351921,-0.004537,-0.116201,-0.393979,1.560312
10.467470884,0.014653,-0.116212,-0.402310,0.726013
10.504935980,0.017832,-0.100161,-0.374275,0.201198
10.534237862,0.028832,-0.113294,-0.373033,-0.385594
10.567512989,0.035752,-0.103290,-0.380965,-0.957440
10.600921869,0.040385,-0.100768,-0.369878,-1.502660
10.634170055,0.046389,-0.101406,-0.369744,-2.072778
10.667547941,0.054511,-0.101748,-0.352951,-3.145571
10.700835943,0.057267,-0.102640,-0.348571,-4.021089
10.734097004,0.057310,-0.102655,-0.348503,-4.035017
10.769371986,0.066631,-0.106290,-0.364366,-5.389342
10.800848007,0.072237,-0.107386,-0.356507,-6.056914
10.834210873,0.074993,-0.094377,-0.334552,-7.012562
10.867519855,0.075188,-0.092714,-0.332300,-7.063845
10.900766850,0.075004,-0.110370,-0.348294,-8.161006
10.934076071,0.075812,-0.124307,-0.322548,-8.765487
10.967445850,0.075820,-0.124465,-0.322252,-8.772258
11.000961065,0.074543,-0.122532,-0.314749,-9.629280
11.034086943,0.074514,-0.122641,-0.314711,-9.633362
11.067322016,0.073890,-0.125267,-0.313787,-9.692064
11.100807905,0.066256,-0.111263,-0.304327,-11.084615
11.134239912,0.061704,-0.110408,-0.294893,-11.429782
11.167505980,0.052227,-0.108842,-0.301571,-11.618873
11.200726032,0.052096,-0.108820,-0.301665,-11.621434
11.234116077,0.035234,-0.089689,-0.289398,-11.979977
11.271489859,0.033793,-0.089618,-0.292683,-12.113797
11.300767899,0.022795,-0.086959,-0.282671,-12.215558
11.335437059,0.012968,-0.070988,-0.284940,-12.261570
11.367550850,-0.000761,-0.065252,-0.268558,-12.203671
11.400707006,-0.000962,-0.065170,-0.268317,-12.202812
11.434202909,-0.017386,-0.048619,-0.276370,-11.760170
11.467412949,-0.027154,-0.044881,-0.264467,-11.456818
11.500854015,-0.027267,-0.044840,-0.264327,-11.453325
11.534116030,-0.047142,-0.041817,-0.264313,-10.894347
11.567411900,-0.057534,-0.026854,-0.252976,-10.553081
11.600802898,-0.067186,-0.024765,-0.273174,-10.047815
11.634110928,-0.082094,-0.023499,-0.261949,-9.365253
11.667347908,-0.082263,-0.023486,-0.261818,-9.357509
11.700841904,-0.105292,-0.023322,-0.247255,-7.904913
11.734185934,-0.105478,-0.023326,-0.247079,-7.892476
11.767421961,-0.129987,-0.025245,-0.225916,-6.151814
11.800773859,-0.134694,-0.027555,-0.220840,-5.078665
11.834105968,-0.144965,-0.030358,-0.231602,-3.953570
11.867452860,-0.157714,-0.032329,-0.219343,-3.269085
11.900989056,-0.172448,-0.034244,-0.212152,-2.774184
11.934138060,-0.179545,-0.038602,-0.212026,-1.497711
11.967557907,-0.187717,-0.041609,-0.204306,-0.768491
12.000795841,-0.190845,-0.059718,-0.199053,0.090657
12.034200907,-0.201700,-0.051037,-0.209107,0.570213
12.067749023,-0.210314,-0.065093,-0.200202,1.279687
12.100741863,-0.218654,-0.070092,-0.194737,1.901168
12.134185076,-0.220458,-0.071525,-0.184314,2.156999
12.167482853,-0.227939,-0.089873,-0.181904,2.672011
12.200716019,-0.235504,-0.092405,-0.177874,2.906824
12.234104872,-0.242552,-0.095220,-0.166804,3.211939
12.267518997,-0.248007,-0.111575,-0.165028,3.492604
12.300894976,-0.248635,-0.114267,-0.162983,3.550918
12.334125996,-0.248643,-0.114302,-0.162956,3.551671
12.367439032,-0.248643,-0.114302,-0.162956,3.551671
12.400702000,-0.248643,-0.114302,-0.162956,3.551671
12.434180975,-0.264352,-0.136222,-0.136950,4.135654
12.467442036,-0.261808,-0.150174,-0.140417,4.188253
12.500808954,-0.261911,-0.150162,-0.137096,4.128666
12.534260035,-0.262708,-0.148866,-0.132138,3.810206
12.567461014,-0.267004,-0.149220,-0.132079,3.704943
12.600803852,-0.267056,-0.149225,-0.132080,3.703724
12.634137869,-0.269427,-0.152413,-0.120009,4.127453
12.667532921,-0.265029,-0.153264,-0.115347,4.436421
12.700728893,-0.264738,-0.153582,-0.119440,4.542896
12.736512899,-0.262844,-0.157116,-0.107044,5.197552
12.767485857,-0.261336,-0.160223,-0.086205,5.653336
12.800945997,-0.261318,-0.160260,-0.085954,5.658780
12.836098909,-0.246508,-0.161751,-0.085860,6.671165
12.867445946,-0.247890,-0.152069,-0.068453,7.309571
12.900727034,-0.238742,-0.151531,-0.072329,7.788385
12.936836958,-0.237691,-0.153004,-0.072376,8.149434
12.967449903,-0.230566,-0.151899,-0.061598,8.185184
13.001024961,-0.225940,-0.149665,-0.063722,8.013127
13.034118891,-0.218436,-0.147845,-0.056083,7.942921
13.067461967,-0.218073,-0.131568,-0.050116,7.666247
13.100831032,-0.218275,-0.114465,-0.048904,7.507586
13.134109974,-0.215043,-0.113061,-0.041538,7.285708
13.167449951,-0.214247,-0.097459,-0.022215,6.896424
13.200986862,-0.214238,-0.097282,-0.021996,6.892032
13.234184027,-0.214238,-0.097282,-0.021996,6.892032
13.267430067,-0.190912,-0.088292,-0.021769,5.927185
13.300906897,-0.187035,-0.086702,-0.017596,5.611828
13.334136009,-0.180150,-0.085625,-0.006950,5.428007
13.367624044,-0.178025,-0.073255,-0.006610,5.096733
13.400819063,-0.173755,-0.067321,-0.007392,4.897341
13.434232950,-0.173574,-0.067237,-0.007400,4.897167
13.467505932,-0.161695,-0.066360,0.008508,4.823220
13.500787020,-0.160729,-0.066212,0.014027,4.654663
13.534136057,-0.156750,-0.064439,0.005806,4.551932
13.567653894,-0.156795,-0.064386,0.009426,4.413043
13.600977898,-0.156843,-0.064301,0.010004,4.362587
13.634145021,-0.148430,-0.063325,0.018614,4.199332
13.667566061,-0.146885,-0.073807,0.023746,3.967868
13.700870037,-0.146227,-0.078597,0.030858,3.887813
13.734243870,-0.146608,-0.077443,0.024397,3.675267
13.767619848,-0.146518,-0.079661,0.050879,3.440217
13.800746918,-0.146854,-0.077731,0.034543,3.381902
13.834114075,-0.146981,-0.077782,0.038282,3.246934
13.867460012,-0.147162,-0.077995,0.045195,3.036763
13.900573969,-0.147162,-0.077995,0.045195,3.036763
13.934134007,-0.145357,-0.093741,0.058299,2.763149
13.967611074,-0.150069,-0.093813,0.062323,2.397278
14.001006842,-0.148593,-0.109614,0.068796,2.094480
14.034111977,-0.148884,-0.109781,0.072722,1.899902
14.067453861,-0.153268,-0.110859,0.081281,1.713657
14.100789070,-0.153146,-0.111562,0.085520,1.770002
14.134119987,-0.153108,-0.111173,0.081440,1.821423
14.167481899,-0.162061,-0.099242,0.090655,1.922591
14.200793982,-0.156715,-0.114436,0.101749,2.083407
14.234140873,-0.162606,-0.099635,0.100172,2.109905
14.267507076,-0.158293,-0.100174,0.108497,2.148609
14.300796986,-0.157962,-0.100624,0.108594,2.309034
14.334217072,-0.157909,-0.101160,0.112658,2.297152
14.367478848,-0.157812,-0.101792,0.116917,2.307878
14.400783062,-0.159888,-0.087798,0.122989,2.087756
14.434479952,-0.155859,-0.086874,0.127537,1.982245
14.467444897,-0.151579,-0.086418,0.127633,2.001514
14.500803947,-0.151558,-0.086383,0.127633,1.989779
14.534240961,-0.148338,-0.085896,0.127674,1.950681
14.567453861,-0.151630,-0.085425,0.123632,1.856903
14.600975990,-0.148430,-0.083636,0.116148,1.737569
14.634103060,-0.141249,-0.082560,0.118570,1.502635
14.667510986,-0.135902,-0.081080,0.115367,1.323234
14.700839043,-0.137219,-0.067742,0.117027,1.138702
14.734078884,-0.133983,-0.065100,0.117336,0.970811
14.767472982,-0.129587,-0.063835,0.117390,0.612524
14.800778866,-0.125177,-0.064942,0.130020,0.454559
14.834190845,-0.118222,-0.063033,0.126604,0.053428
14.867238998,-0.118222,-0.063033,0.126604,0.053428
14.900809050,-0.108740,-0.063421,0.138621,-0.333044
14.934171915,-0.101205,-0.061090,0.127498,-0.466932
14.967464924,-0.098357,-0.037581,0.132817,-0.570091
15.000880957,-0.093351,-0.030962,0.147753,-0.747766
15.034162045,-0.093248,-0.030898,0.148058,-0.751971
15.067534924,-0.084107,-0.047753,0.158334,-0.993464
15.100853920,-0.083984,-0.047981,0.158473,-0.996716
15.134163857,-0.068224,-0.028183,0.140591,-1.313930
15.167423964,-0.058349,-0.044651,0.145830,-1.376470
15.201007843,-0.062565,-0.032611,0.164251,-1.359968
15.234150887,-0.051761,-0.031014,0.161873,-1.419986
15.267339945,-0.051636,-0.030997,0.161843,-1.420678
15.300952911,-0.046036,-0.019017,0.180788,-1.369363
15.334260941,-0.045512,-0.016901,0.181160,-1.373876
15.367404938,-0.036682,-0.033328,0.178445,-1.440594
15.400791883,-0.036580,-0.033519,0.178414,-1.441369
15.434218884,-0.026049,-0.033563,0.178464,-1.259303
15.467453003,-0.025932,-0.033563,0.178465,-1.257281
15.501425028,-0.019200,-0.033174,0.175291,-0.745372
15.534263849,-0.014978,-0.031886,0.167309,-0.499441
15.567445040,-0.009969,-0.016384,0.176913,-0.346937
15.600786924,-0.009844,-0.016883,0.180917,-0.148179
15.634057045,-0.009838,-0.016953,0.181324,-0.133342
15.667460918,-0.009781,-0.017692,0.185580,0.009197
15.700959921,-0.009806,-0.014243,0.164357,0.206036
15.734092951,-0.005363,-0.014804,0.168375,0.440231
15.767516851,-0.010058,-0.001522,0.183794,0.996145
15.800761938,-0.005800,0.000875,0.171116,1.227034
15.834257841,-0.001334,0.000368,0.175275,1.674057
15.867740870,-0.001284,0.000357,0.175325,1.889755
15.900795937,0.001099,0.010441,0.182774,1.981944
15.934103966,0.002285,0.015851,0.186759,2.303868
15.967428923,0.001227,0.031001,0.198240,2.728233
16.000805855,0.000273,0.044107,0.200589,2.890694
16.034127951,-0.000275,0.047306,0.204500,3.297950
16.069155931,0.003838,0.048200,0.201431,3.500092
16.100803852,0.007406,0.049690,0.194324,3.610304
16.134126902,0.008441,0.048347,0.202713,3.652917
16.167469025,0.016396,0.067181,0.195329,3.386399
16.200940847,0.016639,0.066789,0.198752,3.290638
16.234183073,0.016656,0.066632,0.199680,3.284252
16.267427921,0.020602,0.084300,0.202659,2.911591
16.301153898,0.024100,0.099912,0.201439,2.629084
16.334162951,0.025224,0.102507,0.203933,2.362008
16.367429018,0.026071,0.117914,0.217622,1.607010
16.401005030,0.026083,0.118088,0.217778,1.598457
16.434099913,0.031642,0.118749,0.213290,1.132331
16.467790842,0.038209,0.136470,0.211718,0.174083
16.500793934,0.038314,0.136744,0.211695,0.159271
16.534153938,0.039981,0.136030,0.213082,-0.541265
16.567618847,0.040073,0.136235,0.211715,-0.579108
16.600816965,0.040074,0.136239,0.211695,-0.579544
16.634180069,0.050068,0.149719,0.217894,-1.456717
16.667842865,0.058247,0.172092,0.218017,-1.763391
16.700811863,0.058345,0.172357,0.218018,-1.766927
16.734119892,0.059360,0.172010,0.218018,-2.104890
16.767632008,0.060666,0.192666,0.207251,-2.234159
16.800927877,0.063939,0.191717,0.213321,-2.271585
16.834183931,0.058363,0.193180,0.205034,-2.438745
16.867460012,0.061076,0.207935,0.208489,-2.468157
16.900842905,0.064116,0.229733,0.201429,-2.683551
16.934175014,0.064431,0.234094,0.199263,-2.701751
16.967457056,0.063786,0.215263,0.191466,-2.791168
17.000861883,0.065847,0.233532,0.199151,-3.051001
17.034189939,0.071159,0.235964,0.181089,-3.318446
17.067523003,0.072039,0.236054,0.180091,-3.324169
17.100816011,0.072264,0.236709,0.175336,-3.365140
17.134273052,0.071737,0.236877,0.175283,-3.237642
17.167350054,0.070981,0.237105,0.175283,-3.054838
17.200767994,0.075870,0.257394,0.173391,-2.785904
17.234106064,0.075925,0.257626,0.173369,-2.782850
17.267432928,0.074836,0.278620,0.171445,-2.321063
17.300823927,0.074043,0.278921,0.171384,-2.153478
17.334214926,0.071904,0.278775,0.176194,-1.720018
17.367470980,0.071873,0.278772,0.176264,-1.713797
17.401056051,0.077263,0.298903,0.187523,-0.844350
17.434020996,0.077324,0.299144,0.187658,-0.833974
17.467602968,0.077154,0.319222,0.197148,-0.573699
17.500767946,0.081517,0.321523,0.182482,-0.451480
17.534307957,0.086041,0.322982,0.172557,-0.356545
17.567578077,0.086250,0.343808,0.180362,-0.298873
17.601187944,0.086145,0.364750,0.183449,-0.211686
17.634109020,0.093916,0.388471,0.182528,0.097000
17.667422056,0.094656,0.388893,0.181683,0.129642
17.700765848,0.093111,0.411594,0.179674,0.401880
17.734199047,0.102203,0.410990,0.162538,1.022464
17.767518997,0.104094,0.415563,0.159105,1.052299
17.800776958,0.107703,0.415988,0.159049,1.270228
17.834181070,0.113996,0.433344,0.161228,1.652835
17.867370844,0.114077,0.433572,0.161257,1.657807
17.901008844,0.120616,0.461986,0.165006,1.673349
17.934231997,0.124148,0.487065,0.160487,1.792101
17.967459917,0.128369,0.487368,0.161381,1.855922
18.000829935,0.129824,0.487197,0.162878,1.869144
18.034113884,0.129840,0.487195,0.162895,1.869288
18.067407846,0.144013,0.488274,0.157601,2.069839
18.100918055,0.149233,0.512561,0.155292,2.120895
18.134144068,0.153469,0.513170,0.155233,2.251142
18.167433023,0.153227,0.536850,0.158229,2.301982
18.200808048,0.156855,0.537592,0.158231,2.488908
18.234169960,0.156694,0.537657,0.158230,2.512641
18.267515898,0.154806,0.539535,0.147615,2.713899
18.300759077,0.164403,0.563776,0.155813,2.844412
18.334163904,0.169232,0.564239,0.155869,2.916607
18.367639065,0.177339,0.563403,0.155832,2.650098
18.400775909,0.179915,0.562606,0.155831,2.394719
18.434069872,0.182890,0.562316,0.150478,2.092829
18.468772888,0.184428,0.562481,0.145062,1.937513
18.500967979,0.192098,0.564253,0.144708,1.715716
18.534168005,0.192485,0.561524,0.144957,1.675383
18.567420959,0.194688,0.586182,0.142536,1.530455
18.600894928,0.199057,0.600973,0.132672,1.161964
18.634129047,0.200099,0.612608,0.129068,1.106071
18.667438030,0.204177,0.612023,0.123560,0.727437
18.700788975,0.203342,0.609511,0.134346,0.293692
18.734106064,0.203228,0.609471,0.134590,0.287428
18.767498016,0.210162,0.609339,0.129090,0.157126
18.800893068,0.212080,0.609329,0.123565,-0.014099
18.833984852,0.212103,0.609328,0.123498,-0.016182
18.867491007,0.210349,0.607697,0.129064,-0.379681
18.900852919,0.213134,0.606726,0.129064,-0.642511
18.934347868,0.216940,0.631457,0.131972,-0.832386
18.967478991,0.212346,0.630547,0.143066,-0.925968
19.000799894,0.214639,0.631046,0.132167,-1.131685
19.034191847,0.217684,0.631283,0.121015,-1.399446
19.067483902,0.221579,0.629312,0.126403,-1.757982
19.100789070,0.224081,0.629670,0.115418,-1.976194
19.134116888,0.229189,0.655783,0.112595,-2.212412
19.167649031,0.231995,0.654493,0.118120,-2.460261
19.200914860,0.235360,0.652653,0.123779,-2.760617
19.234127998,0.234791,0.626703,0.109873,-2.944885
19.267462969,0.245639,0.648463,0.124468,-3.669494
19.300961971,0.253062,0.670226,0.112388,-4.065235
19.334166050,0.254756,0.675119,0.109760,-4.152676
19.367455006,0.259168,0.673499,0.109731,-4.526908
19.400815010,0.259493,0.673374,0.109731,-4.554511
19.434089899,0.259496,0.673373,0.109731,-4.554775
19.471812963,0.261662,0.644208,0.111804,-5.067401
19.500812054,0.261636,0.643845,0.112555,-5.069543
19.538358927,0.261635,0.643844,0.112565,-5.069499
19.567456961,0.254770,0.646961,0.095872,-4.932674
19.600786924,0.251712,0.648744,0.090070,-4.661629
19.634126902,0.251676,0.648765,0.090002,-4.658393
19.667402029,0.242142,0.651518,0.084694,-4.309926
19.700860023,0.235268,0.652712,0.084404,-4.196939
19.734287024,0.230754,0.681550,0.075720,-4.015499
19.767518997,0.222935,0.657105,0.073130,-3.605607
19.800763845,0.217105,0.684819,0.075607,-3.350590
19.834249020,0.200305,0.687340,0.081327,-2.899916
19.867724895,0.186996,0.689939,0.081418,-2.274686
19.900941849,0.178373,0.692742,0.075786,-1.563653
19.934216976,0.178249,0.692782,0.075703,-1.553321
19.967540026,0.153015,0.671975,0.062024,-0.021397
20.000831842,0.151181,0.672090,0.061871,0.128656
20.034173012,0.142580,0.649043,0.059648,0.812420
20.067471027,0.141680,0.647665,0.053904,0.888918
20.101055861,0.128978,0.623737,0.051622,1.499538
20.134173870,0.123949,0.624755,0.046068,1.951919
20.167682886,0.113504,0.625191,0.051535,2.400850
20.200996876,0.108791,0.626011,0.051599,2.826717
20.234156847,0.102009,0.627151,0.051599,3.446847
20.267508984,0.097491,0.628345,0.046086,3.857886
20.300842047,0.088809,0.629637,0.046019,4.648740
20.334944010,0.088402,0.605399,0.043804,5.323503
20.367426872,0.079904,0.606300,0.043779,6.135098
20.400780916,0.072686,0.607208,0.043779,6.816603
20.434391022,0.066113,0.607959,0.043779,7.436439
20.467480898,0.064419,0.608808,0.049226,8.115536
20.500700951,0.064400,0.608818,0.049292,8.123662
20.534123898,0.067469,0.586268,0.052513,9.140769
20.567424059,0.063368,0.585991,0.057964,9.563299
20.600939035,0.071756,0.540151,0.042948,9.867687
20.634206057,0.079854,0.540907,0.048049,10.155952
20.667506933,0.094641,0.543655,0.042720,10.284201
20.700785875,0.107230,0.522248,0.035251,10.402466
20.734189034,0.110019,0.523446,0.030356,10.630944
20.767631054,0.120224,0.524229,0.040314,10.738647
20.800858021,0.130246,0.525259,0.045645,10.813348
20.834233046,0.143230,0.504139,0.033082,10.853276
20.867449045,0.148213,0.505035,0.027650,10.893665
20.900796890,0.148268,0.505048,0.027589,10.894126
20.934170008,0.172055,0.483537,0.041124,10.865263
20.967474937,0.172331,0.483288,0.041281,10.864928
21.000758886,0.190468,0.464094,0.018326,10.819788
21.034106970,0.197008,0.463851,0.018268,10.664375
21.067445040,0.206422,0.441432,0.021562,10.397526
21.101449966,0.215827,0.438327,0.036797,9.859192
21.134199858,0.225041,0.437948,0.021697,9.318660
21.167405844,0.233773,0.415002,0.014528,9.037608
21.200695992,0.233872,0.414735,0.014447,9.034416
21.234155893,0.233872,0.414735,0.014447,9.034416
21.267536879,0.259985,0.363068,0.020857,6.946495
21.300812006,0.264925,0.338532,0.019171,6.222285
21.333988905,0.264977,0.338247,0.019150,6.213976
21.367553949,0.268303,0.335189,0.024088,5.648471
21.400820971,0.268760,0.313716,0.027232,5.570430
21.434324980,0.268913,0.293698,0.025518,5.540828
21.467412949,0.263467,0.274704,0.018951,5.666467
21.500854969,0.262744,0.253823,0.036284,5.835001
21.534517050,0.256786,0.254725,0.036533,6.101315
21.567497969,0.255571,0.237428,0.025175,6.436965
21.600818872,0.249649,0.219338,0.032799,6.849239
21.634003878,0.249582,0.219129,0.032890,6.854010
21.667428017,0.234119,0.183872,0.034185,7.642671
21.700888872,0.222862,0.185029,0.038817,8.229576
21.734138012,0.212989,0.184504,0.043591,8.376622
21.767462969,0.195512,0.165597,0.042002,8.405932
21.800870895,0.191849,0.147646,0.040233,8.486678
21.834374905,0.179828,0.127830,0.043059,8.373331
21.867595911,0.179687,0.127600,0.043092,8.371987
21.900864840,0.162596,0.125360,0.034120,7.819603
21.934249878,0.162388,0.125335,0.034011,7.812881
21.967491865,0.131280,0.098533,0.045961,5.785086
22.000937939,0.128123,0.096056,0.041633,4.702309
22.034282923,0.128081,0.096025,0.041566,4.686406
22.067749977,0.128081,0.096025,0.041566,4.686406
22.100805044,0.128081,0.096025,0.041566,4.686406
22.134115934,0.128081,0.096025,0.041566,4.686406
22.167618036,0.128081,0.096025,0.041566,4.686406
22.200870991,0.128081,0.096025,0.041566,4.686406
22.234129906,0.070918,0.119356,0.031630,-3.750763
22.267494917,0.070307,0.119740,0.031514,-3.849473
22.301254034,0.057438,0.137448,0.028622,-5.650535
22.334300041,0.054183,0.137072,0.033208,-6.326115
22.367672920,0.051184,0.136964,0.033264,-7.024375
22.400778055,0.043816,0.137924,0.028638,-7.815886
22.434285879,0.045586,0.137786,0.023961,-8.572229
22.467592955,0.045722,0.156228,0.016231,-9.352214
22.500881910,0.043015,0.156650,0.016138,-10.065296
22.534381866,0.045939,0.137605,0.019172,-10.638663
22.567466021,0.046830,0.155761,0.011508,-11.452215
22.603538990,0.056594,0.189876,0.014527,-12.382240
22.634300947,0.059634,0.191047,0.019470,-13.168593
22.667477846,0.057782,0.191691,0.014790,-13.977970
22.700829029,0.064147,0.190015,0.014740,-14.513192
22.734134912,0.069555,0.207430,0.021152,-14.774846
22.767544985,0.069627,0.208514,0.011688,-14.723687
22.800873041,0.069037,0.209146,0.006805,-14.534168
22.834092855,0.069029,0.209155,0.006741,-14.531631
22.867462873,0.072526,0.208400,0.006745,-14.210825
22.900784969,0.071506,0.208331,0.011522,-13.941497
22.934148073,0.070214,0.190032,0.005233,-13.440046
22.967499971,0.073453,0.190102,-0.004328,-12.959765
23.000828028,0.072337,0.171505,-0.005940,-12.400002
23.034121037,0.060517,0.153629,0.011227,-11.304777
23.067550898,0.062401,0.153160,0.016092,-10.348713
23.100894928,0.064185,0.154828,0.002160,-9.194725
23.134207964,0.066051,0.154039,0.015975,-8.210579
23.167576075,0.066075,0.154030,0.016149,-8.198562
23.200787067,0.064389,0.156544,0.011481,-5.837485
23.234140873,0.064369,0.156574,0.011427,-5.810059
23.267436981,0.064369,0.156574,0.011427,-5.810059
23.300708055,0.064369,0.156574,0.011427,-5.810059
23.334123850,0.077253,0.108064,-0.002454,-0.724717
23.367707014,0.079381,0.091665,0.000466,0.524988
23.401077032,0.077556,0.091386,0.018630,1.717006
23.434190035,0.085966,0.061102,-0.002139,2.677458
23.467464924,0.086090,0.044108,0.005033,3.293125
23.500913858,0.094555,0.044847,0.009535,3.913395
23.534288883,0.099616,0.028755,0.012449,4.392170
23.567508936,0.104347,0.008993,0.008733,4.679571
23.600683928,0.104403,0.008761,0.008689,4.682914
23.634116888,0.116447,-0.033389,0.002088,5.120950
23.667470932,0.116461,-0.034037,0.006352,5.086932
23.700834990,0.116461,-0.034043,0.006403,5.086512
23.734201908,0.123761,-0.095654,0.009115,4.814950
23.767544031,0.123767,-0.095831,0.009147,4.813486
23.800962925,0.131944,-0.109327,-0.000790,4.370407
23.835283041,0.132011,-0.109572,-0.000612,4.365688
23.867476940,0.126822,-0.155809,-0.000714,3.338124
23.900671959,0.126804,-0.156215,-0.000582,3.331802
23.934068918,0.122950,-0.172651,-0.005881,1.938958
23.967479944,0.116845,-0.174188,-0.005978,1.265110
24.000804901,0.115156,-0.187902,-0.007173,0.807526
24.034242868,0.105239,-0.201104,-0.024353,0.330839
24.067456007,0.104359,-0.201345,-0.028610,0.113957
24.100759983,0.099927,-0.201775,-0.024651,-0.000936
24.134217978,0.094848,-0.216078,-0.021812,-0.173622
24.167546988,0.081682,-0.216031,-0.025723,-0.478009
24.200944901,0.081256,-0.216469,-0.021814,-0.550723
24.234144926,0.072743,-0.216089,-0.025711,-0.692735
24.267389059,0.072645,-0.216084,-0.025757,-0.694355
24.300763845,0.056868,-0.216306,-0.017755,-0.612052
24.334156036,0.053268,-0.215764,-0.021675,-0.485010
24.367557049,0.044334,-0.226499,-0.013231,-0.301718
24.400995016,0.041483,-0.241879,-0.016017,-0.341265
24.434187889,0.035302,-0.232931,-0.012278,-0.423177
24.467473030,0.032589,-0.241732,-0.019937,-0.553436
24.500855923,0.023281,-0.242645,-0.012213,-0.886093
24.534173965,0.013431,-0.229924,-0.010914,-1.365036
24.567296982,0.013316,-0.229772,-0.010900,-1.370695
24.600708961,-0.001040,-0.229647,-0.010825,-1.969744
24.634216070,-0.001799,-0.229633,-0.010914,-2.136847
24.667453051,-0.010810,-0.216998,-0.005772,-2.480232
24.700960875,-0.019813,-0.218153,0.010060,-2.721441
24.734122038,-0.024920,-0.218375,0.014218,-2.983927
24.767546892,-0.036707,-0.203094,0.003743,-3.014615
24.800749063,-0.048504,-0.188163,-0.003074,-2.971145
24.834398031,-0.051992,-0.189714,0.012844,-2.758204
24.867460966,-0.059268,-0.175930,0.002240,-2.511073
24.900950909,-0.070664,-0.162026,-0.000654,-2.184512
24.934179068,-0.082616,-0.161477,-0.008862,-2.020343
24.967414856,-0.099089,-0.147680,-0.003608,-1.877807
25.000757933,-0.103396,-0.133811,-0.006393,-1.701080
25.034108877,-0.120378,-0.119672,-0.005178,-1.609863
25.067473888,-0.132966,-0.120496,-0.001111,-1.586463
25.100970984,-0.146108,-0.106914,-0.008190,-1.469658
25.134407043,-0.146262,-0.106754,-0.008274,-1.468288
25.167526007,-0.146262,-0.106754,-0.008274,-1.468288
25.200819016,-0.184625,-0.082621,0.006770,-0.615982
25.234137058,-0.194481,-0.069115,0.004041,-0.274644
25.267484903,-0.212969,-0.055668,-0.003306,-0.145587
25.300848007,-0.221530,-0.056960,-0.003478,-0.006290
25.334317923,-0.231803,-0.043127,0.002122,0.103776
25.370243073,-0.231925,-0.042961,0.002189,0.105074
25.400790930,-0.246603,-0.029011,0.003480,0.131280
25.434145927,-0.246797,-0.028827,0.003497,0.131626
25.467483044,-0.270486,-0.013085,0.004768,-0.273504
25.500820875,-0.275103,-0.012475,0.004731,-0.480596
25.534164906,-0.275154,-0.012469,0.004730,-0.482980
25.567468882,-0.279715,-0.007443,-0.003998,-1.466604
25.600734949,-0.298790,0.010260,-0.011675,-2.091163
25.634633064,-0.298747,0.015405,-0.007398,-3.114316
25.667613983,-0.298376,0.019069,0.005749,-4.038179
25.700844049,-0.306871,0.022577,-0.002934,-4.669763
25.734060049,-0.302384,0.025980,-0.002983,-5.261913
25.767482996,-0.306248,0.029851,0.001324,-6.099350
25.801358938,-0.305970,0.033533,-0.002975,-6.718233
25.834177017,-0.309870,0.036858,0.001268,-7.425497
25.867403984,1.816835,0.556822,0.772803,-8.070898
25.901071072,-0.283334,0.050412,0.010565,-8.854524
25.934321880,-0.312835,0.047555,-0.003072,-9.326204
25.967428923,-0.308640,0.032948,-0.000131,-9.620083
26.000813961,-0.308339,0.035365,-0.004427,-10.033640
26.034133911,-0.308637,0.020801,-0.001631,-10.505438
26.067492008,-0.307612,0.040837,-0.000114,-11.159051
26.100789070,-0.308937,0.012707,-0.015301,-11.536429
26.134538889,-0.305682,-0.004817,-0.008765,-11.621136
26.167849064,-0.305658,-0.005213,-0.004417,-11.667216
26.200789928,-0.305658,-0.005215,-0.004369,-11.667725
26.234041929,-0.305658,-0.005215,-0.004369,-11.667725
26.267480850,-0.304627,0.013813,0.022761,-12.709428
26.300863981,-0.301849,-0.002870,0.042551,-13.005274
26.334130049,-0.301986,-0.004202,0.059606,-13.151402
26.367450953,-0.302028,-0.004191,0.063209,-13.233500
26.401037931,-0.300723,0.010309,0.065919,-13.045771
26.434205055,-0.300929,0.006281,0.082857,-12.624844
26.467445850,-0.301050,0.001995,0.091503,-12.018839
26.500833035,-0.291733,0.013192,0.106528,-11.593695
26.534191847,-0.295559,0.023137,0.104607,-10.104180
26.567530870,-0.291724,0.016940,0.108920,-8.989919
26.601016045,-0.287822,0.023878,0.119768,-7.506073
26.634229898,-0.284032,0.015604,0.119987,-5.794625
26.667358875,-0.283987,0.015508,0.119988,-5.774896
26.700691938,-0.285427,0.024985,0.106228,-4.180574
26.734243870,-0.281879,0.043272,0.113885,-0.729005
26.767354012,-0.281879,0.043272,0.113885,-0.729005
26.801301003,-0.269860,0.051956,0.099466,1.898266
26.834179878,-0.272964,0.065489,0.096235,2.905900
26.867501020,-0.273009,0.065663,0.096196,2.918585
26.901103973,-0.269260,0.095626,0.087158,4.788990
26.934365988,-0.257461,0.095832,0.078102,5.699961
26.967629910,-0.257329,0.095832,0.078002,5.709970
27.000931025,-0.246193,0.094249,0.069006,6.993109
27.034219980,-0.242245,0.112665,0.061786,7.451561
27.067597866,-0.238813,0.111565,0.061762,8.026534
27.101106882,-0.238775,0.111551,0.061762,8.032769
27.134197950,-0.214581,0.115708,0.048460,9.012304
27.167557955,-0.210038,0.115628,0.048071,9.420707
27.200777054,-0.210001,0.115627,0.048069,9.424130
27.234102011,-0.210001,0.115627,0.048069,9.424130
27.267463923,-0.210001,0.115627,0.048069,9.424130
27.300992966,-0.176191,0.121563,0.043660,10.651692
27.334099054,-0.176194,0.121554,0.043698,10.653345
27.367573023,-0.150167,0.116719,0.036449,10.548254
27.401118994,-0.134072,0.101426,0.032665,10.426212
27.434412956,-0.120426,0.100435,0.040308,9.777725
27.467722893,-0.102988,0.069588,0.027812,9.294628
27.500977993,-0.098238,0.071106,0.027726,8.753313
27.534260988,-0.097617,0.071319,0.027729,8.695344
27.567556858,-0.079169,0.058976,0.035138,7.106804
27.600944042,-0.072805,0.026545,0.036271,6.145726
27.634228945,-0.072753,0.026246,0.036281,6.137009
27.667444944,-0.056889,0.013267,0.025748,5.321311
27.700958967,-0.050540,0.000095,0.015377,4.081069
27.734242916,-0.044610,-0.015254,0.013750,2.887688
27.767710924,-0.044660,-0.015099,0.013731,2.443371
27.801089048,-0.048120,-0.030525,0.012218,1.735465
27.834214926,-0.047428,-0.046102,0.010698,1.310086
27.867621899,-0.050953,-0.046822,0.014196,1.299971
27.900961876,-0.050791,-0.061699,0.013549,1.323247
27.934226990,-0.054211,-0.062843,0.020545,1.381161
27.967619896,-0.059099,-0.063072,0.017837,1.539349
28.001014948,-0.062504,-0.063482,0.017786,1.684815
28.034184933,-0.062544,-0.063486,0.017785,1.686509
28.067476988,-0.066226,-0.079366,0.020549,1.848486
28.101053953,-0.076802,-0.071275,0.030635,2.309018
28.134175062,-0.076858,-0.071201,0.030721,2.310576
28.167500973,-0.087050,-0.067360,0.018471,2.811656
28.201124907,-0.085750,-0.082940,0.020407,3.166461
28.234298944,-0.091537,-0.069119,0.021897,3.239903
28.267415047,-0.091612,-0.068937,0.021916,3.240789
28.300987959,-0.091217,-0.070185,0.030369,3.482678
28.334419966,-0.091214,-0.070199,0.030488,3.483748
28.367534876,-0.091214,-0.070199,0.030488,3.483748
28.400968075,-0.101790,-0.056216,0.031901,3.362775
28.434216976,-0.114577,-0.057281,0.027661,3.321338
28.467437983,-0.114714,-0.057293,0.027615,3.320912
28.501085043,-0.129914,-0.041866,0.020513,3.125652
28.534405947,-0.127729,-0.025828,0.022034,3.158247
28.567604065,-0.127696,-0.025602,0.022056,3.158742
28.600924969,-0.127987,-0.023396,0.000155,3.087031
28.635908842,-0.132474,-0.023186,-0.004082,2.915678
28.668259859,-0.134601,-0.006174,-0.007150,2.878479
28.701575994,-0.139032,-0.005730,-0.015878,2.883216
28.734446049,-0.134841,-0.004608,-0.020407,2.788231
28.767469883,-0.134779,-0.004592,-0.020470,2.786850
28.800951958,-0.134784,-0.003362,-0.016050,2.112972
28.834122896,-0.134784,-0.003353,-0.016044,2.108818
28.867488861,-0.130479,-0.000789,-0.020445,1.349549
28.901352882,-0.126079,0.000532,-0.024811,1.096786
28.934247017,-0.126037,0.001312,-0.024849,0.744878
28.967548847,-0.126036,0.001321,-0.024849,0.740995
29.000974894,-0.121602,0.002862,-0.020443,0.021080
29.034652948,-0.117165,0.003452,-0.016029,-0.296224
29.067659855,-0.111756,-0.012696,-0.012945,-0.643106
29.100878000,-0.111758,-0.012549,-0.008565,-1.003920
29.134450912,-0.107626,-0.011851,-0.008495,-1.275844
29.167484045,-0.102628,-0.026723,-0.009824,-1.671791
29.200834036,-0.102576,-0.026884,-0.009838,-1.676012
29.234174013,-0.102704,-0.027076,-0.001115,-1.995701
29.267560005,-0.098175,-0.041589,-0.011074,-2.222666
29.300900936,-0.098078,-0.041548,-0.015069,-2.149508
29.334537029,-0.097944,-0.042127,-0.011763,-1.975071
29.367408037,-0.097943,-0.042133,-0.011728,-1.973258
29.401123047,-0.097482,-0.043431,-0.006968,-1.452309
29.434201002,-0.097351,-0.044934,0.005995,-1.258448
29.467593908,-0.097232,-0.043474,-0.015289,-1.008994
29.500884056,-0.093948,-0.043606,-0.015503,-0.839299
29.534189939,-0.096633,-0.046026,0.001626,-0.374638
29.567560911,-0.092379,-0.046505,0.001831,0.035509
29.600841999,-0.092333,-0.046510,0.001832,0.039877
29.634316921,-0.102475,-0.015749,0.000168,0.465296
29.667536020,-0.102543,-0.015565,0.000311,0.466805
29.700804949,-0.098081,-0.015648,0.000335,0.689207
29.734432936,-0.109514,0.018098,-0.023334,0.923379
29.767641068,-0.105223,0.018790,-0.027899,1.016725
29.801606894,-0.106374,0.034877,-0.017839,0.935874
29.834104061,-0.106394,0.035149,-0.017669,0.934489
29.867595911,-0.112286,0.051984,-0.020921,0.970064
29.900825977,-0.112287,0.051977,-0.020859,0.971520
29.934867859,-0.118199,0.068892,-0.024114,0.954309
29.967458010,-0.118199,0.068892,-0.024114,0.954309
30.000977039,-0.125988,0.102207,-0.016826,1.196728
30.034456015,-0.126057,0.102405,-0.016851,1.198293
30.067523956,-0.127504,0.118638,-0.023773,1.209910
30.100838900,-0.127520,0.118813,-0.023847,1.210035
30.134820938,-0.127734,0.149561,-0.029386,1.289919
30.167599916,-0.127708,0.149717,-0.029340,1.289874
30.201398849,-0.117185,0.157912,-0.026790,1.327425
30.234601974,-0.117581,0.157979,-0.031431,1.516524
30.267811060,-0.113318,0.157740,-0.026790,1.674168
30.300898075,-0.115866,0.176148,-0.030089,1.974692
30.334635973,-0.111560,0.176571,-0.030106,2.083659
30.367645979,-0.111776,0.176689,-0.034281,2.176797
30.400954008,-0.112076,0.175849,-0.025584,2.293426
30.434517860,-0.110040,0.193598,-0.024026,2.515269
30.467625856,-0.103276,0.183513,-0.024764,2.635236
30.501069069,-0.095368,0.177225,-0.028934,2.670502
30.534332037,-0.089569,0.177045,-0.020572,2.703449
30.567537069,-0.078883,0.159368,-0.026525,2.873577
30.600992918,-0.078764,0.159171,-0.026592,2.875468
30.634366989,-0.076503,0.176444,-0.006419,3.177151
30.667507887,-0.061560,0.160108,-0.021635,3.442277
30.701091051,-0.062459,0.159876,-0.026488,3.813195
30.734174967,-0.058781,0.158910,-0.012555,4.202279
30.767641068,-0.048153,0.141257,-0.004405,4.493221
30.801131964,-0.049176,0.142172,-0.022892,4.892030
30.834255934,-0.049189,0.142185,-0.023105,4.896558
30.867634058,-0.049189,0.142185,-0.023105,4.896558
30.900985956,-0.039963,0.124598,-0.019763,5.893155
30.934273005,-0.038756,0.108964,-0.017036,6.316623
30.967519045,-0.038740,0.108782,-0.017004,6.321554
31.001003027,-0.034606,0.106564,-0.016412,6.703814
31.034312963,-0.032199,0.090202,-0.002267,6.739435
31.067561865,-0.035656,0.087754,-0.014277,6.781469
31.100909948,-0.035686,0.087735,-0.014380,6.781820
31.134305954,-0.037919,0.070283,-0.010151,6.260073
31.167759895,-0.044323,0.085039,0.004854,6.069633
31.201151848,-0.048750,0.086697,-0.017661,5.786887
31.234289885,-0.048802,0.086715,-0.017934,5.783504
31.268216848,-0.045579,0.046460,0.022265,0.117692
31.301275015,-0.034716,0.009120,0.048257,-4.863816
31.334367037,-0.036079,-0.045617,0.080855,-10.651741
31.367526054,-0.036111,-0.046240,0.081225,-10.717137
31.401282072,-0.020294,-0.132017,0.122723,-20.133703
31.434386969,-0.018982,-0.165414,0.133794,-24.458263
31.467694044,-0.020992,-0.181898,0.151020,-28.285675
31.501025915,-0.021751,-0.214934,0.172421,-31.589233
31.541349888,-0.002560,-0.260245,0.178505,-34.619591
31.567569017,-0.000315,-0.292106,0.203041,-37.291634
31.600959063,-0.000615,-0.305476,0.210369,-39.747562
31.634397984,-0.000619,-0.305614,0.210441,-39.773624
31.667548895,0.028026,-0.358944,0.225078,-43.309692
31.700907946,0.038684,-0.384313,0.220082,-45.426891
31.734189987,0.061431,-0.407337,0.214518,-45.878078
31.768287897,0.073474,-0.429752,0.231133,-49.094967
31.800819874,0.073611,-0.430011,0.231327,-49.132477
31.834321022,0.108119,-0.438165,0.199963,-49.260380
31.868731976,0.121124,-0.457172,0.214958,-52.202942
31.901121855,0.144284,-0.459915,0.191395,-50.946491
31.934195042,0.157211,-0.476106,0.202440,-53.551453
31.968095064,0.157342,-0.476274,0.202559,-53.578846
32.000869989,0.189593,-0.480234,0.159099,-53.463158
32.034172058,0.200131,-0.456939,0.142821,-53.261806
32.067841053,0.200228,-0.456684,0.142647,-53.259014
32.100901842,0.216270,-0.457437,0.122350,-54.259480
32.134208918,0.216285,-0.457311,0.121984,-54.242485
32.168619871,0.237120,-0.437261,0.102185,-53.467400
32.201464891,0.248690,-0.442640,0.108968,-55.141804
32.234341860,0.278042,-0.427512,0.089056,-53.282879
32.267833948,0.297156,-0.414424,0.067835,-52.270226
32.301589012,0.307140,-0.400207,0.060679,-51.528679
32.334403038,0.295751,-0.380778,0.050980,-51.346596
32.367903948,0.307885,-0.366479,0.049711,-50.930286
32.401155949,0.308112,-0.366194,0.049682,-50.920883
32.434236050,0.320809,-0.336207,0.035434,-49.536465
32.467618942,0.326820,-0.320069,0.020565,-48.934444
32.501106977,0.306266,-0.298963,0.017612,-48.446003
32.534160852,0.305936,-0.298657,0.017566,-48.437897
32.568143845,0.334847,-0.263644,0.014745,-46.444427
32.600980043,0.309152,-0.244205,0.004738,-45.484501
32.634775877,0.305682,-0.225373,-0.002310,-44.801159
32.667953968,0.326957,-0.208778,0.009829,-43.286682
32.701171875,0.297832,-0.186534,-0.006485,-41.677204
32.734820843,0.316518,-0.170832,-0.005407,-40.347492
32.767997980,0.326730,-0.169116,0.001265,-41.607971
32.801069975,0.336502,-0.167677,0.007822,-42.871243
32.836247921,0.280928,-0.121022,0.007251,-36.761051
32.868085861,0.271642,-0.107747,-0.005955,-34.656731
32.900896072,0.279718,-0.086444,0.003277,-32.976017
32.934735060,0.236839,-0.091350,-0.005529,-31.865795
32.967532873,0.236055,-0.091478,-0.005695,-31.845226
33.000943899,0.226474,-0.064364,-0.003891,-28.624054
33.034363985,0.233229,-0.057719,-0.000260,-29.373381
33.067878008,0.239949,-0.053852,0.004859,-30.360748
33.101076841,0.240055,-0.053792,0.004940,-30.376287
33.135838032,0.252796,-0.046518,0.014679,-32.252693
33.168027878,0.258932,-0.043015,0.019369,-33.156315
33.201215029,0.264884,-0.039618,0.023919,-34.032825
33.234423876,0.270657,-0.036322,0.028332,-34.883041
33.268086910,0.276257,-0.033125,0.032612,-35.707748
33.300842047,0.281689,-0.030024,0.036764,-36.507717
33.334357023,0.160701,0.021989,0.001983,-15.116960
33.368134975,0.163275,0.026635,0.005563,-15.682673
33.402085066,0.166784,0.031138,0.009352,-16.412783
33.434817076,0.166858,0.031234,0.009433,-16.428228
33.468616962,0.173489,0.039743,0.016594,-17.807949
33.501097918,0.176691,0.043853,0.020052,-18.474300
33.534296036,0.122053,0.074213,-0.004649,-8.878153
33.569140911,0.122761,0.079905,-0.004126,-9.323412
33.601673841,0.128696,0.120055,-0.006803,-7.960992
33.634218931,0.118515,0.101073,-0.016478,-7.502925
33.667999029,0.120240,0.104886,-0.013646,-8.064044
33.701071978,0.120298,0.110756,-0.010765,-7.711320
33.734771013,0.105278,0.086718,-0.020053,-7.890503
33.767760992,0.106606,0.089995,-0.017548,-8.406875
33.800863981,0.108166,0.093635,-0.014918,-8.913456
33.835018873,0.109680,0.097167,-0.012368,-9.404840
33.867800951,0.117226,0.024885,-0.033761,-7.990946
33.900956869,0.118706,0.026786,-0.031826,-8.416527
33.934237003,0.119978,0.030054,-0.029498,-8.864999
33.968371868,0.121212,0.033224,-0.027240,-9.300016
34.001638889,0.122409,0.036298,-0.025050,-9.721984
34.034301043,0.123570,0.039280,-0.022926,-10.131292
34.067987919,0.123585,0.039320,-0.022897,-10.136715
34.101104021,0.150900,-0.001103,-0.024566,-8.317520
34.134968996,0.163620,-0.002143,-0.022360,-8.255594
34.168087006,0.164848,0.000447,-0.020471,-8.603153
34.200990915,0.165710,0.003057,-0.018647,-8.954515
34.235142946,0.194933,-0.039187,-0.022356,-7.784589
34.268194914,0.196989,-0.038683,-0.020883,-8.053764
34.301051855,0.197711,-0.036285,-0.019218,-8.374511
34.335161924,0.198408,-0.033954,-0.017603,-8.685679
34.367979050,0.213879,-0.107919,-0.028354,-7.275812
34.401309967,0.214967,-0.107941,-0.027196,-7.521438
34.435657978,0.215540,-0.105805,-0.025723,-7.805250
34.468414068,0.250452,-0.105996,-0.017096,-6.078322
34.501015902,0.251207,-0.105978,-0.016913,-6.040702
34.534869909,0.252576,-0.102085,-0.014107,-6.547551
34.567445993,0.252576,-0.102085,-0.014107,-6.547551
34.601405859,0.253436,-0.098310,-0.011536,-7.042847
34.634280920,0.282148,-0.062241,0.008765,-5.940444
34.668283939,0.284597,-0.057060,0.011263,-5.871310
34.701046944,0.261285,-0.128481,0.005426,-5.765179
34.734171867,0.255708,-0.123642,-0.000285,-5.713576
34.767507076,0.255947,-0.121991,0.000729,-5.920121
34.801424026,0.256239,-0.120430,0.001783,-6.123263
34.834022999,0.256239,-0.120430,0.001783,-6.123263
34.867918015,0.255545,-0.155621,0.009994,-6.010624
34.901728868,0.255693,-0.156880,0.011380,-6.178112
34.934239864,0.255938,-0.155522,0.012318,-6.357824
34.967562914,0.256177,-0.154179,0.013223,-6.532269
35.001152992,0.228609,-0.098987,0.026477,-4.906129
35.034265995,0.228267,-0.098353,0.026632,-4.887044
35.068552017,0.222993,-0.091962,0.028155,-4.561743
35.101029873,0.223128,-0.090752,0.028956,-4.714345
35.134341955,0.223283,-0.089591,0.029734,-4.864147
35.168215990,0.223433,-0.088465,0.030488,-5.009455
35.201178074,0.223579,-0.087373,0.031220,-5.150403
35.234261036,0.223721,-0.086313,0.031929,-5.287124
35.267716885,0.223858,-0.085286,0.032618,-5.419743
35.301244020,0.223992,-0.084289,0.033285,-5.548383
35.334306002,0.224121,-0.083322,0.033933,-5.673164
35.367598057,0.224246,-0.082384,0.034561,-5.794201
35.400954008,0.154638,-0.014433,0.046556,-0.680511
35.434602976,0.153846,-0.012877,0.047273,-0.736622
35.467571020,0.134862,-0.008468,0.047469,-0.308114
35.500947952,0.133822,-0.007431,0.048004,-0.380080
35.534250021,0.133837,-0.006616,0.048543,-0.483691
35.567640066,0.116606,-0.042700,0.048922,0.144410
35.601338863,0.116430,-0.042354,0.049428,0.054843
35.634305954,0.116443,-0.041613,0.049920,-0.040019
35.667685032,0.092033,0.037126,0.055737,0.855454
35.702986956,0.090107,0.043617,0.056601,0.818761
35.735409975,0.090088,0.044348,0.057054,0.732638
35.767643929,0.090088,0.045005,0.057490,0.648657
35.800894022,0.090088,0.045642,0.057913,0.567196
35.834264994,0.090087,0.046260,0.058323,0.488178
35.867594004,0.090087,0.046859,0.058721,0.411531
35.901026011,0.046455,0.131033,0.051691,2.622850
35.934413910,0.040001,0.133105,0.051910,2.994750
35.967838049,0.043310,0.133740,0.052340,3.380981
36.000977993,0.036334,0.134842,0.052602,3.727870
36.034576893,0.036227,0.135361,0.052942,3.666415
36.068011045,0.036195,0.135860,0.053274,3.602570
36.100955963,0.040126,0.139078,0.040980,4.633726
36.134306908,0.039575,0.172250,0.046892,4.998742
36.167706966,0.045364,0.177905,0.041719,5.164071
36.200887918,0.045385,0.178397,0.041953,5.109892
36.234442949,0.044659,0.141784,0.042130,5.212011
36.267629862,0.044612,0.141799,0.042405,5.160521
36.301204920,0.044574,0.142200,0.042673,5.108935
36.334254980,0.044536,0.142590,0.042932,5.058897
36.367624998,0.044499,0.142967,0.043184,5.010360
36.401093960,0.094275,0.142791,0.031534,3.264348
36.434298992,0.094833,0.143125,0.031633,3.198829
36.467833042,0.094810,0.143470,0.031862,3.154531
36.501126051,0.094787,0.143805,0.032085,3.111561
36.534263849,0.094787,0.143809,0.032088,3.111073
36.567734003,0.152049,0.128902,0.046216,-1.811606
36.601038933,0.174243,0.158812,0.046802,-3.936490
36.634253025,0.189026,0.154300,0.047256,-5.082353
36.672292948,0.185437,0.153593,0.047335,-5.659792
36.701062918,0.185398,0.153857,0.047519,-5.704256
36.734915018,0.185420,0.154128,0.047699,-5.738974
36.767622948,0.185442,0.154390,0.047874,-5.772651
36.801014900,0.185464,0.154645,0.048044,-5.805318
36.834284067,0.185484,0.154892,0.048208,-5.837005
36.867795944,0.185504,0.155131,0.048368,-5.867741
36.901068926,0.185523,0.155363,0.048522,-5.897554
36.934289932,0.185542,0.155589,0.048673,-5.926474
36.967609882,0.185560,0.155807,0.048818,-5.954526
37.001064062,0.185578,0.156019,0.048959,-5.981737
37.034533024,0.185595,0.156225,0.049096,-6.008131
37.067785025,0.185612,0.156424,0.049229,-6.033733
37.100802898,0.185612,0.156427,0.049231,-6.034025
37.134149075,0.185628,0.156620,0.049359,-6.058826
37.167592049,0.185659,0.156988,0.049604,-6.106023
37.201010942,0.188613,0.001427,0.056553,-6.222259
37.234298944,0.188666,-0.000590,0.056766,-6.223289
37.267508030,0.188667,-0.000593,0.056768,-6.223279
37.300943851,0.188694,-0.000268,0.056985,-6.265050
37.334096909,0.188694,-0.000266,0.056986,-6.265262
37.368859053,0.188720,0.000040,0.057190,-6.304579
37.401645899,0.188733,0.000187,0.057288,-6.323459
37.434287071,0.188745,0.000330,0.057383,-6.341772
37.467638016,0.188756,0.000468,0.057475,-6.359536
37.500877857,0.188757,0.000470,0.057476,-6.359683
37.534366846,0.188779,0.000733,0.057651,-6.393481
37.567600012,0.188790,0.000859,0.057735,-6.409694
37.601155043,0.188800,0.000982,0.057817,-6.425420
37.634297848,0.188810,0.001101,0.057896,-6.440675
37.667988062,0.188820,0.001216,0.057973,-6.455472
37.701398849,0.188829,0.001328,0.058047,-6.469825
37.734291077,0.188838,0.001436,0.058120,-6.483747
37.768264055,0.188847,0.001541,0.058190,-6.497252
37.800994873,0.188856,0.001643,0.058258,-6.510351
37.834558010,0.188864,0.001742,0.058324,-6.523058
37.868197918,0.188872,0.001838,0.058388,-6.535383
37.901157856,0.188880,0.001932,0.058450,-6.547339
37.934330940,0.188888,0.002022,0.058510,-6.558936
37.967572927,0.188888,0.002023,0.058511,-6.559061
38.000983953,0.188903,0.002195,0.058625,-6.581096
38.034358025,0.188910,0.002277,0.058680,-6.591681
38.067878962,0.188916,0.002357,0.058733,-6.601947
38.101013899,0.188916,0.002358,0.058734,-6.602085
38.135495901,0.188929,0.002510,0.058835,-6.621566
38.167636871,0.188935,0.002583,0.058884,-6.630936
38.200973034,0.188936,0.002584,0.058884,-6.631033
38.234350920,0.188942,0.002654,0.058931,-6.640120
38.267525911,0.188947,0.002723,0.058977,-6.648964
38.301023006,0.188958,0.002854,0.059064,-6.665689
38.334141970,0.188958,0.002854,0.059065,-6.665778
38.367716074,0.188969,0.002977,0.059146,-6.681540
38.400960922,0.188974,0.003036,0.059186,-6.689111
38.434767962,0.188979,0.003093,0.059224,-6.696455
38.467748880,0.188983,0.003149,0.059261,-6.703578
38.501075983,0.188988,0.003203,0.059297,-6.710488
38.535919905,0.188992,0.003255,0.059331,-6.717190
38.567769051,0.188997,0.003305,0.059365,-6.723692
38.601093054,0.189001,0.003355,0.059398,-6.729998
38.634242058,0.189005,0.003402,0.059430,-6.736115
38.667691946,0.189009,0.003449,0.059460,-6.742049
38.700988054,0.189013,0.003493,0.059490,-6.747805
38.734601021,0.189016,0.003537,0.059519,-6.753387
38.767652035,0.189020,0.003579,0.059547,-6.758803
38.801465988,0.189023,0.003620,0.059575,-6.764056
38.834940910,0.189027,0.003660,0.059601,-6.769152
38.867634058,0.189030,0.003698,0.059627,-6.774094
38.902051926,0.189033,0.003736,0.059652,-6.778888
38.939535856,0.189036,0.003772,0.059676,-6.783539
38.967906952,0.189039,0.003807,0.059699,-6.788050
39.003845930,0.189042,0.003841,0.059722,-6.792426
39.034466982,0.189045,0.003874,0.059744,-6.796670
39.067549944,0.189048,0.003906,0.059765,-6.800787
39.102124929,0.189050,0.003937,0.059786,-6.804780
39.134831905,0.189053,0.003967,0.059806,-6.808654
39.167465925,0.189053,0.003968,0.059806,-6.808709
39.200913906,0.189055,0.003997,0.059826,-6.812451
39.234366894,0.189060,0.004053,0.059863,-6.819592
39.267590046,0.189062,0.004079,0.059881,-6.823021
39.301197052,0.189064,0.004105,0.059898,-6.826347
39.334842920,0.189067,0.004130,0.059915,-6.829574
39.368161917,0.189069,0.004155,0.059931,-6.832704
39.400879860,0.189071,0.004178,0.059947,-6.835740
39.436853886,0.189073,0.004201,0.059962,-6.838685
39.467717886,0.189074,0.004224,0.059977,-6.841542
39.501580954,0.189076,0.004245,0.059991,-6.844313
39.534261942,0.189078,0.004266,0.060005,-6.847000
39.567859888,0.189080,0.004286,0.060019,-6.849607
39.601894855,0.189081,0.004306,0.060032,-6.852136
39.634243011,0.189083,0.004325,0.060045,-6.854589
39.667593002,0.189085,0.004344,0.060057,-6.856968
39.701110840,0.189086,0.004362,0.060069,-6.859277
39.734274864,0.189088,0.004379,0.060080,-6.861516
39.767577887,0.189089,0.004396,0.060092,-6.863687
39.801719904,0.189090,0.004413,0.060103,-6.865794
39.834666967,0.189092,0.004429,0.060113,-6.867837
39.867711067,0.189093,0.004444,0.060124,-6.869819
39.901002884,0.189094,0.004459,0.060134,-6.871741
39.934319973,0.189096,0.004473,0.060143,-6.873606
39.967566967,0.189096,0.004474,0.060143,-6.873629
40.000942945,0.189098,0.004501,0.060162,-6.877170
40.034482956,0.189099,0.004514,0.060171,-6.878872
40.067626953,0.189100,0.004527,0.060179,-6.880523
40.100973845,0.189101,0.004540,0.060187,-6.882124
40.134266853,0.189102,0.004552,0.060196,-6.883677
40.167713881,0.189103,0.004564,0.060203,-6.885184
40.201156855,0.189104,0.004575,0.060211,-6.886646
40.234505892,0.189105,0.004586,0.060218,-6.888064
40.267596960,0.189105,0.004586,0.060218,-6.888083
40.300982952,0.189107,0.004607,0.060232,-6.890773
40.334253073,0.189108,0.004617,0.060239,-6.892067
40.367640018,0.189109,0.004627,0.060246,-6.893322
40.400984049,0.189109,0.004637,0.060252,-6.894539
40.434323072,0.189109,0.004637,0.060252,-6.894552
40.467570066,0.189111,0.004655,0.060264,-6.896866
40.500954866,0.189112,0.004663,0.060270,-6.897977
40.534206867,0.189112,0.004672,0.060275,-6.899055
40.567539930,0.189112,0.004672,0.060275,-6.899064
40.602436066,0.189114,0.004688,0.060286,-6.901114
40.634187937,0.189114,0.004688,0.060286,-6.901125
40.667475939,0.189114,0.004696,0.060291,-6.902109
40.700954914,0.189116,0.004710,0.060301,-6.903978
40.734032869,0.189116,0.004710,0.060301,-6.903978
40.767706871,0.189116,0.004717,0.060306,-6.904882
40.800994873,0.189117,0.004730,0.060314,-6.906591
40.834110975,0.189117,0.004731,0.060314,-6.906600
40.867637873,0.189118,0.004743,0.060323,-6.908205
40.900943041,0.189119,0.004749,0.060327,-6.908976
40.934296846,0.189119,0.004755,0.060331,-6.909724
40.967706919,0.189120,0.004761,0.060334,-6.910450
41.001328945,0.189120,0.004766,0.060338,-6.911153
41.034309864,0.189121,0.004771,0.060342,-6.911836
41.067626953,0.189121,0.004776,0.060345,-6.912498
41.101049900,0.189122,0.004781,0.060348,-6.913140
41.134305000,0.189122,0.004786,0.060352,-6.913763
41.167598963,0.189122,0.004791,0.060355,-6.914367
41.201050043,0.189123,0.004796,0.060358,-6.914953
41.234109879,0.189123,0.004796,0.060358,-6.914959
41.267611980,-1.397577,-0.901634,0.430871,50.258099
41.301176071,-1.404004,-0.929136,0.435000,50.894390
41.334311962,-1.404007,-0.929133,0.435003,50.893871
41.367486000,-1.404007,-0.929133,0.435003,50.893867
41.401002884,-1.404011,-0.929131,0.435006,50.893364
41.434131861,-1.404014,-0.929128,0.435008,50.892876
41.467429876,-1.404016,-0.929126,0.435011,50.892406
41.500949860,-1.404022,-0.929122,0.435015,50.891502
41.534237862,-1.404025,-0.929120,0.435018,50.891071
41.567594051,-1.404027,-0.929118,0.435020,50.890652
41.601016998,-1.404030,-0.929116,0.435022,50.890244
41.634238958,-1.404032,-0.929114,0.435024,50.889851
41.667885065,-1.404035,-0.929112,0.435026,50.889469
41.701026917,-1.404037,-0.929111,0.435028,50.889095
41.734645844,-1.404039,-0.929109,0.435030,50.888737
41.767699957,-1.404042,-0.929107,0.435031,50.888386
41.801158905,-1.404044,-0.929106,0.435033,50.888050
41.834293842,-1.404046,-0.929104,0.435035,50.887718
41.867665052,-1.404048,-0.929103,0.435037,50.887402
41.901037931,-1.404050,-0.929101,0.435038,50.887093
41.934242964,-1.404052,-0.929100,0.435040,50.886791
41.967655897,-1.404053,-0.929098,0.435041,50.886501
42.001013041,-1.404055,-0.929097,0.435043,50.886219
42.034347057,-1.404057,-0.929096,0.435044,50.885944
42.067539930,-1.404058,-0.929095,0.435046,50.885681
42.101644993,-1.568668,1.230898,1.622486,-7.002251
42.136811972,-1.518438,1.318975,1.636521,-10.539940
42.167716980,-1.515438,1.326294,1.635280,-10.941771
42.201019049,-1.515405,1.326377,1.635267,-10.946495
42.234333038,-1.515405,1.326379,1.635268,-10.946723
42.267524958,-0.986651,1.758737,1.185008,-14.346605
42.300966024,-0.909054,1.834955,1.175421,-14.306688
42.334208012,-0.908294,1.835722,1.175373,-14.306068
42.367507935,-0.908293,1.835724,1.175374,-14.306271
42.400969982,-0.908293,1.835725,1.175375,-14.306466
42.435808897,-0.908293,1.835727,1.175376,-14.306656
42.467679977,-0.908292,1.835728,1.175377,-14.306840
42.500952005,-0.908292,1.835729,1.175378,-14.307019
42.534240007,-0.908292,1.835731,1.175379,-14.307193
42.567815065,-0.908291,1.835732,1.175380,-14.307361
42.600821018,-0.908291,1.835732,1.175380,-14.307364
42.635871887,-0.908291,1.835734,1.175382,-14.307682
42.667898893,-0.908291,1.835736,1.175382,-14.307836
42.701014042,-0.908290,1.835737,1.175383,-14.307984
42.734205008,-0.908290,1.835738,1.175384,-14.308128
42.767596960,-0.908290,1.835739,1.175385,-14.308269
42.801084995,-0.908290,1.835740,1.175385,-14.308404
42.836473942,-0.908289,1.835741,1.175386,-14.308537
42.867768049,-0.908289,1.835742,1.175387,-14.308664
42.901095867,-0.908289,1.835743,1.175388,-14.308788
42.934512854,-0.908289,1.835744,1.175388,-14.308908
42.967584848,-0.908289,1.835744,1.175388,-14.308909
43.000994921,-0.908288,1.835746,1.175389,-14.309138
43.034963846,-0.908288,1.835747,1.175390,-14.309248
43.067612886,-0.908288,1.835747,1.175390,-14.309354
43.100852966,-0.908288,1.835747,1.175390,-14.309356
43.134603977,-0.908288,1.835749,1.175391,-14.309558
43.167708874,-0.908288,1.835750,1.175392,-14.309654
43.200979948,-0.908287,1.835750,1.175392,-14.309749
43.234292030,-0.908287,1.835751,1.175393,-14.309840
43.267641068,-0.908287,1.835752,1.175393,-14.309929
43.301115990,-0.908287,1.835752,1.175394,-14.310015
43.334182978,-0.908287,1.835753,1.175394,-14.310099
43.367634058,-0.908287,1.835753,1.175394,-14.310100
43.400809050,-0.908287,1.835754,1.175395,-14.310181
43.434334993,-0.908286,1.835755,1.175395,-14.310334
43.467628956,-0.908286,1.835755,1.175396,-14.310408
43.501075029,-0.908286,1.835756,1.175396,-14.310479
43.534219027,-0.908286,1.835756,1.175397,-14.310549
43.567679882,-0.908286,1.835757,1.175397,-14.310616
43.600853920,-0.908286,1.835757,1.175397,-14.310617
43.634397984,-0.908286,1.835757,1.175397,-14.310682
43.667551041,-0.908286,1.835758,1.175398,-14.310746
43.701040030,-0.908286,1.835759,1.175398,-14.310866
43.734390974,-0.908285,1.835759,1.175399,-14.310925
43.767560005,-0.908285,1.835760,1.175399,-14.310981
43.801138878,-0.908285,1.835760,1.175399,-14.310981
43.834347963,-0.908285,1.835761,1.175399,-14.311088
43.867645979,-0.908285,1.835761,1.175400,-14.311139
43.901031017,-0.908285,1.835761,1.175400,-14.311140
43.934555054,-0.908285,1.835762,1.175400,-14.311237
43.967727900,-0.908285,1.835762,1.175400,-14.311237
44.000978947,-0.908285,1.835762,1.175401,-14.311329
44.034548998,-0.908285,1.835763,1.175401,-14.311374
44.067645073,-0.908285,1.835763,1.175401,-14.311416
44.100929976,-0.908285,1.835763,1.175401,-14.311417
44.134325981,-0.908285,1.835763,1.175401,-14.311458
44.167587042,-0.908285,1.835764,1.175402,-14.311498
44.201012850,-0.908284,1.835764,1.175402,-14.311574
44.234583855,-0.908284,1.835765,1.175402,-14.311611
44.267801046,-0.908284,1.835765,1.175402,-14.311646
44.300974846,-0.908284,1.835765,1.175402,-14.311681
44.334238052,-0.908284,1.835765,1.175403,-14.311714
44.367673874,-0.908284,1.835766,1.175403,-14.311747
44.401109934,-0.908284,1.835766,1.175403,-14.311748
44.434107065,-0.908284,1.835766,1.175403,-14.311779
44.467692852,-0.908284,1.835766,1.175403,-14.311838
44.501025915,-0.908284,1.835767,1.175403,-14.311868
44.534334898,-0.908284,1.835767,1.175404,-14.311895
44.567695856,-0.908284,1.835767,1.175404,-14.311922
44.601001024,-0.908284,1.835767,1.175404,-14.311949
44.634219885,-0.908284,1.835767,1.175404,-14.311949
44.667748928,-0.908284,1.835768,1.175404,-14.311998
44.701072931,-0.908284,1.835768,1.175404,-14.312022
44.734518051,-0.908284,1.835768,1.175404,-14.312046
44.767793894,-0.908284,1.835768,1.175404,-14.312068
44.801059008,-0.908284,1.835768,1.175405,-14.312090
44.834733009,-0.908284,1.835768,1.175405,-14.312111
44.868252039,-0.908283,1.835769,1.175405,-14.312132
44.900969982,-0.908283,1.835769,1.175405,-14.312132
44.934293032,-0.908283,1.835769,1.175405,-14.312171
44.967715979,-0.908283,1.835769,1.175405,-14.312190
45.001119852,-0.908283,1.835769,1.175405,-14.312208
45.034286976,-0.908283,1.835769,1.175405,-14.312225
45.067868948,-0.908283,1.835769,1.175405,-14.312243
45.101065874,-0.908283,1.835770,1.175406,-14.312260
45.134443998,-0.908283,1.835770,1.175406,-14.312276
45.168614864,-0.908283,1.835770,1.175406,-14.312291
45.201025009,-0.908283,1.835770,1.175406,-14.312306
45.234312057,-0.908283,1.835770,1.175406,-14.312321
45.267683029,-0.908283,1.835770,1.175406,-14.312335
45.300899982,-0.908283,1.835770,1.175406,-14.312335
45.334279060,-0.908283,1.835770,1.175406,-14.312349
45.367656946,-0.908283,1.835770,1.175406,-14.312375
45.401027918,-0.908283,1.835770,1.175406,-14.312376
45.434635878,-0.908283,1.835771,1.175406,-14.312401
45.467450857,-0.908283,1.835771,1.175406,-14.312401
45.500998020,-0.908283,1.835771,1.175406,-14.312424
45.534188032,-0.908283,1.835771,1.175406,-14.312435
45.567709923,-0.908283,1.835771,1.175406,-14.312446
45.601073980,-0.908283,1.835771,1.175406,-14.312456
45.634361982,-0.908283,1.835771,1.175407,-14.312467
45.667677879,-0.908283,1.835771,1.175407,-14.312476
45.701822042,-0.908283,1.835771,1.175407,-14.312486
45.734397888,-0.908283,1.835771,1.175407,-14.312495
45.768218994,-0.908283,1.835771,1.175407,-14.312505
45.800956964,-0.908283,1.835771,1.175407,-14.312505
45.834167957,-0.908283,1.835771,1.175407,-14.312513
45.867714882,-0.908283,1.835772,1.175407,-14.312530
45.901468039,-0.864581,1.840219,1.184262,-16.326437
45.934315920,-0.822190,1.844534,1.192851,-18.279926
45.967942953,-0.781071,1.848719,1.201182,-20.174812
46.001776934,-0.741185,1.852778,1.209264,-22.012850
46.034157991,-0.702496,1.856716,1.217103,-23.795748
46.067864895,-0.664967,1.860535,1.224707,-25.525158
46.101551056,-0.628565,1.864240,1.232082,-27.202686
46.134217024,-0.593254,1.867834,1.239237,-28.829889
46.167772055,-0.592888,1.867871,1.239311,-28.846741
46.200973034,-0.525779,1.874701,1.252908,-31.939310
46.234348059,-0.493552,1.877981,1.259438,-33.424416
46.267518997,-0.493221,1.878015,1.259505,-33.439663
46.300997019,-0.431970,1.884249,1.271916,-36.262299
46.334274054,-0.402557,1.887242,1.277875,-37.617714
46.367580891,-0.402254,1.887273,1.277937,-37.631687
46.401066065,-0.346352,1.892962,1.289263,-40.207771
46.434854984,-0.319508,1.895694,1.294702,-41.444824
46.467454910,-0.319206,1.895725,1.294763,-41.458740
46.500864983,-0.268212,1.900915,1.305096,-43.808701
46.534420967,-0.243712,1.903409,1.310060,-44.937725
46.567720890,-0.219947,1.905827,1.314875,-46.032875
46.600903988,-0.219702,1.905852,1.314925,-46.044167
46.634279013,-0.174535,1.910449,1.324076,-48.125599
46.667577028,-0.174223,1.910481,1.324139,-48.139935
46.700830936,-0.152582,1.912683,1.328524,-49.137249
46.734246969,-0.111398,1.916875,1.336869,-51.035088
46.767950058,-0.091603,1.918890,1.340880,-51.947319
46.800763845,-0.091603,1.918890,1.340880,-51.947319
46.834195852,-0.053775,1.922740,1.348544,-53.690498
46.867658854,-0.035709,1.924578,1.352205,-54.523067
46.900956869,-0.035559,1.924593,1.352235,-54.529942
46.934385061,-0.001185,1.928092,1.359200,-56.114021
46.967614889,0.015304,1.929770,1.362541,-56.873882
47.000748873,0.015304,1.929770,1.362541,-56.873882
47.034185886,0.046813,1.932977,1.368925,-58.325905
47.067681074,0.061863,1.934509,1.371974,-59.019409
47.101085901,0.076460,1.935994,1.374932,-59.692112
47.134297848,0.090620,1.937435,1.377801,-60.344631
47.167500973,0.090734,1.937447,1.377824,-60.349884
47.200924873,0.117678,1.940189,1.383283,-61.591530
47.234220982,0.130601,1.941504,1.385902,-62.187069
47.267541885,0.143137,1.942780,1.388442,-62.764740
47.300994873,0.155296,1.944018,1.390905,-63.325081
47.334251881,0.167091,1.945218,1.393295,-63.868610
47.367573977,0.178532,1.946383,1.395613,-64.395836
47.400874853,0.178649,1.946395,1.395637,-64.401230
47.434218884,0.200394,1.948608,1.400043,-65.403305
47.467815876,0.210836,1.949670,1.402159,-65.884491
47.501312971,0.220964,1.950701,1.404211,-66.351242
47.534278870,0.221079,1.950713,1.404234,-66.356522
47.567797899,0.240319,1.952671,1.408132,-67.243149
47.601053953,0.249563,1.953612,1.410005,-67.669136
47.634288073,0.258530,1.954524,1.411822,-68.082344
47.667500019,0.258601,1.954532,1.411837,-68.085640
47.701056957,0.275664,1.956268,1.415294,-68.871948
47.734456062,0.283848,1.957101,1.416952,-69.249069
47.767518044,0.283952,1.957112,1.416973,-69.253853
47.801028967,0.299486,1.958693,1.420121,-69.969719
47.834290981,0.306955,1.959453,1.421634,-70.313911
47.867583036,0.314200,1.960190,1.423102,-70.647774
47.900927067,0.314200,1.960190,1.423102,-70.647774
47.934040070,0.321227,1.960906,1.424526,-70.971626
47.967746973,0.334656,1.962272,1.427247,-71.590469
48.001194954,0.341070,1.962925,1.428546,-71.886040
48.034277916,0.347292,1.963558,1.429807,-72.172745
48.067898035,0.353327,1.964172,1.431030,-72.450844
48.100934982,0.359180,1.964768,1.432216,-72.720596
48.134144068,0.359228,1.964773,1.432225,-72.722778
48.167505026,0.364904,1.965351,1.433375,-72.984360
48.201076031,0.375709,1.966450,1.435565,-73.482277
48.234412909,0.380891,1.966978,1.436615,-73.721092
48.267519951,0.380967,1.966986,1.436630,-73.724602
48.301050901,0.390794,1.967986,1.438621,-74.177444
48.334392071,0.395524,1.968467,1.439579,-74.395409
48.367622852,0.400112,1.968934,1.440509,-74.606827
48.401160002,0.404562,1.969387,1.441411,-74.811905
48.434268951,0.408879,1.969826,1.442285,-75.010834
48.467653990,0.413066,1.970252,1.443134,-75.203789
48.501136065,0.417127,1.970666,1.443957,-75.390961
48.534198046,0.417171,1.970670,1.443966,-75.392975
48.567815065,0.424889,1.971456,1.445529,-75.748619
48.601352930,0.428596,1.971833,1.446280,-75.919441
48.634587049,0.432191,1.972199,1.447009,-76.085144
48.667764902,0.435679,1.972554,1.447716,-76.245872
48.701206923,0.439062,1.972898,1.448401,-76.401779
48.734308004,0.442344,1.973232,1.449066,-76.553009
48.767580986,0.445527,1.973556,1.449711,-76.699699
48.800799847,0.445527,1.973556,1.449711,-76.699699
48.834194899,0.451610,1.974175,1.450944,-76.980019
48.867498875,0.451610,1.974175,1.450944,-76.980019
48.900956869,0.457334,1.974758,1.452103,-77.243767
48.934265852,0.460067,1.975036,1.452657,-77.369736
48.967644930,0.462719,1.975306,1.453194,-77.491928
49.001013994,0.465291,1.975568,1.453715,-77.610451
49.034301996,0.467786,1.975822,1.454221,-77.725418
49.067523003,0.470206,1.976068,1.454711,-77.836945
49.100929976,0.470231,1.976070,1.454716,-77.838089
49.134408951,0.472579,1.976309,1.455192,-77.946312
49.167635918,0.474869,1.976542,1.455656,-78.051834
49.201122999,0.479181,1.976981,1.456530,-78.250557
49.234219074,0.481259,1.977193,1.456951,-78.346321
49.268784046,0.483275,1.977398,1.457359,-78.439217
49.301008940,0.485230,1.977597,1.457756,-78.529320
49.334326982,0.487127,1.977790,1.458140,-78.616722
49.367882967,0.488967,1.977977,1.458513,-78.701508
49.400963068,0.490751,1.978159,1.458874,-78.783745
49.434247017,0.492482,1.978335,1.459225,-78.863518
49.468104839,0.494162,1.978506,1.459565,-78.940895
49.501035929,0.495790,1.978672,1.459895,-79.015945
49.534291983,0.497370,1.978833,1.460215,-79.088753
49.567532063,0.497388,1.978834,1.460219,-79.089577
49.601182938,0.500389,1.979140,1.460827,-79.227875
49.634269953,0.501831,1.979287,1.461119,-79.294319
49.667564869,0.503230,1.979429,1.461402,-79.358772
49.700935841,0.504586,1.979567,1.461677,-79.421295
49.734283924,0.504601,1.979568,1.461680,-79.421967
49.767587900,0.507179,1.979831,1.462203,-79.540764
49.801071882,0.508417,1.979957,1.462453,-79.597824
49.834178925,0.509618,1.980079,1.462697,-79.653175
49.867593050,0.510783,1.980198,1.462933,-79.706863
49.900991917,0.511913,1.980313,1.463162,-79.758934
49.934283972,0.513009,1.980424,1.463384,-79.809448
49.967583895,0.514073,1.980532,1.463599,-79.858452
50.001049995,0.515104,1.980637,1.463808,-79.905983
50.034276962,0.516105,1.980739,1.464011,-79.952087
50.067569017,0.517075,1.980838,1.464208,-79.996803
50.101062059,0.518016,1.980934,1.464399,-80.040184
50.134286880,0.518929,1.981027,1.464584,-80.082260
50.167546988,0.519815,1.981117,1.464763,-80.123077
50.200927973,0.519824,1.981118,1.464765,-80.123489
50.234253883,0.521508,1.981289,1.465106,-80.201073
50.267854929,0.522316,1.981371,1.465270,-80.238319
50.300950050,0.523100,1.981451,1.465429,-80.274452
50.334110022,0.523108,1.981452,1.465430,-80.274826
50.367835999,0.524598,1.981604,1.465732,-80.343498
50.400933981,0.525314,1.981677,1.465877,-80.376480
50.434350014,0.526008,1.981747,1.466018,-80.408470
50.467774868,0.526681,1.981816,1.466154,-80.439499
50.500964880,0.527335,1.981882,1.466287,-80.469597
50.534245014,0.527968,1.981947,1.466415,-80.498787
50.567612886,0.528583,1.982009,1.466539,-80.527107
50.600898981,0.528589,1.982010,1.466541,-80.527412
50.634229898,0.529757,1.982129,1.466777,-80.581223
50.667659044,0.529762,1.982129,1.466778,-80.581436
50.701076031,0.530862,1.982241,1.467001,-80.632141
50.734245062,0.531390,1.982295,1.467108,-80.656464
50.767745018,0.531394,1.982295,1.467109,-80.656654
50.800829887,0.531907,1.982348,1.467213,-80.680321
50.834524870,0.532880,1.982447,1.467410,-80.725128
50.867524862,0.532885,1.982447,1.467411,-80.725380
50.901581049,0.533800,1.982540,1.467597,-80.767540
50.934401989,0.534240,1.982585,1.467686,-80.787796
50.967546940,0.534244,1.982585,1.467687,-80.788010
51.000903845,0.534671,1.982629,1.467773,-80.807663
51.034246922,0.535481,1.982711,1.467937,-80.844994
51.067561865,0.535870,1.982751,1.468016,-80.862923
51.100957870,0.536247,1.982789,1.468092,-80.880318
51.134227037,0.536252,1.982790,1.468093,-80.880508
51.167819977,0.536969,1.982863,1.468239,-80.913559
51.200995922,0.537313,1.982898,1.468308,-80.929436
51.234267950,0.537647,1.982932,1.468376,-80.944839
51.267657042,0.537972,1.982965,1.468442,-80.959778
51.301008940,0.538286,1.982997,1.468506,-80.974266
51.334097862,0.538289,1.982997,1.468506,-80.974419
51.367817879,0.538887,1.983058,1.468627,-81.001953
51.400969982,0.539174,1.983087,1.468685,-81.015175
51.434480906,0.539452,1.983115,1.468742,-81.028008
51.467623949,0.539722,1.983143,1.468796,-81.040451
51.501381874,0.539984,1.983170,1.468850,-81.052521
51.534204006,0.540238,1.983195,1.468901,-81.064224
51.567620039,0.540241,1.983196,1.468902,-81.064346
51.601485014,0.540724,1.983245,1.468999,-81.086594
51.634361982,0.540956,1.983268,1.469046,-81.097282
51.667579889,0.541180,1.983291,1.469092,-81.107643
51.701005936,0.541399,1.983314,1.469136,-81.117699
51.735796928,0.541401,1.983314,1.469137,-81.117805
51.767504930,0.541613,1.983335,1.469180,-81.127594
51.801028013,0.542015,1.983376,1.469261,-81.146088
51.834159851,0.542208,1.983396,1.469300,-81.154984
51.867665052,0.542395,1.983415,1.469338,-81.163620
51.900986910,0.542577,1.983433,1.469375,-81.171997
51.934198856,0.542753,1.983451,1.469411,-81.180115
51.967766047,0.542924,1.983469,1.469445,-81.187996
52.000972033,0.543090,1.983486,1.469479,-81.195641
52.034499884,0.543251,1.983502,1.469511,-81.203056
52.067399979,0.543251,1.983502,1.469511,-81.203056
52.100849867,0.543408,1.983518,1.469543,-81.210304
92.700949907,-2.201542,-2.890034,0.695212,95.998039
92.734153032,-2.201542,-2.890034,0.695212,95.998039
92.767513037,-2.201542,-2.890034,0.695212,95.998039
92.800821066,-2.201542,-2.890034,0.695212,95.998039
92.834174871,-2.201542,-2.890034,0.695212,95.998039
92.867707968,-2.201542,-2.890034,0.695212,95.998039
92.900964975,-2.201542,-2.890034,0.695212,95.998039
92.934392929,-2.226322,-3.099550,0.725079,96.028954
92.968726873,-2.302915,-3.131841,1.062239,96.032440
93.000666857,-2.302915,-3.131841,1.062239,96.032440
93.034147024,-2.283323,-3.138483,1.039104,96.040504
93.067451000,-2.283317,-3.138485,1.039097,96.040504
93.100810051,-2.283317,-3.138485,1.039097,96.040504
93.134275913,-2.283317,-3.138485,1.039097,96.040504
93.167474985,-2.283317,-3.138485,1.039097,96.040504
93.200880051,-2.283317,-3.138485,1.039097,96.040504
93.234109879,-2.283317,-3.138485,1.039097,96.040504
93.267530918,-2.283317,-3.138485,1.039097,96.040504
93.300873995,-2.283317,-3.138485,1.039097,96.040504
93.334184885,-2.283317,-3.138485,1.039097,96.040504
93.367553949,-2.283317,-3.138485,1.039097,96.040504
93.401038885,-2.283317,-3.138485,1.039097,96.040504
93.434108973,-2.283317,-3.138485,1.039097,96.040504
93.467470884,-2.283317,-3.138485,1.039097,96.040504
93.500783920,-2.283317,-3.138485,1.039097,96.040504
93.534245968,-2.283317,-3.138485,1.039097,96.040504
93.567400932,-2.283317,-3.138485,1.039097,96.040504
93.601063013,-2.283317,-3.138485,1.039097,96.040504
93.634336948,-2.283317,-3.138485,1.039097,96.040504
93.667459965,-2.283317,-3.138485,1.039097,96.040504
93.700816870,-2.283317,-3.138485,1.039097,96.040504
93.734166861,-2.283317,-3.138485,1.039097,96.040504
93.767457962,-2.283317,-3.138485,1.039097,96.040504
93.800875902,-2.283317,-3.138485,1.039097,96.040504
93.834240913,-2.283317,-3.138485,1.039097,96.040504
93.867399931,-2.283317,-3.138485,1.039097,96.040504
93.901092052,-2.283317,-3.138485,1.039097,96.040504
93.934165955,-2.283317,-3.138485,1.039097,96.040504
93.967383862,-2.283317,-3.138485,1.039097,96.040504
94.000813007,-2.283317,-3.138485,1.039097,96.040504
94.034081936,-2.283317,-3.138485,1.039097,96.040504
94.067493916,-2.283317,-3.138485,1.039097,96.040504
94.100756884,-2.283317,-3.138485,1.039097,96.040504
94.134264946,-2.283317,-3.138485,1.039097,96.040504
94.167551041,-2.283317,-3.138485,1.039097,96.040504
94.200856924,-2.283317,-3.138485,1.039097,96.040504
94.234175920,-2.283317,-3.138485,1.039097,96.040504
94.267585993,-2.283317,-3.138485,1.039097,96.040504
94.300786972,-2.283317,-3.138485,1.039097,96.040504
94.334132910,-2.283317,-3.138485,1.039097,96.040504
94.367505074,-2.283317,-3.138485,1.039097,96.040504
94.400961876,-2.283317,-3.138485,1.039097,96.040504
94.434139967,-2.283317,-3.138485,1.039097,96.040504
94.467541933,-2.283317,-3.138485,1.039097,96.040504
94.500863075,-2.283317,-3.138485,1.039097,96.040504
94.534129858,-2.283317,-3.138485,1.039097,96.040504
94.567427874,-2.283317,-3.138485,1.039097,96.040504
94.600756884,-2.283317,-3.138485,1.039097,96.040504
94.634155989,-2.283317,-3.138485,1.039097,96.040504
94.667571068,-2.283317,-3.138485,1.039097,96.040504
94.700788021,-2.283317,-3.138485,1.039097,96.040504
94.734200954,-2.283317,-3.138485,1.039097,96.040504
94.767619848,-2.283317,-3.138485,1.039097,96.040504
94.800972939,-2.283317,-3.138485,1.039097,96.040504
94.834347010,-2.283317,-3.138485,1.039097,96.040504
94.867452860,-2.283317,-3.138485,1.039097,96.040504
94.900779963,-2.283317,-3.138485,1.039097,96.040504
94.934108019,-2.283317,-3.138485,1.039097,96.040504
94.967411041,-2.283317,-3.138485,1.039097,96.040504
95.000755072,-2.283317,-3.138485,1.039097,96.040504
95.034055948,-2.283317,-3.138485,1.039097,96.040504
95.067486048,-2.283317,-3.138485,1.039097,96.040504
95.100883961,-2.283317,-3.138485,1.039097,96.040504
95.134193897,-2.283317,-3.138485,1.039097,96.040504
95.167677879,-2.283317,-3.138485,1.039097,96.040504
95.200873852,-2.283317,-3.138485,1.039097,96.040504
95.234093904,-2.283317,-3.138485,1.039097,96.040504
95.267474890,-2.283317,-3.138485,1.039097,96.040504
95.300812960,-2.283317,-3.138485,1.039097,96.040504
95.334043980,-2.283317,-3.138485,1.039097,96.040504
95.367429018,-2.283317,-3.138485,1.039097,96.040504
95.400848866,-2.283317,-3.138485,1.039097,96.040504
95.434187889,-2.283317,-3.138485,1.039097,96.040504
95.467516899,-2.283317,-3.138485,1.039097,96.040504
95.500771999,-2.283317,-3.138485,1.039097,96.040504
95.534067869,-2.283317,-3.138485,1.039097,96.040504
95.567452908,-2.283317,-3.138485,1.039097,96.040504
95.600787878,-2.283317,-3.138485,1.039097,96.040504
95.634211063,-2.283317,-3.138485,1.039097,96.040504
95.667403936,-2.283317,-3.138485,1.039097,96.040504
95.700820923,-2.283317,-3.138485,1.039097,96.040504
95.734223843,-2.283317,-3.138485,1.039097,96.040504
95.767704964,-2.283317,-3.138485,1.039097,96.040504
95.800834894,-2.283317,-3.138485,1.039097,96.040504
95.834120989,-2.283317,-3.138485,1.039097,96.040504
95.867539883,-2.283317,-3.138485,1.039097,96.040504
95.900776863,-2.283317,-3.138485,1.039097,96.040504
95.934144020,-2.283317,-3.138485,1.039097,96.040504
95.967666864,-2.283317,-3.138485,1.039097,96.040504
96.000769854,-2.283317,-3.138485,1.039097,96.040504
96.034035921,-2.283317,-3.138485,1.039097,96.040504
96.067496061,-2.283317,-3.138485,1.039097,96.040504
96.100843906,-2.283317,-3.138485,1.039097,96.040504
96.134114027,-2.283317,-3.138485,1.039097,96.040504
96.167464018,-2.283317,-3.138485,1.039097,96.040504
96.200984955,-2.283317,-3.138485,1.039097,96.040504
96.234151840,-2.283317,-3.138485,1.039097,96.040504
96.267540932,-2.283317,-3.138485,1.039097,96.040504
96.302350044,-2.283317,-3.138485,1.039097,96.040504
96.334117889,-2.283317,-3.138485,1.039097,96.040504
96.367630959,-2.283317,-3.138485,1.039097,96.040504
96.401002884,-2.283317,-3.138485,1.039097,96.040504
96.434009075,-2.283317,-3.138485,1.039097,96.040504
96.467493057,-2.283317,-3.138485,1.039097,96.040504
96.500871897,-2.283317,-3.138485,1.039097,96.040504
96.534245014,-2.283317,-3.138485,1.039097,96.040504
96.567476988,-2.283317,-3.138485,1.039097,96.040504
96.600853920,-2.283317,-3.138485,1.039097,96.040504
96.634134054,-2.283317,-3.138485,1.039097,96.040504
96.667608976,-2.283317,-3.138485,1.039097,96.040504
96.700931072,-2.283317,-3.138485,1.039097,96.040504
96.734068871,-2.283317,-3.138485,1.039097,96.040504
96.767538071,-2.283317,-3.138485,1.039097,96.040504
96.800838947,-2.283317,-3.138485,1.039097,96.040504
96.834125042,-2.283317,-3.138485,1.039097,96.040504
96.867444038,-2.283317,-3.138485,1.039097,96.040504
96.900845051,-2.283317,-3.138485,1.039097,96.040504
96.934406996,-2.283317,-3.138485,1.039097,96.040504
96.967519999,-2.283317,-3.138485,1.039097,96.040504
97.000777960,-2.283317,-3.138485,1.039097,96.040504
97.034224033,-2.283317,-3.138485,1.039097,96.040504
97.067465067,-2.283317,-3.138485,1.039097,96.040504
97.100811958,-2.283317,-3.138485,1.039097,96.040504
97.134181976,-2.283317,-3.138485,1.039097,96.040504
97.167511940,-2.283317,-3.138485,1.039097,96.040504
97.200775862,-2.283317,-3.138485,1.039097,96.040504
97.234147072,-2.283317,-3.138485,1.039097,96.040504
97.267597914,-2.283317,-3.138485,1.039097,96.040504
97.300817013,-2.283317,-3.138485,1.039097,96.040504
97.334204912,-2.283317,-3.138485,1.039097,96.040504
97.367538929,-2.283317,-3.138485,1.039097,96.040504
97.400815964,-2.283317,-3.138485,1.039097,96.040504
97.434148073,-2.283317,-3.138485,1.039097,96.040504
97.467467070,-2.283317,-3.138485,1.039097,96.040504
97.500896931,-2.283317,-3.138485,1.039097,96.040504
97.534185886,-2.283317,-3.138485,1.039097,96.040504
97.567440033,-2.283317,-3.138485,1.039097,96.040504
97.600861073,-2.283317,-3.138485,1.039097,96.040504
97.635787964,-2.283317,-3.138485,1.039097,96.040504
97.667485952,-2.283317,-3.138485,1.039097,96.040504
97.700828075,-2.283317,-3.138485,1.039097,96.040504
97.736050844,-2.283317,-3.138485,1.039097,96.040504
97.767533064,-2.283317,-3.138485,1.039097,96.040504
97.800776958,-2.283317,-3.138485,1.039097,96.040504
97.834167957,-2.283317,-3.138485,1.039097,96.040504
97.867455959,-2.283317,-3.138485,1.039097,96.040504
97.900799036,-2.283317,-3.138485,1.039097,96.040504
97.934305906,-2.283317,-3.138485,1.039097,96.040504
97.967509985,-2.283317,-3.138485,1.039097,96.040504
98.000797033,-2.283317,-3.138485,1.039097,96.040504
98.034182072,-2.283317,-3.138485,1.039097,96.040504
98.068151951,-2.283317,-3.138485,1.039097,96.040504
98.100825071,-2.283317,-3.138485,1.039097,96.040504
98.134158850,-2.283317,-3.138485,1.039097,96.040504
98.167675972,-2.283317,-3.138485,1.039097,96.040504
98.200698853,-2.283317,-3.138485,1.039097,96.040504
98.234320879,-2.283317,-3.138485,1.039097,96.040504
98.267591953,-2.283317,-3.138485,1.039097,96.040504
98.300983906,-2.283317,-3.138485,1.039097,96.040504
98.339643955,-2.283317,-3.138485,1.039097,96.040504
98.367511988,-2.283317,-3.138485,1.039097,96.040504
98.400830984,-2.283317,-3.138485,1.039097,96.040504
98.434161901,-2.283317,-3.138485,1.039097,96.040504
98.467542887,-2.283317,-3.138485,1.039097,96.040504
98.500839949,-2.283317,-3.138485,1.039097,96.040504
98.534373045,-2.283317,-3.138485,1.039097,96.040504
98.568672895,-2.283317,-3.138485,1.039097,96.040504
98.600867987,-2.283317,-3.138485,1.039097,96.040504
98.634336948,-2.283317,-3.138485,1.039097,96.040504
98.667573929,-2.283317,-3.138485,1.039097,96.040504
98.701828957,-2.283317,-3.138485,1.039097,96.040504
98.734173059,-2.283317,-3.138485,1.039097,96.040504
98.767538071,-2.283317,-3.138485,1.039097,96.040504
98.803590059,-2.283317,-3.138485,1.039097,96.040504
98.835720062,-2.283317,-3.138485,1.039097,96.040504
98.867475033,-2.283317,-3.138485,1.039097,96.040504
98.901576996,-2.283317,-3.138485,1.039097,96.040504
98.934264898,-2.283317,-3.138485,1.039097,96.040504
98.967534065,-2.283317,-3.138485,1.039097,96.040504
99.003747940,-2.283317,-3.138485,1.039097,96.040504
99.034172058,-2.283317,-3.138485,1.039097,96.040504
99.067445040,-2.283317,-3.138485,1.039097,96.040504
99.100758076,-2.283317,-3.138485,1.039097,96.040504
99.134191036,-2.283317,-3.138485,1.039097,96.040504
99.167677879,-2.283317,-3.138485,1.039097,96.040504
99.203573942,-2.283317,-3.138485,1.039097,96.040504
99.235795975,-2.283317,-3.138485,1.039097,96.040504
99.269000053,-2.283317,-3.138485,1.039097,96.040504
99.301276922,-2.283317,-3.138485,1.039097,96.040504
99.334131956,-2.283317,-3.138485,1.039097,96.040504
99.367493868,-2.283317,-3.138485,1.039097,96.040504
99.401417971,-2.283317,-3.138485,1.039097,96.040504
99.435052872,-2.283317,-3.138485,1.039097,96.040504
99.467500925,-2.283317,-3.138485,1.039097,96.040504
99.500735998,-2.283317,-3.138485,1.039097,96.040504
99.535960913,-2.283317,-3.138485,1.039097,96.040504
99.567466021,-2.283317,-3.138485,1.039097,96.040504
99.600646019,-2.283317,-3.138485,1.039097,96.040504
99.634410858,-2.283317,-3.138485,1.039097,96.040504
99.667500019,-2.283317,-3.138485,1.039097,96.040504
99.700949907,-2.283317,-3.138485,1.039097,96.040504
99.734236002,-2.283317,-3.138485,1.039097,96.040504
99.767442942,-2.283317,-3.138485,1.039097,96.040504
99.801455021,-2.283317,-3.138485,1.039097,96.040504
99.834169865,-2.283317,-3.138485,1.039097,96.040504
99.867613077,-2.283317,-3.138485,1.039097,96.040504
99.901669025,-2.283317,-3.138485,1.039097,96.040504
99.934237003,-2.283317,-3.138485,1.039097,96.040504
99.967563868,-2.283317,-3.138485,1.039097,96.040504
100.001554966,-2.283317,-3.138485,1.039097,96.040504
100.037360907,-2.283317,-3.138485,1.039097,96.040504
100.067470074,-2.283317,-3.138485,1.039097,96.040504
100.100900888,-2.283317,-3.138485,1.039097,96.040504
100.134161949,-2.283317,-3.138485,1.039097,96.040504
100.167358875,-2.283317,-3.138485,1.039097,96.040504
100.200787067,-2.283317,-3.138485,1.039097,96.040504
100.234289885,-2.283317,-3.138485,1.039097,96.040504
100.267449856,-2.283317,-3.138485,1.039097,96.040504
100.301602840,-2.283317,-3.138485,1.039097,96.040504
100.334231853,-2.283317,-3.138485,1.039097,96.040504
100.367548943,-2.283317,-3.138485,1.039097,96.040504
100.400807858,-2.283317,-3.138485,1.039097,96.040504
100.434141874,-2.283317,-3.138485,1.039097,96.040504
100.467536926,-2.283317,-3.138485,1.039097,96.040504
100.500804901,-2.283317,-3.138485,1.039097,96.040504
100.536226034,-2.283317,-3.138485,1.039097,96.040504
100.567471027,-2.283317,-3.138485,1.039097,96.040504
100.600905895,-2.283317,-3.138485,1.039097,96.040504
100.634095907,-2.283317,-3.138485,1.039097,96.040504
100.667430878,-2.283317,-3.138485,1.039097,96.040504
100.701043844,-2.283317,-3.138485,1.039097,96.040504
100.734117031,-2.283317,-3.138485,1.039097,96.040504
100.767449856,-2.283317,-3.138485,1.039097,96.040504
100.800925970,-2.283317,-3.138485,1.039097,96.040504
100.834166050,-2.283317,-3.138485,1.039097,96.040504
100.867470980,-2.283317,-3.138485,1.039097,96.040504
100.901417017,-2.283317,-3.138485,1.039097,96.040504
100.934134007,-2.283317,-3.138485,1.039097,96.040504
100.967434883,-2.283317,-3.138485,1.039097,96.040504
101.000854015,-2.283317,-3.138485,1.039097,96.040504
101.034147978,-2.283317,-3.138485,1.039097,96.040504
101.067445040,-2.283317,-3.138485,1.039097,96.040504
101.101417065,-2.283317,-3.138485,1.039097,96.040504
101.134214878,-2.283317,-3.138485,1.039097,96.040504
101.167568922,-2.283317,-3.138485,1.039097,96.040504
101.200762987,-2.283317,-3.138485,1.039097,96.040504
101.236031055,-2.283317,-3.138485,1.039097,96.040504
101.267508030,-2.283317,-3.138485,1.039097,96.040504
101.303730965,-2.283317,-3.138485,1.039097,96.040504
101.334064960,-2.283317,-3.138485,1.039097,96.040504
101.367490053,-2.283317,-3.138485,1.039097,96.040504
101.400781870,-2.283317,-3.138485,1.039097,96.040504
101.434109926,-2.283317,-3.138485,1.039097,96.040504
101.467468977,-2.283317,-3.138485,1.039097,96.040504
101.501420021,-2.283317,-3.138485,1.039097,96.040504
101.534390926,-2.283317,-3.138485,1.039097,96.040504
101.567425966,-2.283317,-3.138485,1.039097,96.040504
101.600790024,-2.283317,-3.138485,1.039097,96.040504
101.634109974,-2.283317,-3.138485,1.039097,96.040504
101.667500973,-2.283317,-3.138485,1.039097,96.040504
101.700828075,-2.283317,-3.138485,1.039097,96.040504
101.734220028,-2.283317,-3.138485,1.039097,96.040504
101.767375946,-2.283317,-3.138485,1.039097,96.040504
101.800896883,-2.283317,-3.138485,1.039097,96.040504
101.834419966,-2.283317,-3.138485,1.039097,96.040504
101.867553949,-2.283317,-3.138485,1.039097,96.040504
101.904231071,-2.283317,-3.138485,1.039097,96.040504
101.934164047,-2.283317,-3.138485,1.039097,96.040504
101.967951059,-2.283317,-3.138485,1.039097,96.040504
102.000962019,-2.283317,-3.138485,1.039097,96.040504
102.036123037,-2.283317,-3.138485,1.039097,96.040504
102.067492008,-2.283317,-3.138485,1.039097,96.040504
102.101152897,-2.283317,-3.138485,1.039097,96.040504
102.134126902,-2.283317,-3.138485,1.039097,96.040504
102.167510033,-2.283317,-3.138485,1.039097,96.040504
102.200763941,-2.283317,-3.138485,1.039097,96.040504
102.234093904,-2.283317,-3.138485,1.039097,96.040504
102.267475843,-2.283317,-3.138485,1.039097,96.040504
102.300922871,-2.283317,-3.138485,1.039097,96.040504
102.336308956,-2.283317,-3.138485,1.039097,96.040504
102.367387056,-2.283317,-3.138485,1.039097,96.040504
102.400774002,-2.283317,-3.138485,1.039097,96.040504
102.436125994,-2.283317,-3.138485,1.039097,96.040504
102.467450857,-2.283317,-3.138485,1.039097,96.040504
102.500788927,-2.283317,-3.138485,1.039097,96.040504
102.534076929,-2.283317,-3.138485,1.039097,96.040504
102.567565918,-2.283317,-3.138485,1.039097,96.040504
102.600764036,-2.283317,-3.138485,1.039097,96.040504
102.634116888,-2.283317,-3.138485,1.039097,96.040504
102.668806076,-2.283317,-3.138485,1.039097,96.040504
102.700685978,-2.283317,-3.138485,1.039097,96.040504
102.736027956,-2.283317,-3.138485,1.039097,96.040504
102.767446041,-2.283317,-3.138485,1.039097,96.040504
102.800808907,-2.283317,-3.138485,1.039097,96.040504
102.834054947,-2.283317,-3.138485,1.039097,96.040504
102.867511034,-2.283317,-3.138485,1.039097,96.040504
