time,x,y,z,yaw
0.000752926,0.331364,-0.003630,0.519250,88.493973
0.034102917,0.329896,-0.003653,0.515416,88.493103
0.067359924,0.331364,-0.003630,0.519250,88.492493
0.100775957,0.331364,-0.003630,0.519250,88.490280
0.133977890,0.328423,-0.003676,0.511589,88.489326
0.167452812,0.329896,-0.003653,0.515416,88.488136
0.200703859,0.331154,-0.003634,0.518702,88.486092
0.234164953,0.329952,-0.008044,0.515394,88.484856
0.267440796,0.363436,0.001324,0.502538,88.484688
0.300657988,0.314656,-0.012616,0.525634,88.483772
0.334174871,0.346698,-0.003391,0.508964,88.482742
0.367747784,0.328479,-0.008064,0.511567,88.480652
0.400712967,0.346634,0.001030,0.508989,88.477737
0.433990002,0.330999,-0.007474,0.514992,88.475975
0.467337847,0.346634,0.001030,0.508989,88.476608
0.500674009,0.314656,-0.012616,0.525634,88.477325
0.534359932,0.321209,-0.008762,0.521240,88.475700
0.567337990,0.331125,-0.007178,0.518491,88.473984
0.600615978,0.330002,-0.003959,0.515682,88.472260
0.634109974,0.358875,0.000647,0.504289,88.472252
0.667327881,0.331364,-0.003630,0.519250,88.471428
0.700670958,0.346634,0.001030,0.508989,88.470039
0.734084845,0.363436,0.001324,0.502538,88.468964
0.767328978,0.328479,-0.008064,0.511567,88.467728
0.800652981,0.329952,-0.008044,0.515394,88.465668
0.833956003,0.327002,-0.008084,0.507747,88.466270
0.867291927,0.331364,-0.003630,0.519250,88.465919
0.900662899,0.331420,-0.008023,0.519228,88.464569
0.934084892,0.314656,-0.012616,0.525634,88.462524
0.967377901,0.329952,-0.008044,0.515394,88.461517
1.000662804,0.331109,-0.004428,0.518554,88.460426
1.033973932,0.329896,-0.003653,0.515416,88.460464
1.067301989,0.331364,-0.003630,0.519250,88.458893
1.100657940,0.346634,0.001030,0.508989,88.458687
1.134136915,0.363436,0.001324,0.502538,88.458687
1.167429924,0.346698,-0.003391,0.508964,88.455612
1.200701952,0.346698,-0.003391,0.508964,88.454590
1.233978987,0.329896,-0.003653,0.515416,88.453835
1.267324924,0.331420,-0.008023,0.519228,88.452705
1.300629854,0.346698,-0.003391,0.508964,88.450104
1.333972931,0.329896,-0.003653,0.515416,88.450569
1.367222786,0.329896,-0.003653,0.515416,88.450455
1.400612831,0.329896,-0.003653,0.515416,88.448326
1.433952808,0.331364,-0.003630,0.519250,88.446564
1.467420816,0.331364,-0.003630,0.519250,88.446602
1.500791788,0.331364,-0.003630,0.519250,88.445908
1.534114838,0.331364,-0.003630,0.519250,88.445023
1.567346811,0.346698,-0.003391,0.508964,88.445045
1.600522995,0.330336,-0.003646,0.515247,88.443413
1.633888006,0.331420,-0.008023,0.519228,88.443298
1.667322874,0.330227,-0.004602,0.516244,88.441437
1.700634003,0.362591,0.005559,0.502862,88.440704
1.734016895,0.328423,-0.003676,0.511589,88.439957
1.767361879,0.329565,-0.006940,0.514433,88.437767
1.800661802,0.348113,0.001056,0.512851,88.436584
1.834210873,0.329896,-0.003653,0.515416,88.435387
1.867308855,0.329896,-0.003653,0.515416,88.434143
1.901304960,0.343903,-0.003435,0.510037,88.434074
1.934171915,0.331364,-0.003630,0.519250,88.434288
1.967526913,0.330032,-0.003651,0.515771,88.431870
2.000720978,0.331300,0.000762,0.519274,88.430344
2.034300804,0.331351,-0.002750,0.519255,88.428680
2.067432880,0.345214,-0.003414,0.505110,88.425507
2.100618839,0.334512,-0.003581,0.516036,88.425728
2.134063959,0.363436,0.001324,0.502538,88.426003
2.167286873,0.348177,-0.003368,0.512826,88.424782
2.200711966,0.346698,-0.003391,0.508964,88.422470
2.234158993,0.329952,-0.008044,0.515394,88.421555
2.267295837,0.346698,-0.003391,0.508964,88.421562
2.300637960,0.328479,-0.008064,0.511567,88.420601
2.334156990,0.346634,0.001030,0.508989,88.419861
2.367425919,0.346698,-0.003391,0.508964,88.419212
2.400628805,0.348177,-0.003368,0.512826,88.419006
2.434020996,0.329896,-0.003653,0.515416,88.416824
2.467316866,0.349651,-0.003345,0.516695,88.414207
2.500677824,0.329952,-0.008044,0.515394,88.412804
2.533984900,0.346698,-0.003391,0.508964,88.410583
2.567333937,0.330363,-0.007581,0.511298,88.410973
2.600770950,0.329952,-0.008044,0.515394,88.409492
2.634008884,0.328423,-0.003676,0.511589,88.409088
2.667370796,0.346698,-0.003391,0.508964,88.407066
2.700682878,0.348177,-0.003368,0.512826,88.407242
2.734001875,0.345214,-0.003414,0.505110,88.405785
2.767401934,0.331364,-0.003630,0.519250,88.405701
2.800588846,0.328479,-0.008064,0.511567,88.404739
2.834098816,0.346634,0.001030,0.508989,88.402588
2.867341995,0.346698,-0.003391,0.508964,88.402161
2.900621891,0.331364,-0.003630,0.519250,88.400269
2.934107780,0.345805,0.000411,0.513732,88.398659
2.967257977,0.348177,-0.003368,0.512826,88.398476
3.000783920,0.328479,-0.008064,0.511567,88.398666
3.034029007,0.327002,-0.008084,0.507747,88.397728
3.067362785,0.345214,-0.003414,0.505110,88.397659
3.100659847,0.346698,-0.003391,0.508964,88.395683
3.134099960,0.330634,-0.007511,0.511259,88.394691
3.167366982,0.328479,-0.008064,0.511567,88.393471
3.200809956,0.328479,-0.008064,0.511567,88.393471
3.234032869,0.346698,-0.003391,0.508964,88.393227
3.267340899,0.348177,-0.003368,0.512826,88.392799
3.300685883,0.348177,-0.003368,0.512826,88.383163
3.334157944,0.346698,-0.003391,0.508964,88.013901
3.367347956,0.348177,-0.003368,0.512826,88.017265
3.400668859,0.346698,-0.003391,0.508964,88.253525
3.434086800,0.351121,-0.003322,0.520572,88.476891
3.467290878,0.355502,-0.003254,0.532245,88.676231
3.500798941,0.348541,-0.003362,0.513794,88.803383
3.534157991,0.359842,-0.003186,0.543983,89.029999
3.567331791,0.362646,0.001310,0.551868,89.233101
3.600713968,0.379563,0.001606,0.545723,89.390549
3.634063959,0.389434,0.016114,0.574423,89.662483
3.667393923,0.392076,0.015350,0.581791,89.996597
3.700675011,0.408330,0.020264,0.630681,90.350479
3.735106945,0.413606,0.020397,0.647187,90.640671
3.767481804,0.414688,0.029525,0.651400,90.814560
3.800642967,0.421044,0.029708,0.672022,91.218239
3.833999872,0.426864,0.048171,0.693356,91.524658
3.867396832,0.437447,0.056808,0.731535,91.790131
3.900671959,0.466252,0.058898,0.765468,92.062347
3.934324980,0.448726,0.071825,0.774596,92.395706
3.967360973,0.453972,0.072280,0.796453,92.619881
4.000755787,0.476794,0.085984,0.820315,92.866554
4.033999920,0.468626,0.091561,0.862643,93.099609
4.067401886,0.471049,0.101004,0.876090,93.293617
4.100856781,0.477961,0.110738,0.911993,93.467262
4.134047985,0.480344,0.114299,0.925191,93.581833
4.167404890,0.486302,0.115932,0.957219,93.952621
4.200925827,0.488502,0.129293,0.974467,94.084846
4.234046936,0.491752,0.139426,0.997711,94.244949
4.267915010,0.493751,0.144598,1.012314,94.542397
4.300865889,0.497278,0.154272,1.040018,94.756256
4.333958864,0.499928,0.154478,1.058489,94.990585
4.367494822,0.500438,0.163349,1.067257,95.077370
4.400762796,0.484157,0.167297,1.084137,95.251205
4.434001923,0.483570,0.181289,1.088900,95.492050
4.467518806,0.488440,0.177034,1.125824,95.534386
4.500952959,0.485889,0.194287,1.117369,95.747086
4.534101009,0.487290,0.195684,1.130648,95.980759
4.567410946,0.487373,0.195692,1.131401,96.031548
4.601064920,0.471324,0.194171,1.141539,95.941322
4.633971930,0.456101,0.192729,1.160163,96.074142
4.667382002,0.436314,0.195445,1.163949,96.098854
4.700761795,0.436765,0.195489,1.168500,96.021957
4.734053850,0.436768,0.200082,1.173096,95.996651
4.767413855,0.439250,0.200326,1.200464,96.027588
4.801152945,0.421791,0.203109,1.197456,96.008942
4.834172964,0.420640,0.212179,1.197496,95.951782
4.867393970,0.421456,0.207890,1.201802,95.948364
4.900808811,0.422219,0.207778,1.210835,95.756378
4.934170008,0.408095,0.202408,1.212840,95.625763
4.967453957,0.389344,0.199912,1.218273,95.636276
5.000627995,0.388984,0.199876,1.213795,95.624702
5.034215927,0.372920,0.193791,1.219591,95.479996
5.067524910,0.372217,0.197675,1.215690,95.352303
5.100714922,0.372197,0.193720,1.210699,95.380020
5.134091854,0.374374,0.189459,1.232912,95.443077
5.167308807,0.357893,0.183423,1.220797,95.476425
5.200615883,0.356802,0.183320,1.207546,95.559296
5.234051943,0.357707,0.180728,1.215510,95.527756
5.267449856,0.358706,0.174609,1.220732,95.514977
5.300705910,0.359394,0.174672,1.229578,95.398888
5.334096909,0.342222,0.168695,1.222054,95.372955
5.367430925,0.325264,0.162802,1.205869,95.389824
5.400708914,0.327024,0.158729,1.222635,95.396469
5.434199810,0.311561,0.152894,1.224515,95.318535
5.467393875,0.312258,0.148594,1.228821,95.252296
5.500702858,0.312263,0.144237,1.224458,95.162857
5.534081936,0.312455,0.139010,1.221819,95.062943
5.567313910,0.312944,0.139932,1.228767,94.899605
5.600677013,0.312906,0.131211,1.220044,94.819412
5.634051800,0.313256,0.131237,1.224379,94.766335
5.667589903,0.313935,0.135648,1.237419,94.654266
5.700689793,0.299969,0.125919,1.242800,94.606331
5.736238003,0.299667,0.125897,1.238667,94.567345
5.767385006,0.299653,0.125896,1.238485,94.563408
5.800655842,0.301474,0.117352,1.255715,94.360199
5.834110975,0.303210,0.118713,1.286013,94.019501
5.867388964,0.303489,0.117490,1.289681,93.940506
5.900867939,0.289211,0.116514,1.304040,93.688416
5.934054852,0.305185,0.113262,1.320695,93.536209
5.967451811,0.304894,0.117586,1.320706,93.459084
6.000692844,0.305151,0.117604,1.327697,93.419487
6.034022808,0.275016,0.106968,1.334739,93.305809
6.067348957,0.275003,0.111255,1.343323,93.307411
6.100686789,0.260781,0.110309,1.377858,93.277977
6.134020805,0.260551,0.114554,1.382126,93.162544
6.167435884,0.260599,0.114558,1.386390,93.261124
6.201389790,0.260403,0.118804,1.399184,93.326180
6.233994961,0.246795,0.121891,1.403296,93.253448
6.267329931,0.245806,0.126244,1.395017,93.106567
6.300750971,0.245854,0.126248,1.411964,92.939766
6.335359812,0.230888,0.125140,1.416159,92.908302
6.367312908,0.230559,0.129319,1.420366,92.798454
6.400646925,0.216257,0.132410,1.424480,92.727570
6.434122801,0.216226,0.132408,1.428661,92.853287
6.467386961,0.216226,0.132408,1.428661,92.853287
6.500663996,0.201271,0.131245,1.428535,92.994278
6.534204960,0.186839,0.136718,1.418504,93.079132
6.567819834,0.186738,0.138356,1.411912,93.075645
6.600802898,0.186439,0.141900,1.415483,92.912506
6.633961916,0.186393,0.142449,1.416036,92.684692
6.667374849,0.186054,0.146541,1.407788,92.545578
6.700755835,0.186049,0.146540,1.414229,92.484230
6.734185934,0.173094,0.145435,1.416000,92.485054
6.767359018,0.173094,0.145435,1.416000,92.427406
6.800718784,0.159721,0.144293,1.419863,92.234901
6.834083796,0.158857,0.147407,1.420033,92.127197
6.867513895,0.144850,0.147067,1.415922,92.021553
6.901898861,0.144850,0.147067,1.415922,92.009460
6.934098005,0.144507,0.150951,1.415921,92.023598
6.967433929,0.144496,0.151078,1.415921,92.044876
7.000762939,0.144496,0.151078,1.415921,91.948105
7.034215927,0.144496,0.151078,1.415921,91.827797
7.067375898,0.144850,0.147067,1.415922,91.750717
7.102118015,0.144856,0.147067,1.412570,91.768257
7.134140015,0.158588,0.148265,1.379311,91.742516
7.167407990,0.158588,0.148265,1.379311,91.742516
7.200805902,0.172885,0.145417,1.379108,91.626862
7.234259844,0.172885,0.145417,1.379108,91.533035
7.267543793,0.186119,0.142426,1.374796,91.326538
7.300752878,0.186547,0.138582,1.382555,91.151901
7.334016800,0.186652,0.138349,1.390602,91.000175
7.367600918,0.186519,0.138339,1.378914,90.826172
7.400785923,0.200803,0.135356,1.378711,90.740417
7.434166908,0.200803,0.135356,1.378711,90.740417
7.467402935,0.229929,0.133546,1.390627,91.145241
7.501860857,0.242888,0.134482,1.383566,91.157990
7.534417868,0.245047,0.134650,1.382317,91.152313
7.567378998,0.245250,0.130434,1.373843,91.039902
7.601107836,0.245774,0.126242,1.390781,91.134560
7.634105921,0.254830,0.124209,1.390704,91.262428
7.667378902,0.260072,0.123041,1.394343,91.448158
7.700676918,0.275062,0.124122,1.399114,91.733429
7.734055996,0.275328,0.120047,1.395014,91.848831
7.767694950,0.291526,0.116672,1.386067,91.890816
7.800806999,0.304775,0.117578,1.382063,91.909531
7.834292889,0.306234,0.117678,1.368670,91.985909
7.867635012,0.306782,0.113368,1.385907,92.101051
7.900848866,0.306689,0.113362,1.378330,92.164093
7.934116840,0.306737,0.109017,1.364150,92.314423
7.967593908,0.306647,0.109012,1.359801,92.422661
8.003255844,0.306778,0.109020,1.366426,92.450172
8.033999920,0.306893,0.109027,1.372851,92.596687
8.069644928,0.307352,0.101710,1.372843,92.682487
8.100799799,0.307284,0.100356,1.364380,92.838966
8.134076834,0.306953,0.100336,1.350249,92.895683
8.167634964,0.292638,0.095320,1.342982,92.945297
8.200734854,0.292039,0.095109,1.342824,92.945213
8.234385014,0.276510,0.094193,1.360457,92.951859
8.267372847,0.276195,0.094175,1.347582,92.971405
8.300634861,0.276561,0.085615,1.343277,92.855026
8.334047794,0.273135,0.088818,1.339983,92.685326
8.368012905,0.264254,0.085719,1.342854,92.712868
8.400710821,0.261462,0.084782,1.339454,92.740349
8.434092999,0.247354,0.084004,1.335654,92.746315
8.467512846,0.247210,0.083996,1.331420,92.584282
8.501052856,0.236720,0.083417,1.337802,92.526497
8.534285784,0.232092,0.083162,1.327738,92.540886
8.567493916,0.218122,0.082391,1.328252,92.548637
8.600836992,0.217889,0.086558,1.328261,92.485802
8.634030819,0.203304,0.081573,1.332955,92.412712
8.667383909,0.203523,0.077528,1.332947,92.305374
8.700737953,0.203336,0.080972,1.332954,92.361580
8.734047890,0.189557,0.076688,1.333436,92.367157
8.767409801,0.176583,0.075997,1.333889,92.157043
8.800985813,0.176436,0.075989,1.329789,91.939514
8.834184885,0.162465,0.075244,1.330304,91.782539
8.867589951,0.162465,0.075244,1.330304,91.731491
8.900748014,0.175233,0.072102,1.318354,91.588715
8.934124947,0.162194,0.071155,1.318077,91.552841
8.967486858,0.162363,0.071164,1.322149,91.573486
9.000747919,0.174816,0.071804,1.321643,91.482597
9.034155846,0.176495,0.071890,1.325681,91.217926
9.067364931,0.162194,0.071155,1.318077,90.969162
9.100742817,0.174857,0.071806,1.324810,91.030304
9.134021997,0.176495,0.071890,1.325681,91.049980
9.167670012,0.175612,0.068441,1.301788,91.256241
9.200728893,0.175613,0.067745,1.301090,91.294403
9.234090805,0.188581,0.068387,1.300441,91.330948
9.267404795,0.188780,0.064272,1.300431,91.298553
9.300905943,0.202317,0.064916,1.291444,91.326942
9.334113836,0.201808,0.060743,1.279011,91.449760
9.369871855,0.217279,0.065629,1.290639,91.539726
9.400727987,0.230193,0.066244,1.277643,91.532852
9.434183836,0.216441,0.057235,1.269778,91.538506
9.467417002,0.229304,0.057799,1.272771,91.565407
9.500755787,0.230582,0.053788,1.269020,91.454346
9.534106970,0.246473,0.050085,1.280591,91.399559
9.567608833,0.259398,0.050603,1.262798,91.421875
9.600777864,0.260100,0.046372,1.271279,91.461456
9.634035826,0.259639,0.046354,1.263974,91.578110
9.667459965,0.275728,0.042680,1.278906,91.564018
9.700629950,0.291935,0.043269,1.282296,91.580482
9.734278917,0.303919,0.039855,1.258509,91.598557
9.768201828,0.307200,0.035127,1.281446,91.719856
9.800648928,0.307704,0.026445,1.285771,91.726700
9.834078789,0.321952,0.026855,1.276386,91.902687
9.867394924,0.321520,0.022467,1.263130,92.069313
9.900666952,0.323028,0.022508,1.289328,92.158218
9.934049845,0.337350,0.022893,1.288584,92.346825
9.967446804,0.355088,0.018932,1.287663,92.386055
10.002333879,0.371824,0.019351,1.282319,92.404007
10.034215927,0.370739,0.008076,1.259861,92.610771
10.070334911,0.371221,0.002556,1.265642,92.771721
10.100952864,0.371445,0.001464,1.268919,92.815956
10.134251833,0.385686,-0.002281,1.268072,92.798538
10.167959929,0.387489,-0.002755,1.267964,92.795097
10.200655937,0.420699,-0.011361,1.252289,93.043549
10.234066963,0.420699,-0.011361,1.252289,92.995720
10.267912865,0.420553,-0.017712,1.249121,92.969292
10.300686836,0.437206,-0.015967,1.255395,92.946014
10.334018946,0.438065,-0.023148,1.255757,93.004692
10.370312929,0.437785,-0.024942,1.251176,93.046005
10.400686979,0.437831,-0.038725,1.251173,93.098846
10.437564850,0.438125,-0.038725,1.255753,93.037796
10.467389822,0.438124,-0.041631,1.255753,93.011497
10.500615835,0.437829,-0.043320,1.251173,93.002808
10.534231901,0.454793,-0.043343,1.250068,93.009140
10.567435980,0.472438,-0.048026,1.244254,93.085861
10.600759983,0.472886,-0.048028,1.251134,93.152863
10.633960962,0.472725,-0.052688,1.248900,93.237854
10.667969942,0.472995,-0.057350,1.253547,93.255135
10.700982809,0.472697,-0.057348,1.248901,93.237328
10.734050989,0.472664,-0.061526,1.248904,93.369820
10.767567873,0.471992,-0.066660,1.239621,93.525688
10.800774813,0.471384,-0.062024,1.230395,93.684731
10.834021807,0.489994,-0.062162,1.238380,93.690155
10.867353916,0.489994,-0.062162,1.238380,93.690155
10.900635958,0.489994,-0.062162,1.238380,93.690155
10.934078932,0.472988,-0.066491,1.244037,93.983162
10.967353821,0.472044,-0.066661,1.240382,94.101280
11.000795841,0.471992,-0.066660,1.239621,94.128372
11.034060955,0.489513,-0.066849,1.238413,94.551788
11.067549944,0.471614,-0.071314,1.234984,94.568741
11.100649834,0.471614,-0.071314,1.234984,94.568741
11.134365797,0.470963,-0.071306,1.226037,94.613678
11.167238951,0.470939,-0.071306,1.225710,94.622421
11.200689793,0.488943,-0.066843,1.224367,95.015404
11.235111952,0.488943,-0.066843,1.224367,95.219238
11.267305851,0.506938,-0.062313,1.223025,95.238159
11.300750971,0.524530,-0.062469,1.216950,95.225853
11.334073782,0.524530,-0.062469,1.216950,95.225853
11.367386818,0.524163,-0.062466,1.212217,94.939804
11.400680780,0.509631,-0.066312,1.221313,94.822342
11.434056997,0.522559,-0.062979,1.217629,94.827522
11.467283010,0.524530,-0.062469,1.216950,94.707695
11.500671864,0.523795,-0.062463,1.207570,94.675117
11.535301924,0.524432,-0.062468,1.215702,94.849960
11.567728996,0.543474,-0.062638,1.215502,94.938026
11.600708008,0.543508,-0.058285,1.215499,94.934906
11.634089947,0.543853,-0.053648,1.219676,95.009842
11.667476892,0.543597,-0.048775,1.216010,94.943825
11.700663805,0.561926,-0.052916,1.218694,94.903389
11.734169960,0.580940,-0.053243,1.212764,94.963455
11.767369986,0.562868,-0.048320,1.218853,94.987015
11.800678015,0.562868,-0.048320,1.218853,94.987015
11.834125996,0.581225,-0.038958,1.217484,95.001968
11.867358923,0.581450,-0.048380,1.212598,94.937256
11.900692940,0.599453,-0.044095,1.215569,94.858864
11.934045792,0.601771,-0.043543,1.215952,94.864555
11.967453957,0.601403,-0.043542,1.211072,95.039497
12.002167940,0.601654,-0.040223,1.214375,95.113464
12.034298897,0.621718,-0.038629,1.214464,95.182770
12.067345858,0.621718,-0.038629,1.214464,95.172577
12.100787878,0.636798,-0.038621,1.209500,95.215843
12.134095907,0.659499,-0.038609,1.211129,95.306305
12.169958830,0.682329,-0.033593,1.209944,95.295509
12.202308893,0.682549,-0.038597,1.209927,95.347572
12.234014988,0.682549,-0.038597,1.209927,95.389961
12.267165899,0.682547,-0.043653,1.209927,95.408913
12.300957918,0.682547,-0.043653,1.209927,95.449394
12.334040880,0.699421,-0.047784,1.208669,95.426086
12.367342949,0.703487,-0.044398,1.208365,95.361359
12.400673866,0.725428,-0.043711,1.206729,95.386436
12.434208870,0.725428,-0.043711,1.206729,95.552002
12.470103979,0.745969,-0.048914,1.200017,95.569000
12.500846863,0.746286,-0.048915,1.204225,95.416634
12.533988953,0.745980,-0.043739,1.200016,95.401253
12.570291996,0.745970,-0.048390,1.200017,95.409714
12.600821018,0.765791,-0.048979,1.198501,95.383743
12.634032965,0.769306,-0.043771,1.203457,95.286545
12.670454979,0.768901,-0.048989,1.198263,95.178192
12.703586817,0.769294,-0.048990,1.203457,95.032997
12.733959913,0.769294,-0.048990,1.203457,95.003845
12.773766994,0.788790,-0.053733,1.202003,95.019875
12.800691843,0.791229,-0.049845,1.201821,95.005028
12.834186792,0.790841,-0.049060,1.196635,94.680824
12.867420912,0.811319,-0.044549,1.204184,94.644035
12.900588989,0.813770,-0.049135,1.194832,94.591263
12.934058905,0.814368,-0.049136,1.202844,94.619751
12.967327833,0.835749,-0.049206,1.203850,94.613342
13.000659943,0.836353,-0.049208,1.188571,94.465973
13.034052849,0.814227,-0.049136,1.200078,94.390091
13.067378998,0.835438,-0.049205,1.177129,94.338921
13.100716829,0.836292,-0.049208,1.187760,94.233147
13.134143829,0.835908,-0.049206,1.182918,94.120361
13.167486906,0.835870,-0.049206,1.182443,94.071854
13.200723886,0.836271,-0.049208,1.187497,93.970428
13.234045982,0.859358,-0.049283,1.175164,93.861115
13.267233849,0.859358,-0.049283,1.175164,93.847328
13.300723791,0.860177,-0.049285,1.185375,93.757248
13.333967924,0.860196,-0.054676,1.185887,93.601768
13.367293835,0.882184,-0.054789,1.184164,93.449219
13.400709867,0.860150,-0.049459,1.175447,93.408875
13.434065819,0.883255,-0.054794,1.173202,93.304649
13.467388868,0.860107,-0.049455,1.175103,93.273285
13.500966787,0.883693,-0.054796,1.178605,93.294060
13.534073830,0.885315,-0.060242,1.200247,93.242981
13.567421913,0.885347,-0.054974,1.200245,93.030968
13.600821018,0.884994,-0.054803,1.195434,93.048241
13.634075880,0.885238,-0.059101,1.199111,93.012833
13.667301893,0.884981,-0.055272,1.195299,92.824974
13.700584888,0.885679,-0.060069,1.205313,92.772011
13.734063864,0.885405,-0.055676,1.201113,92.786530
13.770133018,0.884949,-0.054803,1.194831,92.873909
13.800681829,0.884949,-0.054803,1.194831,92.918861
13.834020853,0.885133,-0.054804,1.197331,92.919121
13.867430925,0.885348,-0.054805,1.200245,92.935471
13.900789976,0.885025,-0.050132,1.195593,92.914810
13.933995962,0.885526,-0.053310,1.202681,92.897888
13.967292786,0.885439,-0.050378,1.201250,92.958023
14.000703812,0.837509,-0.043864,1.203722,93.051697
14.033935785,0.837509,-0.043864,1.203722,93.205093
14.067359924,0.837138,-0.043863,1.198673,93.197731
14.100741863,0.836754,-0.043863,1.193591,93.237099
14.134116888,0.836716,-0.043863,1.193078,93.240776
14.167264938,0.837117,-0.043863,1.198399,93.211266
14.200841904,0.812958,-0.038862,1.184281,93.297585
14.234147787,0.793286,-0.038539,1.185860,93.368347
14.267301798,0.768489,-0.028117,1.193072,93.349243
14.300721884,0.784680,-0.024160,1.191804,93.265373
14.334165812,0.767629,-0.022905,1.182698,93.056633
14.367282867,0.768050,-0.022902,1.187885,92.936455
14.400717974,0.767161,-0.017692,1.177516,92.889038
14.434026957,0.749407,-0.017836,1.183095,92.880981
14.467359781,0.767489,-0.007258,1.182709,92.771378
14.500734806,0.767425,-0.002252,1.182714,92.643860
14.534206867,0.746438,0.002389,1.184438,92.591499
14.567411900,0.743479,0.007969,1.174330,92.637047
14.600821972,0.743033,0.007961,1.169194,92.581566
14.633907795,0.726224,0.015663,1.166668,92.546783
14.667387009,0.701836,0.017425,1.182287,92.425972
14.700675964,0.682181,0.021232,1.171969,92.343063
14.733990908,0.678830,0.026541,1.174338,92.353317
14.767478943,0.660233,0.030911,1.172116,92.414185
14.800637007,0.657170,0.038825,1.171719,92.463768
14.834070921,0.656598,0.045580,1.167684,92.508400
14.867340803,0.636241,0.055778,1.168623,92.549568
14.905021906,0.619516,0.055170,1.170154,92.723236
14.933998823,0.596502,0.064121,1.177160,92.900688
14.967541933,0.595416,0.068969,1.167465,93.065399
15.000680923,0.576629,0.077156,1.169220,93.260796
15.034063816,0.560219,0.080803,1.167089,93.393387
15.067991972,0.557063,0.081816,1.183180,93.527824
15.100735903,0.523501,0.088412,1.180264,93.897408
15.134033918,0.518155,0.089454,1.179435,93.958733
15.167412996,0.502582,0.097165,1.173265,94.305817
15.200764894,0.484509,0.097089,1.181049,94.298317
15.234208822,0.481859,0.096943,1.182758,94.306976
15.267410994,0.445807,0.099564,1.186059,94.321526
15.301033974,0.431172,0.102727,1.191402,94.347694
15.334085941,0.429053,0.103185,1.192176,94.367744
15.367451906,0.426196,0.107590,1.164971,94.622269
15.400708914,0.393313,0.105589,1.177321,94.685455
15.434021950,0.375562,0.110717,1.174207,94.655098
15.467443943,0.359570,0.112430,1.171699,94.636185
15.500725985,0.358547,0.120907,1.171803,94.726524
15.534284830,0.329520,0.111583,1.167040,94.850845
15.567209005,0.310218,0.113345,1.167967,94.889320
15.600597858,0.309170,0.120993,1.171814,94.900955
15.634010792,0.294265,0.121183,1.173967,94.949516
15.667274952,0.279079,0.124412,1.175529,94.848152
15.700942993,0.264718,0.123376,1.177006,94.873451
15.733990908,0.251545,0.125587,1.175197,94.883514
15.767327785,0.247911,0.126400,1.177709,94.939659
15.800685883,0.248016,0.126408,1.178725,94.976357
15.834026814,0.247724,0.130340,1.178755,95.012581
15.867363930,0.235286,0.129678,1.183922,94.892632
15.900714874,0.234239,0.129599,1.184357,94.885910
15.934059858,0.233386,0.129534,1.176017,94.912254
15.967377901,0.234537,0.125591,1.184327,95.024040
16.000733852,0.234550,0.125411,1.184325,95.018448
16.033973932,0.234237,0.129598,1.184333,94.726845
16.067323923,0.234239,0.129599,1.184357,94.726646
16.100760937,0.247110,0.130576,1.178818,94.763573
16.133984804,0.247583,0.126375,1.174529,94.836533
16.167317867,0.246995,0.126332,1.168985,94.742310
16.200615883,0.246694,0.126310,1.166146,94.658157
16.234066963,0.262230,0.119365,1.172562,94.281052
16.267376900,0.277150,0.116239,1.171432,94.303757
16.301229954,0.279519,0.111555,1.171184,94.245171
16.334129810,0.293765,0.112502,1.173714,94.089874
16.367695808,0.294082,0.104267,1.161589,94.083397
16.400766850,0.310556,0.100555,1.172291,94.140938
16.433985949,0.311682,0.096267,1.180897,94.154366
16.467382908,0.311095,0.099948,1.177235,94.153999
16.500746012,0.325794,0.093565,1.175110,94.206985
16.534019947,0.340857,0.089890,1.173589,94.275665
16.567283869,0.343979,0.080836,1.173274,94.417435
16.600744009,0.357553,0.085024,1.164244,94.499550
16.634238958,0.377225,0.073249,1.169916,94.585884
16.667320013,0.376773,0.073227,1.165478,94.571785
16.700775862,0.376329,0.065583,1.157893,94.574585
16.733989954,0.377910,0.060623,1.171185,94.715065
16.767266989,0.378264,0.059852,1.174298,94.726318
16.800626993,0.395524,0.051547,1.172587,94.878242
16.834006786,0.395690,0.047038,1.172571,95.097786
16.867432833,0.411634,0.043369,1.170991,95.052818
16.900702000,0.427758,0.039374,1.160876,95.059937
16.934196949,0.430093,0.029969,1.169161,95.054024
16.967340946,0.430093,0.029969,1.169161,95.054024
17.000758886,0.429765,0.025380,1.164610,94.992874
17.034245968,0.429992,0.016227,1.164587,94.901779
17.067395926,0.429630,0.011639,1.160040,94.869171
17.100785971,0.440577,0.004526,1.166268,94.943291
17.134044886,0.447637,0.002796,1.167423,94.810364
17.167340994,0.447637,0.002796,1.167423,94.679161
17.200618982,0.448274,-0.010100,1.171978,94.533646
17.233999014,0.448286,-0.011035,1.171977,94.511208
17.267560005,0.448669,-0.006415,1.176559,94.376213
17.300665855,0.448127,-0.010275,1.170468,94.469727
17.334033966,0.448286,-0.011035,1.171977,94.460487
17.367483854,0.464107,-0.019574,1.170439,94.218086
17.400665998,0.450334,-0.024263,1.167758,94.219826
17.434052944,0.447961,-0.024879,1.167390,94.216743
17.467427969,0.465998,-0.029415,1.166661,94.131203
17.500645876,0.465507,-0.029417,1.161713,94.045822
17.534129858,0.465436,-0.029418,1.161008,94.025558
17.567265987,0.483824,-0.034020,1.163836,93.815758
17.600861788,0.484893,-0.034017,1.174880,93.509323
17.634039879,0.484727,-0.034018,1.173121,93.473045
17.667533875,0.483824,-0.034020,1.163836,93.362404
17.700665951,0.501743,-0.038692,1.162060,93.352928
17.734040976,0.517529,-0.034602,1.164582,93.170509
17.767285824,0.520111,-0.033933,1.164994,93.151772
17.800724983,0.520642,-0.034744,1.170510,92.842224
17.834030867,0.520564,-0.033932,1.169705,92.809357
17.867309809,0.520118,-0.038682,1.164993,92.735413
17.900707006,0.539858,-0.037879,1.171863,92.683731
17.934054852,0.538819,-0.038672,1.161072,92.571114
17.967312813,0.538563,-0.038672,1.158411,92.559486
18.000749826,0.539022,-0.033887,1.163155,92.507408
18.034223795,0.558109,-0.033841,1.163149,92.650261
18.067391872,0.557932,-0.033842,1.161317,92.648781
18.100806952,0.577291,-0.028938,1.164297,92.578934
18.134049892,0.577267,-0.029198,1.164038,92.573067
18.167339802,0.576830,-0.029851,1.159479,92.437988
18.200770855,0.588045,-0.026359,1.168527,92.352318
18.234078884,0.598523,-0.023949,1.176978,92.304337
18.267476797,0.599403,-0.028843,1.186707,92.329994
18.300704002,0.599403,-0.028843,1.186707,92.382042
18.334113836,0.597807,-0.028289,1.168923,92.243744
18.367368937,0.597659,-0.028850,1.167255,92.248245
18.402349949,0.598955,-0.023947,1.181842,92.269035
18.434077978,0.617546,-0.023832,1.165397,92.336273
18.467332840,0.618443,-0.023826,1.175192,92.361435
18.500777006,0.619304,-0.023821,1.184997,92.405441
18.534003973,0.617572,-0.028765,1.165394,92.288391
18.567414999,0.638356,-0.022772,1.173406,92.257301
18.600716829,0.638363,-0.023703,1.173406,92.263054
18.634095907,0.639676,-0.028670,1.188227,92.299477
18.667285919,0.619329,-0.028757,1.184995,92.203995
18.700689793,0.619329,-0.028757,1.184995,92.203995
18.734092951,0.638405,-0.033648,1.173402,92.053833
18.767756939,0.653931,-0.042558,1.170174,92.092720
18.800778866,0.657880,-0.043619,1.166642,92.094856
18.834161997,0.638849,-0.043593,1.178340,92.108421
18.867445946,0.657880,-0.043619,1.166642,92.051689
18.900643826,0.658330,-0.043620,1.171615,91.936638
18.933964968,0.678296,-0.053742,1.159720,91.718025
18.967298985,0.679230,-0.058797,1.170272,91.562752
19.000854969,0.679184,-0.058796,1.169745,91.561081
19.034011841,0.658670,-0.063663,1.176600,91.543434
19.067284822,0.658621,-0.068673,1.176605,91.600258
19.100935936,0.658121,-0.073677,1.171634,91.802589
19.134044886,0.658621,-0.068673,1.176605,92.003799
19.167513847,0.657603,-0.078679,1.166667,91.928879
19.200641870,0.657977,-0.083694,1.171647,91.915260
19.234057903,0.658418,-0.083701,1.176622,92.018806
19.267289877,0.637974,-0.088337,1.173441,92.118355
19.300742865,0.637612,-0.083359,1.168497,92.081329
19.334059954,0.637974,-0.088337,1.173441,92.055954
19.367477894,0.637879,-0.093307,1.173449,92.240898
19.400861979,0.637879,-0.093307,1.173449,92.240242
19.434054852,0.637879,-0.093307,1.173449,92.315338
19.467405796,0.637879,-0.093307,1.173449,92.380913
19.500752926,0.637327,-0.098266,1.168523,92.492973
19.534070969,0.617746,-0.102767,1.175255,92.433731
19.567387819,0.617415,-0.097826,1.170347,92.354713
19.600754976,0.637214,-0.103234,1.168534,92.360657
19.634042978,0.617303,-0.102756,1.170357,92.334023
19.667375803,0.617303,-0.102756,1.170357,92.312073
19.700774908,0.617624,-0.107697,1.175265,92.309921
19.734007835,0.617181,-0.107686,1.170368,92.411163
19.767390013,0.617624,-0.107697,1.175265,92.322845
19.800659895,0.617746,-0.102767,1.175255,92.273933
19.833980799,0.617529,-0.111295,1.175274,92.236252
19.867319822,0.617493,-0.112627,1.175277,92.214699
19.900702000,0.617624,-0.107697,1.175265,92.218376
19.934078932,0.617746,-0.102767,1.175255,92.143822
19.967324972,0.617624,-0.107697,1.175265,91.991852
20.000706911,0.637976,-0.108224,1.178417,92.122307
20.034096003,0.637661,-0.103244,1.173469,92.281067
20.067577839,0.637844,-0.113192,1.178428,92.507805
20.100600004,0.638099,-0.103255,1.178406,92.609810
20.133948803,0.637214,-0.103234,1.168534,92.726791
20.167450905,0.637214,-0.103234,1.168534,92.762718
20.200838804,0.637214,-0.103234,1.168534,92.714073
20.234039783,0.657125,-0.103711,1.166711,92.590179
20.267392874,0.657125,-0.103711,1.166711,92.564896
20.300638914,0.657575,-0.103722,1.171683,92.602188
20.334167957,0.657239,-0.098706,1.166700,92.713516
20.367414951,0.657239,-0.098706,1.166700,92.797806
20.400744915,0.657689,-0.098716,1.171673,92.813187
20.433969975,0.657246,-0.098706,1.166780,92.813828
20.467409849,0.637774,-0.098276,1.173459,92.834595
20.500677824,0.637774,-0.098276,1.173459,92.806786
20.534035921,0.657689,-0.098716,1.171673,92.778610
20.567305803,0.658236,-0.093718,1.176638,92.818916
20.600655794,0.658131,-0.098726,1.176648,92.798378
20.634001017,0.658332,-0.088710,1.176630,92.792358
20.667419910,0.658236,-0.093718,1.176638,92.894112
20.700702906,0.679151,-0.094141,1.174802,93.154945
20.734058857,0.679587,-0.094150,1.179819,93.346207
20.767304897,0.658668,-0.093727,1.181616,93.509850
20.800727844,0.679151,-0.094141,1.174802,93.457909
20.834169865,0.679683,-0.089101,1.179811,93.500214
20.867323875,0.679683,-0.089101,1.179811,93.518089
20.900828838,0.663288,-0.092791,1.185213,93.462296
20.934003830,0.659187,-0.088726,1.186588,93.318535
20.967261791,0.659102,-0.093130,1.186595,93.302597
21.000733852,0.680110,-0.089109,1.184830,93.509781
21.034161806,0.680110,-0.089109,1.184830,93.751488
21.067355871,0.680110,-0.089109,1.184830,93.848541
21.100713968,0.680013,-0.094158,1.184838,93.770790
21.133905888,0.680013,-0.094158,1.184838,93.737526
21.167318821,0.679587,-0.094150,1.179819,93.666847
21.200721979,0.679481,-0.099197,1.179828,93.713852
21.234035015,0.679907,-0.099207,1.184847,93.742340
21.267280817,0.679481,-0.099197,1.179828,93.773682
21.300753832,0.680324,-0.099216,1.189868,93.910469
21.334057808,0.700828,-0.099669,1.183089,94.053741
21.367357016,0.678930,-0.104234,1.174822,94.240997
21.400671005,0.679334,-0.104244,1.179482,94.437851
21.434044838,0.679365,-0.104244,1.179838,94.576080
21.467424870,0.700282,-0.104746,1.178041,94.440971
21.500696898,0.700586,-0.109843,1.183109,94.298172
21.534162998,0.700157,-0.109832,1.178052,94.239670
21.567469835,0.700157,-0.109832,1.178052,94.239670
21.600627899,0.681979,-0.118384,1.188644,94.179901
21.634087801,0.698677,-0.114880,1.162906,94.335098
21.667406797,0.700451,-0.114929,1.183121,94.361122
21.700712919,0.699705,-0.114908,1.174436,94.347649
21.734134912,0.699876,-0.120001,1.178076,94.483711
21.767288923,0.678083,-0.119355,1.169844,94.614662
21.800518990,0.677014,-0.124369,1.159840,94.689537
21.834010839,0.699722,-0.125085,1.178089,94.733505
21.867355824,0.700151,-0.125098,1.183146,94.772949
21.900723934,0.699876,-0.120001,1.178076,94.528954
21.934139013,0.699284,-0.125071,1.173035,94.485214
21.967309952,0.699284,-0.125071,1.173035,94.513435
22.000721931,0.699558,-0.130167,1.178103,94.621597
22.034288883,0.699558,-0.130167,1.178103,94.814056
22.067523003,0.699558,-0.130167,1.178103,94.966187
22.100729942,0.678809,-0.124426,1.179886,95.094788
22.134347916,0.679235,-0.124439,1.184903,95.126839
22.167385817,0.678527,-0.119369,1.174857,95.156380
22.200884819,0.678527,-0.119369,1.174857,95.187210
22.234090805,0.678361,-0.109268,1.169819,95.299706
22.267485857,0.677773,-0.114300,1.164820,95.374901
22.301131964,0.679169,-0.118702,1.182165,95.218102
22.334182978,0.679106,-0.114337,1.179860,95.145935
22.367663860,0.678805,-0.109280,1.174832,95.028191
22.400872946,0.678805,-0.109280,1.174832,94.852364
22.434192896,0.678805,-0.109280,1.174832,94.691185
22.468545914,0.678930,-0.104234,1.174822,94.696815
22.500870943,0.678485,-0.104223,1.169808,94.692245
22.534164906,0.678147,-0.099168,1.164786,94.663223
22.567545891,0.678706,-0.094132,1.169788,94.570496
22.601005793,0.678706,-0.094132,1.169788,94.599648
22.634235859,0.679151,-0.094141,1.174802,94.634773
22.667454004,0.679248,-0.089093,1.174794,94.644768
22.701402903,0.679248,-0.089093,1.174794,94.739174
22.734273911,0.679335,-0.084045,1.174786,94.938416
22.767359972,0.658173,-0.083697,1.166915,94.962807
22.801018953,0.678890,-0.084038,1.169772,94.938942
22.834160805,0.679770,-0.084052,1.179803,94.889648
22.867607832,0.679848,-0.079003,1.179796,94.833908
22.900808811,0.679916,-0.073953,1.179790,94.860085
22.934247971,0.680274,-0.079009,1.184816,94.836800
22.967575788,0.679916,-0.073953,1.179790,94.682571
23.000868797,0.679916,-0.073953,1.179790,94.539322
23.034207821,0.679539,-0.068899,1.174768,94.641624
23.067373991,0.700009,-0.069119,1.167878,94.721321
23.100884914,0.701747,-0.069138,1.188109,94.653488
23.134178877,0.700897,-0.069129,1.177988,94.615578
23.167676926,0.701267,-0.074224,1.183052,94.633774
23.200709820,0.701688,-0.074229,1.188113,94.531830
23.234259844,0.722755,-0.074496,1.176111,94.447266
23.267619848,0.743736,-0.069591,1.174308,94.420204
23.300925016,0.743676,-0.074761,1.174313,94.451355
23.334129810,0.743606,-0.079931,1.174319,94.466751
23.367378950,0.766519,-0.080265,1.172351,94.480194
23.400797844,0.766519,-0.080265,1.172351,94.525887
23.434145927,0.767390,-0.080277,1.182717,94.613579
23.467717886,0.766879,-0.085484,1.177540,94.754486
23.500820875,0.789233,-0.085852,1.180923,94.715942
23.534278870,0.789233,-0.085852,1.180923,94.576088
23.567406893,0.812153,-0.086229,1.179041,94.622482
23.600809813,0.835586,-0.081270,1.182466,94.578690
23.634193897,0.835157,-0.081264,1.177180,94.529488
23.667459965,0.835073,-0.086605,1.177159,94.617088
23.700793982,0.859507,-0.081618,1.180546,94.745399
23.734169960,0.858989,-0.086999,1.175194,94.877167
23.767352819,0.883344,-0.087399,1.178633,94.974480
23.800735950,0.883772,-0.087406,1.184039,94.933128
23.834124804,0.883344,-0.087399,1.178633,94.914780
23.867456913,0.907696,-0.087799,1.182165,94.872314
23.900655985,0.932180,-0.088202,1.174715,94.690598
23.934170961,0.932180,-0.088202,1.174715,94.561401
23.967486858,0.957622,-0.083046,1.178252,94.710945
24.000720978,0.957536,-0.088619,1.178259,94.705643
24.034132957,0.983097,-0.083417,1.170629,94.626884
24.067415953,0.983973,-0.083429,1.181817,94.619797
24.100827932,1.009535,-0.078130,1.174185,94.641716
24.134287834,1.010814,-0.078146,1.191124,94.508835
24.167681932,1.031172,-0.078404,1.189644,94.509834
24.200807810,1.009087,-0.078124,1.168543,94.596916
24.234212875,1.035999,-0.078465,1.166384,94.594307
24.267506838,1.059578,-0.078764,1.164492,94.509895
24.300897837,1.063432,-0.073039,1.169962,94.504333
24.334087849,1.063432,-0.073039,1.169962,94.484413
24.367348909,1.063432,-0.073039,1.169962,94.452461
24.400840998,1.091402,-0.067514,1.167770,94.149170
24.434075832,1.091448,-0.061689,1.167766,94.201164
24.467494011,1.092028,-0.065707,1.175757,94.234772
24.500825882,1.091897,-0.061692,1.173564,94.224007
24.534108877,1.092335,-0.061695,1.179364,94.148941
24.567366838,1.092763,-0.061698,1.185166,93.939384
24.600926876,1.120293,-0.056010,1.177279,93.628983
24.634207010,1.120293,-0.056010,1.177279,93.332420
24.667373896,1.120317,-0.050130,1.177277,93.163162
24.702306986,1.120724,-0.056012,1.183134,93.046539
24.734205961,1.120724,-0.056012,1.183134,93.046539
24.767423868,1.120331,-0.044249,1.177276,92.615128
24.800788879,1.143036,-0.044280,1.175583,92.589172
24.834131002,1.148255,-0.038354,1.175193,92.634583
24.867910862,1.148255,-0.038354,1.175193,92.685638
24.900987864,1.148507,-0.038354,1.178615,92.625023
24.934186935,1.148255,-0.038354,1.175193,92.366882
24.967456818,1.148690,-0.038353,1.181101,92.270721
25.000686884,1.148690,-0.038353,1.181101,92.140129
25.034194946,1.148690,-0.038353,1.181101,92.079071
25.067466974,1.177173,-0.044326,1.173036,92.124352
25.100796938,1.207076,-0.050411,1.170806,92.170837
25.134123802,1.207050,-0.056455,1.170808,92.071091
25.167420864,1.207050,-0.056455,1.170808,91.916931
25.201197863,1.207050,-0.056455,1.170808,91.914322
25.234641790,1.207494,-0.056458,1.176826,92.024826
25.267443895,1.207926,-0.056460,1.182846,92.162872
25.300774813,1.207889,-0.062505,1.182849,92.271538
25.334182978,1.237850,-0.056613,1.180727,92.289734
25.367993832,1.237377,-0.062712,1.174653,92.219589
25.400975943,1.268295,-0.062929,1.172406,92.233414
25.434595823,1.268295,-0.062929,1.172406,92.233414
25.467513800,1.268772,-0.056772,1.178537,92.474335
25.500694990,1.269115,-0.069096,1.184680,92.424110
25.534065962,1.268687,-0.069092,1.178543,92.487335
25.567429781,1.300544,-0.075596,1.176288,92.538872
25.600819826,1.300820,-0.088041,1.182495,92.694084
25.634207010,1.300724,-0.094260,1.182501,92.894417
25.667461872,1.332644,-0.094785,1.180301,92.997414
25.700696945,1.332644,-0.094785,1.180301,92.948151
25.734160900,1.301038,-0.100487,1.188707,92.906677
25.767465830,1.301038,-0.100487,1.188707,92.926590
25.801523924,1.300498,-0.106697,1.182517,93.020683
25.834157944,1.332415,-0.107342,1.180317,93.135689
25.867430925,1.332415,-0.107342,1.180317,93.312386
25.900677919,1.332415,-0.107342,1.180317,93.559128
25.934132814,1.332283,-0.113620,1.180326,93.680939
25.967435837,1.332283,-0.113620,1.180326,93.689087
26.000900984,1.332283,-0.113620,1.180326,93.717621
26.034127951,1.332283,-0.113620,1.180326,93.777100
26.067426920,1.364200,-0.114325,1.178126,93.887344
26.100867987,1.364200,-0.114325,1.178126,94.233826
26.134053946,1.364054,-0.120662,1.178136,94.537102
26.167513847,1.364200,-0.114325,1.178126,94.595650
26.200779915,1.363613,-0.120651,1.171822,94.684425
26.235191822,1.364200,-0.114325,1.178126,94.725060
26.267781973,1.396522,-0.121440,1.169491,94.847221
26.300889969,1.396522,-0.121440,1.169491,94.877914
26.334265947,1.396668,-0.115042,1.169481,94.950302
26.368777990,1.384574,-0.114775,1.170337,95.002968
26.401172876,1.364200,-0.114325,1.178126,95.028320
26.434218884,1.364200,-0.114325,1.178126,95.028320
26.467582941,1.364200,-0.114325,1.178126,95.028320
26.500922918,1.398513,-0.108678,1.194995,95.038368
26.534080982,1.366101,-0.101679,1.203395,95.093124
26.567668915,1.366854,-0.101693,1.216052,95.146606
26.600740910,1.366854,-0.101693,1.216052,95.146606
26.634186983,1.366854,-0.101693,1.216052,95.146606
26.667373896,1.402160,-0.076692,1.252526,95.275635
26.700984001,1.370578,-0.069999,1.285779,95.314484
26.734037876,1.402576,-0.064152,1.296876,95.326225
26.767473936,1.371688,-0.057300,1.317541,95.341331
26.800634861,1.405190,-0.044637,1.335893,95.311295
26.834190845,1.372743,-0.038236,1.368412,95.400978
26.867388964,1.372930,-0.025523,1.393861,95.381981
26.900697947,1.345750,-0.020290,1.410053,95.509407
26.934072971,1.340935,-0.019363,1.412921,95.506371
26.967552900,1.372045,-0.006461,1.482921,95.485390
27.000872850,1.371307,0.009353,1.502701,95.526581
27.034335852,1.403187,0.019504,1.534954,95.615479
27.067324877,1.403187,0.019504,1.534954,95.615479
27.100808859,1.403187,0.019504,1.534954,95.615479
27.134197950,1.364723,0.063221,1.622404,95.562065
27.167443991,1.364723,0.063221,1.622404,95.562065
27.201028824,1.392386,0.083250,1.688146,95.532562
27.234141827,1.325587,0.093358,1.701490,95.577690
27.267534018,1.325587,0.093358,1.701490,95.577690
27.300799847,1.351220,0.113333,1.760633,95.641716
27.334119797,1.316848,0.124263,1.775808,95.788445
27.367558002,1.313825,0.124113,1.802163,95.826019
27.400913954,1.310741,0.130200,1.825098,95.840790
27.434139967,1.306584,0.148681,1.849528,95.883736
27.467417955,1.303404,0.160862,1.867665,95.913139
27.500945807,1.299089,0.160689,1.897855,95.879936
27.534122944,1.297361,0.173013,1.904284,95.893562
27.567495823,1.297361,0.173013,1.904284,95.893562
27.600710869,1.260356,0.182911,1.929489,96.031265
27.634182930,1.258433,0.182780,1.941477,95.951378
27.667527914,1.256055,0.188754,1.953374,95.948723
27.700814962,1.256055,0.188754,1.953374,95.948723
27.734470844,1.256055,0.188754,1.953374,95.948723
27.767380953,1.217205,0.204214,1.983305,95.988770
27.800765991,1.244503,0.206286,1.999584,96.005470
27.834196806,1.244966,0.212437,2.006616,95.964821
27.867429018,1.244966,0.212437,2.006616,95.860939
27.900765896,1.212051,0.215930,2.006624,95.843788
27.934183836,1.240740,0.224324,2.024179,95.849846
27.967608929,1.240740,0.224324,2.024179,95.849846
28.000759840,1.240740,0.224324,2.024179,95.849846
28.034123898,1.240740,0.224324,2.024179,95.849846
28.067392826,1.240740,0.224324,2.024179,95.849846
28.100868940,1.203215,0.232851,2.051864,96.188019
28.134126902,1.201163,0.239195,2.052912,96.170975
28.167636871,1.201163,0.239195,2.052912,96.170975
28.200695992,1.198934,0.239001,2.063992,96.083702
28.234504938,1.198829,0.238991,2.064512,96.084908
28.267326832,1.199494,0.245079,2.058612,96.292114
28.300740004,1.197142,0.244870,2.070198,96.396461
28.334267855,1.197142,0.244870,2.070198,96.351547
28.367539883,1.197279,0.256933,2.064194,96.208328
28.400813818,1.195983,0.261357,2.068478,96.121223
28.434163809,1.195562,0.262796,2.069871,96.032753
28.467607975,1.195562,0.262796,2.069871,96.032753
28.500732899,1.190206,0.268301,2.092838,95.750748
28.534133911,1.191372,0.268414,2.087312,95.696495
28.567636013,1.191422,0.268419,2.087078,95.695892
28.600777864,1.223805,0.271548,2.087866,95.583900
28.634786844,1.219560,0.277206,2.105194,95.504654
28.667502880,1.219560,0.277206,2.105194,95.504654
28.700814962,1.217058,0.276959,2.116791,95.603104
28.734421015,1.184808,0.285786,2.109706,95.793556
28.767673016,1.215908,0.288968,2.116539,95.818581
28.800839901,1.215908,0.288968,2.116539,95.818581
28.834100962,1.215908,0.288968,2.116539,95.818581
28.867339849,1.214054,0.294836,2.122195,95.922050
28.901010990,1.214716,0.300963,2.116277,95.873909
28.934093952,1.212843,0.306819,2.121926,95.847023
28.967441797,1.212843,0.306819,2.121926,95.847023
29.000947952,1.212843,0.306819,2.121926,95.847023
29.034679890,1.212843,0.306819,2.121926,95.847023
29.067362785,1.212843,0.306819,2.121926,95.847023
29.101270914,1.179275,0.315179,2.120486,95.858337
29.134661913,1.179275,0.315179,2.120486,95.858337
29.167357922,1.179275,0.315179,2.120486,95.858337
29.200814009,1.179275,0.315179,2.120486,95.858337
29.234190941,1.179275,0.315179,2.120486,95.858337
29.267318010,1.178640,0.321099,2.120344,96.171448
29.300720930,1.210073,0.330241,2.110639,96.128700
29.334065914,1.212802,0.331035,2.109796,96.128639
29.367556810,1.212802,0.331035,2.109796,96.128639
29.400745869,1.212802,0.331035,2.109796,96.128639
29.434073925,1.212802,0.331035,2.109796,96.128639
29.467695951,1.212802,0.331035,2.109796,96.128639
29.500764847,1.212802,0.331035,2.109796,96.128639
29.534133911,1.212802,0.331035,2.109796,96.128639
29.567310810,1.212802,0.331035,2.109796,96.128639
29.600771904,1.212802,0.331035,2.109796,96.128639
29.634094000,1.212802,0.331035,2.109796,96.128639
29.667500973,1.212802,0.331035,2.109796,96.128639
29.700716972,1.212802,0.331035,2.109796,96.128639
29.734019995,1.212802,0.331035,2.109796,96.128639
29.767327785,1.212802,0.331035,2.109796,96.128639
29.800652981,1.212802,0.331035,2.109796,96.128639
29.834321976,1.212802,0.331035,2.109796,96.128639
29.867720842,1.212802,0.331035,2.109796,96.128639
29.900624990,1.212802,0.331035,2.109796,96.128639
29.934141874,1.212802,0.331035,2.109796,96.128639
29.967423916,1.212802,0.331035,2.109796,96.128639
30.000715971,1.212802,0.331035,2.109796,96.128639
30.034496784,1.212802,0.331035,2.109796,96.128639
30.067482948,1.296416,0.353116,2.171537,95.742500
30.101199865,1.294549,0.358550,2.176768,95.684441
30.134063959,1.294367,0.359081,2.177279,95.684090
30.167526007,1.294367,0.359081,2.177279,95.684090
30.200721979,1.294367,0.359081,2.177279,95.684090
30.234166861,1.294367,0.359081,2.177279,95.684090
30.267726898,1.294367,0.359081,2.177279,95.684090
30.300837994,1.294367,0.359081,2.177279,95.684090
30.334101915,1.294367,0.359081,2.177279,95.684090
30.367952824,1.294367,0.359081,2.177279,95.684090
30.400757790,1.294367,0.359081,2.177279,95.684090
30.434093952,1.294367,0.359081,2.177279,95.684090
30.467490911,1.294367,0.359081,2.177279,95.684090
30.500820875,1.294367,0.359081,2.177279,95.684090
30.534134865,1.294367,0.359081,2.177279,95.684090
30.567519903,1.294367,0.359081,2.177279,95.684090
30.601071835,1.294367,0.359081,2.177279,95.684090
30.634106874,1.294367,0.359081,2.177279,95.684090
30.667354822,1.441324,0.383369,2.153079,96.762939
30.700727940,1.441324,0.383369,2.153079,96.762939
30.734128952,1.441324,0.383369,2.153079,96.762939
30.767625809,1.441324,0.383369,2.153079,96.762939
30.800768852,1.481944,0.381804,2.142145,96.600121
30.834188938,1.481944,0.381804,2.142145,96.600121
30.867475986,1.481944,0.381804,2.142145,96.600121
30.900800943,1.481944,0.381804,2.142145,96.600121
30.934386015,1.521447,0.380282,2.131512,96.552811
30.967361927,1.523535,0.380202,2.130949,96.562866
31.001000881,1.523535,0.380202,2.130949,96.562866
31.034132004,1.564369,0.385071,2.119133,96.649483
31.067497969,1.564369,0.385071,2.119133,96.649483
31.100782871,1.564369,0.385071,2.119133,96.649483
31.134104967,1.564369,0.385071,2.119133,96.649483
31.167594910,1.564369,0.385071,2.119133,96.649483
31.200845003,1.564369,0.385071,2.119133,96.649483
31.234123945,1.564369,0.385071,2.119133,96.649483
31.267412901,1.564369,0.385071,2.119133,96.649483
31.300856829,1.564369,0.385071,2.119133,96.649483
31.334200859,1.564369,0.385071,2.119133,96.649483
31.367592812,1.564369,0.385071,2.119133,96.649483
31.400849819,1.564369,0.385071,2.119133,96.649483
31.434118986,1.611268,0.343023,2.108026,96.072937
31.467548847,1.610203,0.346617,2.111531,95.975082
31.500627995,1.609313,0.349618,2.114457,95.939995
31.534124851,1.573237,0.326190,2.113933,95.799889
31.567500830,1.572012,0.325395,2.113915,95.797302
31.600664854,1.572012,0.325395,2.113915,95.797302
31.634426832,1.608646,0.322706,2.121134,95.697342
31.667656898,1.572663,0.318728,2.114043,95.762032
31.700734854,1.537055,0.315153,2.100400,95.843147
31.734296799,1.536807,0.315128,2.100305,95.843315
31.767467976,1.536807,0.315128,2.100305,95.843315
31.800675869,1.536807,0.315128,2.100305,95.843315
31.834692955,1.536807,0.315128,2.100305,95.843315
31.868010998,1.536807,0.315128,2.100305,95.843315
31.900749922,1.495834,0.284660,2.125282,95.622147
31.935032845,1.461000,0.281425,2.111625,95.478142
31.967570782,1.461000,0.281425,2.111625,95.478142
32.000816822,1.425175,0.271643,2.110824,95.193604
32.034590960,1.423911,0.271528,2.117024,95.164101
32.067497969,1.424392,0.276010,2.112681,95.162811
32.100775957,1.423911,0.271528,2.117024,95.156975
32.134284973,1.354921,0.258928,2.109107,95.138351
32.168130875,1.354459,0.264272,2.109011,95.067001
32.200836897,1.322167,0.256318,2.108240,94.834679
32.234371901,1.320514,0.255862,2.108201,94.826286
32.267519951,1.320514,0.255862,2.108201,94.826286
32.300665855,1.319274,0.255752,2.114123,94.532295
32.335068941,1.285844,0.252773,2.113308,94.502655
32.367640018,1.284580,0.252661,2.119234,94.436516
32.400812864,1.311168,0.255030,2.136224,94.515511
32.434987783,1.315951,0.249206,2.132263,94.631187
32.467652798,1.315951,0.249206,2.132263,94.631187
32.500635862,1.282023,0.252433,2.131064,94.230400
32.534119844,1.282779,0.258687,2.125038,94.052849
32.567667961,1.281512,0.258572,2.130876,94.076202
32.600710869,1.281496,0.258570,2.130949,94.076920
32.634757996,1.281496,0.258570,2.130949,94.076920
32.667722940,1.281496,0.258570,2.130949,94.076920
32.700884819,1.281496,0.258570,2.130949,94.076920
32.734666824,1.281131,0.277088,2.124679,94.067543
32.767664909,1.280409,0.270836,2.130710,93.938377
32.801543951,1.280409,0.270836,2.130710,93.938377
32.834467888,1.280409,0.270836,2.130710,93.938377
32.867539883,1.311035,0.291853,2.131394,93.971947
32.902810812,1.312068,0.292562,2.131417,93.965584
32.934365988,1.278107,0.295330,2.130204,93.867584
32.968032837,1.279310,0.295453,2.124651,93.814346
33.000832796,1.277505,0.301446,2.130072,93.750954
33.034932852,1.277505,0.301446,2.130072,93.750954
33.067428827,1.277505,0.301446,2.130072,93.750954
33.101101875,1.277505,0.301446,2.130072,93.750954
33.134305954,1.277505,0.301446,2.130072,93.750954
33.167490959,1.277505,0.301446,2.130072,93.750954
33.200973988,1.277505,0.301446,2.130072,93.750954
33.237062931,1.277505,0.301446,2.130072,93.750954
33.268209934,1.277505,0.301446,2.130072,93.750954
33.301349878,1.277505,0.301446,2.130072,93.750954
33.334580898,1.277505,0.301446,2.130072,93.750954
33.367416859,1.210216,0.342837,2.115288,93.432434
33.401890993,1.210698,0.348081,2.110202,93.333305
33.434365988,1.209563,0.359299,2.109090,93.223167
33.468081951,1.208298,0.360747,2.114063,93.198181
33.501502991,1.208132,0.360727,2.114830,93.206413
33.534807920,1.205439,0.372473,2.120286,92.986153
33.567639828,1.205439,0.372473,2.120286,92.986153
33.601382017,1.205957,0.378581,2.114352,93.060722
33.634307861,1.202173,0.378087,2.131644,93.189583
33.667464018,1.205928,0.378578,2.114482,93.224823
33.700937986,1.205957,0.378581,2.114352,93.293411
33.734569788,1.204232,0.383573,2.119196,93.351669
33.767616987,1.203205,0.390296,2.119791,93.461487
33.801496983,1.204123,0.390419,2.115556,93.502266
33.834416866,1.199400,0.389785,2.137054,93.445381
33.867440939,1.202440,0.396229,2.119621,93.500038
33.901430845,1.202440,0.396229,2.119621,93.500038
33.934288979,1.200408,0.401983,2.125208,93.544922
33.967531919,1.201665,0.402157,2.119449,93.522194
34.001459837,1.198358,0.407728,2.130784,93.604309
34.034657001,1.199802,0.396735,2.131109,93.833794
34.067488909,1.202440,0.396229,2.119621,93.848198
34.101245880,1.200413,0.401969,2.125195,93.813843
34.134972811,1.199141,0.401808,2.130960,93.894844
34.167626858,1.167705,0.391497,2.129851,94.040039
34.201020956,1.191290,0.399060,2.126503,94.117561
34.234211922,1.200408,0.401983,2.125208,94.137337
34.267501831,1.200408,0.401983,2.125208,94.137337
34.301350832,1.198667,0.395814,2.136688,94.461212
34.334172010,1.169305,0.391715,2.130215,94.613144
34.367590904,1.201430,0.384024,2.131476,94.643608
34.401618004,1.202919,0.379756,2.127342,94.697327
34.434292793,1.172465,0.374208,2.118964,94.852051
34.467399836,1.194309,0.377061,2.128287,95.041817
34.500778913,1.173249,0.374311,2.119298,95.078484
34.534313917,1.202906,0.372147,2.131809,95.129585
34.567480803,1.202906,0.372147,2.131809,95.129585
34.601486921,1.202906,0.372147,2.131809,95.129585
34.634148836,1.202906,0.372147,2.131809,95.129585
34.670183897,1.202906,0.372147,2.131809,95.129585
34.703174829,1.202906,0.372147,2.131809,95.129585
34.734435797,1.202906,0.372147,2.131809,95.129585
34.772130013,1.202906,0.372147,2.131809,95.129585
34.800650835,1.202906,0.372147,2.131809,95.129585
34.834349871,1.202906,0.372147,2.131809,95.129585
34.867487907,1.202906,0.372147,2.131809,95.129585
34.902246952,1.202906,0.372147,2.131809,95.129585
34.935714006,1.202906,0.372147,2.131809,95.129585
34.968422890,1.202906,0.372147,2.131809,95.129585
35.001665831,1.202906,0.372147,2.131809,95.129585
35.034260988,1.202906,0.372147,2.131809,95.129585
35.067617893,1.202906,0.372147,2.131809,95.129585
35.100811958,1.202906,0.372147,2.131809,95.129585
35.134311914,1.202906,0.372147,2.131809,95.129585
35.167500973,1.202906,0.372147,2.131809,95.129585
35.200670004,1.202906,0.372147,2.131809,95.129585
35.234297991,1.202906,0.372147,2.131809,95.129585
35.267465830,1.202906,0.372147,2.131809,95.129585
35.300839901,1.202906,0.372147,2.131809,95.129585
35.334395885,1.202906,0.372147,2.131809,95.129585
35.367620945,1.202906,0.372147,2.131809,95.129585
35.401044846,1.202906,0.372147,2.131809,95.129585
35.434209824,1.202906,0.372147,2.131809,95.129585
35.467473984,1.202906,0.372147,2.131809,95.129585
35.501889944,1.202906,0.372147,2.131809,95.129585
35.534149885,1.202906,0.372147,2.131809,95.129585
35.567557812,1.202906,0.372147,2.131809,95.129585
35.601089001,1.202906,0.372147,2.131809,95.129585
35.634119987,1.303660,0.335353,2.148289,95.148750
35.667547941,1.332935,0.338627,2.144504,95.156418
35.701178789,1.338733,0.332994,2.149822,95.082657
35.734256983,1.306077,0.323302,2.148635,95.032242
35.767921925,1.305923,0.323098,2.144751,94.990707
35.801194906,1.306384,0.323148,2.142654,94.988113
35.834177971,1.306384,0.323148,2.142654,94.988113
35.867604017,1.306384,0.323148,2.142654,95.219040
35.900887012,1.306384,0.323148,2.142654,95.219040
35.934171915,1.335821,0.320652,2.154911,95.265831
35.967449903,1.338715,0.320407,2.156116,95.271996
36.001153946,1.338715,0.320407,2.156116,95.271996
36.034879923,1.338715,0.320407,2.156116,95.271996
36.067585945,1.338715,0.320407,2.156116,95.271996
36.102108002,1.338715,0.320407,2.156116,95.352264
36.134900808,1.338715,0.320407,2.156116,95.352264
36.167495966,1.338715,0.320407,2.156116,95.352264
36.201366901,1.338715,0.320407,2.156116,95.352264
36.234133959,1.338715,0.320407,2.156116,95.352264
36.267337799,1.338715,0.320407,2.156116,95.352264
36.301895857,1.338715,0.320407,2.156116,95.352264
36.334246874,1.338715,0.320407,2.156116,95.352264
36.367685795,1.347763,0.308765,2.120246,95.784294
36.400867939,1.318218,0.305687,2.108173,95.738113
36.434216976,1.342993,0.308268,2.130429,95.657051
36.467475891,1.347105,0.302388,2.126421,95.504921
36.500717878,1.324552,0.304426,2.117245,95.389961
36.534301996,1.314674,0.305318,2.113226,95.180443
36.567562819,1.314674,0.305318,2.113226,95.155525
36.600955963,1.314674,0.305318,2.113226,95.155525
36.634220839,1.314674,0.305318,2.113226,95.155525
36.667611837,1.316521,0.299314,2.107416,94.533699
36.700759888,1.315381,0.299143,2.112897,94.348480
36.734346867,1.317780,0.299389,2.101367,94.290459
36.767567873,1.316088,0.304918,2.106722,94.124680
36.800910950,1.317780,0.299389,2.101367,93.890236
36.834036827,1.317780,0.299389,2.101367,93.711807
36.867405891,1.293718,0.292383,2.100902,93.555885
36.900732994,1.314050,0.292761,2.119106,93.295418
36.934318781,1.314622,0.292819,2.119468,93.292366
36.967525959,1.314622,0.292819,2.119468,93.292366
37.000708818,1.314622,0.292819,2.119468,93.292366
37.034457922,1.314622,0.292819,2.119468,93.292366
37.067700863,1.314622,0.292819,2.119468,93.292366
37.100777864,1.314622,0.292819,2.119468,93.292366
37.134325981,1.314622,0.292819,2.119468,93.292366
37.167582989,1.314622,0.292819,2.119468,93.292366
37.200960875,1.311488,0.286503,2.136818,92.617783
37.234205961,1.311363,0.286251,2.137511,92.617241
37.267320871,1.311363,0.286251,2.137511,92.535027
37.300901890,1.311363,0.286251,2.137511,92.535027
37.334102869,1.311363,0.286251,2.137511,92.535027
37.367614985,1.311363,0.286251,2.137511,92.535027
37.400847912,1.311363,0.286251,2.137511,92.535027
37.434120893,1.311363,0.286251,2.137511,92.535027
37.467660904,1.311363,0.286251,2.137511,92.535027
37.500937939,1.318972,0.287000,2.101616,93.248543
37.534245968,1.344357,0.289501,2.117387,93.368454
37.567613840,1.378866,0.292901,2.121556,93.448952
37.600914001,1.384940,0.293500,2.121748,93.488052
37.634281874,1.384940,0.293500,2.121748,93.488052
37.667441845,1.384940,0.293500,2.121748,93.488052
37.700825930,1.450350,0.287836,2.135502,94.265587
37.734192848,1.455294,0.287407,2.136541,94.315552
37.767478943,1.492059,0.297472,2.137684,94.899406
37.800765991,1.492059,0.297472,2.137684,94.899406
37.834113836,1.493328,0.297595,2.131511,95.517334
37.867436886,1.493358,0.297598,2.131365,95.522179
37.900740862,1.493358,0.297598,2.131365,95.522179
37.934229851,1.603346,0.314779,2.140961,96.497513
37.967469931,1.607498,0.315427,2.141324,96.865601
38.000823975,1.607498,0.315427,2.141324,96.865601
38.034223795,1.606854,0.322162,2.141193,97.071709
38.068228960,1.606854,0.322162,2.141193,97.071709
38.101092815,1.606854,0.322162,2.141193,97.071709
38.135946989,1.645705,0.332793,2.142333,97.598648
38.167589903,1.646526,0.333017,2.142357,97.694077
38.200911999,1.687164,0.344123,2.143563,97.995255
38.234174967,1.685899,0.356516,2.143311,98.040581
38.267562866,1.687177,0.353148,2.138686,98.067398
38.301029921,1.724041,0.361310,2.143874,98.158150
38.334373951,1.728050,0.362435,2.144664,98.172989
38.367456913,1.728050,0.362435,2.144664,98.172989
38.402318001,1.728050,0.362435,2.144664,98.172989
38.434156895,1.728050,0.362435,2.144664,98.172989
38.467561007,1.768310,0.395189,2.145489,98.716316
38.500846863,1.768310,0.395189,2.145489,98.716316
38.534717798,1.769706,0.395350,2.138174,98.709793
38.569779873,1.770927,0.395491,2.131773,98.676094
38.600861788,1.770927,0.395491,2.131773,98.676094
38.634601831,1.770927,0.395491,2.131773,98.676094
38.667737007,1.770927,0.395491,2.131773,98.676094
38.701399803,1.770927,0.395491,2.131773,98.676094
38.734234810,1.770640,0.409120,2.124880,98.481636
38.767426014,1.770628,0.409669,2.124603,98.467018
38.800833941,1.770628,0.409669,2.124603,98.467018
38.834297895,1.809630,0.428680,2.139181,97.717690
38.867556810,1.809855,0.419199,2.143983,97.642204
38.900796890,1.809970,0.414361,2.146433,97.623657
38.934127808,1.796439,0.419902,2.136656,97.581039
38.967894793,1.810464,0.421601,2.139340,97.324112
39.000957012,1.810464,0.421601,2.139340,97.314499
39.034181833,1.810464,0.421601,2.139340,97.314499
39.067605972,1.810464,0.421601,2.139340,97.314499
39.100927830,1.810464,0.421601,2.139340,97.314499
39.134167910,1.810464,0.421601,2.139340,97.314499
39.170399904,1.810464,0.421601,2.139340,97.314499
39.200784922,1.810464,0.421601,2.139340,97.314499
39.234140873,1.810464,0.421601,2.139340,97.314499
39.268415928,1.810464,0.421601,2.139340,97.314499
39.300688982,1.810464,0.421601,2.139340,97.314499
39.334184885,1.810464,0.421601,2.139340,97.314499
39.367548943,1.810464,0.421601,2.139340,97.314499
39.400988817,1.810464,0.421601,2.139340,97.314499
39.434154987,1.810464,0.421601,2.139340,97.314499
39.473176956,1.810464,0.421601,2.139340,97.314499
39.500985861,1.810464,0.421601,2.139340,97.314499
39.534142017,1.810464,0.421601,2.139340,97.314499
39.567609787,1.810464,0.421601,2.139340,97.314499
39.602312803,1.810464,0.421601,2.139340,97.314499
39.634218931,1.810464,0.421601,2.139340,97.314499
39.667565823,1.807554,0.399721,2.167514,93.869331
39.701169968,1.807554,0.399721,2.167514,93.869331
39.734265804,1.807554,0.399721,2.167514,93.869331
39.767592907,1.807554,0.399721,2.167514,93.869331
39.800962925,1.807554,0.399721,2.167514,93.869331
39.835157871,1.807554,0.399721,2.167514,93.869331
39.867640018,1.807554,0.399721,2.167514,93.869331
39.900955915,1.901200,0.381405,2.171566,94.287231
39.934341908,1.902119,0.381225,2.171606,94.278236
39.967573881,1.902119,0.381225,2.171606,94.278236
40.001811981,1.902119,0.381225,2.171606,94.278236
40.034108877,1.902119,0.381225,2.171606,94.278236
40.067696810,1.902119,0.381225,2.171606,94.278236
40.100969791,1.906819,0.360667,2.158466,94.459740
40.134387016,1.907048,0.359667,2.157827,94.482628
40.167783976,1.907048,0.359667,2.157827,94.482628
40.200797796,1.907048,0.359667,2.157827,94.482628
40.234198809,1.907048,0.359667,2.157827,94.482628
40.267598867,1.907048,0.359667,2.157827,94.482628
40.300833941,1.907048,0.359667,2.157827,94.482628
40.334131002,1.907048,0.359667,2.157827,94.482628
40.367515802,1.907048,0.359667,2.157827,94.482628
40.400897980,1.917088,0.323783,2.122802,94.667099
40.434489965,1.917088,0.323783,2.122802,94.667099
40.467547894,1.917088,0.323783,2.122802,94.667099
40.500800848,1.917088,0.323783,2.122802,94.667099
40.534245014,1.917088,0.323783,2.122802,94.667099
40.567595959,1.917088,0.323783,2.122802,94.667099
40.601095915,1.917088,0.323783,2.122802,94.667099
40.634258986,1.917088,0.323783,2.122802,94.667099
40.669185877,1.917088,0.323783,2.122802,94.667099
40.700751781,1.922746,0.287559,2.109118,94.359138
40.734236002,1.922779,0.287346,2.109038,94.361519
40.767449856,1.922779,0.287346,2.109038,94.361519
40.800839901,1.922779,0.287346,2.109038,94.361519
40.834271908,1.922779,0.287346,2.109038,94.361519
40.867743969,1.922779,0.287346,2.109038,94.361519
40.900781870,1.922779,0.287346,2.109038,94.361519
40.934335947,1.922779,0.287346,2.109038,94.361519
40.967494011,1.922779,0.287346,2.109038,94.361519
41.000780821,1.922779,0.287346,2.109038,94.361519
41.034231901,1.922779,0.287346,2.109038,94.361519
41.067813873,1.922779,0.287346,2.109038,94.361519
41.100860834,1.922779,0.287346,2.109038,94.361519
41.134188890,1.922779,0.287346,2.109038,94.361519
41.167499781,1.922779,0.287346,2.109038,94.361519
41.200845003,1.922779,0.287346,2.109038,94.361519
41.234206915,1.922779,0.287346,2.109038,94.361519
41.269178867,1.922779,0.287346,2.109038,94.361519
41.300798893,1.922779,0.287346,2.109038,94.361519
41.334371805,1.922779,0.287346,2.109038,94.361519
41.367522955,1.922779,0.287346,2.109038,94.361519
41.400864840,1.922779,0.287346,2.109038,94.361519
41.434263945,1.922779,0.287346,2.109038,94.361519
41.467401981,1.922779,0.287346,2.109038,94.361519
41.500732899,1.922779,0.287346,2.109038,94.361519
41.534174919,1.922779,0.287346,2.109038,94.361519
41.567442894,1.922779,0.287346,2.109038,94.361519
41.600764990,1.922779,0.287346,2.109038,94.361519
41.634193897,1.922779,0.287346,2.109038,94.361519
41.667400837,1.922779,0.287346,2.109038,94.361519
41.700995922,1.922779,0.287346,2.109038,94.361519
41.740783930,1.922779,0.287346,2.109038,94.361519
41.767578840,1.922779,0.287346,2.109038,94.361519
41.800839901,1.922779,0.287346,2.109038,94.361519
41.834281921,1.922779,0.287346,2.109038,94.361519
41.867822886,1.922779,0.287346,2.109038,94.361519
41.900853872,1.669708,-1.213185,1.115940,93.201546
41.934103012,1.669607,-1.213787,1.115542,93.201775
41.967734814,1.669607,-1.213787,1.115542,93.201775
42.000774860,1.669607,-1.213787,1.115542,93.201775
42.042038918,1.669607,-1.213787,1.115542,93.201775
42.070514917,1.867943,0.216104,2.098489,92.265404
42.100770950,1.874225,0.261389,2.129619,92.258560
42.134246826,1.607219,-1.207427,0.664627,92.115295
42.167511940,1.576454,-1.197471,0.724958,92.357590
42.200857878,1.630188,-1.227746,0.843630,92.604599
42.234151840,1.633574,-1.229653,0.851107,92.618286
42.267464876,1.631587,-1.235847,0.851413,92.851959
42.300889969,1.634501,-1.229956,0.857821,92.929352
42.334213972,1.633428,-1.236453,0.864838,93.261101
42.367488861,1.902384,0.285644,2.215827,93.410614
42.400766850,1.591849,-1.249839,0.925283,93.408150
42.434682846,1.590115,-1.228956,0.864564,93.491074
42.467540979,1.629593,-1.242030,0.851720,93.627220
42.500813007,1.589760,-1.330320,0.377044,93.676750
42.534199953,1.587750,-1.336360,0.377623,93.610054
42.567453861,1.585937,-1.328946,0.547260,93.591469
42.600796938,1.622520,-1.314787,0.476956,93.494209
42.634191990,1.622520,-1.314787,0.476956,93.494209
42.668277979,1.587980,-1.322919,0.546769,93.258659
42.700664997,1.587980,-1.322919,0.546769,93.219780
42.734165907,1.616989,-1.326474,0.471557,93.092781
42.768743992,1.620865,-1.318285,0.475340,92.998177
42.800722837,1.632752,-1.332080,0.542850,92.833221
42.834159851,1.591387,-1.317368,0.552724,92.710487
42.867500782,1.590016,-1.316880,0.546279,92.625008
42.900868893,1.615502,-1.325945,0.465123,92.596146
42.934175014,1.615502,-1.325945,0.465123,92.596146
42.967396975,1.615502,-1.325945,0.465123,92.596146
43.000910997,1.548417,-1.314655,1.646497,92.462372
43.034169912,1.544206,-1.313946,1.720652,92.448242
43.070311785,1.544206,-1.313946,1.720652,92.448242
43.100830793,1.544206,-1.313946,1.720652,92.448242
43.134318829,1.544206,-1.313946,1.720652,92.448242
43.167460918,1.544206,-1.313946,1.720652,92.448242
43.200835943,1.544206,-1.313946,1.720652,92.448242
43.234320879,1.544206,-1.313946,1.720652,92.448242
43.267496824,1.544206,-1.313946,1.720652,92.448242
43.300856829,1.544206,-1.313946,1.720652,92.448242
43.334270000,1.544206,-1.313946,1.720652,92.448242
43.367480993,1.544206,-1.313946,1.720652,92.448242
43.400664806,1.544206,-1.313946,1.720652,92.448242
43.434230804,1.544206,-1.313946,1.720652,92.448242
43.467485905,1.544206,-1.313946,1.720652,92.448242
43.500683784,1.544206,-1.313946,1.720652,92.448242
43.534204006,1.544206,-1.313946,1.720652,92.448242
43.568003893,1.544206,-1.313946,1.720652,92.448242
43.600814819,1.544206,-1.313946,1.720652,92.448242
43.634267807,1.544206,-1.313946,1.720652,92.448242
43.668016911,1.544206,-1.313946,1.720652,92.448242
43.700671911,1.544206,-1.313946,1.720652,92.448242
43.734264851,1.544206,-1.313946,1.720652,92.448242
43.767383814,1.544206,-1.313946,1.720652,92.448242
43.800988913,1.544206,-1.313946,1.720652,92.448242
43.834193945,1.544206,-1.313946,1.720652,92.448242
43.867564917,1.544206,-1.313946,1.720652,92.448242
43.900908947,1.544206,-1.313946,1.720652,92.448242
43.934170961,1.544206,-1.313946,1.720652,92.448242
43.968128920,1.544206,-1.313946,1.720652,92.448242
44.000695944,1.544206,-1.313946,1.720652,92.448242
44.034102917,1.544206,-1.313946,1.720652,92.448242
44.067502975,0.299043,-1.278003,1.715600,92.379417
44.100859880,0.299043,-1.278003,1.715600,92.379417
44.134303808,0.299043,-1.278003,1.715600,92.379417
44.167428970,0.299043,-1.278003,1.715600,92.379417
44.200761795,0.299043,-1.278003,1.715600,92.379417
44.234275818,0.299043,-1.278003,1.715600,92.379417
44.267494917,0.039587,-1.122977,1.278763,90.772484
44.300809860,0.039587,-1.122977,1.278763,90.772484
44.334186792,0.161338,-1.209983,0.675067,90.470840
44.367750883,0.235787,-1.252368,0.471414,90.403976
44.400793791,0.235787,-1.252368,0.471414,90.403976
44.434213877,0.235787,-1.252368,0.471414,90.403976
44.467388868,0.235787,-1.252368,0.471414,90.403976
44.500735998,0.235787,-1.252368,0.471414,90.403976
44.534317970,0.235787,-1.252368,0.471414,90.403976
44.567525864,0.235787,-1.252368,0.471414,90.403976
44.602244854,0.235787,-1.252368,0.471414,90.403976
44.634239912,0.235787,-1.252368,0.471414,90.403976
44.667907953,0.235787,-1.252368,0.471414,90.403976
44.700666904,0.235787,-1.252368,0.471414,90.403976
44.734282970,0.235787,-1.252368,0.471414,90.403976
44.767482996,0.235787,-1.252368,0.471414,90.403976
44.800716877,0.235787,-1.252368,0.471414,90.403976
44.834294796,0.235787,-1.252368,0.471414,90.403976
44.867538929,0.235787,-1.252368,0.471414,90.403976
44.900702000,0.235787,-1.252368,0.471414,90.403976
44.934520006,0.235787,-1.252368,0.471414,90.403976
44.967508793,0.235787,-1.252368,0.471414,90.403976
45.000840902,0.235787,-1.252368,0.471414,90.403976
45.034324884,0.235787,-1.252368,0.471414,90.403976
45.067483902,0.235787,-1.252368,0.471414,90.403976
45.100927830,0.235787,-1.252368,0.471414,90.403976
45.134159803,0.235787,-1.252368,0.471414,90.403976
45.167704821,0.235787,-1.252368,0.471414,90.403976
45.200815916,0.235787,-1.252368,0.471414,90.403976
45.234227896,0.235787,-1.252368,0.471414,90.403976
45.267603874,0.235787,-1.252368,0.471414,90.403976
45.300725937,0.235787,-1.252368,0.471414,90.403976
45.333986998,0.235787,-1.252368,0.471414,90.403976
45.367413998,0.235787,-1.252368,0.471414,90.403976
45.400827885,0.235787,-1.252368,0.471414,90.403976
45.434367895,0.235787,-1.252368,0.471414,90.403976
45.467669964,0.235787,-1.252368,0.471414,90.403976
45.501516819,0.235787,-1.252368,0.471414,90.403976
45.534192801,0.235787,-1.252368,0.471414,90.403976
45.567506790,0.235787,-1.252368,0.471414,90.403976
45.600823879,0.235787,-1.252368,0.471414,90.403976
45.634078979,0.235787,-1.252368,0.471414,90.403976
45.667612791,0.235787,-1.252368,0.471414,90.403976
45.700742006,0.235787,-1.252368,0.471414,90.403976
45.734282017,0.235787,-1.252368,0.471414,90.403976
45.767546892,0.235787,-1.252368,0.471414,90.403976
45.800799847,0.235787,-1.252368,0.471414,90.403976
45.835229874,0.235787,-1.252368,0.471414,90.403976
45.867391825,0.235787,-1.252368,0.471414,90.403976
45.900712013,0.235787,-1.252368,0.471414,90.403976
45.934260845,0.235787,-1.252368,0.471414,90.403976
45.967374802,0.235787,-1.252368,0.471414,90.403976
46.000687838,0.235787,-1.252368,0.471414,90.403976
46.034410954,0.235787,-1.252368,0.471414,90.403976
46.067459822,0.235787,-1.252368,0.471414,90.403976
46.100994825,0.235787,-1.252368,0.471414,90.403976
46.134333849,0.235787,-1.252368,0.471414,90.403976
46.167625904,0.235787,-1.252368,0.471414,90.403976
46.200701952,0.235787,-1.252368,0.471414,90.403976
46.234433889,0.235787,-1.252368,0.471414,90.403976
46.267450809,0.235787,-1.252368,0.471414,90.403976
46.300792933,0.235787,-1.252368,0.471414,90.403976
46.334319830,0.235787,-1.252368,0.471414,90.403976
46.367449999,0.235787,-1.252368,0.471414,90.403976
46.400879860,0.235787,-1.252368,0.471414,90.403976
46.434350967,0.235787,-1.252368,0.471414,90.403976
46.467597961,0.235787,-1.252368,0.471414,90.403976
46.500883818,0.235787,-1.252368,0.471414,90.403976
46.534348965,0.235787,-1.252368,0.471414,90.403976
46.568081856,0.235787,-1.252368,0.471414,90.403976
46.600847960,0.235787,-1.252368,0.471414,90.403976
46.634131908,0.235787,-1.252368,0.471414,90.403976
46.667861938,0.235787,-1.252368,0.471414,90.403976
46.701272011,0.235787,-1.252368,0.471414,90.403976
46.734231949,0.235787,-1.252368,0.471414,90.403976
46.767364979,0.235787,-1.252368,0.471414,90.403976
46.800738811,0.235787,-1.252368,0.471414,90.403976
46.834464788,0.235787,-1.252368,0.471414,90.403976
46.867756844,0.235787,-1.252368,0.471414,90.403976
46.900810957,0.235787,-1.252368,0.471414,90.403976
46.934256792,0.235787,-1.252368,0.471414,90.403976
46.967609882,0.235787,-1.252368,0.471414,90.403976
47.000757933,0.235787,-1.252368,0.471414,90.403976
47.034393787,0.235787,-1.252368,0.471414,90.403976
47.067405939,0.235787,-1.252368,0.471414,90.403976
47.100862980,0.235787,-1.252368,0.471414,90.403976
47.134288788,0.235787,-1.252368,0.471414,90.403976
47.167737961,0.235787,-1.252368,0.471414,90.403976
47.200846910,0.235787,-1.252368,0.471414,90.403976
47.234490871,0.235787,-1.252368,0.471414,90.403976
47.267385006,0.235787,-1.252368,0.471414,90.403976
47.300927877,0.235787,-1.252368,0.471414,90.403976
47.334143877,0.235787,-1.252368,0.471414,90.403976
47.367412806,0.235787,-1.252368,0.471414,90.403976
47.400831938,0.235787,-1.252368,0.471414,90.403976
47.434301853,0.235787,-1.252368,0.471414,90.403976
47.467464924,0.235787,-1.252368,0.471414,90.403976
47.500860929,0.235787,-1.252368,0.471414,90.403976
47.534299850,0.235787,-1.252368,0.471414,90.403976
47.567658901,0.235787,-1.252368,0.471414,90.403976
47.600717783,0.235787,-1.252368,0.471414,90.403976
47.634393930,0.235787,-1.252368,0.471414,90.403976
47.667433977,0.235787,-1.252368,0.471414,90.403976
47.700819016,0.235787,-1.252368,0.471414,90.403976
47.734669924,0.235787,-1.252368,0.471414,90.403976
47.767520905,0.235787,-1.252368,0.471414,90.403976
47.800794840,0.235787,-1.252368,0.471414,90.403976
47.834190845,0.235787,-1.252368,0.471414,90.403976
47.867431879,0.235787,-1.252368,0.471414,90.403976
47.900760889,0.235787,-1.252368,0.471414,90.403976
47.934155941,0.235787,-1.252368,0.471414,90.403976
47.967505932,0.235787,-1.252368,0.471414,90.403976
48.000890017,0.235787,-1.252368,0.471414,90.403976
48.034198999,0.235787,-1.252368,0.471414,90.403976
48.067462921,0.235787,-1.252368,0.471414,90.403976
48.100974798,0.235787,-1.252368,0.471414,90.403976
48.134089947,0.235787,-1.252368,0.471414,90.403976
48.167476892,0.235787,-1.252368,0.471414,90.403976
48.200797796,0.235787,-1.252368,0.471414,90.403976
48.234152794,0.235787,-1.252368,0.471414,90.403976
48.267733812,0.235787,-1.252368,0.471414,90.403976
48.300862789,0.235787,-1.252368,0.471414,90.403976
48.334249973,0.235787,-1.252368,0.471414,90.403976
48.367535830,0.235787,-1.252368,0.471414,90.403976
48.400760889,0.235787,-1.252368,0.471414,90.403976
48.434182882,0.235787,-1.252368,0.471414,90.403976
48.467516899,0.235787,-1.252368,0.471414,90.403976
48.500744820,0.235787,-1.252368,0.471414,90.403976
48.534310818,0.235787,-1.252368,0.471414,90.403976
48.567650795,0.235787,-1.252368,0.471414,90.403976
48.601010799,0.235787,-1.252368,0.471414,90.403976
48.634317875,0.235787,-1.252368,0.471414,90.403976
48.667485952,0.235787,-1.252368,0.471414,90.403976
48.700682878,0.235787,-1.252368,0.471414,90.403976
48.734467983,0.235787,-1.252368,0.471414,90.403976
48.767556906,0.235787,-1.252368,0.471414,90.403976
48.800776958,0.235787,-1.252368,0.471414,90.403976
48.834337950,0.235787,-1.252368,0.471414,90.403976
48.867502928,0.235787,-1.252368,0.471414,90.403976
48.900846958,0.235787,-1.252368,0.471414,90.403976
48.934312820,0.235787,-1.252368,0.471414,90.403976
48.967523813,0.235787,-1.252368,0.471414,90.403976
49.000782967,0.235787,-1.252368,0.471414,90.403976
49.034111977,0.235787,-1.252368,0.471414,90.403976
49.067610979,0.235787,-1.252368,0.471414,90.403976
49.100910902,0.235787,-1.252368,0.471414,90.403976
49.134203911,0.235787,-1.252368,0.471414,90.403976
49.167473793,0.235787,-1.252368,0.471414,90.403976
49.200984955,0.235787,-1.252368,0.471414,90.403976
49.234351873,0.235787,-1.252368,0.471414,90.403976
49.267515898,0.235787,-1.252368,0.471414,90.403976
49.300771952,0.235787,-1.252368,0.471414,90.403976
49.334087849,0.235787,-1.252368,0.471414,90.403976
49.367493868,0.235787,-1.252368,0.471414,90.403976
49.401818991,0.235787,-1.252368,0.471414,90.403976
49.434390783,0.235787,-1.252368,0.471414,90.403976
49.467715979,0.235787,-1.252368,0.471414,90.403976
49.500772953,0.235787,-1.252368,0.471414,90.403976
49.534355879,0.235787,-1.252368,0.471414,90.403976
49.567406893,0.235787,-1.252368,0.471414,90.403976
49.600840807,0.235787,-1.252368,0.471414,90.403976
49.634266853,0.235787,-1.252368,0.471414,90.403976
49.667834997,0.235787,-1.252368,0.471414,90.403976
49.700922966,0.235787,-1.252368,0.471414,90.403976
49.734256983,0.235787,-1.252368,0.471414,90.403976
49.767679930,0.235787,-1.252368,0.471414,90.403976
49.800773859,0.235787,-1.252368,0.471414,90.403976
49.834187984,0.235787,-1.252368,0.471414,90.403976
49.867721796,0.235787,-1.252368,0.471414,90.403976
49.900647879,0.235787,-1.252368,0.471414,90.403976
49.934170961,0.235787,-1.252368,0.471414,90.403976
49.967371941,0.235787,-1.252368,0.471414,90.403976
50.000953913,0.235787,-1.252368,0.471414,90.403976
50.034251928,0.235787,-1.252368,0.471414,90.403976
50.067495823,0.235787,-1.252368,0.471414,90.403976
50.100789785,0.235787,-1.252368,0.471414,90.403976
50.134124994,0.235787,-1.252368,0.471414,90.403976
50.167672873,0.235787,-1.252368,0.471414,90.403976
50.200659990,0.235787,-1.252368,0.471414,90.403976
50.234211922,0.235787,-1.252368,0.471414,90.403976
50.267362833,0.235787,-1.252368,0.471414,90.403976
50.300782919,0.235787,-1.252368,0.471414,90.403976
50.334399939,0.235787,-1.252368,0.471414,90.403976
50.367460012,0.235787,-1.252368,0.471414,90.403976
50.400889874,0.235787,-1.252368,0.471414,90.403976
50.434093952,0.235787,-1.252368,0.471414,90.403976
50.467453003,0.235787,-1.252368,0.471414,90.403976
50.500767946,0.235787,-1.252368,0.471414,90.403976
50.534206867,0.235787,-1.252368,0.471414,90.403976
50.567555904,0.235787,-1.252368,0.471414,90.403976
50.600747824,0.235787,-1.252368,0.471414,90.403976
50.634113789,0.235787,-1.252368,0.471414,90.403976
50.667263985,0.235787,-1.252368,0.471414,90.403976
50.700857878,0.235787,-1.252368,0.471414,90.403976
50.734246016,0.235787,-1.252368,0.471414,90.403976
50.767366886,0.235787,-1.252368,0.471414,90.403976
50.800732851,0.235787,-1.252368,0.471414,90.403976
50.834271908,0.235787,-1.252368,0.471414,90.403976
50.867400885,0.235787,-1.252368,0.471414,90.403976
50.900837898,0.235787,-1.252368,0.471414,90.403976
50.934134007,0.235787,-1.252368,0.471414,90.403976
50.967519999,0.235787,-1.252368,0.471414,90.403976
51.000799894,0.235787,-1.252368,0.471414,90.403976
51.034191847,0.235787,-1.252368,0.471414,90.403976
51.067488909,0.235787,-1.252368,0.471414,90.403976
51.100716829,0.235787,-1.252368,0.471414,90.403976
51.134248018,0.235787,-1.252368,0.471414,90.403976
51.167395830,0.235787,-1.252368,0.471414,90.403976
51.200860977,0.235787,-1.252368,0.471414,90.403976
51.234117985,0.235787,-1.252368,0.471414,90.403976
51.267922878,0.235787,-1.252368,0.471414,90.403976
51.300791979,0.235787,-1.252368,0.471414,90.403976
51.334167957,0.235787,-1.252368,0.471414,90.403976
51.367563009,0.235787,-1.252368,0.471414,90.403976
51.400729895,0.235787,-1.252368,0.471414,90.403976
51.434114933,0.235787,-1.252368,0.471414,90.403976
51.467512846,0.235787,-1.252368,0.471414,90.403976
51.500818014,0.235787,-1.252368,0.471414,90.403976
51.534035921,0.235787,-1.252368,0.471414,90.403976
51.567440987,0.235787,-1.252368,0.471414,90.403976
51.601382971,0.235787,-1.252368,0.471414,90.403976
51.634302855,0.235787,-1.252368,0.471414,90.403976
51.667425871,0.235787,-1.252368,0.471414,90.403976
51.701036930,0.235787,-1.252368,0.471414,90.403976
51.734152794,0.235787,-1.252368,0.471414,90.403976
51.767483950,0.235787,-1.252368,0.471414,90.403976
51.800815821,0.235787,-1.252368,0.471414,90.403976
51.834582806,0.235787,-1.252368,0.471414,90.403976
51.867447853,0.235787,-1.252368,0.471414,90.403976
51.901104927,0.235787,-1.252368,0.471414,90.403976
51.934544802,0.235787,-1.252368,0.471414,90.403976
51.967439890,0.235787,-1.252368,0.471414,90.403976
52.000692844,0.235787,-1.252368,0.471414,90.403976
52.034173965,0.235787,-1.252368,0.471414,90.403976
52.067679882,0.235787,-1.252368,0.471414,90.403976
52.100785971,0.235787,-1.252368,0.471414,90.403976
52.134154797,0.235787,-1.252368,0.471414,90.403976
52.167452812,0.235787,-1.252368,0.471414,90.403976
52.200711012,0.235787,-1.252368,0.471414,90.403976
52.234107018,0.235787,-1.252368,0.471414,90.403976
52.267453909,0.235787,-1.252368,0.471414,90.403976
52.300675869,0.235787,-1.252368,0.471414,90.403976
52.334111929,0.235787,-1.252368,0.471414,90.403976
52.367455006,0.235787,-1.252368,0.471414,90.403976
52.400671959,0.235787,-1.252368,0.471414,90.403976
52.434261799,0.235787,-1.252368,0.471414,90.403976
52.467561960,0.235787,-1.252368,0.471414,90.403976
52.502117872,0.235787,-1.252368,0.471414,90.403976
52.534284830,0.235787,-1.252368,0.471414,90.403976
52.567482948,0.235787,-1.252368,0.471414,90.403976
52.600754976,0.235787,-1.252368,0.471414,90.403976
52.634176016,0.235787,-1.252368,0.471414,90.403976
52.667753935,0.235787,-1.252368,0.471414,90.403976
52.700625896,0.235787,-1.252368,0.471414,90.403976
52.734200001,0.235787,-1.252368,0.471414,90.403976
52.767385006,0.235787,-1.252368,0.471414,90.403976
52.800853968,0.235787,-1.252368,0.471414,90.403976
52.834170818,0.235787,-1.252368,0.471414,90.403976
52.867528915,0.235787,-1.252368,0.471414,90.403976
52.900673866,0.235787,-1.252368,0.471414,90.403976
52.934098959,0.235787,-1.252368,0.471414,90.403976
52.967520952,0.235787,-1.252368,0.471414,90.403976
53.000777960,0.235787,-1.252368,0.471414,90.403976
53.034272909,0.235787,-1.252368,0.471414,90.403976
53.067647934,0.235787,-1.252368,0.471414,90.403976
53.101048946,0.235787,-1.252368,0.471414,90.403976
53.134317875,0.235787,-1.252368,0.471414,90.403976
53.167449951,0.235787,-1.252368,0.471414,90.403976
53.200826883,0.235787,-1.252368,0.471414,90.403976
53.234136820,0.235787,-1.252368,0.471414,90.403976
53.267359018,0.235787,-1.252368,0.471414,90.403976
53.300795794,0.235787,-1.252368,0.471414,90.403976
53.334194899,0.235787,-1.252368,0.471414,90.403976
53.367671013,0.235787,-1.252368,0.471414,90.403976
53.400702953,0.235787,-1.252368,0.471414,90.403976
53.434243917,0.235787,-1.252368,0.471414,90.403976
53.467368841,0.235787,-1.252368,0.471414,90.403976
53.500901937,0.235787,-1.252368,0.471414,90.403976
53.534282923,0.235787,-1.252368,0.471414,90.403976
53.567376852,0.235787,-1.252368,0.471414,90.403976
53.600854874,0.235787,-1.252368,0.471414,90.403976
53.634117842,0.235787,-1.252368,0.471414,90.403976
53.667359829,0.235787,-1.252368,0.471414,90.403976
53.700826883,0.235787,-1.252368,0.471414,90.403976
53.734309912,0.235787,-1.252368,0.471414,90.403976
53.767524004,0.235787,-1.252368,0.471414,90.403976
53.801147938,0.235787,-1.252368,0.471414,90.403976
53.834132910,0.235787,-1.252368,0.471414,90.403976
53.867397785,0.235787,-1.252368,0.471414,90.403976
53.900798798,0.235787,-1.252368,0.471414,90.403976
53.934260845,0.235787,-1.252368,0.471414,90.403976
53.967338800,0.235787,-1.252368,0.471414,90.403976
54.000744820,0.235787,-1.252368,0.471414,90.403976
54.034163952,0.235787,-1.252368,0.471414,90.403976
54.067448854,0.235787,-1.252368,0.471414,90.403976
54.100921869,0.235787,-1.252368,0.471414,90.403976
54.134119987,0.235787,-1.252368,0.471414,90.403976
54.167567968,0.235787,-1.252368,0.471414,90.403976
