%!PS-Adobe-3.0 EPSF-3.0
%%Title: /home/kariya/catkin_ws/src/crazyflieROS/logdata/20140626/x_filter.eps
%%Creator: matplotlib version 1.1.1rc, http://matplotlib.sourceforge.net/
%%CreationDate: Thu Jun 26 12:11:32 2014
%%Orientation: portrait
%%BoundingBox: 13 247 598 544
%%EndComments
%%BeginProlog
/mpldict 9 dict def
mpldict begin
/m { moveto } bind def
/l { lineto } bind def
/r { rlineto } bind def
/c { curveto } bind def
/cl { closepath } bind def
/box {
m
1 index 0 r
0 exch r
neg 0 r
cl
} bind def
/clipbox {
box
clip
newpath
} bind def
%!PS-Adobe-3.0 Resource-Font
%%Title: DejaVu Sans
%%Copyright: Copyright (c) 2003 by Bitstream, Inc. All Rights Reserved. Copyright (c) 2006 by Tavmjong Bah. All Rights Reserved. DejaVu changes are in public domain 
%%Creator: Converted from TrueType to type 3 by PPR
25 dict begin
/_d{bind def}bind def
/_m{moveto}_d
/_l{lineto}_d
/_cl{closepath eofill}_d
/_c{curveto}_d
/_sc{7 -1 roll{setcachedevice}{pop pop pop pop pop pop}ifelse}_d
/_e{exec}_d
/FontName /DejaVuSans def
/PaintType 0 def
/FontMatrix[.001 0 0 .001 0 0]def
/FontBBox[-1021 -415 1681 1167]def
/FontType 3 def
/Encoding [ /space /parenleft /parenright /period /zero /one /two /three /four /five /six /seven /eight /colon /A /B /F /G /P /bracketleft /bracketright /a /d /e /f /g /i /l /m /n /o /r /s /t /x /minus ] def
/FontInfo 10 dict dup begin
/FamilyName (DejaVu Sans) def
/FullName (DejaVu Sans) def
/Notice (Copyright (c) 2003 by Bitstream, Inc. All Rights Reserved. Copyright (c) 2006 by Tavmjong Bah. All Rights Reserved. DejaVu changes are in public domain ) def
/Weight (Book) def
/Version (Version 2.33) def
/ItalicAngle 0.0 def
/isFixedPitch false def
/UnderlinePosition -130 def
/UnderlineThickness 90 def
end readonly def
/CharStrings 36 dict dup begin
/space{318 0 0 0 0 0 _sc
}_d
/parenleft{390 0 86 -131 310 759 _sc
310 759 _m
266 683 234 609 213 536 _c
191 463 181 389 181 314 _c
181 238 191 164 213 91 _c
234 17 266 -56 310 -131 _c
232 -131 _l
183 -54 146 20 122 94 _c
98 168 86 241 86 314 _c
86 386 98 459 122 533 _c
146 607 182 682 232 759 _c
310 759 _l
_cl}_d
/parenright{390 0 80 -131 304 759 _sc
80 759 _m
158 759 _l
206 682 243 607 267 533 _c
291 459 304 386 304 314 _c
304 241 291 168 267 94 _c
243 20 206 -54 158 -131 _c
80 -131 _l
123 -56 155 17 177 91 _c
198 164 209 238 209 314 _c
209 389 198 463 177 536 _c
155 609 123 683 80 759 _c
_cl}_d
/period{318 0 107 0 210 124 _sc
107 124 _m
210 124 _l
210 0 _l
107 0 _l
107 124 _l
_cl}_d
/zero{636 0 66 -13 570 742 _sc
318 664 _m
267 664 229 639 203 589 _c
177 539 165 464 165 364 _c
165 264 177 189 203 139 _c
229 89 267 64 318 64 _c
369 64 407 89 433 139 _c
458 189 471 264 471 364 _c
471 464 458 539 433 589 _c
407 639 369 664 318 664 _c
318 742 _m
399 742 461 709 505 645 _c
548 580 570 486 570 364 _c
570 241 548 147 505 83 _c
461 19 399 -13 318 -13 _c
236 -13 173 19 130 83 _c
87 147 66 241 66 364 _c
66 486 87 580 130 645 _c
173 709 236 742 318 742 _c
_cl}_d
/one{636 0 110 0 544 729 _sc
124 83 _m
285 83 _l
285 639 _l
110 604 _l
110 694 _l
284 729 _l
383 729 _l
383 83 _l
544 83 _l
544 0 _l
124 0 _l
124 83 _l
_cl}_d
/two{{636 0 73 0 536 742 _sc
192 83 _m
536 83 _l
536 0 _l
73 0 _l
73 83 _l
110 121 161 173 226 239 _c
290 304 331 346 348 365 _c
380 400 402 430 414 455 _c
426 479 433 504 433 528 _c
433 566 419 598 392 622 _c
365 646 330 659 286 659 _c
255 659 222 653 188 643 _c
154 632 117 616 78 594 _c
78 694 _l
118 710 155 722 189 730 _c
223 738 255 742 284 742 _c
359 742 419 723 464 685 _c
509 647 532 597 532 534 _c
532 504 526 475 515 449 _c
504 422 484 390 454 354 _c
446 344 420 317 376 272 _c
332 227 271 164 192 83 _c
_cl}_e}_d
/three{{636 0 76 -13 556 742 _sc
406 393 _m
453 383 490 362 516 330 _c
542 298 556 258 556 212 _c
556 140 531 84 482 45 _c
432 6 362 -13 271 -13 _c
240 -13 208 -10 176 -4 _c
144 1 110 10 76 22 _c
76 117 _l
103 101 133 89 166 81 _c
198 73 232 69 268 69 _c
330 69 377 81 409 105 _c
441 129 458 165 458 212 _c
458 254 443 288 413 312 _c
383 336 341 349 287 349 _c
202 349 _l
202 430 _l
291 430 _l
339 430 376 439 402 459 _c
428 478 441 506 441 543 _c
441 580 427 609 401 629 _c
374 649 336 659 287 659 _c
260 659 231 656 200 650 _c
169 644 135 635 98 623 _c
98 711 _l
135 721 170 729 203 734 _c
235 739 266 742 296 742 _c
}_e{370 742 429 725 473 691 _c
517 657 539 611 539 553 _c
539 513 527 479 504 451 _c
481 423 448 403 406 393 _c
_cl}_e}_d
/four{636 0 49 0 580 729 _sc
378 643 _m
129 254 _l
378 254 _l
378 643 _l
352 729 _m
476 729 _l
476 254 _l
580 254 _l
580 172 _l
476 172 _l
476 0 _l
378 0 _l
378 172 _l
49 172 _l
49 267 _l
352 729 _l
_cl}_d
/five{{636 0 77 -13 549 729 _sc
108 729 _m
495 729 _l
495 646 _l
198 646 _l
198 467 _l
212 472 227 476 241 478 _c
255 480 270 482 284 482 _c
365 482 429 459 477 415 _c
525 370 549 310 549 234 _c
549 155 524 94 475 51 _c
426 8 357 -13 269 -13 _c
238 -13 207 -10 175 -6 _c
143 -1 111 6 77 17 _c
77 116 _l
106 100 136 88 168 80 _c
199 72 232 69 267 69 _c
323 69 368 83 401 113 _c
433 143 450 183 450 234 _c
450 284 433 324 401 354 _c
368 384 323 399 267 399 _c
241 399 214 396 188 390 _c
162 384 135 375 108 363 _c
108 729 _l
_cl}_e}_d
/six{{636 0 70 -13 573 742 _sc
330 404 _m
286 404 251 388 225 358 _c
199 328 186 286 186 234 _c
186 181 199 139 225 109 _c
251 79 286 64 330 64 _c
374 64 409 79 435 109 _c
461 139 474 181 474 234 _c
474 286 461 328 435 358 _c
409 388 374 404 330 404 _c
526 713 _m
526 623 _l
501 635 476 644 451 650 _c
425 656 400 659 376 659 _c
310 659 260 637 226 593 _c
192 549 172 482 168 394 _c
187 422 211 444 240 459 _c
269 474 301 482 336 482 _c
409 482 467 459 509 415 _c
551 371 573 310 573 234 _c
573 159 550 99 506 54 _c
462 9 403 -13 330 -13 _c
246 -13 181 19 137 83 _c
92 147 70 241 70 364 _c
70 479 97 571 152 639 _c
206 707 280 742 372 742 _c
}_e{396 742 421 739 447 735 _c
472 730 498 723 526 713 _c
_cl}_e}_d
/seven{636 0 82 0 551 729 _sc
82 729 _m
551 729 _l
551 687 _l
286 0 _l
183 0 _l
432 646 _l
82 646 _l
82 729 _l
_cl}_d
/eight{{636 0 68 -13 568 742 _sc
318 346 _m
271 346 234 333 207 308 _c
180 283 167 249 167 205 _c
167 161 180 126 207 101 _c
234 76 271 64 318 64 _c
364 64 401 76 428 102 _c
455 127 469 161 469 205 _c
469 249 455 283 429 308 _c
402 333 365 346 318 346 _c
219 388 _m
177 398 144 418 120 447 _c
96 476 85 511 85 553 _c
85 611 105 657 147 691 _c
188 725 245 742 318 742 _c
390 742 447 725 489 691 _c
530 657 551 611 551 553 _c
551 511 539 476 515 447 _c
491 418 459 398 417 388 _c
464 377 501 355 528 323 _c
554 291 568 251 568 205 _c
568 134 546 80 503 43 _c
459 5 398 -13 318 -13 _c
237 -13 175 5 132 43 _c
89 80 68 134 68 205 _c
68 251 81 291 108 323 _c
134 355 171 377 219 388 _c
}_e{183 544 _m
183 506 194 476 218 455 _c
242 434 275 424 318 424 _c
360 424 393 434 417 455 _c
441 476 453 506 453 544 _c
453 582 441 611 417 632 _c
393 653 360 664 318 664 _c
275 664 242 653 218 632 _c
194 611 183 582 183 544 _c
_cl}_e}_d
/colon{337 0 117 0 220 517 _sc
117 124 _m
220 124 _l
220 0 _l
117 0 _l
117 124 _l
117 517 _m
220 517 _l
220 393 _l
117 393 _l
117 517 _l
_cl}_d
/A{684 0 8 0 676 729 _sc
342 632 _m
208 269 _l
476 269 _l
342 632 _l
286 729 _m
398 729 _l
676 0 _l
573 0 _l
507 187 _l
178 187 _l
112 0 _l
8 0 _l
286 729 _l
_cl}_d
/B{{686 0 98 0 615 729 _sc
197 348 _m
197 81 _l
355 81 _l
408 81 447 92 473 114 _c
498 136 511 169 511 215 _c
511 260 498 293 473 315 _c
447 337 408 348 355 348 _c
197 348 _l
197 648 _m
197 428 _l
343 428 _l
391 428 426 437 450 455 _c
474 473 486 500 486 538 _c
486 574 474 602 450 620 _c
426 638 391 648 343 648 _c
197 648 _l
98 729 _m
350 729 _l
425 729 483 713 524 682 _c
564 650 585 606 585 549 _c
585 504 574 468 553 442 _c
532 416 502 399 462 393 _c
510 382 548 360 575 327 _c
601 294 615 253 615 204 _c
615 138 592 88 548 53 _c
504 17 441 0 360 0 _c
98 0 _l
98 729 _l
}_e{_cl}_e}_d
/F{575 0 98 0 517 729 _sc
98 729 _m
517 729 _l
517 646 _l
197 646 _l
197 431 _l
486 431 _l
486 348 _l
197 348 _l
197 0 _l
98 0 _l
98 729 _l
_cl}_d
/G{{775 0 56 -13 693 742 _sc
595 104 _m
595 300 _l
434 300 _l
434 381 _l
693 381 _l
693 68 _l
655 40 613 20 567 7 _c
521 -6 472 -13 420 -13 _c
306 -13 216 20 152 86 _c
88 152 56 245 56 364 _c
56 482 88 575 152 642 _c
216 708 306 742 420 742 _c
467 742 512 736 555 724 _c
598 712 638 695 674 673 _c
674 568 _l
637 598 598 621 557 637 _c
516 653 473 661 428 661 _c
338 661 271 636 227 586 _c
182 536 160 462 160 364 _c
160 265 182 191 227 141 _c
271 91 338 67 428 67 _c
462 67 493 70 521 76 _c
549 82 573 91 595 104 _c
_cl}_e}_d
/P{603 0 98 0 569 729 _sc
197 648 _m
197 374 _l
321 374 _l
367 374 402 385 427 409 _c
452 433 465 467 465 511 _c
465 555 452 588 427 612 _c
402 636 367 648 321 648 _c
197 648 _l
98 729 _m
321 729 _l
402 729 464 710 506 673 _c
548 636 569 582 569 511 _c
569 439 548 384 506 348 _c
464 311 402 293 321 293 _c
197 293 _l
197 0 _l
98 0 _l
98 729 _l
_cl}_d
/bracketleft{390 0 86 -131 293 760 _sc
86 760 _m
293 760 _l
293 690 _l
176 690 _l
176 -61 _l
293 -61 _l
293 -131 _l
86 -131 _l
86 760 _l
_cl}_d
/bracketright{390 0 97 -131 304 760 _sc
304 760 _m
304 -131 _l
97 -131 _l
97 -61 _l
214 -61 _l
214 690 _l
97 690 _l
97 760 _l
304 760 _l
_cl}_d
/a{{613 0 60 -13 522 560 _sc
343 275 _m
270 275 220 266 192 250 _c
164 233 150 205 150 165 _c
150 133 160 107 181 89 _c
202 70 231 61 267 61 _c
317 61 357 78 387 114 _c
417 149 432 196 432 255 _c
432 275 _l
343 275 _l
522 312 _m
522 0 _l
432 0 _l
432 83 _l
411 49 385 25 355 10 _c
325 -5 287 -13 243 -13 _c
187 -13 142 2 109 33 _c
76 64 60 106 60 159 _c
60 220 80 266 122 298 _c
163 329 224 345 306 345 _c
432 345 _l
432 354 _l
432 395 418 427 391 450 _c
364 472 326 484 277 484 _c
245 484 215 480 185 472 _c
155 464 127 453 100 439 _c
100 522 _l
}_e{132 534 164 544 195 550 _c
226 556 256 560 286 560 _c
365 560 424 539 463 498 _c
502 457 522 395 522 312 _c
_cl}_e}_d
/d{{635 0 55 -13 544 760 _sc
454 464 _m
454 760 _l
544 760 _l
544 0 _l
454 0 _l
454 82 _l
435 49 411 25 382 10 _c
353 -5 319 -13 279 -13 _c
213 -13 159 13 117 65 _c
75 117 55 187 55 273 _c
55 359 75 428 117 481 _c
159 533 213 560 279 560 _c
319 560 353 552 382 536 _c
411 520 435 496 454 464 _c
148 273 _m
148 207 161 155 188 117 _c
215 79 253 61 301 61 _c
348 61 385 79 413 117 _c
440 155 454 207 454 273 _c
454 339 440 390 413 428 _c
385 466 348 485 301 485 _c
253 485 215 466 188 428 _c
161 390 148 339 148 273 _c
_cl}_e}_d
/e{{615 0 55 -13 562 560 _sc
562 296 _m
562 252 _l
149 252 _l
153 190 171 142 205 110 _c
238 78 284 62 344 62 _c
378 62 412 66 444 74 _c
476 82 509 95 541 113 _c
541 28 _l
509 14 476 3 442 -3 _c
408 -9 373 -13 339 -13 _c
251 -13 182 12 131 62 _c
80 112 55 181 55 268 _c
55 357 79 428 127 481 _c
175 533 241 560 323 560 _c
397 560 455 536 498 489 _c
540 441 562 377 562 296 _c
472 322 _m
471 371 457 410 431 440 _c
404 469 368 484 324 484 _c
274 484 234 469 204 441 _c
174 413 156 373 152 322 _c
472 322 _l
_cl}_e}_d
/f{352 0 23 0 371 760 _sc
371 760 _m
371 685 _l
285 685 _l
253 685 230 678 218 665 _c
205 652 199 629 199 595 _c
199 547 _l
347 547 _l
347 477 _l
199 477 _l
199 0 _l
109 0 _l
109 477 _l
23 477 _l
23 547 _l
109 547 _l
109 585 _l
109 645 123 690 151 718 _c
179 746 224 760 286 760 _c
371 760 _l
_cl}_d
/g{{635 0 55 -207 544 560 _sc
454 280 _m
454 344 440 395 414 431 _c
387 467 349 485 301 485 _c
253 485 215 467 188 431 _c
161 395 148 344 148 280 _c
148 215 161 165 188 129 _c
215 93 253 75 301 75 _c
349 75 387 93 414 129 _c
440 165 454 215 454 280 _c
544 68 _m
544 -24 523 -93 482 -139 _c
440 -184 377 -207 292 -207 _c
260 -207 231 -204 203 -200 _c
175 -195 147 -188 121 -178 _c
121 -91 _l
147 -105 173 -115 199 -122 _c
225 -129 251 -133 278 -133 _c
336 -133 380 -117 410 -87 _c
439 -56 454 -10 454 52 _c
454 96 _l
435 64 411 40 382 24 _c
353 8 319 0 279 0 _c
211 0 157 25 116 76 _c
75 127 55 195 55 280 _c
55 364 75 432 116 483 _c
157 534 211 560 279 560 _c
}_e{319 560 353 552 382 536 _c
411 520 435 496 454 464 _c
454 547 _l
544 547 _l
544 68 _l
_cl}_e}_d
/i{278 0 94 0 184 760 _sc
94 547 _m
184 547 _l
184 0 _l
94 0 _l
94 547 _l
94 760 _m
184 760 _l
184 646 _l
94 646 _l
94 760 _l
_cl}_d
/l{278 0 94 0 184 760 _sc
94 760 _m
184 760 _l
184 0 _l
94 0 _l
94 760 _l
_cl}_d
/m{{974 0 91 0 889 560 _sc
520 442 _m
542 482 569 511 600 531 _c
631 550 668 560 711 560 _c
767 560 811 540 842 500 _c
873 460 889 403 889 330 _c
889 0 _l
799 0 _l
799 327 _l
799 379 789 418 771 444 _c
752 469 724 482 686 482 _c
639 482 602 466 575 435 _c
548 404 535 362 535 309 _c
535 0 _l
445 0 _l
445 327 _l
445 379 435 418 417 444 _c
398 469 369 482 331 482 _c
285 482 248 466 221 435 _c
194 404 181 362 181 309 _c
181 0 _l
91 0 _l
91 547 _l
181 547 _l
181 462 _l
201 495 226 520 255 536 _c
283 552 317 560 357 560 _c
397 560 430 550 458 530 _c
486 510 506 480 520 442 _c
}_e{_cl}_e}_d
/n{634 0 91 0 549 560 _sc
549 330 _m
549 0 _l
459 0 _l
459 327 _l
459 379 448 417 428 443 _c
408 469 378 482 338 482 _c
289 482 251 466 223 435 _c
195 404 181 362 181 309 _c
181 0 _l
91 0 _l
91 547 _l
181 547 _l
181 462 _l
202 494 227 519 257 535 _c
286 551 320 560 358 560 _c
420 560 468 540 500 501 _c
532 462 549 405 549 330 _c
_cl}_d
/o{612 0 55 -13 557 560 _sc
306 484 _m
258 484 220 465 192 427 _c
164 389 150 338 150 273 _c
150 207 163 156 191 118 _c
219 80 257 62 306 62 _c
354 62 392 80 420 118 _c
448 156 462 207 462 273 _c
462 337 448 389 420 427 _c
392 465 354 484 306 484 _c
306 560 _m
384 560 445 534 490 484 _c
534 433 557 363 557 273 _c
557 183 534 113 490 63 _c
445 12 384 -13 306 -13 _c
227 -13 165 12 121 63 _c
77 113 55 183 55 273 _c
55 363 77 433 121 484 _c
165 534 227 560 306 560 _c
_cl}_d
/r{411 0 91 0 411 560 _sc
411 463 _m
401 469 390 473 378 476 _c
366 478 353 480 339 480 _c
288 480 249 463 222 430 _c
194 397 181 350 181 288 _c
181 0 _l
91 0 _l
91 547 _l
181 547 _l
181 462 _l
199 495 224 520 254 536 _c
284 552 321 560 365 560 _c
371 560 378 559 386 559 _c
393 558 401 557 411 555 _c
411 463 _l
_cl}_d
/s{{521 0 54 -13 472 560 _sc
443 531 _m
443 446 _l
417 458 391 468 364 475 _c
336 481 308 485 279 485 _c
234 485 200 478 178 464 _c
156 450 145 430 145 403 _c
145 382 153 366 169 354 _c
185 342 217 330 265 320 _c
296 313 _l
360 299 405 279 432 255 _c
458 230 472 195 472 151 _c
472 100 452 60 412 31 _c
372 1 316 -13 246 -13 _c
216 -13 186 -10 154 -5 _c
122 0 89 8 54 20 _c
54 113 _l
87 95 120 82 152 74 _c
184 65 216 61 248 61 _c
290 61 323 68 346 82 _c
368 96 380 117 380 144 _c
380 168 371 187 355 200 _c
339 213 303 226 247 238 _c
216 245 _l
160 257 119 275 95 299 _c
70 323 58 356 58 399 _c
58 450 76 490 112 518 _c
148 546 200 560 268 560 _c
}_e{301 560 332 557 362 552 _c
391 547 418 540 443 531 _c
_cl}_e}_d
/t{392 0 27 0 368 702 _sc
183 702 _m
183 547 _l
368 547 _l
368 477 _l
183 477 _l
183 180 _l
183 135 189 106 201 94 _c
213 81 238 75 276 75 _c
368 75 _l
368 0 _l
276 0 _l
206 0 158 13 132 39 _c
106 65 93 112 93 180 _c
93 477 _l
27 477 _l
27 547 _l
93 547 _l
93 702 _l
183 702 _l
_cl}_d
/x{592 0 29 0 559 547 _sc
549 547 _m
351 281 _l
559 0 _l
453 0 _l
294 215 _l
135 0 _l
29 0 _l
241 286 _l
47 547 _l
153 547 _l
298 352 _l
443 547 _l
549 547 _l
_cl}_d
/minus{838 0 106 272 732 355 _sc
106 355 _m
732 355 _l
732 272 _l
106 272 _l
106 355 _l
_cl}_d
end readonly def

/BuildGlyph
 {exch begin
 CharStrings exch
 2 copy known not{pop /.notdef}if
 true 3 1 roll get exec
 end}_d

/BuildChar {
 1 index /Encoding get exch get
 1 index /BuildGlyph get exec
}_d

FontName currentdict end definefont pop
%!PS-Adobe-3.0 Resource-Font
%%Title: cmmi10
%%Copyright: Copyright (C) 1994, Basil K. Malyshev. All Rights Reserved.012BaKoMa Fonts Collection, Level-B.
%%Creator: Converted from TrueType to type 3 by PPR
25 dict begin
/_d{bind def}bind def
/_m{moveto}_d
/_l{lineto}_d
/_cl{closepath eofill}_d
/_c{curveto}_d
/_sc{7 -1 roll{setcachedevice}{pop pop pop pop pop pop}ifelse}_d
/_e{exec}_d
/FontName /Cmmi10 def
/PaintType 0 def
/FontMatrix[.001 0 0 .001 0 0]def
/FontBBox[-34 -250 1048 750]def
/FontType 3 def
/Encoding [ /e /t /i /x /d /f /l /r ] def
/FontInfo 10 dict dup begin
/FamilyName (cmmi10) def
/FullName (cmmi10) def
/Notice (Copyright (C) 1994, Basil K. Malyshev. All Rights Reserved.012BaKoMa Fonts Collection, Level-B. ) def
/Weight (Regular) def
/Version (1.1/12-Nov-94) def
/ItalicAngle 0.0 def
/isFixedPitch false def
/UnderlinePosition -133 def
/UnderlineThickness 20 def
end readonly def
/CharStrings 8 dict dup begin
/e{{465 0 44 -10 430 442 _sc
201 -10 _m
169 -10 141 -2 117 14 _c
93 30 75 53 63 81 _c
50 109 44 138 44 170 _c
44 217 56 262 80 304 _c
104 346 136 379 177 404 _c
218 429 262 442 309 442 _c
337 442 362 434 384 419 _c
405 404 416 383 416 356 _c
416 317 400 288 370 270 _c
339 251 304 239 266 235 _c
228 231 185 229 139 229 _c
136 229 _l
125 189 120 155 120 127 _c
120 97 126 71 140 49 _c
154 26 175 15 203 15 _c
243 15 281 24 318 42 _c
354 60 384 86 407 118 _c
409 120 411 121 415 121 _c
418 121 421 119 425 115 _c
428 111 430 108 430 105 _c
430 102 429 100 428 99 _c
404 65 371 38 330 19 _c
288 0 245 -10 201 -10 _c
142 255 _m
}_e{180 255 216 256 249 260 _c
282 264 312 273 339 287 _c
365 301 379 324 379 355 _c
379 367 375 378 368 387 _c
361 396 352 403 342 408 _c
331 413 320 416 308 416 _c
280 416 254 408 232 393 _c
209 377 190 357 176 333 _c
161 308 150 282 142 255 _c
_cl}_e}_d
/t{{361 0 22 -10 330 626 _sc
62 81 _m
62 91 63 100 65 109 _c
137 396 _l
32 396 _l
25 396 22 400 22 409 _c
24 423 29 431 35 431 _c
146 431 _l
186 594 _l
188 602 193 610 201 616 _c
209 622 218 626 228 626 _c
236 626 243 623 249 618 _c
255 613 258 606 258 598 _c
258 596 257 594 257 593 _c
257 592 257 591 257 590 _c
217 431 _l
320 431 _l
326 431 330 426 330 418 _c
330 416 329 414 328 410 _c
327 406 326 402 324 400 _c
322 397 320 396 317 396 _c
208 396 _l
136 107 _l
131 88 129 72 129 58 _c
}_e{129 29 138 15 158 15 _c
187 15 213 28 236 56 _c
258 84 276 114 288 147 _c
290 151 293 153 296 153 _c
308 153 _l
310 153 312 152 314 150 _c
316 148 317 146 317 144 _c
317 142 316 141 316 141 _c
301 101 280 65 252 35 _c
224 5 192 -10 156 -10 _c
129 -10 107 -1 89 15 _c
71 32 62 54 62 81 _c
_cl}_e}_d
/i{{344 0 27 -10 296 661 _sc
78 72 _m
78 84 80 97 86 111 _c
167 326 _l
175 350 180 370 180 386 _c
180 406 172 416 158 416 _c
132 416 110 402 93 375 _c
75 347 63 317 55 284 _c
53 280 51 278 47 278 _c
35 278 _l
29 278 27 281 27 287 _c
27 290 _l
37 330 54 365 76 396 _c
98 426 126 442 160 442 _c
184 442 204 434 220 418 _c
236 402 245 383 245 359 _c
245 346 242 333 237 320 _c
156 105 _l
146 83 142 63 142 45 _c
142 25 149 15 165 15 _c
}_e{191 15 212 29 230 57 _c
247 85 259 115 267 147 _c
268 151 271 153 275 153 _c
287 153 _l
289 153 291 152 293 150 _c
295 148 296 146 296 144 _c
296 143 295 142 295 141 _c
285 103 269 68 247 37 _c
224 5 196 -10 163 -10 _c
139 -10 119 -2 103 13 _c
86 29 78 48 78 72 _c
191 606 _m
191 620 196 632 208 644 _c
220 655 233 661 247 661 _c
258 661 267 657 275 650 _c
282 643 286 634 286 624 _c
286 609 280 596 268 585 _c
256 573 243 568 229 568 _c
218 568 209 571 202 579 _c
194 586 191 595 191 606 _c
_cl}_e}_d
/x{{571 0 31 -10 526 442 _sc
78 29 _m
90 19 106 15 128 15 _c
148 15 167 25 183 45 _c
199 65 210 87 216 111 _c
261 288 _l
268 320 272 342 272 354 _c
272 370 267 385 258 397 _c
248 409 235 416 219 416 _c
198 416 178 409 160 396 _c
141 382 125 365 113 345 _c
100 325 91 304 86 284 _c
84 280 82 278 78 278 _c
66 278 _l
60 278 58 281 58 287 _c
58 290 _l
64 314 75 338 91 362 _c
107 386 126 405 149 420 _c
171 434 195 442 221 442 _c
245 442 267 435 287 422 _c
307 409 321 391 329 369 _c
340 389 354 407 372 421 _c
390 435 409 442 431 442 _c
445 442 460 439 475 434 _c
490 429 502 421 512 411 _c
521 401 526 388 526 372 _c
}_e{526 355 520 340 509 328 _c
498 316 484 310 468 310 _c
457 310 448 313 441 320 _c
433 327 430 336 430 346 _c
430 360 434 372 444 383 _c
454 393 465 400 479 402 _c
467 411 450 416 429 416 _c
407 416 389 406 373 386 _c
357 366 346 344 340 320 _c
296 143 _l
288 116 285 94 285 77 _c
285 60 289 45 299 33 _c
309 21 322 15 338 15 _c
369 15 397 28 421 56 _c
445 84 462 114 470 147 _c
471 151 474 153 478 153 _c
490 153 _l
492 153 494 152 496 150 _c
498 148 499 146 499 144 _c
499 143 498 142 498 141 _c
488 101 468 66 438 36 _c
408 5 374 -10 336 -10 _c
311 -10 289 -3 269 9 _c
249 21 236 39 228 62 _c
}_e{217 42 202 25 184 11 _c
166 -3 146 -10 126 -10 _c
111 -10 96 -7 81 -3 _c
66 1 54 9 45 19 _c
35 29 31 43 31 59 _c
31 75 36 89 47 102 _c
57 114 71 121 88 121 _c
98 121 107 117 115 111 _c
123 104 127 95 127 85 _c
127 71 122 58 113 48 _c
103 38 92 31 78 29 _c
_cl}_e}_d
/d{{520 0 38 -10 519 694 _sc
174 -10 _m
132 -10 98 5 74 37 _c
50 68 38 105 38 149 _c
38 191 49 236 71 282 _c
93 328 122 366 160 396 _c
198 426 238 442 282 442 _c
302 442 319 436 335 425 _c
351 414 363 400 372 382 _c
428 605 _l
430 616 432 625 433 632 _c
433 642 411 648 368 648 _c
361 648 358 652 358 661 _c
358 663 358 666 360 670 _c
361 674 362 677 364 679 _c
366 681 368 683 372 683 _c
507 694 _l
515 694 519 689 519 681 _c
375 106 _l
370 94 368 78 368 58 _c
368 29 377 15 397 15 _c
417 15 433 28 444 55 _c
455 81 464 112 472 147 _c
}_e{473 151 476 153 480 153 _c
492 153 _l
494 153 496 151 498 149 _c
500 147 501 145 501 143 _c
489 96 476 59 462 31 _c
448 3 426 -10 395 -10 _c
372 -10 352 -3 335 9 _c
318 21 307 39 303 61 _c
260 13 217 -10 174 -10 _c
175 15 _m
199 15 222 24 245 42 _c
267 60 287 81 303 106 _c
303 106 304 108 304 110 _c
359 330 _l
355 353 346 373 333 390 _c
319 407 302 416 280 416 _c
257 416 236 406 217 388 _c
197 370 181 348 168 323 _c
154 296 142 259 130 213 _c
118 167 113 131 113 105 _c
113 81 118 60 128 42 _c
138 24 153 15 175 15 _c
_cl}_e}_d
/f{{489 0 53 -204 552 705 _sc
97 -164 _m
109 -173 124 -178 142 -178 _c
166 -178 185 -151 200 -99 _c
206 -73 223 9 251 151 _c
297 396 _l
211 396 _l
204 396 201 400 201 409 _c
203 423 208 431 214 431 _c
303 431 _l
315 496 _l
319 516 322 533 326 548 _c
329 562 332 576 336 588 _c
340 600 345 614 353 630 _c
364 652 379 670 399 684 _c
418 698 439 705 462 705 _c
476 705 490 702 504 697 _c
518 691 529 683 538 673 _c
547 662 552 649 552 635 _c
552 617 546 602 535 590 _c
523 578 510 572 494 572 _c
483 572 474 575 466 582 _c
458 588 455 597 455 608 _c
455 622 460 635 470 646 _c
480 657 492 663 507 665 _c
}_e{494 674 479 679 461 679 _c
451 679 441 674 432 665 _c
423 655 417 645 415 635 _c
411 617 401 571 387 497 _c
375 431 _l
478 431 _l
484 431 488 426 488 418 _c
487 416 486 413 485 409 _c
484 405 483 401 481 399 _c
479 397 477 396 475 396 _c
368 396 _l
322 152 _l
316 116 309 80 301 44 _c
293 8 283 -29 269 -68 _c
255 -106 238 -139 216 -165 _c
194 -191 169 -204 140 -204 _c
117 -204 97 -197 79 -185 _c
61 -172 53 -155 53 -134 _c
53 -116 58 -101 69 -89 _c
80 -77 94 -71 111 -71 _c
121 -71 130 -74 138 -81 _c
146 -87 150 -96 150 -107 _c
150 -121 144 -134 134 -146 _c
123 -158 111 -164 97 -164 _c
_cl}_e}_d
/l{{298 0 44 -10 262 694 _sc
44 81 _m
44 83 44 86 44 90 _c
44 94 45 97 46 101 _c
46 105 47 108 47 110 _c
171 605 _l
173 616 175 625 176 632 _c
176 642 154 648 111 648 _c
104 648 101 652 101 661 _c
101 663 102 666 103 670 _c
104 674 105 677 107 679 _c
109 681 111 683 115 683 _c
250 694 _l
258 694 262 689 262 681 _c
118 106 _l
113 95 111 79 111 58 _c
111 29 120 15 140 15 _c
160 15 176 27 186 53 _c
196 79 206 110 214 147 _c
215 151 218 153 222 153 _c
234 153 _l
236 153 238 151 240 149 _c
242 147 243 145 243 143 _c
}_e{235 111 227 85 221 67 _c
215 48 205 30 191 14 _c
177 -2 159 -10 138 -10 _c
111 -10 89 -1 71 15 _c
53 32 44 54 44 81 _c
_cl}_e}_d
/r{{451 0 27 -10 434 442 _sc
77 17 _m
77 21 77 24 78 26 _c
153 324 _l
157 342 160 359 160 373 _c
160 401 150 416 131 416 _c
110 416 94 403 84 378 _c
74 353 64 322 55 284 _c
55 282 54 280 52 279 _c
50 278 48 278 47 278 _c
35 278 _l
33 278 31 279 29 281 _c
27 283 27 286 27 288 _c
34 317 41 342 48 362 _c
54 382 65 400 79 417 _c
93 433 110 442 132 442 _c
155 442 175 435 193 422 _c
210 408 221 391 225 369 _c
241 391 260 408 282 422 _c
304 435 328 442 354 442 _c
375 442 394 435 410 423 _c
426 411 434 394 434 373 _c
434 356 428 341 418 329 _c
407 316 393 310 376 310 _c
}_e{365 310 356 313 349 320 _c
341 326 338 335 338 346 _c
338 360 343 373 354 385 _c
364 397 377 403 391 403 _c
380 411 367 416 352 416 _c
323 416 298 405 277 385 _c
256 365 237 339 220 308 _c
149 22 _l
147 12 142 5 134 -1 _c
126 -7 117 -10 107 -10 _c
99 -10 92 -7 86 -3 _c
80 1 77 8 77 17 _c
_cl}_e}_d
end readonly def

/BuildGlyph
 {exch begin
 CharStrings exch
 2 copy known not{pop /.notdef}if
 true 3 1 roll get exec
 end}_d

/BuildChar {
 1 index /Encoding get exch get
 1 index /BuildGlyph get exec
}_d

FontName currentdict end definefont pop
end
%%EndProlog
mpldict begin
13.5 247.5 translate
585 297 0 0 clipbox
gsave
0 0 m
585 0 l
585 297 l
0 297 l
cl
1.000 setgray
fill
grestore
gsave
73.125 41.5627 m
526.5 41.5627 l
526.5 267.3 l
73.125 267.3 l
cl
1.000 setgray
fill
grestore
1.000 setlinewidth
1 setlinejoin
2 setlinecap
[] 0 setdash
1.000 0.000 0.000 setrgbcolor
gsave
453.4 225.7 73.12 41.56 clipbox
73.1895 141.89 m
139.708 141.89 l
139.836 263.234 l
140.355 263.234 l
140.484 260.881 l
140.615 260.881 l
140.743 248.337 l
141.261 248.337 l
141.391 215.656 l
141.65 215.656 l
141.78 206.317 l
141.91 206.317 l
142.039 218.645 l
142.298 218.645 l
142.427 225.782 l
142.945 225.782 l
143.075 235.889 l
143.399 235.889 l
143.529 188.27 l
143.852 188.27 l
143.982 216.092 l
144.241 216.092 l
144.37 222.107 l
144.694 222.107 l
144.823 225.774 l
145.147 225.774 l
145.276 242.522 l
145.536 242.522 l
145.665 234.06 l
145.99 234.06 l
146.118 193.461 l
146.443 193.461 l
146.573 203.304 l
146.831 203.304 l
146.961 211.19 l
147.284 211.19 l
147.415 215.953 l
147.738 215.953 l
147.868 231.491 l
148.386 231.491 l
148.515 236.238 l
148.774 236.238 l
148.904 237.608 l
149.228 237.608 l
149.357 229.245 l
149.681 229.245 l
149.811 197.758 l
150.07 197.758 l
150.2 188.67 l
150.523 188.67 l
150.652 182.798 l
150.977 182.798 l
151.106 173.822 l
151.365 173.822 l
151.495 161.164 l
151.624 161.164 l
151.753 163.522 l
152.078 163.522 l
152.207 165.762 l
152.466 165.762 l
152.596 167.064 l
152.92 167.064 l
153.049 165.896 l
153.114 165.896 l
153.244 211.854 l
153.567 211.854 l
153.697 217.498 l
153.956 217.498 l
154.085 225.596 l
154.215 225.596 l
154.344 235.068 l
154.409 235.068 l
154.54 247.639 l
154.605 247.639 l
154.733 249.227 l
155.057 249.227 l
155.187 221.332 l
155.511 221.332 l
155.641 218.431 l
155.964 218.431 l
156.093 214.763 l
156.352 214.763 l
156.482 237.564 l
156.806 237.564 l
156.935 238.986 l
157.259 238.986 l
157.388 241.761 l
157.648 241.761 l
157.777 234.921 l
158.101 234.921 l
158.23 247.179 l
158.295 247.179 l
158.425 238.052 l
158.554 238.052 l
158.684 189.786 l
158.749 189.786 l
158.878 204.452 l
159.137 204.452 l
159.266 205.247 l
159.591 205.247 l
159.72 204.622 l
159.785 204.622 l
159.98 209.157 l
160.046 209.157 l
160.174 224.276 l
160.253 224.276 l
160.367 228.602 l
160.497 228.602 l
160.628 170.257 l
160.693 170.257 l
160.821 163.754 l
161.08 163.754 l
161.209 168.908 l
161.339 168.908 l
161.469 170.648 l
161.534 170.648 l
161.663 179.517 l
161.793 179.517 l
161.922 178.25 l
162.181 178.25 l
162.311 177.864 l
162.636 177.864 l
162.764 165.508 l
162.829 165.508 l
162.959 165.187 l
163.283 165.187 l
163.412 161.328 l
163.671 161.328 l
163.8 157.007 l
164.125 157.007 l
164.254 160.964 l
164.578 160.964 l
164.707 158.708 l
164.966 158.708 l
165.096 156.233 l
165.419 156.233 l
165.561 153.429 l
165.873 153.429 l
166.003 159.022 l
166.068 159.022 l
166.199 154.425 l
166.523 154.425 l
166.65 158.818 l
166.716 158.818 l
166.846 162.641 l
167.363 162.641 l
167.492 166.537 l
167.558 166.537 l
167.687 167.254 l
167.817 167.254 l
167.946 169.455 l
168.205 169.455 l
168.334 174.298 l
168.658 174.298 l
168.787 172.298 l
168.852 172.298 l
168.982 168.189 l
169.305 168.189 l
169.435 171.004 l
169.5 171.004 l
169.63 168.192 l
169.76 168.192 l
169.889 168.882 l
170.213 168.882 l
170.342 170.161 l
170.6 170.161 l
170.731 179.966 l
171.249 179.966 l
171.379 193.4 l
171.727 193.4 l
171.832 194.167 l
172.156 194.167 l
172.285 182.314 l
172.355 182.314 l
172.48 168.915 l
172.803 168.915 l
172.933 180.672 l
173.192 180.672 l
173.321 173.805 l
173.646 173.805 l
173.775 167.867 l
173.84 167.867 l
173.969 181.44 l
174.293 181.44 l
174.422 187.517 l
174.492 187.517 l
174.616 189.891 l
174.941 189.891 l
175.07 186.917 l
175.135 186.917 l
175.264 187.971 l
175.329 187.971 l
175.523 188.71 l
176.042 188.71 l
176.17 182.882 l
176.236 182.882 l
176.365 174.261 l
176.698 174.261 l
176.819 152.037 l
176.885 152.037 l
177.013 155.902 l
177.338 155.902 l
177.467 154.893 l
177.791 154.893 l
177.92 155.045 l
177.985 155.045 l
178.115 155.291 l
178.179 155.291 l
178.309 157.303 l
178.632 157.303 l
178.762 155.222 l
178.827 155.222 l
178.956 155.85 l
179.086 155.85 l
179.215 155.596 l
179.733 155.596 l
179.864 156.321 l
179.929 156.321 l
180.058 153.623 l
180.122 153.623 l
180.251 156.526 l
180.575 156.526 l
180.705 167.646 l
181.029 167.646 l
181.158 184.81 l
181.418 184.81 l
181.547 185.267 l
181.677 185.267 l
181.806 184.591 l
182.065 184.591 l
182.195 171.266 l
182.324 171.266 l
182.453 164.68 l
182.714 164.68 l
182.844 162.083 l
182.972 162.083 l
183.102 161.885 l
183.385 161.885 l
183.49 159.285 l
183.62 159.285 l
183.749 163.228 l
184.267 163.228 l
184.396 164.09 l
184.656 164.09 l
184.785 155.008 l
185.109 155.008 l
185.238 152.579 l
185.563 152.579 l
185.692 151.832 l
185.967 151.832 l
186.08 153.213 l
186.859 153.119 l
186.987 160.153 l
187.246 160.153 l
187.376 156.171 l
187.7 156.171 l
187.83 154.185 l
187.894 154.185 l
188.024 152.764 l
188.348 152.764 l
188.477 185.508 l
188.801 185.508 l
188.93 180.275 l
189.189 180.275 l
189.319 181.07 l
189.643 181.07 l
189.773 191.621 l
190.096 191.621 l
190.226 187.84 l
190.485 187.84 l
190.614 185.881 l
190.938 185.881 l
191.068 184.948 l
191.391 184.948 l
191.521 187.733 l
191.781 187.733 l
191.91 178.89 l
192.235 178.89 l
192.363 166.882 l
192.427 166.882 l
192.557 157.429 l
193.076 157.429 l
193.205 154.76 l
193.529 154.76 l
193.658 162.07 l
193.723 162.07 l
193.918 165.621 l
193.982 165.621 l
194.112 169.231 l
194.177 169.231 l
194.306 172.264 l
194.63 172.264 l
194.759 167.465 l
195.022 167.465 l
195.148 162.38 l
195.472 162.38 l
195.602 150.763 l
195.731 150.763 l
195.861 151.674 l
195.925 151.674 l
196.055 155.411 l
196.12 155.411 l
196.249 163.706 l
196.314 163.706 l
196.444 167.069 l
196.573 167.069 l
196.703 169.7 l
196.961 169.7 l
197.096 170.095 l
197.415 170.095 l
197.544 160.168 l
197.609 160.168 l
197.739 154.204 l
197.869 154.204 l
197.998 155.125 l
198.257 155.125 l
198.386 156.779 l
198.516 156.779 l
198.646 158.369 l
198.711 158.369 l
198.84 156.375 l
199.164 156.375 l
199.294 154.677 l
199.553 154.677 l
199.682 155.588 l
200.006 155.588 l
200.135 155.921 l
200.459 155.921 l
200.589 151.014 l
201.108 151.014 l
201.237 162.144 l
201.301 162.144 l
201.431 157.766 l
201.755 157.766 l
201.884 157.173 l
201.949 157.173 l
202.078 183.152 l
202.402 183.152 l
202.532 180.865 l
202.601 180.865 l
202.726 169.214 l
203.05 169.214 l
203.179 180.961 l
203.438 180.961 l
203.568 176.447 l
203.892 176.447 l
204.022 186.087 l
204.54 186.087 l
204.669 183.962 l
204.993 183.962 l
205.122 200.741 l
205.449 200.741 l
205.576 200.571 l
205.834 200.571 l
205.964 196.981 l
206.288 196.981 l
206.418 192.968 l
206.677 192.968 l
206.806 193.26 l
207.13 193.26 l
207.26 193.528 l
207.583 193.528 l
207.777 193.417 l
207.988 193.417 l
208.102 203.557 l
208.43 203.557 l
208.555 209.52 l
208.879 209.52 l
209.008 195.118 l
209.073 195.118 l
209.203 180.765 l
209.527 180.765 l
209.656 177.135 l
209.721 177.135 l
209.851 182.78 l
210.175 182.78 l
210.304 184.588 l
210.369 184.588 l
210.498 190.275 l
210.631 190.275 l
210.757 193.026 l
211.016 193.026 l
211.146 192.293 l
211.276 192.293 l
211.405 189.208 l
211.664 189.208 l
211.793 191.062 l
212.117 191.062 l
212.247 189.274 l
212.572 189.274 l
212.7 188.281 l
212.765 188.281 l
212.894 188.57 l
212.96 188.57 l
213.089 189.143 l
213.219 189.143 l
213.348 190.389 l
213.607 190.389 l
213.736 185.233 l
214.061 185.233 l
214.191 186.895 l
214.255 186.895 l
214.384 189.055 l
214.708 189.055 l
214.838 191.454 l
214.908 191.454 l
215.097 185.577 l
215.161 185.577 l
215.291 183.795 l
215.55 183.795 l
215.679 174.041 l
215.809 174.041 l
215.939 176.67 l
216.028 176.67 l
216.133 170.975 l
216.198 170.975 l
216.327 195.085 l
216.652 195.085 l
216.78 201.119 l
216.912 201.119 l
217.04 199.034 l
217.105 199.034 l
217.234 190.727 l
217.558 190.727 l
217.688 191.427 l
217.947 191.427 l
218.076 184.549 l
218.4 184.549 l
218.53 190.392 l
218.853 190.392 l
218.983 198.698 l
219.242 198.698 l
219.372 206.663 l
219.695 206.663 l
219.825 191.285 l
220.149 191.285 l
220.278 184.725 l
220.537 184.725 l
220.667 174.121 l
220.991 174.121 l
221.12 164.852 l
221.444 164.852 l
221.574 202.528 l
221.833 202.528 l
221.962 202.896 l
222.286 202.896 l
222.416 202.472 l
222.739 202.472 l
222.868 203.852 l
223.128 203.852 l
223.257 203.475 l
223.581 203.475 l
223.711 204.217 l
223.776 204.217 l
223.905 203.645 l
224.229 203.645 l
224.359 217.962 l
224.424 217.962 l
224.553 212.361 l
224.877 212.361 l
225.006 210.042 l
225.071 210.042 l
225.2 206.071 l
225.525 206.071 l
225.654 204.382 l
225.978 204.382 l
226.107 202.265 l
226.172 202.265 l
226.301 200.34 l
226.626 200.34 l
226.755 193.237 l
227.079 193.237 l
227.208 200.766 l
227.469 200.766 l
227.597 201.802 l
227.923 201.802 l
228.05 196.026 l
228.31 196.026 l
228.439 152.954 l
228.763 152.954 l
228.893 153.49 l
229.216 153.49 l
229.346 154.564 l
230.058 154.533 l
230.188 155.97 l
230.512 155.97 l
230.641 155.83 l
230.965 155.83 l
231.094 155.538 l
231.159 155.538 l
231.289 154.469 l
231.548 154.469 l
231.678 152.321 l
232.001 152.321 l
232.131 179.804 l
232.262 179.804 l
232.39 180.87 l
232.454 180.87 l
232.584 183.068 l
232.908 183.068 l
233.037 186.812 l
233.296 186.812 l
233.426 187.021 l
233.944 187.006 l
234.073 185.16 l
234.138 185.16 l
234.268 188.495 l
234.591 188.495 l
234.721 192.833 l
235.434 192.877 l
235.563 197.749 l
235.888 197.749 l
236.016 189.51 l
236.341 189.51 l
236.47 188.256 l
236.535 188.256 l
236.664 192.456 l
236.989 192.456 l
237.118 192.136 l
237.182 192.136 l
237.312 190.58 l
237.636 190.58 l
237.765 189.37 l
237.83 189.37 l
237.96 191.923 l
238.284 191.923 l
238.413 177.81 l
238.478 177.81 l
238.607 170.453 l
238.931 170.453 l
239.061 161.273 l
239.125 161.273 l
239.256 157.097 l
239.579 157.097 l
239.709 154.182 l
239.968 154.182 l
240.096 155.468 l
240.421 155.468 l
240.55 157.014 l
240.875 157.014 l
241.003 161.905 l
241.069 161.905 l
241.198 207.557 l
241.523 207.557 l
241.652 206.51 l
241.91 206.51 l
242.04 205.341 l
242.17 205.341 l
242.299 202.763 l
242.558 202.763 l
242.687 195.539 l
242.818 195.539 l
242.947 184.791 l
243.012 184.791 l
243.141 177.261 l
243.206 177.261 l
243.335 166.463 l
243.659 166.463 l
243.789 161.272 l
244.113 161.272 l
244.242 165.655 l
244.306 165.655 l
244.436 180.632 l
244.76 180.632 l
244.89 187.105 l
244.954 187.105 l
245.084 197.546 l
245.408 197.546 l
245.537 202.263 l
245.796 202.263 l
245.926 201.614 l
246.249 201.614 l
246.38 196.207 l
246.705 196.207 l
246.833 194.202 l
247.092 194.202 l
247.221 179.943 l
247.545 179.943 l
247.675 174.792 l
248.193 174.792 l
248.322 170.246 l
248.648 170.246 l
248.776 157.717 l
248.84 157.717 l
248.97 157.518 l
249.1 157.518 l
249.229 156.582 l
249.488 156.582 l
249.618 154.582 l
249.748 154.582 l
249.877 149.209 l
249.968 149.209 l
250.071 150.378 l
250.396 150.378 l
250.525 149.1 l
250.784 149.1 l
250.913 151.989 l
251.691 152.073 l
251.819 151.595 l
252.079 151.595 l
252.209 153.795 l
252.533 153.795 l
252.662 153.927 l
252.792 153.927 l
252.921 157.411 l
252.986 157.411 l
253.115 162.569 l
253.181 162.569 l
253.31 162.443 l
253.64 162.443 l
253.763 155.999 l
254.022 155.999 l
254.152 153.037 l
254.929 153.043 l
255.059 160.791 l
255.123 160.791 l
255.252 162.985 l
255.318 162.985 l
255.512 154.686 l
255.577 154.686 l
255.706 160.131 l
255.771 160.131 l
255.901 170.973 l
255.966 170.973 l
256.095 169.977 l
256.426 169.977 l
256.548 174.718 l
256.872 174.718 l
257.001 174.322 l
257.131 174.322 l
257.261 177.872 l
257.325 177.872 l
257.455 175.973 l
257.714 175.973 l
257.843 147.466 l
258.168 147.466 l
258.297 149.703 l
258.621 149.703 l
258.75 150.506 l
258.815 150.506 l
258.944 145.17 l
259.268 145.17 l
259.398 173.635 l
259.464 173.635 l
259.592 172.009 l
259.657 172.009 l
259.787 171.291 l
259.916 171.291 l
260.045 168.699 l
260.111 168.699 l
260.24 164.387 l
260.564 164.387 l
260.693 172.315 l
260.953 172.315 l
261.082 184.752 l
261.406 184.752 l
261.536 184.129 l
261.859 184.129 l
261.988 182.006 l
262.248 182.006 l
262.377 188.433 l
262.509 188.433 l
262.701 188.221 l
263.154 188.221 l
263.284 191.763 l
263.544 191.763 l
263.672 162.497 l
263.996 162.497 l
264.126 163.853 l
264.451 163.853 l
264.579 160.136 l
264.838 160.136 l
264.968 157.57 l
265.291 157.57 l
265.421 152.438 l
265.745 152.438 l
265.875 144.672 l
266.133 144.672 l
266.263 149.728 l
266.588 149.728 l
266.717 155.321 l
266.846 155.321 l
266.976 156.402 l
267.235 156.402 l
267.365 161.072 l
268.725 161.005 l
268.854 160.699 l
269.179 160.699 l
269.308 157.245 l
269.631 157.245 l
269.761 145.143 l
270.02 145.143 l
270.149 150.613 l
270.473 150.613 l
270.603 148.564 l
271.121 148.564 l
271.25 180.442 l
271.574 180.442 l
271.704 178.864 l
272.028 178.864 l
272.158 179.418 l
272.416 179.418 l
272.545 182.089 l
272.805 182.089 l
272.999 149.359 l
273.064 149.359 l
273.193 150.621 l
273.712 150.621 l
273.841 158.37 l
273.906 158.37 l
274.035 160.045 l
274.359 160.045 l
274.488 157.695 l
274.813 157.695 l
274.942 154.768 l
275.007 154.768 l
275.136 163.645 l
275.201 163.645 l
275.33 169.756 l
275.85 169.858 l
275.978 170.9 l
276.306 170.9 l
276.432 169.513 l
276.756 169.513 l
276.885 172.917 l
277.144 172.917 l
277.273 179.275 l
277.793 179.275 l
277.921 178.572 l
278.246 178.572 l
278.375 181.921 l
278.699 181.921 l
278.828 183.532 l
278.893 183.532 l
279.023 188.686 l
279.152 188.686 l
279.281 187.11 l
279.541 187.11 l
279.671 178.609 l
279.994 178.609 l
280.123 200.249 l
280.188 200.249 l
280.318 195.947 l
280.383 195.947 l
280.512 197.178 l
280.836 197.178 l
280.966 196.598 l
281.03 196.598 l
281.16 198.3 l
281.29 198.3 l
281.419 197.669 l
281.678 197.669 l
281.808 194.838 l
282.132 194.838 l
282.261 195.284 l
282.585 195.284 l
282.714 189.729 l
282.779 189.729 l
282.909 188.409 l
283.233 188.409 l
283.362 199.207 l
283.426 199.207 l
283.559 195.811 l
283.88 195.811 l
284.01 196.1 l
284.074 196.1 l
284.204 195.394 l
284.53 195.394 l
284.658 191.857 l
284.916 191.857 l
285.046 181.342 l
285.176 181.342 l
285.305 177.677 l
285.369 177.677 l
285.499 183.963 l
285.564 183.963 l
285.694 179.212 l
286.017 179.212 l
286.147 187.086 l
286.277 187.086 l
286.406 193.768 l
286.664 193.768 l
286.795 198.757 l
287.118 198.757 l
287.248 199.605 l
287.507 199.605 l
287.637 198.382 l
288.025 198.382 l
288.155 199.08 l
288.22 199.08 l
288.349 199.393 l
288.414 199.393 l
288.543 181.952 l
288.609 181.952 l
288.737 174.637 l
288.867 174.637 l
288.997 164.041 l
289.256 164.041 l
289.385 165.739 l
289.71 165.739 l
289.838 159.348 l
290.163 159.348 l
290.291 156.39 l
290.551 156.39 l
290.68 160.639 l
290.81 160.639 l
290.94 157.51 l
291.199 157.51 l
291.328 160.184 l
291.653 160.184 l
291.781 181.927 l
292.106 181.927 l
292.235 184.561 l
292.494 184.561 l
292.624 182.38 l
292.972 182.38 l
293.077 179.418 l
293.157 179.418 l
293.272 179.074 l
293.595 179.074 l
293.725 181.854 l
294.049 181.854 l
294.178 174.835 l
294.243 174.835 l
294.372 162.609 l
294.437 162.609 l
294.566 165.309 l
294.891 165.309 l
295.02 167.156 l
295.085 167.156 l
295.214 168.645 l
295.344 168.645 l
295.473 166.33 l
295.539 166.33 l
295.668 159.8 l
295.992 159.8 l
296.121 157.346 l
296.445 157.346 l
296.575 155.819 l
296.841 155.819 l
296.963 156.098 l
297.093 156.098 l
297.223 151.302 l
297.483 151.302 l
297.614 152.208 l
297.935 152.208 l
298.064 189.813 l
298.388 189.813 l
298.518 199.968 l
298.809 199.968 l
298.906 198.811 l
299.23 198.811 l
299.36 198.263 l
299.425 198.263 l
299.554 199.185 l
299.878 199.185 l
300.007 198.672 l
300.331 198.672 l
300.461 195.347 l
300.53 195.347 l
300.656 184.468 l
300.98 184.468 l
301.109 184.861 l
301.627 184.861 l
301.757 193.33 l
302.017 193.33 l
302.145 192.31 l
302.468 192.31 l
302.598 185.739 l
302.664 185.739 l
302.792 184.476 l
302.922 184.476 l
303.052 186.315 l
303.116 186.315 l
303.247 186.618 l
303.57 186.618 l
303.699 186.884 l
304.023 186.884 l
304.153 191.294 l
304.414 191.294 l
304.541 191.752 l
304.613 191.752 l
304.735 192.548 l
304.865 192.548 l
304.994 189.276 l
305.253 189.276 l
305.385 188.832 l
305.513 188.832 l
305.641 202.894 l
305.901 202.894 l
306.031 203.447 l
306.355 203.447 l
306.484 200.212 l
306.808 200.212 l
306.937 196.296 l
307.002 196.296 l
307.132 197.849 l
307.196 197.849 l
307.391 197.102 l
307.456 197.102 l
307.585 195.502 l
307.652 195.502 l
307.779 208.155 l
307.909 208.155 l
308.039 213.834 l
308.299 213.834 l
308.427 210.385 l
308.751 210.385 l
308.881 207.109 l
308.946 207.109 l
309.075 209.925 l
309.399 209.925 l
309.528 214.07 l
309.787 214.07 l
309.917 215.76 l
310.241 215.76 l
310.37 211.739 l
310.695 211.739 l
310.824 199.332 l
311.082 199.332 l
311.212 202.084 l
311.536 202.084 l
311.665 203.005 l
311.99 203.005 l
312.119 195.9 l
312.443 195.9 l
312.572 191.193 l
312.831 191.193 l
312.961 205.344 l
313.285 205.344 l
313.414 207.025 l
313.479 207.025 l
313.608 204.097 l
313.933 204.097 l
314.063 230.962 l
314.386 230.962 l
314.515 211.647 l
314.774 211.647 l
314.904 201.436 l
315.228 201.436 l
315.357 195.47 l
315.617 195.47 l
315.745 194.273 l
316.07 194.273 l
316.199 192.936 l
316.523 192.936 l
316.655 193.083 l
316.912 193.083 l
317.041 190.391 l
317.365 190.391 l
317.495 179.278 l
317.818 179.278 l
317.948 188.393 l
318.013 188.393 l
318.142 192.555 l
318.467 192.555 l
318.596 195.6 l
318.855 195.6 l
318.984 195.012 l
319.308 195.012 l
319.438 212.665 l
319.762 212.665 l
319.891 217.808 l
320.215 217.808 l
320.344 220.801 l
320.603 220.801 l
320.733 216.168 l
321.057 216.168 l
321.186 202.812 l
321.445 202.812 l
321.576 210.428 l
321.898 210.428 l
322.028 211.454 l
322.093 211.454 l
322.223 211.766 l
322.742 211.766 l
322.87 212.856 l
323 212.856 l
323.13 207.371 l
323.194 207.371 l
323.323 205.39 l
323.388 205.39 l
323.583 201.122 l
323.842 201.122 l
323.971 193.559 l
324.296 193.559 l
324.424 193.997 l
324.489 193.997 l
324.619 195.421 l
324.684 195.421 l
324.813 194.872 l
325.008 194.872 l
325.137 193.715 l
325.396 193.715 l
325.526 185.216 l
325.594 185.216 l
325.72 199.042 l
325.979 199.042 l
326.109 192.284 l
326.432 192.284 l
326.562 152.342 l
326.889 152.342 l
327.016 149.689 l
327.341 149.689 l
327.469 147.257 l
327.728 147.257 l
327.857 173.657 l
328.182 173.657 l
328.311 183.967 l
328.635 183.967 l
328.764 201.584 l
329.024 201.584 l
329.153 197.088 l
329.283 197.088 l
329.412 196.241 l
329.671 196.241 l
329.8 195.918 l
329.931 195.918 l
330.059 189.005 l
330.319 189.005 l
330.448 191.262 l
330.578 191.262 l
330.707 198.805 l
330.966 198.805 l
331.096 199.226 l
331.226 199.226 l
331.355 199.468 l
331.614 199.468 l
331.744 201.602 l
331.873 201.602 l
332.003 198.776 l
332.262 198.776 l
332.391 185.379 l
332.715 185.379 l
332.844 180.877 l
333.169 180.877 l
333.298 192.235 l
333.363 192.235 l
333.492 193.392 l
333.557 193.392 l
333.752 198.197 l
333.816 198.197 l
333.946 198.033 l
334.205 198.033 l
334.334 200.411 l
334.66 200.411 l
334.79 196.136 l
335.306 196.073 l
335.435 195.234 l
335.759 195.234 l
335.889 197.552 l
336.213 197.552 l
336.342 201.748 l
336.624 201.748 l
336.731 202.69 l
337.055 202.69 l
337.184 211.705 l
337.508 211.705 l
337.637 207.578 l
337.897 207.578 l
338.026 205.31 l
338.544 205.31 l
338.674 201.049 l
338.998 201.049 l
339.128 199.191 l
339.193 199.191 l
339.321 205.965 l
339.646 205.965 l
339.775 202.984 l
339.84 202.984 l
339.969 199.395 l
340.293 199.395 l
340.422 195.682 l
340.746 195.682 l
340.876 195.235 l
340.941 195.235 l
341.07 195.709 l
341.135 195.709 l
341.265 196.026 l
341.394 196.026 l
341.524 193.301 l
341.588 193.301 l
341.718 196.454 l
342.042 196.454 l
342.171 194.174 l
342.43 194.174 l
342.56 192.275 l
342.884 192.275 l
343.014 189.942 l
343.078 189.942 l
343.207 190.81 l
343.337 190.81 l
343.467 186.552 l
343.725 186.552 l
343.855 190.164 l
344.18 190.164 l
344.308 198.075 l
344.568 198.075 l
344.762 194.586 l
345.021 194.586 l
345.15 189.985 l
345.474 189.985 l
345.603 194.041 l
345.94 194.041 l
346.057 196.457 l
346.382 196.457 l
346.511 197.689 l
346.579 197.689 l
346.705 190.43 l
346.963 190.43 l
347.094 187.08 l
347.418 187.08 l
347.547 188.377 l
347.612 188.377 l
347.742 189.503 l
347.871 189.503 l
348 188.12 l
348.259 188.12 l
348.389 193.932 l
348.713 193.932 l
348.842 194.607 l
349.167 194.607 l
349.296 192.003 l
349.557 192.003 l
349.684 193.823 l
350.008 193.823 l
350.138 190.474 l
350.461 190.474 l
350.591 186.553 l
350.658 186.553 l
350.785 198.533 l
351.109 198.533 l
351.239 203.175 l
351.757 203.175 l
351.886 201.137 l
352.145 201.137 l
352.275 198.363 l
352.405 198.363 l
352.534 196.451 l
352.793 196.405 l
352.922 194.436 l
353.053 194.436 l
353.181 195.979 l
353.246 195.979 l
353.376 198.65 l
353.7 198.65 l
353.83 202.731 l
353.894 202.731 l
354.024 203.929 l
354.348 203.929 l
354.48 201.552 l
354.542 201.552 l
354.671 191.965 l
354.996 191.965 l
355.125 188.239 l
355.449 188.239 l
355.578 188.473 l
355.837 188.473 l
355.968 186.459 l
356.485 186.414 l
356.614 181.887 l
356.744 181.887 l
356.874 185.421 l
357.132 185.421 l
357.262 196.686 l
357.586 196.686 l
357.717 196.132 l
357.78 196.132 l
357.91 202.027 l
358.234 202.027 l
358.363 191.986 l
358.428 191.986 l
358.622 188.692 l
358.882 188.692 l
359.011 191.153 l
359.076 191.153 l
359.206 188.975 l
359.529 188.975 l
359.658 185.724 l
359.917 185.724 l
360.047 215.756 l
360.177 215.756 l
360.306 197.604 l
360.371 197.604 l
360.501 165.309 l
360.631 165.309 l
360.759 146.324 l
361.472 146.433 l
361.601 205.601 l
361.667 205.601 l
361.796 204.795 l
362.12 204.795 l
362.25 202.549 l
362.313 202.549 l
362.443 197.311 l
362.769 197.311 l
362.897 197.612 l
363.221 197.612 l
363.35 198.849 l
363.416 198.849 l
363.545 189.708 l
363.803 189.708 l
363.933 170.749 l
364.451 170.749 l
364.581 182.966 l
364.907 182.966 l
365.034 210.071 l
365.358 210.071 l
365.488 195.26 l
365.815 195.26 l
365.941 197.889 l
366.006 197.889 l
366.135 191.747 l
366.461 191.747 l
366.589 193.845 l
366.913 193.849 l
367.042 186.353 l
367.301 186.353 l
367.431 181.623 l
367.497 181.623 l
367.625 184.201 l
367.951 184.201 l
368.078 191.463 l
368.143 191.463 l
368.273 195.011 l
368.406 195.011 l
368.531 189.773 l
368.597 189.773 l
368.726 184.93 l
368.791 184.93 l
368.92 187.362 l
369.244 187.362 l
369.374 192.587 l
369.699 192.587 l
369.827 198.884 l
369.916 198.884 l
370.021 196.026 l
370.351 196.026 l
370.475 192.241 l
370.54 192.241 l
370.669 193.715 l
370.734 193.715 l
370.928 193.075 l
371.005 193.075 l
371.122 195.065 l
371.381 195.065 l
371.511 199.951 l
371.835 199.951 l
371.965 204.908 l
372.029 204.908 l
372.158 210.625 l
372.289 210.625 l
372.418 213.426 l
372.507 213.426 l
372.613 216.623 l
372.936 216.623 l
373.066 216.382 l
373.325 216.382 l
373.454 211.131 l
373.781 211.131 l
373.907 214.452 l
373.972 214.452 l
374.102 215.488 l
374.426 215.488 l
374.555 212.554 l
375.074 212.476 l
375.203 213.213 l
375.527 213.213 l
375.657 214.358 l
375.98 214.358 l
376.109 216.461 l
376.369 216.461 l
376.498 216.199 l
376.822 216.199 l
376.952 219.691 l
377.016 219.691 l
377.146 218.99 l
377.664 218.99 l
377.794 218.116 l
377.923 218.116 l
378.052 211.964 l
378.313 211.964 l
378.442 209.191 l
378.766 209.191 l
378.894 207.298 l
379.218 207.298 l
379.348 204.662 l
379.609 204.662 l
379.737 213.388 l
380.06 213.388 l
380.19 213.018 l
380.514 213.018 l
380.644 206.199 l
380.902 206.199 l
381.032 207.032 l
381.162 207.032 l
381.291 208.108 l
381.55 208.108 l
381.681 207.415 l
382.004 207.415 l
382.133 208.865 l
382.457 208.865 l
382.587 217.02 l
382.845 217.02 l
382.975 221.618 l
383.299 221.618 l
383.428 222.022 l
383.493 222.022 l
383.623 224.889 l
383.947 224.889 l
384.076 233.379 l
384.207 233.379 l
384.335 242.336 l
384.613 242.336 l
384.723 234.126 l
385.048 234.126 l
385.178 230.718 l
385.436 230.718 l
385.565 225.77 l
385.695 225.77 l
385.824 221.678 l
386.149 221.678 l
386.278 218.553 l
386.538 218.553 l
386.667 208.007 l
386.991 208.007 l
387.12 202.945 l
387.379 202.945 l
387.508 207.98 l
387.833 207.98 l
387.962 217.038 l
388.287 217.038 l
388.416 227.287 l
388.675 227.287 l
388.804 227.745 l
389.128 227.745 l
389.257 227.334 l
389.581 227.334 l
389.711 224.733 l
389.971 224.733 l
390.1 224.928 l
390.423 224.928 l
390.553 222.631 l
391.071 222.558 l
391.2 223.274 l
391.333 223.274 l
391.46 223.019 l
391.718 223.019 l
391.848 222.895 l
392.172 222.895 l
392.302 221.649 l
392.56 221.649 l
392.69 217.086 l
393.014 217.086 l
393.143 216.561 l
393.467 216.561 l
393.597 215.049 l
393.855 215.049 l
393.997 217.2 l
394.309 217.2 l
394.439 216.451 l
394.957 216.451 l
395.087 214.672 l
395.41 214.672 l
395.541 214.162 l
396.058 214.136 l
396.187 215.746 l
396.252 215.746 l
396.382 217.487 l
396.706 217.487 l
396.835 217.043 l
397.094 217.043 l
397.224 221.596 l
397.483 221.634 l
397.548 221.634 l
397.677 220.244 l
397.742 220.244 l
397.872 219.358 l
398.194 219.358 l
398.325 220.165 l
398.649 220.165 l
398.779 212.83 l
399.037 212.83 l
399.167 221.088 l
399.297 221.088 l
399.426 217.415 l
399.75 217.415 l
399.879 219.492 l
399.944 219.492 l
400.074 217.36 l
400.398 217.36 l
400.527 215.72 l
400.786 215.72 l
400.915 217.466 l
401.434 217.428 l
401.628 215.56 l
401.758 215.303 l
402.082 215.311 l
402.275 211.323 l
402.56 211.323 l
402.665 210.147 l
402.923 210.147 l
403.053 204.587 l
403.376 204.587 l
403.506 212.464 l
403.57 212.464 l
403.7 213.998 l
404.026 213.998 l
404.154 214.317 l
404.485 214.317 l
404.608 215.472 l
404.867 215.472 l
404.996 216.264 l
405.126 216.264 l
405.255 215.756 l
405.514 215.756 l
405.644 219.9 l
405.968 219.9 l
406.097 222.16 l
406.421 222.16 l
406.55 221.647 l
406.874 221.647 l
407.004 222.292 l
407.263 222.292 l
407.457 222.114 l
407.522 222.114 l
407.651 223.087 l
407.717 223.087 l
407.846 220.47 l
408.173 220.47 l
408.299 221.255 l
408.364 221.255 l
408.493 220.057 l
408.818 220.057 l
408.947 217.822 l
409.206 217.822 l
409.335 217.238 l
409.66 217.238 l
409.789 214.54 l
409.855 214.54 l
409.983 213.04 l
410.113 213.04 l
410.242 208.728 l
410.307 208.728 l
410.436 208.244 l
410.566 208.244 l
410.696 204.2 l
410.955 204.2 l
411.085 208.849 l
411.408 208.849 l
411.537 213.008 l
411.801 213.008 l
411.926 214.98 l
412.25 214.98 l
412.379 215.594 l
412.445 215.594 l
412.574 212.33 l
412.898 212.33 l
413.027 207.478 l
413.092 207.478 l
413.222 210.363 l
413.546 210.363 l
413.675 208.484 l
413.804 208.484 l
413.934 214.37 l
414.453 214.37 l
414.582 213.395 l
414.647 213.395 l
414.776 213.686 l
415.1 213.686 l
415.229 214.583 l
415.294 214.583 l
415.424 217.161 l
415.489 217.161 l
415.618 216.926 l
415.748 216.926 l
415.877 217.482 l
416.136 217.482 l
416.266 227.689 l
416.59 227.689 l
416.719 222.051 l
416.784 222.051 l
416.913 219.514 l
417.237 219.514 l
417.367 220.36 l
417.691 220.36 l
417.821 219.882 l
418.079 219.882 l
418.209 223.589 l
418.532 223.589 l
418.662 220.216 l
418.986 220.216 l
419.115 217.671 l
419.378 217.671 l
419.504 216.887 l
419.828 216.887 l
419.958 215.524 l
420.67 215.57 l
420.799 214.459 l
421.124 214.459 l
421.253 213.771 l
421.577 213.771 l
421.706 213.003 l
421.965 213.003 l
422.095 213.512 l
422.613 213.512 l
422.742 214.061 l
423.067 214.061 l
423.196 215.354 l
423.52 215.354 l
423.649 211.34 l
423.908 211.34 l
424.037 198.567 l
424.362 198.567 l
424.491 204.404 l
424.556 204.404 l
424.751 204.658 l
425.009 204.658 l
425.139 212.502 l
425.204 212.502 l
425.333 216.78 l
425.851 216.67 l
425.98 212.543 l
426.305 212.543 l
426.434 212.725 l
426.758 212.725 l
426.888 211.942 l
427.212 211.942 l
427.341 210.498 l
427.6 210.498 l
427.73 214.159 l
428.053 214.159 l
428.183 214.392 l
428.443 214.392 l
428.571 216.99 l
428.702 216.99 l
428.83 217.421 l
429.089 217.421 l
429.219 220.467 l
429.543 220.467 l
429.673 219.351 l
429.738 219.351 l
429.867 217.653 l
430.19 217.653 l
430.32 217.005 l
430.385 217.005 l
430.514 218.387 l
430.644 218.387 l
430.775 219.444 l
431.033 219.444 l
431.162 219.843 l
431.486 219.843 l
431.615 215.288 l
431.94 215.288 l
432.069 214.538 l
432.328 214.538 l
432.458 214.938 l
432.781 214.938 l
432.911 213.555 l
433.235 213.555 l
433.365 217.711 l
433.623 217.711 l
433.753 217.17 l
434.077 217.17 l
434.207 218.242 l
435.178 218.279 l
435.307 220.617 l
435.373 220.617 l
435.502 220.336 l
436.02 220.336 l
436.149 216.49 l
436.214 216.49 l
436.344 215.402 l
436.667 215.402 l
436.797 215.244 l
437.121 215.244 l
437.251 216.825 l
437.509 216.825 l
437.639 215.858 l
437.963 215.858 l
438.093 212.245 l
438.157 212.245 l
438.287 218.615 l
438.416 218.615 l
438.546 222.043 l
438.611 222.043 l
438.74 219.848 l
439.065 219.848 l
439.193 219.707 l
439.258 219.707 l
439.388 217.003 l
440.1 217.026 l
440.25 220.275 l
440.386 220.275 l
440.488 219.577 l
440.748 219.577 l
440.878 220.549 l
441.007 220.549 l
441.137 220.381 l
441.234 220.381 l
441.331 219.32 l
441.655 219.32 l
441.784 216.134 l
441.849 216.134 l
442.043 215.597 l
442.108 215.597 l
442.237 216.574 l
442.951 216.592 l
443.08 217.093 l
443.598 217.093 l
443.727 217.802 l
443.996 217.802 l
444.116 221.879 l
444.442 221.879 l
444.57 221.219 l
444.895 221.219 l
445.023 219.886 l
445.088 219.886 l
445.217 218.61 l
445.346 218.61 l
445.476 203.506 l
445.541 203.506 l
445.672 200.916 l
445.994 200.916 l
446.124 189.195 l
446.383 189.195 l
446.513 171.836 l
446.836 171.836 l
446.965 146.855 l
447.03 146.855 l
447.16 132.541 l
447.289 132.541 l
447.419 127.604 l
447.678 127.604 l
447.807 121.474 l
448.16 121.474 l
448.261 107.264 l
448.585 107.264 l
448.715 91.7294 l
448.781 91.7294 l
448.908 88.203 l
448.974 88.203 l
449.103 82.6514 l
449.427 82.6514 l
449.556 82.8853 l
449.88 82.8853 l
450.009 77.0432 l
450.269 77.0432 l
450.398 61.7444 l
450.528 61.7444 l
450.657 61.0572 l
450.722 61.0572 l
450.852 60.3092 l
451.175 60.3092 l
451.305 48.2696 l
451.565 48.2696 l
451.694 60.2638 l
452.018 60.2638 l
452.147 46.5051 l
452.212 46.5051 l
452.342 53.0009 l
452.473 53.0009 l
452.601 60.4427 l
452.859 60.4427 l
452.989 66.3345 l
453.313 66.3345 l
453.442 175.295 l
453.572 175.295 l
453.701 175.974 l
453.766 175.974 l
453.896 180.191 l
505.451 180.191 l
505.451 180.191 l
stroke
grestore
0.000 0.000 1.000 setrgbcolor
gsave
453.4 225.7 73.12 41.56 clipbox
73.125 141.89 m
152.66 141.89 l
153.503 161.22 l
154.215 172.547 l
154.928 180.65 l
155.641 186.445 l
156.352 190.591 l
157.065 193.556 l
157.777 195.677 l
158.555 197.309 l
159.332 198.441 l
160.174 199.28 l
161.793 200.2 l
163.088 200.568 l
164.836 200.814 l
167.558 200.953 l
172.998 201.003 l
173.84 192.093 l
174.552 186.873 l
175.265 183.138 l
175.977 180.467 l
176.755 178.412 l
177.531 176.986 l
178.373 175.93 l
179.28 175.175 l
180.252 174.654 l
181.483 174.259 l
183.102 173.99 l
185.563 173.829 l
190.679 173.762 l
221.574 173.755 l
234.462 173.755 l
235.304 171.994 l
236.082 170.885 l
236.924 170.062 l
237.895 169.441 l
238.996 169.008 l
240.421 168.696 l
242.493 168.493 l
246.121 168.392 l
259.916 168.37 l
310.888 168.37 l
311.73 179.99 l
312.443 186.8 l
313.155 191.671 l
313.867 195.155 l
314.645 197.836 l
315.422 199.695 l
316.199 200.986 l
317.365 202.22 l
318.337 202.839 l
319.438 203.272 l
320.862 203.583 l
322.936 203.787 l
326.691 203.889 l
340.487 203.91 l
380.319 203.91 l
381.096 206.849 l
381.874 208.888 l
382.651 210.303 l
383.493 211.352 l
384.465 212.143 l
385.501 212.67 l
386.732 213.039 l
388.416 213.297 l
391.071 213.449 l
397.289 213.507 l
456.423 213.51 l
459.012 213.51 l
459.855 197.605 l
460.567 188.285 l
461.279 181.618 l
461.993 176.849 l
462.704 173.438 l
463.417 170.998 l
464.194 169.121 l
464.971 167.818 l
465.813 166.853 l
466.72 166.164 l
467.756 165.664 l
469.246 165.262 l
471.124 165.03 l
474.298 164.904 l
482.653 164.868 l
505.451 164.867 l
505.451 164.867 l
stroke
grestore
0.500 setlinewidth
0 setlinecap
[1 3] 0 setdash
0.000 setgray
gsave
453.4 225.7 73.12 41.56 clipbox
73.125 41.5627 m
73.125 267.3 l
stroke
grestore
[] 0 setdash
gsave
/o {
gsave
newpath
translate
0.5 setlinewidth
1 setlinejoin
0 setlinecap
0 0 m
0 4 l
gsave
0.000 setgray
fill
grestore
stroke
grestore
} bind def
73.125 41.5627 o
grestore
gsave
/o {
gsave
newpath
translate
0.5 setlinewidth
1 setlinejoin
0 setlinecap
0 0 m
0 -4 l
gsave
0.000 setgray
fill
grestore
stroke
grestore
} bind def
73.125 267.3 o
grestore
/DejaVuSans findfont
12.000 scalefont
setfont
gsave
70.101562 28.484557 translate
0.000000 rotate
0.000000 0.171875 m /zero glyphshow
grestore
[1 3] 0 setdash
gsave
453.4 225.7 73.12 41.56 clipbox
137.893 41.5627 m
137.893 267.3 l
stroke
grestore
[] 0 setdash
gsave
/o {
gsave
newpath
translate
0.5 setlinewidth
1 setlinejoin
0 setlinecap
0 0 m
0 4 l
gsave
0.000 setgray
fill
grestore
stroke
grestore
} bind def
137.893 41.5627 o
grestore
gsave
/o {
gsave
newpath
translate
0.5 setlinewidth
1 setlinejoin
0 setlinecap
0 0 m
0 -4 l
gsave
0.000 setgray
fill
grestore
stroke
grestore
} bind def
137.893 267.3 o
grestore
gsave
131.306920 28.484557 translate
0.000000 rotate
0.000000 0.171875 m /one glyphshow
7.634766 0.171875 m /zero glyphshow
grestore
[1 3] 0 setdash
gsave
453.4 225.7 73.12 41.56 clipbox
202.661 41.5627 m
202.661 267.3 l
stroke
grestore
[] 0 setdash
gsave
/o {
gsave
newpath
translate
0.5 setlinewidth
1 setlinejoin
0 setlinecap
0 0 m
0 4 l
gsave
0.000 setgray
fill
grestore
stroke
grestore
} bind def
202.661 41.5627 o
grestore
gsave
/o {
gsave
newpath
translate
0.5 setlinewidth
1 setlinejoin
0 setlinecap
0 0 m
0 -4 l
gsave
0.000 setgray
fill
grestore
stroke
grestore
} bind def
202.661 267.3 o
grestore
gsave
195.856027 28.484557 translate
0.000000 rotate
0.000000 0.171875 m /two glyphshow
7.634766 0.171875 m /zero glyphshow
grestore
[1 3] 0 setdash
gsave
453.4 225.7 73.12 41.56 clipbox
267.429 41.5627 m
267.429 267.3 l
stroke
grestore
[] 0 setdash
gsave
/o {
gsave
newpath
translate
0.5 setlinewidth
1 setlinejoin
0 setlinecap
0 0 m
0 4 l
gsave
0.000 setgray
fill
grestore
stroke
grestore
} bind def
267.429 41.5627 o
grestore
gsave
/o {
gsave
newpath
translate
0.5 setlinewidth
1 setlinejoin
0 setlinecap
0 0 m
0 -4 l
gsave
0.000 setgray
fill
grestore
stroke
grestore
} bind def
267.429 267.3 o
grestore
gsave
260.647321 28.484557 translate
0.000000 rotate
0.000000 0.171875 m /three glyphshow
7.634766 0.171875 m /zero glyphshow
grestore
[1 3] 0 setdash
gsave
453.4 225.7 73.12 41.56 clipbox
332.196 41.5627 m
332.196 267.3 l
stroke
grestore
[] 0 setdash
gsave
/o {
gsave
newpath
translate
0.5 setlinewidth
1 setlinejoin
0 setlinecap
0 0 m
0 4 l
gsave
0.000 setgray
fill
grestore
stroke
grestore
} bind def
332.196 41.5627 o
grestore
gsave
/o {
gsave
newpath
translate
0.5 setlinewidth
1 setlinejoin
0 setlinecap
0 0 m
0 -4 l
gsave
0.000 setgray
fill
grestore
stroke
grestore
} bind def
332.196 267.3 o
grestore
gsave
325.251116 28.484557 translate
0.000000 rotate
0.000000 0.171875 m /four glyphshow
7.634766 0.171875 m /zero glyphshow
grestore
[1 3] 0 setdash
gsave
453.4 225.7 73.12 41.56 clipbox
396.964 41.5627 m
396.964 267.3 l
stroke
grestore
[] 0 setdash
gsave
/o {
gsave
newpath
translate
0.5 setlinewidth
1 setlinejoin
0 setlinecap
0 0 m
0 4 l
gsave
0.000 setgray
fill
grestore
stroke
grestore
} bind def
396.964 41.5627 o
grestore
gsave
/o {
gsave
newpath
translate
0.5 setlinewidth
1 setlinejoin
0 setlinecap
0 0 m
0 -4 l
gsave
0.000 setgray
fill
grestore
stroke
grestore
} bind def
396.964 267.3 o
grestore
gsave
390.183036 28.484557 translate
0.000000 rotate
0.000000 0.171875 m /five glyphshow
7.634766 0.171875 m /zero glyphshow
grestore
[1 3] 0 setdash
gsave
453.4 225.7 73.12 41.56 clipbox
461.732 41.5627 m
461.732 267.3 l
stroke
grestore
[] 0 setdash
gsave
/o {
gsave
newpath
translate
0.5 setlinewidth
1 setlinejoin
0 setlinecap
0 0 m
0 4 l
gsave
0.000 setgray
fill
grestore
stroke
grestore
} bind def
461.732 41.5627 o
grestore
gsave
/o {
gsave
newpath
translate
0.5 setlinewidth
1 setlinejoin
0 setlinecap
0 0 m
0 -4 l
gsave
0.000 setgray
fill
grestore
stroke
grestore
} bind def
461.732 267.3 o
grestore
gsave
454.911830 28.484557 translate
0.000000 rotate
0.000000 0.171875 m /six glyphshow
7.634766 0.171875 m /zero glyphshow
grestore
[1 3] 0 setdash
gsave
453.4 225.7 73.12 41.56 clipbox
526.5 41.5627 m
526.5 267.3 l
stroke
grestore
[] 0 setdash
gsave
/o {
gsave
newpath
translate
0.5 setlinewidth
1 setlinejoin
0 setlinecap
0 0 m
0 4 l
gsave
0.000 setgray
fill
grestore
stroke
grestore
} bind def
526.5 41.5627 o
grestore
gsave
/o {
gsave
newpath
translate
0.5 setlinewidth
1 setlinejoin
0 setlinecap
0 0 m
0 -4 l
gsave
0.000 setgray
fill
grestore
stroke
grestore
} bind def
526.5 267.3 o
grestore
gsave
519.750000 28.484557 translate
0.000000 rotate
0.000000 0.171875 m /seven glyphshow
7.634766 0.171875 m /zero glyphshow
grestore
/DejaVuSans findfont
18.000 scalefont
setfont
gsave
265.671875 7.437682 translate
0.000000 rotate
0.000000 2.375000 m /t glyphshow
7.057617 2.375000 m /i glyphshow
12.058594 2.375000 m /m glyphshow
29.592773 2.375000 m /e glyphshow
40.666992 2.375000 m /space glyphshow
46.388672 2.375000 m /bracketleft glyphshow
53.411133 2.375000 m /s glyphshow
62.789062 2.375000 m /bracketright glyphshow
grestore
[1 3] 0 setdash
gsave
453.4 225.7 73.12 41.56 clipbox
73.125 41.5627 m
526.5 41.5627 l
stroke
grestore
[] 0 setdash
gsave
/o {
gsave
newpath
translate
0.5 setlinewidth
1 setlinejoin
0 setlinecap
0 0 m
4 0 l
gsave
0.000 setgray
fill
grestore
stroke
grestore
} bind def
73.125 41.5627 o
grestore
gsave
/o {
gsave
newpath
translate
0.5 setlinewidth
1 setlinejoin
0 setlinecap
0 0 m
-4 0 l
gsave
0.000 setgray
fill
grestore
stroke
grestore
} bind def
526.5 41.5627 o
grestore
/DejaVuSans findfont
12.000 scalefont
setfont
gsave
42.062500 37.023620 translate
0.000000 rotate
0.000000 0.171875 m /minus glyphshow
10.054688 0.171875 m /zero glyphshow
17.689453 0.171875 m /period glyphshow
21.503906 0.171875 m /eight glyphshow
grestore
[1 3] 0 setdash
gsave
453.4 225.7 73.12 41.56 clipbox
73.125 66.6446 m
526.5 66.6446 l
stroke
grestore
[] 0 setdash
gsave
/o {
gsave
newpath
translate
0.5 setlinewidth
1 setlinejoin
0 setlinecap
0 0 m
4 0 l
gsave
0.000 setgray
fill
grestore
stroke
grestore
} bind def
73.125 66.6446 o
grestore
gsave
/o {
gsave
newpath
translate
0.5 setlinewidth
1 setlinejoin
0 setlinecap
0 0 m
-4 0 l
gsave
0.000 setgray
fill
grestore
stroke
grestore
} bind def
526.5 66.6446 o
grestore
gsave
42.000000 62.105544 translate
0.000000 rotate
0.000000 0.171875 m /minus glyphshow
10.054688 0.171875 m /zero glyphshow
17.689453 0.171875 m /period glyphshow
21.503906 0.171875 m /six glyphshow
grestore
[1 3] 0 setdash
gsave
453.4 225.7 73.12 41.56 clipbox
73.125 91.7265 m
526.5 91.7265 l
stroke
grestore
[] 0 setdash
gsave
/o {
gsave
newpath
translate
0.5 setlinewidth
1 setlinejoin
0 setlinecap
0 0 m
4 0 l
gsave
0.000 setgray
fill
grestore
stroke
grestore
} bind def
73.125 91.7265 o
grestore
gsave
/o {
gsave
newpath
translate
0.5 setlinewidth
1 setlinejoin
0 setlinecap
0 0 m
-4 0 l
gsave
0.000 setgray
fill
grestore
stroke
grestore
} bind def
526.5 91.7265 o
grestore
gsave
41.906250 87.187468 translate
0.000000 rotate
0.000000 0.171875 m /minus glyphshow
10.054688 0.171875 m /zero glyphshow
17.689453 0.171875 m /period glyphshow
21.503906 0.171875 m /four glyphshow
grestore
[1 3] 0 setdash
gsave
453.4 225.7 73.12 41.56 clipbox
73.125 116.808 m
526.5 116.808 l
stroke
grestore
[] 0 setdash
gsave
/o {
gsave
newpath
translate
0.5 setlinewidth
1 setlinejoin
0 setlinecap
0 0 m
4 0 l
gsave
0.000 setgray
fill
grestore
stroke
grestore
} bind def
73.125 116.808 o
grestore
gsave
/o {
gsave
newpath
translate
0.5 setlinewidth
1 setlinejoin
0 setlinecap
0 0 m
-4 0 l
gsave
0.000 setgray
fill
grestore
stroke
grestore
} bind def
526.5 116.808 o
grestore
gsave
42.437500 112.269392 translate
0.000000 rotate
0.000000 0.171875 m /minus glyphshow
10.054688 0.171875 m /zero glyphshow
17.689453 0.171875 m /period glyphshow
21.503906 0.171875 m /two glyphshow
grestore
[1 3] 0 setdash
gsave
453.4 225.7 73.12 41.56 clipbox
73.125 141.89 m
526.5 141.89 l
stroke
grestore
[] 0 setdash
gsave
/o {
gsave
newpath
translate
0.5 setlinewidth
1 setlinejoin
0 setlinecap
0 0 m
4 0 l
gsave
0.000 setgray
fill
grestore
stroke
grestore
} bind def
73.125 141.89 o
grestore
gsave
/o {
gsave
newpath
translate
0.5 setlinewidth
1 setlinejoin
0 setlinecap
0 0 m
-4 0 l
gsave
0.000 setgray
fill
grestore
stroke
grestore
} bind def
526.5 141.89 o
grestore
gsave
51.625000 137.351317 translate
0.000000 rotate
0.000000 0.171875 m /zero glyphshow
7.634766 0.171875 m /period glyphshow
11.449219 0.171875 m /zero glyphshow
grestore
[1 3] 0 setdash
gsave
453.4 225.7 73.12 41.56 clipbox
73.125 166.972 m
526.5 166.972 l
stroke
grestore
[] 0 setdash
gsave
/o {
gsave
newpath
translate
0.5 setlinewidth
1 setlinejoin
0 setlinecap
0 0 m
4 0 l
gsave
0.000 setgray
fill
grestore
stroke
grestore
} bind def
73.125 166.972 o
grestore
gsave
/o {
gsave
newpath
translate
0.5 setlinewidth
1 setlinejoin
0 setlinecap
0 0 m
-4 0 l
gsave
0.000 setgray
fill
grestore
stroke
grestore
} bind def
526.5 166.972 o
grestore
gsave
52.031250 162.433241 translate
0.000000 rotate
0.000000 0.171875 m /zero glyphshow
7.634766 0.171875 m /period glyphshow
11.449219 0.171875 m /two glyphshow
grestore
[1 3] 0 setdash
gsave
453.4 225.7 73.12 41.56 clipbox
73.125 192.054 m
526.5 192.054 l
stroke
grestore
[] 0 setdash
gsave
/o {
gsave
newpath
translate
0.5 setlinewidth
1 setlinejoin
0 setlinecap
0 0 m
4 0 l
gsave
0.000 setgray
fill
grestore
stroke
grestore
} bind def
73.125 192.054 o
grestore
gsave
/o {
gsave
newpath
translate
0.5 setlinewidth
1 setlinejoin
0 setlinecap
0 0 m
-4 0 l
gsave
0.000 setgray
fill
grestore
stroke
grestore
} bind def
526.5 192.054 o
grestore
gsave
51.500000 187.515165 translate
0.000000 rotate
0.000000 0.171875 m /zero glyphshow
7.634766 0.171875 m /period glyphshow
11.449219 0.171875 m /four glyphshow
grestore
[1 3] 0 setdash
gsave
453.4 225.7 73.12 41.56 clipbox
73.125 217.136 m
526.5 217.136 l
stroke
grestore
[] 0 setdash
gsave
/o {
gsave
newpath
translate
0.5 setlinewidth
1 setlinejoin
0 setlinecap
0 0 m
4 0 l
gsave
0.000 setgray
fill
grestore
stroke
grestore
} bind def
73.125 217.136 o
grestore
gsave
/o {
gsave
newpath
translate
0.5 setlinewidth
1 setlinejoin
0 setlinecap
0 0 m
-4 0 l
gsave
0.000 setgray
fill
grestore
stroke
grestore
} bind def
526.5 217.136 o
grestore
gsave
51.593750 212.597089 translate
0.000000 rotate
0.000000 0.171875 m /zero glyphshow
7.634766 0.171875 m /period glyphshow
11.449219 0.171875 m /six glyphshow
grestore
[1 3] 0 setdash
gsave
453.4 225.7 73.12 41.56 clipbox
73.125 242.218 m
526.5 242.218 l
stroke
grestore
[] 0 setdash
gsave
/o {
gsave
newpath
translate
0.5 setlinewidth
1 setlinejoin
0 setlinecap
0 0 m
4 0 l
gsave
0.000 setgray
fill
grestore
stroke
grestore
} bind def
73.125 242.218 o
grestore
gsave
/o {
gsave
newpath
translate
0.5 setlinewidth
1 setlinejoin
0 setlinecap
0 0 m
-4 0 l
gsave
0.000 setgray
fill
grestore
stroke
grestore
} bind def
526.5 242.218 o
grestore
gsave
51.656250 237.679013 translate
0.000000 rotate
0.000000 0.171875 m /zero glyphshow
7.634766 0.171875 m /period glyphshow
11.449219 0.171875 m /eight glyphshow
grestore
[1 3] 0 setdash
gsave
453.4 225.7 73.12 41.56 clipbox
73.125 267.3 m
526.5 267.3 l
stroke
grestore
[] 0 setdash
gsave
/o {
gsave
newpath
translate
0.5 setlinewidth
1 setlinejoin
0 setlinecap
0 0 m
4 0 l
gsave
0.000 setgray
fill
grestore
stroke
grestore
} bind def
73.125 267.3 o
grestore
gsave
/o {
gsave
newpath
translate
0.5 setlinewidth
1 setlinejoin
0 setlinecap
0 0 m
-4 0 l
gsave
0.000 setgray
fill
grestore
stroke
grestore
} bind def
526.5 267.3 o
grestore
gsave
52.140625 262.760938 translate
0.000000 rotate
0.000000 0.171875 m /one glyphshow
7.634766 0.171875 m /period glyphshow
11.449219 0.171875 m /zero glyphshow
grestore
gsave
36.906250 130.431341 translate
90.000000 rotate
/Cmmi10 findfont
18.0 scalefont
setfont
0.000000 3.328125 moveto
/x glyphshow

/DejaVuSans findfont
18.0 scalefont
setfont
10.274414 3.328125 moveto
/space glyphshow

15.996094 3.328125 moveto
/bracketleft glyphshow

23.018555 3.328125 moveto
/m glyphshow

40.552734 3.328125 moveto
/bracketright glyphshow


grestore
1.000 setlinewidth
2 setlinecap
gsave
73.125 267.3 m
526.5 267.3 l
stroke
grestore
gsave
526.5 41.5627 m
526.5 267.3 l
stroke
grestore
gsave
73.125 41.5627 m
526.5 41.5627 l
stroke
grestore
gsave
73.125 41.5627 m
73.125 267.3 l
stroke
grestore
/DejaVuSans findfont
24.000 scalefont
setfont
gsave
44.507812 267.300000 translate
0.000000 rotate
0.000000 5.000000 m /G glyphshow
18.597656 5.000000 m /o glyphshow
33.281250 5.000000 m /a glyphshow
47.988281 5.000000 m /l glyphshow
54.656250 5.000000 m /space glyphshow
62.285156 5.000000 m /P glyphshow
75.882812 5.000000 m /o glyphshow
90.566406 5.000000 m /s glyphshow
103.070312 5.000000 m /i glyphshow
109.738281 5.000000 m /t glyphshow
119.148438 5.000000 m /i glyphshow
125.816406 5.000000 m /o glyphshow
140.500000 5.000000 m /n glyphshow
155.710938 5.000000 m /space glyphshow
163.339844 5.000000 m /parenleft glyphshow
172.703125 5.000000 m /x glyphshow
186.906250 5.000000 m /parenright glyphshow
196.269531 5.000000 m /colon glyphshow
204.355469 5.000000 m /space glyphshow
211.984375 5.000000 m /B glyphshow
228.449219 5.000000 m /e glyphshow
243.214844 5.000000 m /f glyphshow
251.664062 5.000000 m /o glyphshow
266.347656 5.000000 m /r glyphshow
275.714844 5.000000 m /e glyphshow
290.480469 5.000000 m /space glyphshow
298.109375 5.000000 m /a glyphshow
312.816406 5.000000 m /n glyphshow
328.027344 5.000000 m /d glyphshow
343.261719 5.000000 m /space glyphshow
350.890625 5.000000 m /A glyphshow
366.433594 5.000000 m /f glyphshow
374.507812 5.000000 m /t glyphshow
383.917969 5.000000 m /e glyphshow
398.683594 5.000000 m /r glyphshow
408.550781 5.000000 m /space glyphshow
416.179688 5.000000 m /F glyphshow
428.234375 5.000000 m /i glyphshow
434.902344 5.000000 m /l glyphshow
441.570312 5.000000 m /t glyphshow
450.980469 5.000000 m /e glyphshow
465.746094 5.000000 m /r glyphshow
475.613281 5.000000 m /i glyphshow
482.281250 5.000000 m /n glyphshow
497.492188 5.000000 m /g glyphshow
grestore
gsave
80.325 48.7627 m
175.165 48.7627 l
175.165 97.6702 l
80.325 97.6702 l
80.325 48.7627 l
cl
gsave
1.000 setgray
fill
grestore
stroke
grestore
1.000 0.000 0.000 setrgbcolor
gsave
90.405 86.3096 m
110.565 86.3096 l
stroke
grestore
0.000 setgray
gsave
126.405000 80.269557 translate
0.000000 rotate
/Cmmi10 findfont
14.4 scalefont
setfont
0.000000 1.640625 moveto
/x glyphshow


grestore
0.000 0.000 1.000 setrgbcolor
gsave
90.405 65.5627 m
110.565 65.5627 l
stroke
grestore
0.000 setgray
gsave
126.405000 54.522682 translate
0.000000 rotate
/Cmmi10 findfont
14.4 scalefont
setfont
0.000000 6.640625 moveto
/x glyphshow

/Cmmi10 findfont
10.08 scalefont
setfont
8.214172 2.967275 moveto
/f glyphshow

13.137756 2.967275 moveto
/i glyphshow

16.605414 2.967275 moveto
/l glyphshow

19.605803 2.967275 moveto
/t glyphshow

23.240695 2.967275 moveto
/e glyphshow

27.923270 2.967275 moveto
/r glyphshow

32.468121 2.967275 moveto
/e glyphshow

37.150696 2.967275 moveto
/d glyphshow


grestore

end
showpage
