%!PS-Adobe-3.0 EPSF-3.0
%%Title: /home/kariya/catkin_ws/src/crazyflieROS/logdata/20140626/x_manual.eps
%%Creator: matplotlib version 1.1.1rc, http://matplotlib.sourceforge.net/
%%CreationDate: Thu Jun 26 12:53:08 2014
%%Orientation: portrait
%%BoundingBox: 13 247 598 544
%%EndComments
%%BeginProlog
/mpldict 9 dict def
mpldict begin
/m { moveto } bind def
/l { lineto } bind def
/r { rlineto } bind def
/c { curveto } bind def
/cl { closepath } bind def
/box {
m
1 index 0 r
0 exch r
neg 0 r
cl
} bind def
/clipbox {
box
clip
newpath
} bind def
%!PS-Adobe-3.0 Resource-Font
%%Title: DejaVu Sans
%%Copyright: Copyright (c) 2003 by Bitstream, Inc. All Rights Reserved. Copyright (c) 2006 by Tavmjong Bah. All Rights Reserved. DejaVu changes are in public domain 
%%Creator: Converted from TrueType to type 3 by PPR
25 dict begin
/_d{bind def}bind def
/_m{moveto}_d
/_l{lineto}_d
/_cl{closepath eofill}_d
/_c{curveto}_d
/_sc{7 -1 roll{setcachedevice}{pop pop pop pop pop pop}ifelse}_d
/_e{exec}_d
/FontName /DejaVuSans def
/PaintType 0 def
/FontMatrix[.001 0 0 .001 0 0]def
/FontBBox[-1021 -415 1681 1167]def
/FontType 3 def
/Encoding [ /space /parenleft /parenright /period /zero /one /two /five /P /bracketleft /bracketright /e /i /m /n /o /s /t /v /x /minus ] def
/FontInfo 10 dict dup begin
/FamilyName (DejaVu Sans) def
/FullName (DejaVu Sans) def
/Notice (Copyright (c) 2003 by Bitstream, Inc. All Rights Reserved. Copyright (c) 2006 by Tavmjong Bah. All Rights Reserved. DejaVu changes are in public domain ) def
/Weight (Book) def
/Version (Version 2.33) def
/ItalicAngle 0.0 def
/isFixedPitch false def
/UnderlinePosition -130 def
/UnderlineThickness 90 def
end readonly def
/CharStrings 21 dict dup begin
/space{318 0 0 0 0 0 _sc
}_d
/parenleft{390 0 86 -131 310 759 _sc
310 759 _m
266 683 234 609 213 536 _c
191 463 181 389 181 314 _c
181 238 191 164 213 91 _c
234 17 266 -56 310 -131 _c
232 -131 _l
183 -54 146 20 122 94 _c
98 168 86 241 86 314 _c
86 386 98 459 122 533 _c
146 607 182 682 232 759 _c
310 759 _l
_cl}_d
/parenright{390 0 80 -131 304 759 _sc
80 759 _m
158 759 _l
206 682 243 607 267 533 _c
291 459 304 386 304 314 _c
304 241 291 168 267 94 _c
243 20 206 -54 158 -131 _c
80 -131 _l
123 -56 155 17 177 91 _c
198 164 209 238 209 314 _c
209 389 198 463 177 536 _c
155 609 123 683 80 759 _c
_cl}_d
/period{318 0 107 0 210 124 _sc
107 124 _m
210 124 _l
210 0 _l
107 0 _l
107 124 _l
_cl}_d
/zero{636 0 66 -13 570 742 _sc
318 664 _m
267 664 229 639 203 589 _c
177 539 165 464 165 364 _c
165 264 177 189 203 139 _c
229 89 267 64 318 64 _c
369 64 407 89 433 139 _c
458 189 471 264 471 364 _c
471 464 458 539 433 589 _c
407 639 369 664 318 664 _c
318 742 _m
399 742 461 709 505 645 _c
548 580 570 486 570 364 _c
570 241 548 147 505 83 _c
461 19 399 -13 318 -13 _c
236 -13 173 19 130 83 _c
87 147 66 241 66 364 _c
66 486 87 580 130 645 _c
173 709 236 742 318 742 _c
_cl}_d
/one{636 0 110 0 544 729 _sc
124 83 _m
285 83 _l
285 639 _l
110 604 _l
110 694 _l
284 729 _l
383 729 _l
383 83 _l
544 83 _l
544 0 _l
124 0 _l
124 83 _l
_cl}_d
/two{{636 0 73 0 536 742 _sc
192 83 _m
536 83 _l
536 0 _l
73 0 _l
73 83 _l
110 121 161 173 226 239 _c
290 304 331 346 348 365 _c
380 400 402 430 414 455 _c
426 479 433 504 433 528 _c
433 566 419 598 392 622 _c
365 646 330 659 286 659 _c
255 659 222 653 188 643 _c
154 632 117 616 78 594 _c
78 694 _l
118 710 155 722 189 730 _c
223 738 255 742 284 742 _c
359 742 419 723 464 685 _c
509 647 532 597 532 534 _c
532 504 526 475 515 449 _c
504 422 484 390 454 354 _c
446 344 420 317 376 272 _c
332 227 271 164 192 83 _c
_cl}_e}_d
/five{{636 0 77 -13 549 729 _sc
108 729 _m
495 729 _l
495 646 _l
198 646 _l
198 467 _l
212 472 227 476 241 478 _c
255 480 270 482 284 482 _c
365 482 429 459 477 415 _c
525 370 549 310 549 234 _c
549 155 524 94 475 51 _c
426 8 357 -13 269 -13 _c
238 -13 207 -10 175 -6 _c
143 -1 111 6 77 17 _c
77 116 _l
106 100 136 88 168 80 _c
199 72 232 69 267 69 _c
323 69 368 83 401 113 _c
433 143 450 183 450 234 _c
450 284 433 324 401 354 _c
368 384 323 399 267 399 _c
241 399 214 396 188 390 _c
162 384 135 375 108 363 _c
108 729 _l
_cl}_e}_d
/P{603 0 98 0 569 729 _sc
197 648 _m
197 374 _l
321 374 _l
367 374 402 385 427 409 _c
452 433 465 467 465 511 _c
465 555 452 588 427 612 _c
402 636 367 648 321 648 _c
197 648 _l
98 729 _m
321 729 _l
402 729 464 710 506 673 _c
548 636 569 582 569 511 _c
569 439 548 384 506 348 _c
464 311 402 293 321 293 _c
197 293 _l
197 0 _l
98 0 _l
98 729 _l
_cl}_d
/bracketleft{390 0 86 -131 293 760 _sc
86 760 _m
293 760 _l
293 690 _l
176 690 _l
176 -61 _l
293 -61 _l
293 -131 _l
86 -131 _l
86 760 _l
_cl}_d
/bracketright{390 0 97 -131 304 760 _sc
304 760 _m
304 -131 _l
97 -131 _l
97 -61 _l
214 -61 _l
214 690 _l
97 690 _l
97 760 _l
304 760 _l
_cl}_d
/e{{615 0 55 -13 562 560 _sc
562 296 _m
562 252 _l
149 252 _l
153 190 171 142 205 110 _c
238 78 284 62 344 62 _c
378 62 412 66 444 74 _c
476 82 509 95 541 113 _c
541 28 _l
509 14 476 3 442 -3 _c
408 -9 373 -13 339 -13 _c
251 -13 182 12 131 62 _c
80 112 55 181 55 268 _c
55 357 79 428 127 481 _c
175 533 241 560 323 560 _c
397 560 455 536 498 489 _c
540 441 562 377 562 296 _c
472 322 _m
471 371 457 410 431 440 _c
404 469 368 484 324 484 _c
274 484 234 469 204 441 _c
174 413 156 373 152 322 _c
472 322 _l
_cl}_e}_d
/i{278 0 94 0 184 760 _sc
94 547 _m
184 547 _l
184 0 _l
94 0 _l
94 547 _l
94 760 _m
184 760 _l
184 646 _l
94 646 _l
94 760 _l
_cl}_d
/m{{974 0 91 0 889 560 _sc
520 442 _m
542 482 569 511 600 531 _c
631 550 668 560 711 560 _c
767 560 811 540 842 500 _c
873 460 889 403 889 330 _c
889 0 _l
799 0 _l
799 327 _l
799 379 789 418 771 444 _c
752 469 724 482 686 482 _c
639 482 602 466 575 435 _c
548 404 535 362 535 309 _c
535 0 _l
445 0 _l
445 327 _l
445 379 435 418 417 444 _c
398 469 369 482 331 482 _c
285 482 248 466 221 435 _c
194 404 181 362 181 309 _c
181 0 _l
91 0 _l
91 547 _l
181 547 _l
181 462 _l
201 495 226 520 255 536 _c
283 552 317 560 357 560 _c
397 560 430 550 458 530 _c
486 510 506 480 520 442 _c
}_e{_cl}_e}_d
/n{634 0 91 0 549 560 _sc
549 330 _m
549 0 _l
459 0 _l
459 327 _l
459 379 448 417 428 443 _c
408 469 378 482 338 482 _c
289 482 251 466 223 435 _c
195 404 181 362 181 309 _c
181 0 _l
91 0 _l
91 547 _l
181 547 _l
181 462 _l
202 494 227 519 257 535 _c
286 551 320 560 358 560 _c
420 560 468 540 500 501 _c
532 462 549 405 549 330 _c
_cl}_d
/o{612 0 55 -13 557 560 _sc
306 484 _m
258 484 220 465 192 427 _c
164 389 150 338 150 273 _c
150 207 163 156 191 118 _c
219 80 257 62 306 62 _c
354 62 392 80 420 118 _c
448 156 462 207 462 273 _c
462 337 448 389 420 427 _c
392 465 354 484 306 484 _c
306 560 _m
384 560 445 534 490 484 _c
534 433 557 363 557 273 _c
557 183 534 113 490 63 _c
445 12 384 -13 306 -13 _c
227 -13 165 12 121 63 _c
77 113 55 183 55 273 _c
55 363 77 433 121 484 _c
165 534 227 560 306 560 _c
_cl}_d
/s{{521 0 54 -13 472 560 _sc
443 531 _m
443 446 _l
417 458 391 468 364 475 _c
336 481 308 485 279 485 _c
234 485 200 478 178 464 _c
156 450 145 430 145 403 _c
145 382 153 366 169 354 _c
185 342 217 330 265 320 _c
296 313 _l
360 299 405 279 432 255 _c
458 230 472 195 472 151 _c
472 100 452 60 412 31 _c
372 1 316 -13 246 -13 _c
216 -13 186 -10 154 -5 _c
122 0 89 8 54 20 _c
54 113 _l
87 95 120 82 152 74 _c
184 65 216 61 248 61 _c
290 61 323 68 346 82 _c
368 96 380 117 380 144 _c
380 168 371 187 355 200 _c
339 213 303 226 247 238 _c
216 245 _l
160 257 119 275 95 299 _c
70 323 58 356 58 399 _c
58 450 76 490 112 518 _c
148 546 200 560 268 560 _c
}_e{301 560 332 557 362 552 _c
391 547 418 540 443 531 _c
_cl}_e}_d
/t{392 0 27 0 368 702 _sc
183 702 _m
183 547 _l
368 547 _l
368 477 _l
183 477 _l
183 180 _l
183 135 189 106 201 94 _c
213 81 238 75 276 75 _c
368 75 _l
368 0 _l
276 0 _l
206 0 158 13 132 39 _c
106 65 93 112 93 180 _c
93 477 _l
27 477 _l
27 547 _l
93 547 _l
93 702 _l
183 702 _l
_cl}_d
/v{592 0 30 0 562 547 _sc
30 547 _m
125 547 _l
296 88 _l
467 547 _l
562 547 _l
357 0 _l
235 0 _l
30 547 _l
_cl}_d
/x{592 0 29 0 559 547 _sc
549 547 _m
351 281 _l
559 0 _l
453 0 _l
294 215 _l
135 0 _l
29 0 _l
241 286 _l
47 547 _l
153 547 _l
298 352 _l
443 547 _l
549 547 _l
_cl}_d
/minus{838 0 106 272 732 355 _sc
106 355 _m
732 355 _l
732 272 _l
106 272 _l
106 355 _l
_cl}_d
end readonly def

/BuildGlyph
 {exch begin
 CharStrings exch
 2 copy known not{pop /.notdef}if
 true 3 1 roll get exec
 end}_d

/BuildChar {
 1 index /Encoding get exch get
 1 index /BuildGlyph get exec
}_d

FontName currentdict end definefont pop
%!PS-Adobe-3.0 Resource-Font
%%Title: cmmi10
%%Copyright: Copyright (C) 1994, Basil K. Malyshev. All Rights Reserved.012BaKoMa Fonts Collection, Level-B.
%%Creator: Converted from TrueType to type 3 by PPR
25 dict begin
/_d{bind def}bind def
/_m{moveto}_d
/_l{lineto}_d
/_cl{closepath eofill}_d
/_c{curveto}_d
/_sc{7 -1 roll{setcachedevice}{pop pop pop pop pop pop}ifelse}_d
/_e{exec}_d
/FontName /Cmmi10 def
/PaintType 0 def
/FontMatrix[.001 0 0 .001 0 0]def
/FontBBox[-34 -250 1048 750]def
/FontType 3 def
/Encoding [ /e /g /x /m /o /d /s /u /l /a /r ] def
/FontInfo 10 dict dup begin
/FamilyName (cmmi10) def
/FullName (cmmi10) def
/Notice (Copyright (C) 1994, Basil K. Malyshev. All Rights Reserved.012BaKoMa Fonts Collection, Level-B. ) def
/Weight (Regular) def
/Version (1.1/12-Nov-94) def
/ItalicAngle 0.0 def
/isFixedPitch false def
/UnderlinePosition -133 def
/UnderlineThickness 20 def
end readonly def
/CharStrings 11 dict dup begin
/e{{465 0 44 -10 430 442 _sc
201 -10 _m
169 -10 141 -2 117 14 _c
93 30 75 53 63 81 _c
50 109 44 138 44 170 _c
44 217 56 262 80 304 _c
104 346 136 379 177 404 _c
218 429 262 442 309 442 _c
337 442 362 434 384 419 _c
405 404 416 383 416 356 _c
416 317 400 288 370 270 _c
339 251 304 239 266 235 _c
228 231 185 229 139 229 _c
136 229 _l
125 189 120 155 120 127 _c
120 97 126 71 140 49 _c
154 26 175 15 203 15 _c
243 15 281 24 318 42 _c
354 60 384 86 407 118 _c
409 120 411 121 415 121 _c
418 121 421 119 425 115 _c
428 111 430 108 430 105 _c
430 102 429 100 428 99 _c
404 65 371 38 330 19 _c
288 0 245 -10 201 -10 _c
142 255 _m
}_e{180 255 216 256 249 260 _c
282 264 312 273 339 287 _c
365 301 379 324 379 355 _c
379 367 375 378 368 387 _c
361 396 352 403 342 408 _c
331 413 320 416 308 416 _c
280 416 254 408 232 393 _c
209 377 190 357 176 333 _c
161 308 150 282 142 255 _c
_cl}_e}_d
/g{{477 0 14 -204 476 442 _sc
14 -142 _m
14 -126 19 -111 31 -99 _c
42 -87 56 -81 72 -81 _c
82 -81 91 -84 99 -91 _c
106 -97 110 -106 110 -117 _c
110 -129 106 -139 99 -149 _c
92 -159 83 -166 73 -170 _c
91 -175 119 -178 157 -178 _c
187 -178 215 -166 241 -142 _c
266 -118 283 -91 291 -61 _c
320 55 _l
284 18 246 0 207 0 _c
178 0 153 7 133 22 _c
113 36 97 56 87 80 _c
76 104 71 130 71 158 _c
71 188 77 220 89 254 _c
101 288 119 319 142 348 _c
164 376 190 399 220 416 _c
249 433 280 442 313 442 _c
332 442 349 436 365 426 _c
381 415 393 401 403 383 _c
409 409 424 422 446 422 _c
454 422 461 419 467 414 _c
473 409 476 402 476 394 _c
476 392 476 390 476 389 _c
476 388 475 387 475 386 _c
}_e{361 -67 _l
355 -87 346 -106 332 -124 _c
318 -141 301 -155 282 -167 _c
263 -179 242 -188 220 -194 _c
198 -200 176 -204 156 -204 _c
118 -204 84 -200 56 -193 _c
28 -185 14 -168 14 -142 _c
209 26 _m
251 26 293 55 335 114 _c
390 332 _l
385 355 376 375 362 391 _c
348 407 331 416 311 416 _c
289 416 268 407 248 389 _c
228 371 212 349 199 324 _c
187 300 175 265 163 220 _c
151 175 146 140 146 114 _c
146 91 151 71 161 53 _c
171 35 187 26 209 26 _c
_cl}_e}_d
/x{{571 0 31 -10 526 442 _sc
78 29 _m
90 19 106 15 128 15 _c
148 15 167 25 183 45 _c
199 65 210 87 216 111 _c
261 288 _l
268 320 272 342 272 354 _c
272 370 267 385 258 397 _c
248 409 235 416 219 416 _c
198 416 178 409 160 396 _c
141 382 125 365 113 345 _c
100 325 91 304 86 284 _c
84 280 82 278 78 278 _c
66 278 _l
60 278 58 281 58 287 _c
58 290 _l
64 314 75 338 91 362 _c
107 386 126 405 149 420 _c
171 434 195 442 221 442 _c
245 442 267 435 287 422 _c
307 409 321 391 329 369 _c
340 389 354 407 372 421 _c
390 435 409 442 431 442 _c
445 442 460 439 475 434 _c
490 429 502 421 512 411 _c
521 401 526 388 526 372 _c
}_e{526 355 520 340 509 328 _c
498 316 484 310 468 310 _c
457 310 448 313 441 320 _c
433 327 430 336 430 346 _c
430 360 434 372 444 383 _c
454 393 465 400 479 402 _c
467 411 450 416 429 416 _c
407 416 389 406 373 386 _c
357 366 346 344 340 320 _c
296 143 _l
288 116 285 94 285 77 _c
285 60 289 45 299 33 _c
309 21 322 15 338 15 _c
369 15 397 28 421 56 _c
445 84 462 114 470 147 _c
471 151 474 153 478 153 _c
490 153 _l
492 153 494 152 496 150 _c
498 148 499 146 499 144 _c
499 143 498 142 498 141 _c
488 101 468 66 438 36 _c
408 5 374 -10 336 -10 _c
311 -10 289 -3 269 9 _c
249 21 236 39 228 62 _c
}_e{217 42 202 25 184 11 _c
166 -3 146 -10 126 -10 _c
111 -10 96 -7 81 -3 _c
66 1 54 9 45 19 _c
35 29 31 43 31 59 _c
31 75 36 89 47 102 _c
57 114 71 121 88 121 _c
98 121 107 117 115 111 _c
123 104 127 95 127 85 _c
127 71 122 58 113 48 _c
103 38 92 31 78 29 _c
_cl}_e}_d
/m{{878 0 27 -10 851 442 _sc
77 17 _m
77 21 77 24 78 26 _c
153 324 _l
157 342 160 359 160 373 _c
160 401 150 416 131 416 _c
110 416 94 403 84 378 _c
74 353 64 322 55 284 _c
55 282 54 280 52 279 _c
50 278 48 278 47 278 _c
35 278 _l
33 278 31 279 29 281 _c
27 283 27 286 27 288 _c
34 317 41 342 48 362 _c
54 382 65 400 79 417 _c
93 433 110 442 132 442 _c
156 442 178 434 198 418 _c
217 402 227 382 227 358 _c
247 384 270 404 297 419 _c
323 434 352 442 382 442 _c
413 442 440 434 463 418 _c
486 402 498 379 498 349 _c
518 378 542 401 570 417 _c
597 433 627 442 660 442 _c
}_e{694 442 722 432 743 414 _c
764 395 775 368 775 334 _c
775 306 768 273 756 235 _c
744 196 729 153 711 105 _c
701 81 697 61 697 45 _c
697 25 704 15 720 15 _c
746 15 767 29 785 57 _c
802 85 814 115 822 147 _c
824 151 826 153 830 153 _c
842 153 _l
844 153 846 152 848 150 _c
850 148 851 146 851 144 _c
851 143 850 142 850 141 _c
840 103 824 68 802 37 _c
780 5 752 -10 718 -10 _c
694 -10 674 -2 658 13 _c
641 29 633 48 633 72 _c
633 83 635 96 641 111 _c
659 161 675 205 688 245 _c
700 284 707 319 707 349 _c
707 367 703 383 696 396 _c
688 409 676 416 658 416 _c
}_e{622 416 590 404 563 382 _c
536 360 513 330 494 294 _c
492 287 491 282 491 279 _c
427 22 _l
424 12 419 5 411 -1 _c
403 -7 394 -10 385 -10 _c
377 -10 370 -7 364 -3 _c
358 1 355 8 355 17 _c
355 21 355 24 356 26 _c
420 281 _l
426 308 430 331 430 349 _c
430 367 426 383 418 396 _c
410 409 398 416 380 416 _c
355 416 332 410 312 400 _c
292 389 274 375 259 357 _c
243 339 229 318 217 294 _c
149 22 _l
147 12 142 5 134 -1 _c
126 -7 117 -10 107 -10 _c
99 -10 92 -7 86 -3 _c
80 1 77 8 77 17 _c
_cl}_e}_d
/o{{484 0 40 -10 471 442 _sc
201 -10 _m
169 -10 141 -2 117 12 _c
92 26 73 46 60 72 _c
46 97 40 126 40 158 _c
40 203 52 248 78 292 _c
103 336 136 372 178 400 _c
220 428 264 442 310 442 _c
334 442 356 437 376 429 _c
395 421 412 409 426 394 _c
440 378 451 360 459 340 _c
467 319 471 297 471 273 _c
471 238 463 204 449 170 _c
434 136 414 106 389 78 _c
363 50 334 29 301 13 _c
268 -2 235 -10 201 -10 _c
203 15 _m
233 15 260 25 284 45 _c
308 65 329 91 345 122 _c
361 152 373 185 381 219 _c
389 253 394 284 394 312 _c
394 340 386 365 372 385 _c
358 405 336 416 308 416 _c
269 416 235 399 206 366 _c
176 332 154 292 139 246 _c
124 200 117 157 117 119 _c
117 90 124 65 139 45 _c
154 25 175 15 203 15 _c
_cl}_e}_d
/d{{520 0 38 -10 519 694 _sc
174 -10 _m
132 -10 98 5 74 37 _c
50 68 38 105 38 149 _c
38 191 49 236 71 282 _c
93 328 122 366 160 396 _c
198 426 238 442 282 442 _c
302 442 319 436 335 425 _c
351 414 363 400 372 382 _c
428 605 _l
430 616 432 625 433 632 _c
433 642 411 648 368 648 _c
361 648 358 652 358 661 _c
358 663 358 666 360 670 _c
361 674 362 677 364 679 _c
366 681 368 683 372 683 _c
507 694 _l
515 694 519 689 519 681 _c
375 106 _l
370 94 368 78 368 58 _c
368 29 377 15 397 15 _c
417 15 433 28 444 55 _c
455 81 464 112 472 147 _c
}_e{473 151 476 153 480 153 _c
492 153 _l
494 153 496 151 498 149 _c
500 147 501 145 501 143 _c
489 96 476 59 462 31 _c
448 3 426 -10 395 -10 _c
372 -10 352 -3 335 9 _c
318 21 307 39 303 61 _c
260 13 217 -10 174 -10 _c
175 15 _m
199 15 222 24 245 42 _c
267 60 287 81 303 106 _c
303 106 304 108 304 110 _c
359 330 _l
355 353 346 373 333 390 _c
319 407 302 416 280 416 _c
257 416 236 406 217 388 _c
197 370 181 348 168 323 _c
154 296 142 259 130 213 _c
118 167 113 131 113 105 _c
113 81 118 60 128 42 _c
138 24 153 15 175 15 _c
_cl}_e}_d
/s{{468 0 52 -10 419 442 _sc
87 61 _m
105 30 141 15 195 15 _c
218 15 240 19 261 27 _c
282 35 300 47 314 63 _c
328 79 335 98 335 121 _c
335 138 328 152 316 163 _c
304 174 289 182 271 186 _c
217 197 _l
192 203 172 214 156 231 _c
140 248 132 269 132 293 _c
132 322 140 348 156 371 _c
172 394 193 412 219 424 _c
245 436 273 442 302 442 _c
332 442 359 434 383 420 _c
407 405 419 384 419 356 _c
419 340 414 327 406 315 _c
397 303 385 298 370 298 _c
361 298 353 300 347 306 _c
341 312 338 319 338 328 _c
338 336 340 343 344 351 _c
348 358 354 364 362 368 _c
369 372 377 375 385 375 _c
379 389 368 399 352 406 _c
336 412 318 416 300 416 _c
282 416 265 412 249 406 _c
232 399 218 389 208 376 _c
198 362 193 347 193 329 _c
193 317 197 306 205 297 _c
213 288 224 282 237 278 _c
}_e{295 266 _l
313 262 330 255 346 245 _c
361 235 373 222 382 207 _c
391 192 396 175 396 156 _c
396 131 389 106 375 82 _c
361 58 344 39 324 25 _c
288 1 245 -10 194 -10 _c
158 -10 126 -2 96 14 _c
66 30 52 54 52 86 _c
52 104 57 119 67 133 _c
77 147 92 154 111 154 _c
121 154 130 150 138 144 _c
145 137 149 128 149 118 _c
149 102 143 89 132 78 _c
120 66 107 61 92 61 _c
87 61 _l
_cl}_e}_d
/u{{572 0 27 -10 546 442 _sc
106 109 _m
106 131 109 153 115 176 _c
121 198 129 224 139 252 _c
149 280 159 305 167 326 _c
175 350 180 370 180 386 _c
180 406 172 416 158 416 _c
132 416 110 402 93 375 _c
75 347 63 317 55 284 _c
53 280 51 278 47 278 _c
35 278 _l
29 278 27 281 27 287 _c
27 290 _l
37 330 54 365 76 396 _c
98 426 126 442 160 442 _c
184 442 204 434 220 418 _c
236 402 245 383 245 359 _c
245 346 242 333 237 320 _c
233 312 226 294 216 267 _c
206 239 198 217 193 199 _c
187 181 183 163 179 146 _c
175 128 174 111 174 94 _c
174 72 178 53 188 38 _c
197 22 212 15 234 15 _c
}_e{276 15 314 41 346 94 _c
346 96 347 99 348 101 _c
348 103 349 106 349 109 _c
421 399 _l
423 407 428 415 436 421 _c
444 427 453 431 463 431 _c
471 431 478 428 484 423 _c
490 418 493 411 493 403 _c
493 399 492 396 492 395 _c
420 107 _l
415 87 413 70 413 58 _c
413 29 422 15 442 15 _c
463 15 479 28 490 55 _c
500 81 509 112 517 147 _c
518 151 521 153 525 153 _c
537 153 _l
539 153 541 151 543 149 _c
545 147 546 145 546 143 _c
538 114 531 89 525 69 _c
518 49 507 30 493 14 _c
479 -2 461 -10 440 -10 _c
418 -10 399 -4 383 6 _c
366 17 355 33 349 53 _c
}_e{333 33 316 18 296 7 _c
276 -4 254 -10 232 -10 _c
193 -10 162 0 140 21 _c
117 41 106 71 106 109 _c
_cl}_e}_d
/l{{298 0 44 -10 262 694 _sc
44 81 _m
44 83 44 86 44 90 _c
44 94 45 97 46 101 _c
46 105 47 108 47 110 _c
171 605 _l
173 616 175 625 176 632 _c
176 642 154 648 111 648 _c
104 648 101 652 101 661 _c
101 663 102 666 103 670 _c
104 674 105 677 107 679 _c
109 681 111 683 115 683 _c
250 694 _l
258 694 262 689 262 681 _c
118 106 _l
113 95 111 79 111 58 _c
111 29 120 15 140 15 _c
160 15 176 27 186 53 _c
196 79 206 110 214 147 _c
215 151 218 153 222 153 _c
234 153 _l
236 153 238 151 240 149 _c
242 147 243 145 243 143 _c
}_e{235 111 227 85 221 67 _c
215 48 205 30 191 14 _c
177 -2 159 -10 138 -10 _c
111 -10 89 -1 71 15 _c
53 32 44 54 44 81 _c
_cl}_e}_d
/a{{528 0 38 -10 501 442 _sc
174 -10 _m
132 -10 98 5 74 37 _c
50 68 38 105 38 149 _c
38 191 49 236 71 282 _c
93 328 122 366 160 396 _c
198 426 238 442 282 442 _c
302 442 319 436 335 426 _c
351 415 363 400 372 382 _c
379 408 394 422 416 422 _c
424 422 431 419 437 414 _c
443 409 446 402 446 394 _c
446 392 445 390 445 389 _c
445 388 445 387 445 386 _c
375 107 _l
370 87 368 70 368 58 _c
368 29 377 15 397 15 _c
417 15 433 28 444 55 _c
455 81 464 112 472 147 _c
473 151 476 153 480 153 _c
492 153 _l
494 153 496 151 498 149 _c
500 147 501 145 501 143 _c
}_e{489 96 476 59 462 31 _c
448 3 426 -10 395 -10 _c
372 -10 352 -3 335 9 _c
318 21 307 39 303 61 _c
260 13 217 -10 174 -10 _c
175 15 _m
199 15 222 24 245 42 _c
267 60 287 81 303 106 _c
303 106 304 107 304 109 _c
358 326 _l
359 329 _l
355 353 346 373 333 390 _c
319 407 302 416 280 416 _c
257 416 236 406 217 388 _c
197 370 181 348 168 323 _c
154 296 142 259 130 213 _c
118 167 113 131 113 105 _c
113 81 118 60 128 42 _c
138 24 153 15 175 15 _c
_cl}_e}_d
/r{{451 0 27 -10 434 442 _sc
77 17 _m
77 21 77 24 78 26 _c
153 324 _l
157 342 160 359 160 373 _c
160 401 150 416 131 416 _c
110 416 94 403 84 378 _c
74 353 64 322 55 284 _c
55 282 54 280 52 279 _c
50 278 48 278 47 278 _c
35 278 _l
33 278 31 279 29 281 _c
27 283 27 286 27 288 _c
34 317 41 342 48 362 _c
54 382 65 400 79 417 _c
93 433 110 442 132 442 _c
155 442 175 435 193 422 _c
210 408 221 391 225 369 _c
241 391 260 408 282 422 _c
304 435 328 442 354 442 _c
375 442 394 435 410 423 _c
426 411 434 394 434 373 _c
434 356 428 341 418 329 _c
407 316 393 310 376 310 _c
}_e{365 310 356 313 349 320 _c
341 326 338 335 338 346 _c
338 360 343 373 354 385 _c
364 397 377 403 391 403 _c
380 411 367 416 352 416 _c
323 416 298 405 277 385 _c
256 365 237 339 220 308 _c
149 22 _l
147 12 142 5 134 -1 _c
126 -7 117 -10 107 -10 _c
99 -10 92 -7 86 -3 _c
80 1 77 8 77 17 _c
_cl}_e}_d
end readonly def

/BuildGlyph
 {exch begin
 CharStrings exch
 2 copy known not{pop /.notdef}if
 true 3 1 roll get exec
 end}_d

/BuildChar {
 1 index /Encoding get exch get
 1 index /BuildGlyph get exec
}_d

FontName currentdict end definefont pop
end
%%EndProlog
mpldict begin
13.5 247.5 translate
585 297 0 0 clipbox
gsave
0 0 m
585 0 l
585 297 l
0 297 l
cl
1.000 setgray
fill
grestore
gsave
73.125 40.6968 m
526.5 40.6968 l
526.5 267.3 l
73.125 267.3 l
cl
1.000 setgray
fill
grestore
1.000 setlinewidth
1 setlinejoin
2 setlinecap
[] 0 setdash
0.000 setgray
gsave
453.4 226.6 73.12 40.7 clipbox
73.125 125.673 m
153.506 125.775 l
153.68 127.307 l
153.796 128.517 l
153.881 129.929 l
153.953 130.745 l
154.194 136.472 l
154.311 139.778 l
154.457 144.107 l
154.524 144.825 l
154.605 146.736 l
154.672 147.568 l
154.748 148.797 l
154.817 149.449 l
154.894 150.412 l
154.963 150.923 l
155.038 151.677 l
155.108 152.078 l
155.183 152.669 l
155.253 152.983 l
155.328 153.447 l
155.399 153.693 l
155.476 154.056 l
155.543 154.249 l
155.618 154.534 l
155.754 154.778 l
155.837 155.064 l
155.975 155.264 l
156.054 155.431 l
156.195 155.591 l
156.271 155.686 l
156.491 155.851 l
156.633 155.95 l
157.291 156.156 l
157.504 156.192 l
158.302 156.245 l
158.372 156.544 l
158.448 156.985 l
158.523 157.344 l
158.672 158.845 l
158.738 159.51 l
158.816 160.492 l
158.881 161.014 l
158.955 161.783 l
159.025 162.192 l
159.101 162.795 l
159.17 163.115 l
159.317 163.918 l
159.387 164.14 l
159.463 164.468 l
159.535 164.642 l
159.68 165.078 l
159.817 165.274 l
159.901 165.502 l
160.041 165.686 l
160.12 165.796 l
160.328 165.97 l
160.406 166.052 l
160.766 166.232 l
160.84 166.265 l
164.185 166.461 l
276.11 166.462 l
290.02 166.36 l
290.167 165.341 l
290.482 156.733 l
291.216 124.916 l
291.615 116.986 l
292.014 112.929 l
292.595 110.282 l
293.012 109.474 l
293.465 109.049 l
294.046 108.818 l
295.007 108.706 l
298.035 108.678 l
346.112 108.78 l
346.202 109.246 l
346.355 109.413 l
346.521 115.28 l
346.709 120.742 l
347.399 135.33 l
347.816 139.026 l
348.214 140.805 l
348.632 141.743 l
349.085 142.236 l
349.629 142.495 l
350.481 142.627 l
352.839 142.667 l
418.779 142.566 l
418.796 142.467 l
418.929 142.278 l
419.229 133.589 l
419.37 126.836 l
419.453 124.657 l
419.591 117.725 l
419.666 115.154 l
419.811 108.322 l
419.876 106.275 l
420.019 101.146 l
420.086 100.185 l
420.164 97.6294 l
420.231 96.8761 l
420.312 94.6723 l
420.387 93.5207 l
420.53 90.635 l
420.596 89.836 l
420.676 88.6563 l
420.742 88.0301 l
420.819 87.1056 l
420.887 86.6148 l
420.962 85.8902 l
421.032 85.5055 l
421.107 84.9376 l
421.177 84.6361 l
421.256 84.191 l
421.324 83.9548 l
421.398 83.6059 l
421.467 83.4207 l
421.542 83.1473 l
421.679 82.9126 l
421.76 82.6385 l
421.899 82.4459 l
421.977 82.2854 l
422.12 82.1318 l
422.197 82.0405 l
422.477 81.859 l
422.558 81.7873 l
425.387 81.488 l
464.17 81.4854 l
464.277 81.6863 l
464.496 83.8803 l
464.623 86.1582 l
465.077 93.2065 l
465.458 97.3048 l
466.092 102.993 l
466.509 105.856 l
466.944 108.431 l
467.361 110.267 l
467.779 111.179 l
468.232 111.657 l
468.416 111.87 l
468.74 113.392 l
469.157 114.441 l
469.393 114.981 l
469.72 117.718 l
470.1 121.477 l
470.5 123.526 l
470.88 124.54 l
471.315 125.128 l
471.823 125.441 l
472.548 125.604 l
474.093 125.668 l
484.282 125.673 l
510.759 125.673 l
510.759 125.673 l
stroke
grestore
1.000 0.000 0.000 setrgbcolor
gsave
453.4 226.6 73.12 40.7 clipbox
97.4996 120.38 m
97.6989 120.38 l
97.7716 119.675 l
97.8074 120.38 l
97.8804 120.38 l
98.0075 119.675 l
98.116 119.737 l
98.1888 119.675 l
98.2431 120.38 l
98.2971 119.737 l
98.4969 119.737 l
98.6057 120.38 l
98.7328 119.737 l
98.8597 119.675 l
98.9683 120.38 l
99.0954 119.737 l
99.2224 119.675 l
99.3493 120.38 l
100.292 120.38 l
100.365 119.737 l
100.401 120.38 l
100.601 120.38 l
100.728 119.737 l
100.8 120.38 l
100.8 120.38 l
100.8 120.38 l
100.854 119.667 l
100.909 120.38 l
101.091 120.38 l
101.163 119.737 l
101.199 120.34 l
101.217 120.38 l
101.344 119.675 l
101.471 120.38 l
101.815 120.38 l
101.942 119.675 l
102.179 120.38 l
102.251 119.737 l
102.287 120.38 l
102.487 120.38 l
102.613 119.675 l
103.158 119.737 l
103.285 120.38 l
103.321 120.38 l
103.448 119.675 l
103.575 120.38 l
103.684 119.675 l
103.702 119.732 l
104.119 119.737 l
104.246 119.675 l
104.373 120.38 l
104.717 120.38 l
104.79 119.667 l
104.844 119.737 l
104.899 119.737 l
105.025 120.38 l
105.515 120.38 l
105.588 119.737 l
105.624 120.38 l
105.823 120.38 l
105.878 119.737 l
105.932 120.38 l
106.005 120.38 l
106.059 119.737 l
106.114 120.38 l
106.295 120.38 l
106.422 119.675 l
106.549 119.737 l
107.02 119.737 l
107.147 120.38 l
107.274 119.683 l
107.51 119.675 l
107.583 120.38 l
107.619 119.675 l
107.637 119.675 l
107.746 120.38 l
107.873 119.675 l
108.054 119.684 l
108.163 120.38 l
108.29 119.675 l
109.922 119.675 l
110.049 120.38 l
110.176 119.675 l
110.285 119.737 l
110.448 119.675 l
110.901 119.667 l
110.974 120.371 l
111.01 120.202 l
111.028 120.202 l
111.083 119.789 l
111.083 119.789 l
111.083 119.789 l
111.21 121.017 l
111.264 121.017 l
111.336 122.301 l
111.373 121.741 l
111.391 121.741 l
111.445 123.096 l
111.5 122.634 l
111.554 122.634 l
111.681 124.168 l
112.026 127.179 l
112.117 127.264 l
112.225 127.312 l
112.407 127.176 l
112.533 126.507 l
112.588 127.061 l
112.588 127.061 l
112.588 127.061 l
112.715 125.536 l
112.769 125.536 l
112.914 124.55 l
112.95 124.55 l
113.078 122.696 l
113.096 123.144 l
113.205 123.197 l
113.386 121.647 l
113.422 121.647 l
113.549 121.311 l
113.676 121.84 l
113.839 121.651 l
113.857 121.651 l
113.984 121.962 l
114.166 122.031 l
114.292 123.039 l
114.438 123.645 l
114.474 123.645 l
114.601 125.194 l
114.71 125.194 l
114.855 127.314 l
114.946 127.314 l
115 127.145 l
115 127.145 l
115 127.145 l
115.145 128.156 l
115.362 128.384 l
115.544 128.86 l
115.616 128.86 l
115.743 129.839 l
115.87 130.128 l
115.979 130.136 l
116.106 129.497 l
116.233 130.541 l
116.342 130.546 l
116.396 129.909 l
116.451 130.002 l
116.759 130.006 l
116.777 129.455 l
116.868 129.541 l
116.886 129.541 l
117.031 128.212 l
117.194 128.255 l
117.303 127.569 l
117.448 127.676 l
117.792 127.814 l
117.847 127.132 l
117.865 127.69 l
117.865 127.69 l
117.974 127.862 l
118.101 127.191 l
118.209 128.559 l
118.228 128.557 l
118.536 128.51 l
118.645 129.19 l
118.754 128.46 l
118.881 129.089 l
119.007 129.029 l
119.062 129.029 l
119.207 130.246 l
119.443 130.25 l
119.57 131.617 l
119.588 131.573 l
119.842 131.505 l
119.969 132.186 l
120.097 132.084 l
120.205 132.027 l
120.331 132.727 l
120.459 132.632 l
120.513 133.326 l
120.585 133.312 l
121.003 133.22 l
121.057 133.106 l
121.129 133.135 l
121.256 133.071 l
121.329 133.071 l
121.456 132.188 l
122.036 132.157 l
122.181 131.968 l
122.399 131.899 l
122.508 131.052 l
122.653 132.243 l
122.761 132.312 l
123.033 131.427 l
123.179 131.411 l
123.306 132.082 l
123.541 132.089 l
123.668 132.029 l
123.795 131.28 l
123.904 131.28 l
123.977 131.152 l
124.013 131.243 l
124.085 131.28 l
124.158 131.996 l
124.194 131.822 l
124.321 131.884 l
124.394 131.189 l
124.394 131.189 l
124.394 131.189 l
124.503 131.936 l
124.629 131.299 l
124.793 131.643 l
124.938 131.633 l
125.065 130.344 l
125.192 131.125 l
125.283 131.13 l
125.409 130.359 l
125.536 131.218 l
125.554 131.218 l
125.663 130.464 l
125.718 131.24 l
125.79 131.192 l
125.922 131.209 l
126.044 130.531 l
126.392 130.625 l
126.479 130.625 l
126.606 129.851 l
127.005 129.875 l
127.132 129.044 l
127.223 128.954 l
127.368 128.913 l
127.495 129.557 l
127.64 129.466 l
127.658 129.466 l
127.731 128.552 l
127.767 129.22 l
127.839 129.22 l
127.894 129.104 l
128.021 129.736 l
128.148 128.797 l
128.202 128.797 l
128.311 129.421 l
128.438 129.152 l
128.637 129.107 l
128.765 128.952 l
128.927 128.842 l
129 129.61 l
129.054 129.55 l
129.073 129.55 l
129.181 128.844 l
129.309 129.56 l
129.599 129.449 l
129.707 129.407 l
129.84 129.449 l
129.961 129.46 l
130.088 128.744 l
130.216 129.698 l
130.251 129.709 l
130.378 129.002 l
130.523 130.454 l
130.615 130.522 l
130.687 129.804 l
130.723 130.522 l
130.795 130.522 l
130.868 129.842 l
130.868 129.842 l
130.868 129.842 l
130.995 130.694 l
131.593 130.708 l
131.72 131.59 l
131.829 130.998 l
131.848 131.051 l
132.011 131.225 l
132.101 131.172 l
132.119 131.237 l
132.192 131.237 l
132.264 132.083 l
132.3 131.421 l
132.373 131.421 l
132.518 130.407 l
132.627 130.142 l
132.754 130.275 l
132.808 130.275 l
132.917 129.627 l
132.935 129.697 l
133.044 129.698 l
133.099 129.088 l
133.171 129.137 l
133.28 129.19 l
133.443 127.892 l
133.588 127.959 l
133.716 128.005 l
133.842 127.441 l
133.951 127.441 l
134.023 126.748 l
134.077 126.769 l
134.132 126.769 l
134.205 126.179 l
134.259 126.249 l
134.314 126.249 l
134.441 125.557 l
134.567 125.631 l
134.622 125.591 l
134.676 125.628 l
134.876 125.607 l
134.985 124.937 l
135.112 125.544 l
135.221 124.897 l
135.347 125.523 l
135.402 125.524 l
135.528 124.879 l
135.765 124.906 l
135.91 125.552 l
136.073 125.552 l
136.2 126.227 l
136.254 126.227 l
136.399 127.546 l
136.544 127.574 l
136.671 128.214 l
136.78 128.085 l
136.925 128.159 l
137.034 128.107 l
137.361 128.884 l
137.414 128.884 l
137.526 128.164 l
137.596 129.529 l
137.633 128.845 l
137.906 128.873 l
138.032 128.144 l
138.159 129.128 l
138.269 129.128 l
138.384 129.94 l
138.506 129.351 l
138.648 130.917 l
138.739 131 l
138.847 130.409 l
138.974 131.26 l
139.01 131.309 l
139.229 132.101 l
139.313 132.105 l
139.519 133.549 l
139.945 137.797 l
139.951 137.744 l
140.027 137.736 l
140.241 139.039 l
140.308 139.039 l
140.386 140.394 l
140.673 142.589 l
140.746 142.548 l
140.748 142.548 l
140.894 143.482 l
140.966 143.482 l
141.178 146.465 l
141.256 146.536 l
141.395 146.599 l
141.476 147.692 l
141.691 147.77 l
141.909 149.659 l
142.057 148.431 l
142.127 149.321 l
142.342 146.295 l
142.417 146.295 l
142.571 147.209 l
142.635 146.336 l
142.707 146.345 l
142.78 146.345 l
142.929 146.539 l
143.003 146.541 l
143.145 145.782 l
143.215 145.886 l
143.36 265.423 l
143.505 265.423 l
143.65 143.403 l
143.798 144.382 l
143.941 143.579 l
144.086 143.643 l
144.158 142.787 l
144.231 142.804 l
144.303 142.804 l
144.47 141.863 l
144.594 141.833 l
144.667 142.646 l
144.733 141.83 l
144.739 142.627 l
144.817 142.627 l
144.956 140.861 l
145.176 140.903 l
145.32 139.969 l
145.536 140.095 l
145.683 140.116 l
145.898 138.484 l
146.044 138.484 l
146.189 137.535 l
146.335 137.478 l
146.481 136.596 l
146.552 136.613 l
146.697 135.808 l
146.769 135.808 l
146.914 134.326 l
146.988 133.612 l
147.059 133.698 l
147.205 133.729 l
147.35 131.676 l
147.422 131.652 l
147.568 130.198 l
147.932 126.709 l
148.004 126.709 l
148.228 125.259 l
148.296 125.259 l
148.654 122.805 l
148.728 122.805 l
148.805 122.948 l
149.017 121.181 l
149.091 121.181 l
149.308 120.071 l
149.453 120.086 l
149.52 119.506 l
149.525 120.012 l
149.744 120.04 l
149.889 118.774 l
149.961 118.774 l
150.11 118.201 l
150.243 118.179 l
150.251 117.099 l
150.324 117.115 l
150.397 117.115 l
150.833 114.365 l
150.905 114.365 l
151.049 112.843 l
151.123 112.826 l
151.341 111.786 l
151.485 111.76 l
151.63 111.262 l
152.066 111.252 l
152.21 111.754 l
152.353 111.769 l
152.43 112.771 l
152.648 112.743 l
152.863 113.715 l
153.011 113.172 l
153.298 114.676 l
153.524 114.644 l
153.597 115.165 l
153.683 115.149 l
154.088 115.067 l
154.197 115.495 l
154.318 115.94 l
154.327 115.865 l
154.388 115.858 l
154.532 116.824 l
154.606 116.68 l
155.039 119.003 l
155.112 119.003 l
155.329 121.078 l
155.979 125.974 l
155.982 125.974 l
156.702 132.411 l
156.708 132.411 l
157.206 137.014 l
157.512 136.982 l
157.65 138.358 l
157.795 138.952 l
157.863 138.949 l
157.874 139.564 l
157.94 139.549 l
158.013 139.549 l
158.087 140.209 l
158.158 140.141 l
158.229 140.141 l
158.303 141.492 l
158.451 141.131 l
158.547 141.007 l
158.6 141.796 l
158.673 141.608 l
158.819 141.439 l
158.885 142.567 l
158.956 142.485 l
159.168 143.529 l
159.177 143.529 l
159.319 143.306 l
159.391 143.553 l
159.464 143.504 l
159.543 144.865 l
159.608 144.784 l
159.675 144.784 l
159.681 145.436 l
159.754 145.174 l
159.827 145.149 l
159.972 147.591 l
160.121 147.591 l
160.264 149.261 l
160.398 149.082 l
160.479 150.981 l
160.629 151.751 l
160.697 151.658 l
160.769 153.756 l
160.841 153.39 l
160.921 153.39 l
161.127 155.835 l
161.132 155.835 l
161.35 155.585 l
161.423 155.585 l
161.496 157.939 l
161.572 157.64 l
161.642 157.64 l
162.016 157.186 l
162.148 158.172 l
162.229 158.259 l
162.512 161.646 l
162.656 161.751 l
162.803 163.124 l
163.021 163.124 l
163.163 165.627 l
163.236 165.627 l
163.381 167.291 l
163.453 167.307 l
163.673 169.38 l
163.745 169.287 l
163.964 172.989 l
164.326 173.55 l
164.471 176.106 l
164.542 176.135 l
164.753 176.996 l
164.832 176.996 l
164.904 176.11 l
164.977 176.406 l
165.122 176.502 l
165.195 174.284 l
165.344 175.825 l
165.487 175.825 l
165.557 173.664 l
165.632 174.098 l
165.71 174.098 l
165.85 171.727 l
166.056 172.339 l
166.067 172.339 l
166.21 171.29 l
166.277 171.29 l
166.428 166.96 l
166.572 167.436 l
166.79 165.596 l
166.862 165.596 l
166.937 164.524 l
167.011 164.966 l
167.226 165.414 l
167.298 165.568 l
167.374 163.494 l
167.45 163.631 l
167.523 163.676 l
167.738 164.154 l
167.885 163.167 l
167.958 163.342 l
168.035 162.311 l
168.103 162.445 l
168.175 162.445 l
168.395 162.69 l
168.539 163.874 l
168.611 162.783 l
168.684 162.804 l
168.901 162.866 l
169.195 163.025 l
169.414 163.056 l
169.555 160.829 l
169.699 160.92 l
169.838 160.905 l
169.916 162.071 l
170.209 162.119 l
170.351 160.983 l
170.5 160.983 l
170.643 266.697 l
170.715 266.697 l
170.861 162.046 l
171.222 162.05 l
171.295 160.906 l
171.368 162.03 l
171.441 162.023 l
171.732 161.976 l
171.88 160.803 l
172.167 160.783 l
172.238 159.682 l
172.31 160.749 l
172.447 159.643 l
172.457 159.663 l
172.746 159.652 l
172.891 158.522 l
172.964 158.522 l
173.109 157.45 l
173.182 157.666 l
173.255 157.441 l
173.326 157.483 l
173.617 157.483 l
173.762 159.729 l
174.125 159.781 l
174.268 160.924 l
174.421 159.821 l
174.482 159.821 l
174.587 160.971 l
174.707 162.103 l
174.792 160.992 l
174.873 160.973 l
175.067 163.235 l
175.078 163.235 l
175.142 164.44 l
175.352 164.438 l
175.497 166.869 l
175.726 166.869 l
175.937 169.336 l
176.01 169.336 l
176.156 171.806 l
176.228 171.782 l
176.301 171.782 l
176.518 174.282 l
176.663 174.161 l
176.808 174.13 l
176.872 175.349 l
176.955 175.247 l
177.106 173.648 l
177.173 173.584 l
177.319 174.772 l
177.528 174.306 l
177.535 174.306 l
177.679 172.586 l
177.752 172.586 l
177.991 171.966 l
178.114 170.399 l
178.255 171.317 l
178.339 169.613 l
178.404 169.447 l
178.477 168.14 l
178.622 169.292 l
178.834 168.869 l
178.913 168.869 l
179.202 172.568 l
179.274 172.568 l
179.419 173.885 l
179.564 173.87 l
179.709 175.226 l
179.927 175.176 l
180.001 176.365 l
180.073 175.086 l
180.217 176.401 l
180.293 176.401 l
180.429 177.546 l
180.436 177.33 l
180.728 177.216 l
181.016 176.575 l
181.09 176.575 l
181.161 176.342 l
181.307 174.736 l
181.454 177.168 l
181.603 175.557 l
181.668 175.557 l
181.814 172.452 l
181.886 172.452 l
182.032 170.746 l
182.106 170.746 l
182.249 169.4 l
182.394 169.123 l
182.603 167.747 l
182.612 167.747 l
182.756 166.234 l
182.829 166.234 l
182.975 164.861 l
183.038 165.844 l
183.038 165.844 l
183.038 165.844 l
183.121 164.632 l
183.269 164.632 l
183.401 163.169 l
183.487 164.324 l
183.633 163.184 l
183.844 163.242 l
183.917 163.242 l
184.062 164.529 l
184.28 164.877 l
184.354 164.877 l
184.531 165.151 l
184.569 165.151 l
184.642 166.612 l
184.715 165.406 l
184.932 168.004 l
185.295 169.952 l
185.442 170.076 l
185.513 170.076 l
185.658 171.486 l
186.238 171.394 l
186.383 169.96 l
186.891 169.908 l
187.03 168.543 l
187.036 168.666 l
187.255 168.683 l
187.472 166.076 l
187.547 166.086 l
187.689 164.827 l
187.834 164.597 l
187.908 165.737 l
188.052 163.158 l
188.125 162.936 l
188.276 161.732 l
188.415 161.424 l
188.489 161.424 l
188.632 160.228 l
188.841 159.883 l
188.85 159.883 l
188.997 159.714 l
189.14 158.268 l
189.212 158.268 l
189.357 157.94 l
189.72 157.473 l
189.788 157.544 l
189.865 157.544 l
189.942 158.288 l
190.082 156.997 l
190.156 156.997 l
190.298 158.125 l
190.386 156.924 l
190.518 157.885 l
190.657 156.61 l
190.736 157.442 l
190.887 156.137 l
191.025 156.837 l
191.098 156.837 l
191.308 154.664 l
191.534 154.664 l
191.68 152.945 l
191.97 152.813 l
192.197 152.813 l
192.356 153.855 l
192.5 154.05 l
192.632 155.335 l
192.945 159.445 l
192.982 159.461 l
193.143 162.425 l
193.398 162.425 l
193.452 164.683 l
193.506 163.626 l
193.796 164.414 l
193.923 165.78 l
194.068 164.083 l
194.105 164.083 l
194.232 164.262 l
194.395 164.589 l
194.522 163.776 l
194.685 164.184 l
194.703 164.184 l
194.83 163.277 l
194.921 163.179 l
194.993 163.504 l
195.066 162.476 l
195.066 162.476 l
195.066 162.476 l
195.12 163.745 l
195.12 163.745 l
195.12 163.745 l
195.193 161.774 l
195.247 161.85 l
195.319 161.85 l
195.428 162.075 l
195.556 161.386 l
195.7 161.81 l
195.737 161.81 l
195.9 162.483 l
195.973 162.483 l
196.1 161.467 l
196.227 161.779 l
196.444 163.532 l
196.462 163.532 l
196.589 163.847 l
196.734 164.382 l
196.825 164.382 l
196.879 163.342 l
196.879 163.342 l
196.879 163.342 l
197.006 164.648 l
197.133 164.916 l
197.206 163.995 l
197.26 164.078 l
197.315 164.078 l
197.369 165.51 l
197.423 164.376 l
197.496 164.376 l
197.569 164.639 l
197.695 163.526 l
197.804 163.526 l
197.985 165.161 l
198.04 165.161 l
198.167 164.113 l
198.276 164.245 l
198.403 163.142 l
198.548 163.266 l
198.639 163.266 l
198.765 164.488 l
198.893 163.311 l
199.853 163.281 l
199.98 164.457 l
200.089 163.241 l
200.162 164.404 l
200.216 164.398 l
200.343 164.372 l
200.525 164.372 l
200.633 163.206 l
200.706 164.393 l
200.706 164.393 l
200.706 164.393 l
200.851 162.048 l
201.558 162.048 l
201.685 160.872 l
202.157 160.936 l
202.284 162.038 l
202.303 162.038 l
202.393 163.139 l
202.43 163.128 l
202.556 163.164 l
202.723 164.308 l
202.814 163.099 l
202.829 164.013 l
202.883 164.257 l
202.941 164.189 l
203.031 164.088 l
203.081 164.011 l
203.136 165.149 l
203.136 165.149 l
203.136 165.149 l
203.245 163.885 l
203.353 164.863 l
203.499 164.301 l
203.535 164.299 l
203.662 165.373 l
203.788 163.417 l
203.843 163.417 l
203.97 162.88 l
204.115 164.121 l
204.226 164.121 l
204.351 162.503 l
204.46 164.378 l
204.587 162.042 l
204.623 162.042 l
204.768 162.833 l
204.877 162.361 l
205.004 162.879 l
205.149 162.186 l
205.442 162.186 l
205.567 162.64 l
205.657 162.641 l
205.784 163.759 l
205.838 162.371 l
205.856 163.66 l
205.856 163.66 l
206.219 166.438 l
206.328 166.438 l
206.473 169.39 l
206.6 169.541 l
206.636 169.541 l
206.781 171.59 l
206.944 171.59 l
207.071 173.075 l
207.18 173.075 l
207.307 173.269 l
207.416 173.271 l
207.597 175.01 l
207.724 173.609 l
208.268 173.625 l
208.413 173.255 l
208.577 173.255 l
208.703 172.266 l
208.758 172.266 l
208.939 170.41 l
208.957 171.331 l
209.048 171.331 l
209.193 170.163 l
209.302 170.163 l
209.429 169.556 l
209.465 169.556 l
209.592 168.416 l
209.719 167.662 l
209.773 169.961 l
209.846 169.755 l
209.9 169.755 l
210.027 169.091 l
210.082 169.091 l
210.231 170.646 l
210.263 170.646 l
210.317 171.606 l
210.372 171.356 l
210.444 171.356 l
210.571 168.978 l
210.68 168.741 l
210.807 171.685 l
210.934 168.528 l
210.988 168.528 l
211.043 169.189 l
211.097 168.825 l
211.17 168.825 l
211.224 168.446 l
211.224 168.446 l
211.224 168.446 l
211.387 171.259 l
211.405 171.259 l
211.532 169.69 l
215.395 169.69 l
215.523 173.413 l
215.541 173.413 l
215.668 173.673 l
215.776 173.673 l
215.903 174.552 l
216.03 175.158 l
216.139 175.158 l
216.266 177.504 l
216.321 178.235 l
216.321 178.235 l
216.321 178.235 l
216.374 176.796 l
216.374 176.796 l
216.374 176.796 l
216.52 179.371 l
216.755 179.736 l
216.9 180.454 l
216.918 180.454 l
216.991 177.547 l
217.045 178.015 l
217.1 178.015 l
217.228 176.953 l
217.39 178.246 l
217.463 178.246 l
217.535 178.673 l
217.662 176.755 l
217.771 176.648 l
217.898 178.74 l
218.061 176.73 l
218.134 176.73 l
218.261 178.967 l
218.369 178.967 l
218.498 175.638 l
218.624 176.046 l
218.732 175.048 l
218.877 176.085 l
218.986 176.126 l
219.095 173.628 l
219.222 175.908 l
219.367 173.645 l
219.457 173.645 l
219.585 174.088 l
219.711 171.726 l
219.82 171.726 l
219.947 173.86 l
220.001 174.089 l
220.128 172.835 l
220.256 173.184 l
220.382 173.424 l
220.437 173.424 l
220.582 171.191 l
220.6 171.191 l
220.691 173.949 l
220.854 172.716 l
220.999 172.933 l
221.09 172.933 l
221.216 171.697 l
221.343 171.697 l
221.452 170.485 l
221.471 170.561 l
222.359 170.577 l
222.432 171.877 l
222.486 171.874 l
222.667 171.871 l
222.812 174.547 l
223.212 174.578 l
223.338 175.901 l
223.574 175.901 l
223.719 178.486 l
223.937 178.389 l
223.991 178.271 l
224.118 176.75 l
224.263 179.33 l
224.3 179.33 l
224.427 177.651 l
224.553 177.367 l
224.608 178.603 l
224.608 178.603 l
224.608 178.603 l
224.717 176.94 l
224.843 178.151 l
224.97 177.591 l
225.025 177.591 l
225.152 175.836 l
225.297 175.205 l
225.388 175.205 l
225.515 176.319 l
225.641 175.762 l
225.696 175.739 l
225.823 174.026 l
225.932 174.018 l
226.059 172.347 l
226.167 172.275 l
226.24 173.41 l
226.24 173.41 l
226.24 173.41 l
226.367 172.058 l
226.421 172.058 l
226.494 173.353 l
226.548 173.279 l
226.839 173.187 l
226.965 173.054 l
227.346 173.054 l
227.473 173.261 l
227.673 173.262 l
227.784 174.778 l
227.928 172.131 l
227.982 172.131 l
228.061 173.41 l
228.074 172.478 l
228.074 172.478 l
228.126 172.114 l
228.18 172.225 l
228.216 172.225 l
228.362 172.471 l
228.452 172.51 l
228.579 172.983 l
228.689 173.093 l
228.779 173.097 l
228.906 173.359 l
229.014 173.459 l
229.148 172.148 l
229.161 172.148 l
229.234 170.977 l
229.287 170.985 l
229.341 170.985 l
229.468 172.379 l
229.504 172.379 l
229.631 171.023 l
229.74 171.129 l
229.758 171.114 l
230.103 171.112 l
230.23 170.744 l
230.358 170.58 l
230.393 170.58 l
230.485 170.394 l
230.557 171.659 l
230.557 171.659 l
230.557 171.659 l
230.666 170.186 l
230.69 170.186 l
230.738 169.99 l
230.847 171.188 l
230.956 170.989 l
231.082 171.988 l
231.209 170.443 l
231.263 171.582 l
231.263 171.582 l
231.263 171.582 l
231.391 169.79 l
231.445 169.432 l
231.572 170.623 l
231.699 170.209 l
231.718 170.209 l
231.809 171.091 l
231.836 170.67 l
231.917 170.623 l
231.989 171.952 l
232.025 171.423 l
232.043 171.423 l
232.17 171.011 l
232.243 172.06 l
232.297 171.929 l
232.351 170.199 l
232.405 171.397 l
232.478 171.397 l
232.533 172.48 l
232.533 172.48 l
232.533 172.48 l
232.66 170.823 l
232.786 172.177 l
232.968 172.177 l
233.185 173.713 l
233.204 173.713 l
233.331 173.418 l
233.385 174.736 l
233.457 174.553 l
234.038 174.517 l
234.166 248.397 l
234.292 174.517 l
234.437 174.819 l
234.473 174.819 l
234.6 176.799 l
234.709 175.415 l
234.763 249.045 l
234.817 176.913 l
235.017 176.913 l
235.144 249.26 l
235.271 176.9 l
235.561 177.008 l
235.688 176.664 l
235.797 176.664 l
235.906 179.569 l
235.978 177.915 l
236.015 179.435 l
236.087 179.435 l
236.214 179.192 l
236.232 179.192 l
236.287 179.435 l
236.341 177.499 l
236.396 178.954 l
236.414 178.994 l
236.54 177.72 l
236.667 177.521 l
236.74 177.521 l
236.795 175.675 l
236.849 176.096 l
236.903 176.096 l
237.012 247.888 l
237.139 174.792 l
237.484 174.886 l
237.61 173.327 l
237.665 173.327 l
237.81 170.587 l
237.919 170.587 l
238.028 172.002 l
238.154 170.233 l
238.209 170.233 l
238.336 168.64 l
238.463 168.55 l
238.572 169.907 l
238.698 168.405 l
238.826 170.054 l
238.971 168.752 l
239.061 168.752 l
239.188 248.322 l
239.297 169.305 l
239.315 170.541 l
239.551 170.833 l
239.623 169.414 l
239.678 169.522 l
239.787 170.887 l
239.859 169.522 l
239.895 170.887 l
240.168 170.976 l
240.243 172.305 l
240.258 171.052 l
240.258 171.052 l
240.404 170.709 l
240.53 170.619 l
240.639 172.035 l
240.712 170.311 l
240.748 171.868 l
240.766 171.868 l
240.875 171.631 l
240.947 174.466 l
240.984 172.855 l
241.002 172.855 l
241.129 172.72 l
241.274 175.21 l
241.31 175.21 l
241.437 247.411 l
241.491 247.411 l
241.618 171.666 l
241.727 173.069 l
241.745 172.92 l
241.854 172.92 l
241.981 171.371 l
242.289 169.121 l
242.347 169.121 l
242.471 244.541 l
242.526 244.541 l
242.598 167.077 l
242.651 168.309 l
242.815 168.412 l
242.942 166.825 l
243.25 166.729 l
243.377 168.06 l
243.486 168.06 l
243.613 166.479 l
243.668 167.96 l
243.722 166.683 l
243.795 166.683 l
243.921 169.803 l
243.976 169.803 l
244.103 170.11 l
244.212 170.11 l
244.322 172.161 l
244.342 172.161 l
244.466 174.014 l
244.539 174.014 l
244.703 178.874 l
244.777 178.874 l
244.975 180.637 l
245.029 180.637 l
245.102 178.873 l
245.155 179.028 l
245.173 179.028 l
245.303 180.478 l
245.336 180.478 l
245.464 180.053 l
245.517 180.053 l
245.663 179.515 l
245.681 179.515 l
245.735 244.604 l
245.753 182.745 l
245.753 182.745 l
245.88 179.298 l
245.971 179.298 l
246.098 178.503 l
246.297 178.489 l
246.315 178.489 l
246.442 178.972 l
246.46 178.972 l
246.587 177.292 l
246.696 177.292 l
246.805 178.028 l
246.986 177.24 l
247.059 177.24 l
247.132 238.53 l
247.132 238.53 l
247.132 238.53 l
247.186 176.841 l
247.258 177.011 l
247.295 177.011 l
247.422 177.18 l
247.567 176.896 l
247.603 176.896 l
247.712 177.065 l
247.839 176.835 l
247.929 178.441 l
248.074 176.95 l
248.201 180.156 l
248.328 180.274 l
248.455 182.001 l
248.51 182.001 l
248.564 182.174 l
248.636 238.823 l
248.673 184.074 l
248.745 184.074 l
248.873 240.311 l
248.981 240.383 l
249.108 239.985 l
249.236 185.249 l
249.255 185.249 l
249.398 182.516 l
249.489 182.516 l
249.616 183.025 l
249.67 183.025 l
249.725 184.946 l
249.78 183.476 l
249.87 185.172 l
249.888 183.7 l
249.924 183.7 l
250.015 183.866 l
250.142 182.545 l
250.269 183.081 l
250.396 183.129 l
250.523 183.387 l
250.65 182.044 l
250.686 182.044 l
250.813 180.744 l
250.94 246.842 l
251.067 179.724 l
251.285 179.724 l
251.412 173.985 l
251.484 174.022 l
251.611 172.712 l
251.665 172.712 l
251.738 170.166 l
251.792 170.401 l
251.828 170.401 l
251.956 168.785 l
252.082 169.05 l
252.209 167.663 l
252.318 166.638 l
252.445 249.384 l
252.499 164.446 l
252.572 165.892 l
252.626 165.892 l
252.753 164.708 l
252.88 163.892 l
252.935 163.892 l
253.043 164.629 l
253.17 163.574 l
253.315 164.011 l
253.352 164.011 l
253.479 165.643 l
253.588 164.626 l
253.714 165.009 l
253.769 165.009 l
253.914 165.98 l
254.023 165.98 l
254.168 164.057 l
254.258 164.057 l
254.386 165.73 l
254.494 165.98 l
254.621 164.728 l
254.748 165.159 l
254.857 164.089 l
254.966 165.502 l
254.986 165.502 l
255.111 164.614 l
255.165 164.614 l
255.238 164.799 l
255.292 163.549 l
255.292 163.549 l
255.292 163.549 l
255.419 164.947 l
255.582 164.952 l
255.709 163.841 l
255.764 163.778 l
255.892 164.067 l
256.036 161.621 l
256.199 161.69 l
256.326 161.836 l
256.435 161.776 l
256.562 161.854 l
256.67 161.829 l
256.743 161.967 l
256.853 160.765 l
256.87 160.824 l
257.015 160.841 l
257.16 159.594 l
257.287 160.781 l
257.414 159.614 l
257.523 159.613 l
257.65 160.794 l
257.795 158.472 l
257.831 158.472 l
257.885 158.672 l
257.94 158.622 l
258.012 158.622 l
258.285 159.945 l
258.429 159.892 l
258.484 160.993 l
258.538 159.95 l
258.665 159.833 l
258.683 159.833 l
258.81 160.937 l
258.997 161.01 l
259.119 161.07 l
259.246 163.459 l
259.336 162.179 l
259.372 162.243 l
259.39 162.243 l
259.518 163.463 l
259.572 162.366 l
259.59 163.345 l
259.59 163.345 l
259.717 163.583 l
260.189 163.639 l
260.243 166.049 l
260.297 164.867 l
260.371 164.861 l
260.443 163.745 l
260.443 163.745 l
260.443 163.745 l
260.552 164.912 l
260.57 164.837 l
260.66 164.837 l
260.792 166.157 l
260.914 167.315 l
260.968 166.133 l
261.005 167.145 l
261.005 167.145 l
261.116 167.333 l
261.241 166.083 l
261.349 167.349 l
261.367 167.232 l
261.48 167.223 l
261.604 168.492 l
261.839 168.44 l
261.953 167.071 l
262.077 166.972 l
262.206 166.909 l
262.494 166.841 l
262.674 165.521 l
262.711 165.521 l
262.839 164.228 l
263.074 164.169 l
263.2 162.808 l
263.29 162.808 l
263.417 161.561 l
263.553 161.378 l
263.797 161.447 l
263.87 160.231 l
263.906 161.407 l
264.124 161.429 l
264.178 157.81 l
264.251 157.872 l
264.432 157.81 l
264.559 157.703 l
264.613 157.703 l
264.722 156.582 l
264.74 156.594 l
264.777 156.594 l
264.904 158.726 l
265.031 156.569 l
265.158 156.464 l
265.321 159.841 l
265.339 159.841 l
265.393 157.654 l
265.448 159.754 l
265.593 159.754 l
265.665 158.45 l
265.703 158.482 l
265.78 158.482 l
265.865 158.292 l
265.903 158.323 l
265.944 158.325 l
266.064 159.406 l
266.701 159.296 l
266.755 159.292 l
266.826 160.475 l
266.849 159.546 l
266.917 159.231 l
266.971 159.267 l
267.135 159.337 l
267.353 159.406 l
267.46 158.292 l
267.57 159.595 l
267.697 159.631 l
267.841 157.504 l
267.932 157.504 l
268.059 156.376 l
268.186 156.508 l
268.241 156.508 l
268.367 155.338 l
268.422 155.338 l
268.567 153.209 l
268.786 153.274 l
268.897 152.17 l
268.986 152.17 l
269.076 151.167 l
269.166 152.262 l
269.184 151.378 l
269.311 151.222 l
269.329 151.222 l
269.383 150.204 l
269.455 150.235 l
269.51 150.235 l
269.619 151.327 l
269.746 150.366 l
269.764 150.366 l
269.837 151.329 l
269.837 151.329 l
269.837 151.329 l
269.927 150.279 l
269.927 150.279 l
269.927 150.279 l
270.054 151.431 l
270.163 151.442 l
270.29 152.519 l
270.416 151.42 l
270.544 151.444 l
270.652 152.492 l
270.671 152.439 l
270.961 152.448 l
271.015 151.345 l
271.015 151.345 l
271.015 151.345 l
271.142 152.514 l
271.272 151.469 l
271.397 153.554 l
271.507 153.485 l
271.599 154.513 l
271.617 153.591 l
271.669 153.591 l
271.724 154.645 l
271.795 154.566 l
271.813 154.566 l
271.922 155.664 l
271.995 154.56 l
271.995 154.56 l
271.995 154.56 l
272.121 155.728 l
272.23 155.728 l
272.357 156.897 l
272.466 156.897 l
272.593 260.066 l
272.611 260.066 l
272.665 158.217 l
272.738 158.343 l
272.793 158.343 l
272.922 160.635 l
273.012 160.637 l
273.209 161.912 l
273.264 161.912 l
273.373 160.747 l
273.391 160.779 l
273.5 160.782 l
273.554 161.733 l
273.554 161.733 l
273.554 161.733 l
273.608 160.538 l
273.809 160.436 l
273.938 159.106 l
274.061 160.1 l
274.099 160.1 l
274.225 157.593 l
274.337 156.322 l
274.372 156.322 l
274.428 156.11 l
274.484 156.171 l
274.554 156.171 l
274.679 154.925 l
275.259 154.979 l
275.386 155.114 l
275.585 155.346 l
275.748 155.454 l
275.894 155.68 l
276.039 155.727 l
276.165 154.682 l
276.296 154.74 l
276.312 154.74 l
276.43 155.744 l
276.491 154.746 l
276.564 154.763 l
276.607 154.763 l
276.711 153.738 l
276.728 153.745 l
276.836 153.745 l
276.964 154.728 l
277.072 153.681 l
277.199 154.784 l
277.435 154.755 l
277.598 157.977 l
278.015 159.395 l
278.088 159.395 l
278.215 160.614 l
278.469 161.897 l
278.595 163.173 l
278.65 163.173 l
278.777 164.379 l
279.249 164.394 l
279.375 165.693 l
279.502 165.693 l
279.629 164.353 l
279.865 164.315 l
279.974 164.131 l
280.101 160.576 l
280.228 160.497 l
280.445 160.283 l
280.59 160.196 l
280.718 158.758 l
280.88 158.584 l
280.935 158.584 l
281.062 158.311 l
281.189 158.248 l
281.316 156.86 l
281.552 156.754 l
281.66 157.732 l
281.679 157.583 l
282.023 157.497 l
282.096 157.395 l
282.132 157.497 l
282.458 157.393 l
282.567 158.534 l
282.877 158.552 l
283.021 160.738 l
283.238 160.72 l
283.365 161.815 l
284.181 161.918 l
284.344 162.034 l
284.453 160.872 l
284.472 160.966 l
284.526 160.977 l
284.581 162.119 l
284.581 162.119 l
284.581 162.119 l
284.689 160.044 l
284.834 161.66 l
284.943 161.667 l
285.052 163.021 l
285.179 162.12 l
285.306 162.221 l
285.432 163.844 l
285.487 163.844 l
285.614 164.003 l
285.723 164.003 l
285.85 165.525 l
286.013 165.746 l
286.521 165.779 l
286.629 166.991 l
286.937 166.993 l
287.065 166.859 l
287.536 166.928 l
287.663 165.713 l
287.79 165.65 l
287.845 163.285 l
287.917 163.287 l
288.026 163.286 l
288.171 160.79 l
288.443 160.789 l
288.588 158.428 l
288.733 158.405 l
288.933 158.4 l
288.987 157.3 l
289.041 158.4 l
289.35 158.395 l
289.477 260.373 l
289.604 260.256 l
289.712 160.458 l
289.73 160.626 l
289.894 160.701 l
290.022 161.984 l
290.13 162.04 l
290.267 164.33 l
290.281 164.33 l
290.329 164.449 l
290.458 165.683 l
290.547 165.683 l
290.639 164.216 l
290.675 164.265 l
290.806 164.194 l
290.894 164.094 l
290.946 165.348 l
290.964 164.218 l
290.964 164.218 l
291.091 163.99 l
291.236 163.944 l
291.363 161.545 l
291.49 161.431 l
291.544 161.43 l
291.689 159.058 l
291.762 159.058 l
292.106 155.655 l
292.124 155.655 l
292.269 152.379 l
292.324 152.379 l
292.451 150.242 l
292.614 147.226 l
292.705 147.226 l
292.85 143.303 l
292.922 143.303 l
293.069 138.62 l
293.176 138.617 l
293.308 134.363 l
293.413 134.253 l
293.557 129.281 l
293.648 129.281 l
293.793 126.225 l
293.847 126.225 l
293.994 123.164 l
294.047 123.164 l
294.178 120.016 l
294.554 115.12 l
294.573 115.12 l
294.7 114.269 l
294.754 114.269 l
294.809 112.585 l
294.88 112.791 l
294.917 112.791 l
294.99 111.612 l
295.044 111.707 l
295.171 111.378 l
295.244 111.507 l
295.352 111.089 l
295.371 111.121 l
295.461 111.121 l
295.606 110.286 l
295.715 110.279 l
295.824 110.421 l
295.951 110.172 l
296.023 110.262 l
296.077 110.242 l
296.132 110.242 l
296.277 109.212 l
296.332 109.212 l
296.459 109.677 l
296.587 109.079 l
296.676 109.079 l
296.803 108.515 l
296.876 108.515 l
297.003 106.628 l
297.112 106.604 l
297.257 105.053 l
297.492 103.91 l
297.619 101.575 l
297.728 101.575 l
297.855 99.3826 l
297.964 99.4994 l
298.073 97.7192 l
298.091 97.838 l
298.127 97.8528 l
298.29 96.0556 l
298.453 96.0556 l
298.598 94.4331 l
298.617 94.4331 l
298.762 93.7428 l
298.798 93.7137 l
298.925 93.0889 l
299.052 92.6685 l
299.107 92.6685 l
299.161 93.0613 l
299.215 92.6862 l
299.251 92.5873 l
299.342 92.5698 l
299.505 93.3884 l
299.524 93.3884 l
299.669 93.063 l
299.777 93.063 l
299.904 93.2235 l
300.013 93.1107 l
300.194 93.5849 l
300.321 93.5175 l
300.448 93.6863 l
300.503 93.6882 l
300.612 93.8799 l
300.684 93.8047 l
300.738 94.0179 l
300.794 93.853 l
300.947 93.4452 l
300.993 93.4452 l
301.138 94.1242 l
301.156 94.1527 l
301.282 93.5698 l
301.337 93.5698 l
301.464 93.797 l
301.573 93.6906 l
301.736 94.5977 l
301.827 94.5977 l
302.044 95.3338 l
302.062 95.3482 l
302.189 95.9114 l
302.243 95.9114 l
302.371 95.5873 l
302.498 96.5813 l
302.733 96.5829 l
302.86 97.4326 l
303.023 98.726 l
303.15 98.6294 l
303.169 98.6294 l
303.296 99.4135 l
303.386 99.4135 l
303.513 100.326 l
303.64 100.6 l
303.767 100.797 l
303.84 100.761 l
303.984 101.638 l
304.057 101.638 l
304.22 102.463 l
304.239 102.463 l
304.311 102.853 l
304.311 102.853 l
304.311 102.853 l
304.42 102.243 l
304.548 102.598 l
304.655 102.733 l
304.784 102.658 l
304.946 103.479 l
305.091 103.449 l
305.218 103.68 l
305.816 103.826 l
305.961 104.255 l
306.052 104.255 l
306.197 105.275 l
306.234 105.275 l
306.378 107.086 l
306.415 107.086 l
306.542 106.8 l
306.687 109.051 l
306.778 109.098 l
306.923 111.442 l
307.031 111.442 l
307.177 113.57 l
307.213 113.57 l
307.34 115.002 l
307.448 115.042 l
307.521 115.879 l
307.557 115.727 l
307.63 115.727 l
307.684 115.503 l
307.684 115.503 l
307.684 115.503 l
307.829 116.267 l
307.938 116.267 l
307.993 116.635 l
308.047 116.309 l
308.065 116.309 l
308.21 115.023 l
308.246 115.023 l
308.355 115.138 l
308.482 113.661 l
308.609 113.715 l
308.79 111.609 l
308.899 111.651 l
309.081 109.924 l
309.099 109.924 l
309.262 108.518 l
309.28 108.518 l
309.425 107.422 l
309.57 107.325 l
309.699 106.434 l
309.824 105.927 l
309.879 105.927 l
309.914 105.405 l
310.242 105.405 l
310.35 105.087 l
310.423 105.771 l
310.459 105.152 l
310.549 105.12 l
310.677 105.578 l
310.785 105.579 l
310.93 106.614 l
311.021 106.614 l
311.149 107.104 l
311.311 107.858 l
311.511 107.905 l
311.638 108.354 l
311.855 108.841 l
312.001 108.841 l
312.127 109.482 l
312.327 108.819 l
312.653 108.842 l
312.726 108.993 l
312.78 108.982 l
312.853 108.982 l
312.998 107.92 l
313.125 107.893 l
313.342 107.893 l
313.397 107.397 l
313.47 107.402 l
313.814 107.498 l
313.941 107.126 l
314.086 107.563 l
314.177 107.563 l
314.231 107.065 l
314.285 107.513 l
314.358 107.513 l
314.485 107.649 l
314.612 107.356 l
314.684 107.921 l
314.739 107.851 l
314.793 107.851 l
314.94 108.815 l
315.158 108.755 l
315.267 109.108 l
315.286 109.103 l
315.391 109.103 l
315.468 108.852 l
315.592 110.38 l
315.737 110.283 l
315.882 110.108 l
316.066 110.088 l
316.189 110.816 l
316.335 111.194 l
316.371 111.204 l
316.48 112.015 l
316.534 111.446 l
316.588 111.559 l
316.77 112.202 l
316.824 112.202 l
316.951 111.069 l
317.096 111.027 l
317.188 111.027 l
317.315 110.055 l
317.441 110.172 l
317.459 110.172 l
317.55 109.743 l
317.568 109.909 l
317.676 109.909 l
317.824 110.221 l
317.913 110.221 l
318.058 110.643 l
318.166 110.643 l
318.293 110.906 l
318.348 110.906 l
318.456 111.069 l
318.583 110.713 l
318.638 111.353 l
318.692 110.906 l
318.783 111.014 l
319 111.195 l
319.545 109.112 l
319.671 107.418 l
319.745 107.418 l
319.871 106.218 l
319.98 106.167 l
320.034 105.322 l
320.108 105.328 l
320.234 104.603 l
320.343 104.603 l
320.487 102.918 l
320.578 102.942 l
320.723 102.195 l
320.833 102.195 l
320.944 101.378 l
320.959 101.398 l
321.068 101.398 l
321.195 101.021 l
321.249 101.055 l
321.376 100.671 l
321.43 100.671 l
321.593 99.893 l
321.667 99.893 l
321.793 100.293 l
321.829 100.293 l
321.956 99.9109 l
322.283 99.9124 l
322.428 100.651 l
322.754 100.584 l
322.882 100.925 l
323.026 100.681 l
323.244 100.539 l
323.267 100.687 l
323.371 100.709 l
323.534 100.276 l
323.552 100.276 l
323.77 99.4536 l
323.788 99.4536 l
323.915 99.5809 l
324.06 98.9863 l
324.242 99.0621 l
324.278 99.0621 l
324.423 98.4768 l
324.479 98.4454 l
324.568 98.7401 l
324.586 98.5015 l
324.899 97.9269 l
324.949 98.2048 l
325.003 98.1081 l
325.021 98.1081 l
325.13 97.9583 l
325.257 98.353 l
325.366 98.3635 l
325.42 97.8345 l
325.474 98.2125 l
325.547 98.2125 l
325.675 98.0507 l
325.801 98.0018 l
325.928 98.3213 l
325.964 98.3213 l
326.037 99.1209 l
326.073 98.6989 l
326.146 98.6989 l
326.273 99.6021 l
326.328 99.5994 l
326.455 100.078 l
326.581 100.61 l
326.635 100.61 l
326.708 101.516 l
326.744 101.146 l
326.817 101.146 l
326.962 102.209 l
327.052 102.209 l
327.18 102.786 l
327.234 102.315 l
327.234 102.315 l
327.234 102.315 l
327.361 102.842 l
327.38 102.842 l
327.505 103.379 l
327.85 103.432 l
327.977 104.005 l
328.449 104.223 l
328.576 105.012 l
328.721 105.263 l
328.757 105.263 l
328.957 106.079 l
328.993 106.079 l
329.138 107.62 l
329.337 108.05 l
329.356 108.05 l
329.537 109.228 l
329.591 109.228 l
329.718 110.231 l
329.773 110.231 l
329.9 111.153 l
330.135 112.045 l
330.153 112.045 l
330.298 111.471 l
330.389 111.471 l
330.444 111.627 l
330.571 111.148 l
330.734 109.792 l
330.752 109.792 l
330.915 108.482 l
330.988 108.482 l
331.115 107.099 l
331.26 105.317 l
331.351 105.317 l
331.496 103.173 l
331.604 103.173 l
331.749 102.375 l
331.84 102.375 l
331.967 101.528 l
332.021 101.528 l
332.148 101.132 l
332.384 101.124 l
332.511 101.522 l
332.62 101.115 l
332.765 101.857 l
332.874 101.857 l
333.001 102.281 l
333.057 102.643 l
333.127 102.615 l
333.164 102.615 l
333.291 103.428 l
333.345 103.795 l
333.418 103.768 l
333.472 103.768 l
333.599 104.193 l
333.708 104.169 l
333.835 104.995 l
333.962 105.45 l
334.198 105.467 l
334.324 105.974 l
334.379 105.974 l
334.451 106.469 l
334.488 106.043 l
334.687 106.078 l
334.814 106.611 l
334.869 106.201 l
334.869 106.201 l
334.869 106.201 l
334.941 106.658 l
334.977 106.224 l
335.05 106.224 l
335.177 106.667 l
335.231 106.635 l
335.358 106.12 l
335.521 105.951 l
335.594 105.951 l
335.721 105.752 l
335.776 105.752 l
335.92 105.401 l
336.011 105.334 l
336.138 105.659 l
336.156 105.659 l
336.266 105.42 l
336.41 106.077 l
336.501 106.077 l
336.664 107.215 l
336.791 107.111 l
336.936 107.003 l
337.045 107.904 l
337.063 107.865 l
337.153 107.865 l
337.335 108.268 l
337.371 108.225 l
337.462 108.225 l
337.589 108.726 l
337.734 108.652 l
338.078 108.75 l
338.423 108.952 l
338.622 109.057 l
338.731 109.197 l
338.858 108.863 l
339.003 109.016 l
339.058 109.021 l
339.166 108.609 l
339.275 109.227 l
339.348 108.769 l
339.348 108.769 l
339.348 108.769 l
339.475 109.432 l
339.711 109.545 l
339.819 110.137 l
339.946 109.708 l
340.074 110.321 l
340.472 111.59 l
340.49 111.59 l
340.636 110.704 l
340.726 110.704 l
340.853 111.276 l
340.98 111.339 l
341.034 110.856 l
341.107 110.875 l
341.161 110.875 l
341.288 110.401 l
341.451 110.454 l
341.524 110.454 l
341.633 109.948 l
341.651 109.969 l
341.76 109.971 l
341.905 108.998 l
341.995 108.998 l
342.159 108.054 l
342.485 107.973 l
342.613 107.402 l
342.757 107.259 l
342.975 107.162 l
343.12 107.027 l
343.211 107.025 l
343.338 107.467 l
343.483 107.321 l
343.591 107.321 l
343.7 108.166 l
343.718 108.115 l
343.827 108.115 l
343.954 108.625 l
344.19 108.616 l
344.244 109.12 l
344.317 109.117 l
344.48 109.187 l
344.607 110.33 l
344.734 110.942 l
345.024 112.798 l
345.06 112.374 l
345.151 112.374 l
345.278 113.004 l
345.332 113.005 l
345.477 114.027 l
345.64 113.981 l
345.768 113.866 l
345.822 113.866 l
345.931 114.26 l
346.058 113.614 l
346.186 113.443 l
346.205 113.443 l
346.84 110.616 l
347.003 110.551 l
347.128 110.457 l
347.273 110.386 l
347.436 111.891 l
347.473 111.894 l
347.635 113.521 l
347.69 113.521 l
347.835 116.365 l
347.871 116.392 l
348.034 118.182 l
348.125 118.182 l
348.252 120.081 l
348.288 120.081 l
348.434 123.97 l
348.488 124.074 l
348.633 127.151 l
348.832 129.068 l
348.851 129.068 l
348.977 132.729 l
349.105 134.264 l
349.213 134.474 l
349.341 138.53 l
349.449 138.53 l
349.576 141.065 l
349.631 141.087 l
349.757 142.855 l
349.902 144.686 l
350.047 144.689 l
350.192 146.555 l
350.429 146.529 l
350.556 147.396 l
350.665 147.384 l
350.791 146.388 l
350.846 146.388 l
350.991 144.408 l
351.136 144.387 l
351.263 143.43 l
351.498 142.482 l
351.571 140.654 l
351.607 141.557 l
351.752 141.528 l
351.807 140.599 l
351.879 140.602 l
352.06 140.599 l
352.169 139.726 l
352.188 139.75 l
352.423 139.785 l
352.568 138.238 l
352.768 138.265 l
352.895 137.526 l
353.022 138.414 l
353.076 138.414 l
353.203 139.327 l
353.33 138.499 l
353.384 140.303 l
353.439 139.473 l
353.511 139.473 l
353.566 138.721 l
353.638 138.733 l
353.802 138.824 l
353.874 138.857 l
353.93 139.742 l
353.983 138.91 l
354.056 138.91 l
354.182 139.826 l
354.346 139.877 l
354.364 139.877 l
354.491 140.695 l
354.781 140.712 l
354.907 139.924 l
355.56 139.904 l
355.688 140.691 l
355.797 140.691 l
355.869 139.888 l
355.905 140.675 l
356.359 140.661 l
356.413 139.861 l
356.467 140.645 l
356.522 140.645 l
356.649 139.844 l
356.776 140.588 l
357.483 140.306 l
357.501 140.306 l
357.628 141.035 l
357.755 140.001 l
358.045 139.901 l
358.19 141.553 l
358.208 141.553 l
358.335 140.647 l
358.462 140.647 l
358.589 142.347 l
358.698 141.541 l
358.825 142.41 l
359.042 142.552 l
359.188 142.655 l
359.314 143.573 l
359.442 143.683 l
359.677 143.821 l
359.822 143.874 l
360.04 143.956 l
360.167 143.132 l
360.511 143.201 l
360.638 142.374 l
360.766 142.39 l
360.893 141.49 l
361.11 141.514 l
361.853 141.531 l
361.981 142.43 l
361.999 142.43 l
362.107 141.535 l
362.217 142.419 l
362.234 142.413 l
362.579 142.391 l
362.706 143.19 l
362.814 143.175 l
362.887 142.284 l
362.923 143.085 l
363.195 142.995 l
363.322 142.917 l
363.431 142.917 l
363.558 143.661 l
363.721 143.616 l
363.921 143.62 l
364.066 145.396 l
364.175 145.466 l
364.294 146.447 l
364.306 146.447 l
364.356 146.589 l
364.594 146.692 l
364.721 147.674 l
364.85 147.721 l
364.955 147.773 l
365.03 146.876 l
365.047 147.723 l
365.047 147.723 l
365.082 147.814 l
365.208 146.926 l
365.372 146.935 l
365.499 145.482 l
365.626 145.032 l
365.735 145.028 l
365.861 144.02 l
365.97 144.019 l
366.242 142.873 l
366.26 142.873 l
366.387 142.643 l
366.55 142.193 l
366.642 142.193 l
366.84 140.829 l
366.877 140.829 l
366.95 141.357 l
366.986 141.137 l
367.131 141.05 l
367.24 141.52 l
367.312 141.277 l
367.457 142.616 l
367.548 142.641 l
367.656 142.259 l
367.802 143.433 l
367.91 143.433 l
368.037 144.118 l
368.182 145.326 l
368.273 145.326 l
368.4 145.124 l
368.509 145.489 l
368.636 145.418 l
368.744 146.175 l
368.871 145.058 l
368.982 145.583 l
369.125 145.283 l
369.162 145.283 l
369.307 143.135 l
369.434 143.026 l
369.543 143.024 l
369.67 142.718 l
369.815 142.556 l
369.923 142.556 l
370.05 141.497 l
370.087 141.497 l
370.214 140.515 l
370.377 140.434 l
370.504 139.53 l
370.685 138.602 l
370.812 138.369 l
370.921 138.369 l
371.048 137.545 l
371.175 137.464 l
371.283 137.467 l
371.411 137.699 l
371.846 137.778 l
371.973 138.682 l
372.136 138.682 l
372.263 138.45 l
372.281 138.45 l
372.335 139.141 l
372.408 139.062 l
372.498 139.065 l
372.571 139.967 l
372.626 139.965 l
372.699 139.883 l
372.807 138.983 l
372.952 140.362 l
373.061 140.292 l
373.17 140.128 l
373.297 140.856 l
373.369 140.773 l
373.442 140.689 l
373.569 140.689 l
373.696 140.269 l
373.787 140.184 l
373.895 140.099 l
373.968 138.954 l
374.004 139.927 l
374.33 139.845 l
374.385 139.757 l
374.457 140.641 l
374.457 140.641 l
374.457 140.641 l
374.566 139.668 l
374.694 140.554 l
374.82 140.467 l
374.929 141.404 l
375.11 140.206 l
375.237 141.053 l
375.4 140.786 l
375.6 140.694 l
375.709 140.331 l
375.836 140.987 l
376.018 140.987 l
376.144 140.806 l
376.307 140.532 l
376.924 140.439 l
376.978 139.515 l
377.032 140.344 l
377.54 140.434 l
377.594 141.168 l
377.613 140.513 l
377.613 140.513 l
377.74 140.248 l
377.776 140.248 l
377.903 140.431 l
378.03 140.342 l
378.139 140.341 l
378.266 140.062 l
378.447 139.688 l
378.556 139.688 l
378.701 138.395 l
378.773 138.492 l
378.828 139.405 l
378.828 139.405 l
378.828 139.405 l
378.9 138.398 l
378.937 139.029 l
379.082 139.029 l
379.208 138.743 l
379.227 138.743 l
379.281 137.644 l
379.335 138.458 l
379.408 138.458 l
379.535 137.263 l
379.662 137.071 l
379.773 137.882 l
379.916 137.105 l
380.044 137.201 l
380.172 137.103 l
380.298 137.005 l
380.462 137.005 l
380.588 137.904 l
380.754 138.199 l
380.77 138.199 l
380.841 139.098 l
380.877 138.686 l
380.932 138.686 l
381.059 139.786 l
381.117 139.786 l
381.24 140.925 l
381.349 140.94 l
381.475 142.196 l
381.62 142.788 l
381.766 142.788 l
381.838 143.081 l
381.874 142.985 l
381.893 142.985 l
381.948 144.243 l
382.001 143.273 l
382.31 143.176 l
382.382 144.141 l
382.382 144.141 l
382.382 144.141 l
382.491 143.077 l
382.509 143.079 l
382.792 143.174 l
383.086 143.174 l
383.228 144.143 l
383.301 143.298 l
383.446 144.138 l
383.585 144.138 l
383.664 143.171 l
383.737 143.171 l
383.883 142.204 l
384.031 142.008 l
384.243 141.908 l
384.461 139.646 l
384.533 139.646 l
384.753 137.826 l
384.968 137.921 l
385.042 140.035 l
385.114 139.405 l
385.261 139.499 l
385.333 140.511 l
385.405 139.591 l
385.548 141.074 l
385.694 141.261 l
385.767 140.616 l
385.839 140.891 l
385.912 140.892 l
386.066 141.258 l
386.124 141.258 l
386.202 142.279 l
386.42 143.187 l
386.493 143.187 l
386.725 143.889 l
386.922 144.669 l
386.927 144.669 l
387.075 144.144 l
387.217 144.399 l
387.292 145.687 l
387.437 143.541 l
387.653 142.695 l
387.726 142.932 l
387.944 142.347 l
388.016 142.613 l
388.131 142.245 l
388.149 142.464 l
388.421 143.356 l
388.475 142.897 l
388.475 142.897 l
388.475 142.897 l
388.603 143.991 l
388.766 145.593 l
388.784 145.593 l
388.911 145.132 l
389.038 146.55 l
389.092 146.55 l
389.219 147.001 l
389.382 148.317 l
389.4 147.694 l
389.509 147.519 l
389.654 147.795 l
389.745 147.795 l
389.872 146.959 l
389.981 147.873 l
390.144 145.861 l
390.18 145.861 l
390.307 144.725 l
390.416 144.708 l
390.561 142.492 l
390.616 142.393 l
390.724 142.375 l
390.87 140.081 l
390.978 140.081 l
391.196 138.485 l
391.268 138.485 l
391.413 136.328 l
391.504 136.328 l
391.633 136.084 l
391.635 136.084 l
391.758 135.784 l
391.885 135.386 l
391.939 135.362 l
392.048 136.074 l
392.194 135.79 l
392.302 135.789 l
392.447 137.265 l
392.538 137.265 l
392.665 138.2 l
392.719 138.2 l
392.846 140.019 l
392.864 139.963 l
392.973 140.019 l
393.082 141.073 l
393.1 141.071 l
393.136 141.071 l
393.264 142.121 l
393.445 143.448 l
393.499 142.503 l
393.517 143.407 l
393.517 143.407 l
393.662 143.917 l
393.825 144.015 l
393.88 143.319 l
393.88 143.319 l
393.88 143.319 l
393.989 144.443 l
394.115 143.726 l
394.244 143.985 l
394.351 143.336 l
394.496 143.777 l
394.587 143.777 l
394.714 142.979 l
394.787 143.202 l
394.932 141.629 l
395.023 141.705 l
395.185 141.83 l
395.386 141.877 l
395.494 141.945 l
395.621 141.085 l
395.766 141.141 l
396.292 141.164 l
396.419 141.125 l
396.782 141.064 l
396.89 141.95 l
396.909 141.946 l
397.017 141.945 l
397.144 140.998 l
397.29 142.791 l
397.507 142.791 l
397.634 141.905 l
397.779 143.669 l
397.924 143.727 l
398.069 142.147 l
398.16 142.145 l
398.287 141.321 l
398.432 141.448 l
398.957 141.547 l
399.085 141.566 l
399.193 139.923 l
399.32 140.71 l
399.484 140.687 l
399.556 140.687 l
399.683 139.9 l
400.282 139.895 l
400.427 138.281 l
400.609 138.276 l
400.662 139.056 l
400.879 138.244 l
400.952 138.244 l
401.079 137.336 l
401.497 137.231 l
401.569 137.207 l
401.678 135.627 l
401.787 136.331 l
401.805 136.323 l
401.932 136.315 l
402.059 137.106 l
402.403 137.167 l
402.53 138.048 l
402.711 138.089 l
402.838 138.958 l
402.893 138.959 l
403.019 139.825 l
403.183 139.847 l
403.31 140.666 l
403.491 140.695 l
404.235 140.704 l
404.271 139.903 l
404.362 139.915 l
404.526 139.904 l
404.653 138.227 l
405.124 138.086 l
405.359 137.993 l
405.486 137.963 l
405.631 139.465 l
405.722 139.465 l
405.849 138.537 l
405.994 140.103 l
406.34 140.008 l
406.447 140.843 l
406.465 140.821 l
406.81 140.839 l
406.955 142.589 l
407.118 142.581 l
407.245 143.481 l
407.608 143.51 l
407.735 142.665 l
407.845 142.665 l
407.971 141.82 l
408.134 141.844 l
408.207 141.844 l
408.333 140.942 l
408.515 140.938 l
408.642 140.088 l
408.751 139.27 l
408.769 139.294 l
408.878 139.294 l
408.95 137.607 l
409.004 137.641 l
409.113 137.636 l
409.24 136.762 l
409.313 136.762 l
409.367 135.979 l
409.439 135.983 l
409.603 136.007 l
409.73 135.274 l
409.93 134.475 l
410.564 134.498 l
410.691 135.293 l
411.108 135.297 l
411.235 136.007 l
411.38 136.007 l
411.779 136.034 l
411.906 135.274 l
412.015 136.034 l
412.16 134.604 l
412.269 134.564 l
412.414 134.621 l
412.432 134.621 l
412.559 133.909 l
412.686 133.946 l
412.74 133.225 l
412.813 133.229 l
412.994 133.275 l
413.121 132.547 l
413.23 133.311 l
413.248 133.292 l
413.466 133.279 l
413.611 134.7 l
413.828 134.68 l
413.901 135.346 l
413.955 135.306 l
414.01 135.306 l
414.137 134.348 l
414.264 136.288 l
414.318 136.34 l
414.318 136.34 l
414.318 136.34 l
414.445 136.149 l
414.463 136.149 l
414.59 135.84 l
414.626 135.84 l
414.68 136.411 l
414.753 136.29 l
414.808 136.29 l
414.916 136.042 l
415.062 138.662 l
415.224 139.4 l
415.297 138.207 l
415.333 138.986 l
415.424 138.986 l
415.478 139.649 l
415.533 139.541 l
415.587 139.541 l
415.769 141.838 l
415.896 141.779 l
416.041 143.164 l
416.131 143.226 l
416.259 144.092 l
416.44 144.158 l
416.567 145.15 l
416.621 145.15 l
416.748 147.261 l
416.876 148.361 l
416.93 148.372 l
417.038 147.384 l
417.056 147.526 l
417.22 147.625 l
417.294 147.625 l
417.419 148.911 l
417.582 148.911 l
417.71 150.017 l
417.836 149.023 l
417.945 149.08 l
418.072 150.13 l
418.217 150.238 l
419.078 150.575 l
419.158 150.629 l
419.373 148.789 l
419.458 148.787 l
419.675 149.036 l
419.949 146.342 l
420.02 146.342 l
420.309 143.701 l
420.316 143.701 l
421.181 132.804 l
421.328 129.774 l
421.399 129.774 l
421.762 123.499 l
421.832 123.499 l
421.906 121.531 l
422.198 118.438 l
422.263 118.438 l
422.35 116.632 l
422.56 113.328 l
422.779 110.214 l
422.85 110.149 l
423.068 105.783 l
423.14 105.73 l
423.43 100.07 l
423.502 100.07 l
423.714 96.7961 l
423.72 96.7961 l
423.937 93.3829 l
424.011 93.3829 l
424.3 89.2342 l
424.373 89.2342 l
424.581 86.9332 l
424.662 86.9332 l
424.881 85.3386 l
425.17 84.1167 l
425.238 84.1517 l
425.257 84.1517 l
425.461 83.5134 l
425.678 82.911 l
425.753 82.911 l
426.035 82.1781 l
426.04 82.1781 l
426.26 81.2272 l
426.331 81.2272 l
426.622 79.9456 l
426.695 79.9456 l
427.201 78.3828 l
427.348 77.6624 l
427.419 77.6407 l
427.638 77.1346 l
427.782 77.1267 l
427.996 76.9391 l
428.072 76.9391 l
428.427 77.6399 l
428.508 77.5125 l
428.798 77.9986 l
428.87 77.9307 l
429.015 78.1264 l
429.387 78.1809 l
429.45 78.2517 l
429.668 77.6225 l
429.813 77.6914 l
429.885 77.5766 l
430.03 77.155 l
430.176 77.1881 l
430.32 76.9378 l
430.54 76.9046 l
430.683 76.7707 l
430.828 77.333 l
430.976 77.1109 l
431.193 77.1025 l
431.628 76.2144 l
431.699 76.2147 l
431.771 75.8206 l
431.842 76.017 l
431.917 76.017 l
432.496 74.6822 l
432.569 74.678 l
432.715 74.5367 l
432.788 74.6844 l
432.859 74.6012 l
432.933 74.5933 l
433.296 75.2508 l
433.368 75.2988 l
433.372 75.29 l
433.522 75.0228 l
433.807 75.0228 l
433.879 75.293 l
433.95 75.0799 l
434.02 75.398 l
434.093 75.2597 l
434.17 75.2597 l
434.324 75.4625 l
434.46 75.4161 l
434.746 77.0482 l
436.345 77.0437 l
442.872 77.0437 l
443.02 118.631 l
443.306 120.674 l
443.375 120.674 l
443.452 122.261 l
443.525 122.261 l
443.669 122.824 l
443.813 122.521 l
443.886 122.572 l
444.034 121.103 l
444.095 121.195 l
444.168 121.195 l
444.249 118.893 l
444.394 119.12 l
444.684 113.657 l
444.829 113.352 l
445.047 108.666 l
445.12 108.666 l
445.337 103.323 l
445.627 97.7286 l
445.773 95.9711 l
445.844 95.9711 l
446.143 91.2436 l
446.157 91.2436 l
446.28 90.3288 l
446.935 85.174 l
447.005 85.174 l
447.078 84.8469 l
447.15 84.8686 l
447.223 84.8686 l
447.372 84.0764 l
447.586 83.5931 l
447.733 83.574 l
447.877 82.9792 l
448.238 81.8815 l
449.404 80.2137 l
449.547 80.1954 l
449.689 79.871 l
449.989 79.8777 l
450.125 79.6903 l
450.416 79.7639 l
450.487 79.7702 l
450.64 79.5525 l
450.777 79.7865 l
450.999 79.7906 l
451.142 79.5646 l
451.358 79.5646 l
451.503 79.7855 l
451.576 79.7855 l
451.864 80.5778 l
452.011 80.4183 l
452.084 80.4183 l
452.228 80.9084 l
452.446 80.9182 l
452.519 81.4259 l
452.591 81.4147 l
452.663 81.4138 l
452.809 81.1034 l
452.954 81.0515 l
453.169 80.2722 l
453.244 80.2722 l
453.607 78.9479 l
453.67 78.9479 l
453.751 78.6709 l
453.969 78.0661 l
454.332 77.9082 l
454.622 77.6475 l
454.767 77.5394 l
455.067 77.2448 l
455.229 77.3217 l
455.469 76.9399 l
455.494 76.9399 l
455.612 76.7306 l
455.63 76.7306 l
455.776 76.0884 l
455.92 76.028 l
456.065 74.8678 l
456.155 74.8678 l
456.283 74.2583 l
456.319 74.2576 l
456.5 73.349 l
456.523 73.349 l
456.664 72.5242 l
456.683 72.5242 l
456.809 71.6526 l
456.846 71.6526 l
456.989 70.8943 l
457.062 70.8571 l
457.207 69.8395 l
457.353 69.8277 l
457.479 69.5158 l
457.552 69.3385 l
457.588 69.4153 l
457.661 69.4153 l
457.788 68.6421 l
457.861 68.5343 l
458.078 68.2808 l
458.204 67.3383 l
458.441 67.2526 l
458.513 67.1479 l
458.567 67.1795 l
458.622 67.1795 l
458.748 67.3616 l
458.803 67.3616 l
458.948 68.1497 l
458.985 68.1497 l
459.13 68.5913 l
459.166 68.5913 l
459.329 69.7157 l
459.347 69.7157 l
459.583 70.8153 l
459.601 70.8153 l
459.729 71.8701 l
459.786 71.8701 l
459.928 72.836 l
459.964 72.836 l
460.145 73.8704 l
460.236 73.8704 l
460.417 75.7609 l
460.508 75.7609 l
460.653 77.5356 l
460.798 77.8506 l
460.943 80.1435 l
461.053 80.1435 l
461.197 83.2772 l
461.233 83.2772 l
461.378 86.0719 l
461.469 86.0719 l
461.596 89.1727 l
461.959 92.3324 l
462.086 95.2468 l
462.448 98.5282 l
462.503 98.5282 l
462.63 100.565 l
462.738 100.621 l
462.865 101.625 l
462.992 102.066 l
463.047 102.066 l
463.174 102.611 l
463.283 102.632 l
463.409 103.117 l
463.464 103.117 l
463.591 102.639 l
464.008 101.295 l
464.062 101.295 l
464.171 100.871 l
464.427 99.6229 l
464.481 99.6229 l
464.662 98.3328 l
464.698 98.3328 l
464.896 97.0943 l
465.062 97.0491 l
465.187 96.6586 l
465.332 96.6893 l
465.459 97.1118 l
465.588 96.9547 l
465.716 97.8835 l
465.843 98.7374 l
465.876 98.7374 l
466.027 101.362 l
466.131 101.362 l
466.257 103.554 l
466.311 103.554 l
466.438 104.959 l
466.492 104.959 l
466.619 106.294 l
466.765 108.732 l
466.841 109.053 l
466.892 109.044 l
466.932 109.044 l
467.091 111.161 l
467.218 111.66 l
467.381 112.709 l
467.454 112.709 l
467.526 113.339 l
467.581 113.276 l
467.925 113.232 l
468.705 109.526 l
468.85 108.489 l
468.977 108.494 l
469.122 106.833 l
469.213 106.763 l
469.249 106.825 l
469.339 106.758 l
469.468 106.155 l
469.595 106.252 l
469.614 106.252 l
469.778 106.799 l
469.884 106.86 l
470.029 107.9 l
470.119 107.9 l
470.246 108.867 l
470.3 108.869 l
470.446 111.03 l
470.482 111.03 l
470.627 113.121 l
470.772 113.196 l
470.917 116.466 l
471.08 117.771 l
471.226 120.249 l
471.334 120.345 l
471.462 122.964 l
471.57 123.025 l
471.698 124.973 l
471.86 127.881 l
471.933 127.881 l
472.078 130.214 l
472.187 130.262 l
472.241 131.858 l
472.313 131.78 l
472.351 131.78 l
472.477 132.709 l
472.622 134.421 l
472.713 134.373 l
472.858 135.358 l
473.166 135.424 l
473.239 135.477 l
473.456 135.535 l
473.601 134.156 l
473.692 134.156 l
473.819 132.567 l
473.946 131.736 l
474.073 131.734 l
474.2 129.576 l
474.236 129.576 l
474.381 128.019 l
474.472 127.986 l
474.599 125.908 l
474.655 125.908 l
474.798 124.32 l
474.889 124.32 l
475.016 123.657 l
475.378 122.12 l
475.451 122.12 l
475.596 120.49 l
475.814 120.527 l
475.941 120.084 l
476.049 120.082 l
476.176 119.894 l
476.285 119.892 l
476.43 120.895 l
476.54 120.928 l
476.648 121.586 l
476.666 121.46 l
476.775 121.443 l
476.829 122.088 l
476.903 122.016 l
477.138 122.09 l
477.265 122.674 l
477.482 123.438 l
477.5 123.438 l
477.627 124.131 l
477.772 124.258 l
477.809 124.258 l
477.937 124.878 l
478.099 125.148 l
478.226 125.231 l
478.371 126.288 l
478.425 126.288 l
478.57 127.861 l
478.661 127.861 l
478.77 127.34 l
478.897 128.165 l
478.951 128.405 l
479.023 128.383 l
479.078 128.383 l
479.205 129.298 l
479.259 129.298 l
479.386 129.455 l
479.622 129.531 l
479.731 130.359 l
479.858 129.611 l
479.985 129.505 l
480.112 129.622 l
480.475 129.546 l
480.62 128.164 l
480.71 128.164 l
480.892 127.333 l
480.983 127.278 l
481.109 126.59 l
481.2 126.58 l
481.254 126.416 l
481.308 126.558 l
481.381 126.558 l
481.527 125.211 l
481.671 125.247 l
481.801 125.817 l
481.943 125.754 l
482.034 125.754 l
482.161 126.408 l
482.288 126.327 l
482.307 126.327 l
482.527 126.964 l
482.651 126.954 l
482.724 126.954 l
482.85 128.959 l
482.959 129.012 l
483.069 128.935 l
483.195 129.657 l
483.306 129.558 l
483.43 130.378 l
483.557 130.494 l
483.666 130.53 l
483.793 131.458 l
483.866 131.359 l
483.902 131.406 l
483.974 131.414 l
484.101 132.302 l
484.301 132.288 l
484.409 131.557 l
484.519 132.473 l
484.591 131.726 l
484.627 132.459 l
485.679 132.542 l
485.806 131.658 l
485.933 131.817 l
485.951 131.817 l
486.078 131.01 l
486.151 130.934 l
486.278 131.128 l
486.641 131.128 l
486.767 130.435 l
487.003 130.439 l
487.13 131.128 l
487.64 131.025 l
487.73 130.223 l
487.765 130.266 l
487.81 130.266 l
487.91 130.956 l
488.037 130.995 l
488.164 130.957 l
488.345 130.957 l
488.472 131.599 l
488.526 131.599 l
488.654 131.387 l
488.708 132.152 l
488.762 131.975 l
488.835 131.975 l
489.016 131.154 l
489.126 131.105 l
489.252 131.756 l
489.306 131.756 l
489.379 131.598 l
489.415 131.635 l
489.542 131.572 l
489.959 130.343 l
490.05 130.327 l
490.177 129.593 l
490.213 129.593 l
490.358 128.052 l
490.449 128.052 l
490.648 127.079 l
490.757 127.077 l
490.902 125.738 l
490.993 125.708 l
491.12 124.981 l
491.247 124.891 l
491.356 124.89 l
491.482 124.186 l
491.573 124.094 l
491.591 124.186 l
491.918 124.186 l
491.99 123.364 l
492.026 123.995 l
492.045 123.995 l
492.099 123.526 l
492.117 123.973 l
492.117 123.973 l
492.227 124.251 l
492.316 123.614 l
492.335 124.175 l
492.465 124.247 l
492.861 124.213 l
492.988 124.776 l
493.025 124.776 l
493.084 124.985 l
493.151 124.934 l
493.405 124.852 l
493.424 124.852 l
493.568 126.008 l
493.681 126.008 l
493.805 125.801 l
493.914 125.796 l
494.021 126.226 l
494.112 125.821 l
494.148 125.844 l
494.203 125.844 l
494.275 124.9 l
494.312 125.352 l
494.384 125.352 l
494.547 124.885 l
494.62 124.885 l
494.747 124.638 l
494.801 124.638 l
494.928 123.756 l
495.055 123.475 l
495.164 123.517 l
495.291 123.415 l
495.364 123.455 l
495.418 123.142 l
495.49 123.181 l
495.545 123.181 l
495.671 124.317 l
495.781 124.317 l
495.98 125.191 l
496.016 125.191 l
496.197 126.232 l
496.379 126.31 l
496.506 126.065 l
496.651 127.525 l
496.869 127.463 l
496.995 127.354 l
497.177 127.354 l
497.232 127.195 l
497.286 127.337 l
497.34 127.337 l
497.467 127.612 l
497.521 127.612 l
497.721 128.704 l
497.775 128.704 l
497.903 128.531 l
498.011 128.62 l
498.138 130.042 l
498.192 130.002 l
498.319 130.693 l
498.446 130.722 l
498.555 130.676 l
498.573 130.689 l
498.863 130.638 l
498.991 130.572 l
499.607 130.572 l
499.734 131.424 l
499.843 131.441 l
499.97 132.305 l
500.078 132.309 l
500.133 133.168 l
500.133 133.168 l
500.133 133.168 l
500.278 131.475 l
500.351 131.572 l
500.387 131.587 l
500.459 132.345 l
500.64 132.399 l
500.749 133.341 l
500.876 131.594 l
501.003 132.503 l
501.094 132.505 l
501.166 130.822 l
501.221 130.83 l
501.348 130.765 l
501.53 130.842 l
501.656 131.048 l
501.765 131.115 l
501.946 133.752 l
502.019 133.819 l
502.149 134.707 l
502.255 134.84 l
502.382 137.527 l
502.436 137.593 l
502.563 138.471 l
502.617 138.471 l
502.744 139.913 l
502.871 139.933 l
503.052 140.854 l
503.452 140.908 l
503.597 139.083 l
503.942 138.766 l
504.014 137.823 l
504.068 138.013 l
504.122 138.013 l
504.249 138.973 l
504.376 137.743 l
504.504 137.283 l
504.702 137.27 l
510.76 137.27 l
510.76 137.27 l
stroke
grestore
0.500 setlinewidth
0 setlinecap
[1 3] 0 setdash
0.000 setgray
gsave
453.4 226.6 73.12 40.7 clipbox
73.125 40.6968 m
73.125 267.3 l
stroke
grestore
[] 0 setdash
gsave
/o {
gsave
newpath
translate
0.5 setlinewidth
1 setlinejoin
0 setlinecap
0 0 m
0 4 l
gsave
0.000 setgray
fill
grestore
stroke
grestore
} bind def
73.125 40.6968 o
grestore
gsave
/o {
gsave
newpath
translate
0.5 setlinewidth
1 setlinejoin
0 setlinecap
0 0 m
0 -4 l
gsave
0.000 setgray
fill
grestore
stroke
grestore
} bind def
73.125 267.3 o
grestore
/DejaVuSans findfont
12.000 scalefont
setfont
gsave
70.101562 27.618668 translate
0.000000 rotate
0.000000 0.171875 m /zero glyphshow
grestore
[1 3] 0 setdash
gsave
453.4 226.6 73.12 40.7 clipbox
163.8 40.6968 m
163.8 267.3 l
stroke
grestore
[] 0 setdash
gsave
/o {
gsave
newpath
translate
0.5 setlinewidth
1 setlinejoin
0 setlinecap
0 0 m
0 4 l
gsave
0.000 setgray
fill
grestore
stroke
grestore
} bind def
163.8 40.6968 o
grestore
gsave
/o {
gsave
newpath
translate
0.5 setlinewidth
1 setlinejoin
0 setlinecap
0 0 m
0 -4 l
gsave
0.000 setgray
fill
grestore
stroke
grestore
} bind def
163.8 267.3 o
grestore
gsave
157.018750 27.618668 translate
0.000000 rotate
0.000000 0.171875 m /five glyphshow
7.634766 0.171875 m /zero glyphshow
grestore
[1 3] 0 setdash
gsave
453.4 226.6 73.12 40.7 clipbox
254.475 40.6968 m
254.475 267.3 l
stroke
grestore
[] 0 setdash
gsave
/o {
gsave
newpath
translate
0.5 setlinewidth
1 setlinejoin
0 setlinecap
0 0 m
0 4 l
gsave
0.000 setgray
fill
grestore
stroke
grestore
} bind def
254.475 40.6968 o
grestore
gsave
/o {
gsave
newpath
translate
0.5 setlinewidth
1 setlinejoin
0 setlinecap
0 0 m
0 -4 l
gsave
0.000 setgray
fill
grestore
stroke
grestore
} bind def
254.475 267.3 o
grestore
gsave
244.068750 27.618668 translate
0.000000 rotate
0.000000 0.171875 m /one glyphshow
7.634766 0.171875 m /zero glyphshow
15.269531 0.171875 m /zero glyphshow
grestore
[1 3] 0 setdash
gsave
453.4 226.6 73.12 40.7 clipbox
345.15 40.6968 m
345.15 267.3 l
stroke
grestore
[] 0 setdash
gsave
/o {
gsave
newpath
translate
0.5 setlinewidth
1 setlinejoin
0 setlinecap
0 0 m
0 4 l
gsave
0.000 setgray
fill
grestore
stroke
grestore
} bind def
345.15 40.6968 o
grestore
gsave
/o {
gsave
newpath
translate
0.5 setlinewidth
1 setlinejoin
0 setlinecap
0 0 m
0 -4 l
gsave
0.000 setgray
fill
grestore
stroke
grestore
} bind def
345.15 267.3 o
grestore
gsave
334.743750 27.618668 translate
0.000000 rotate
0.000000 0.171875 m /one glyphshow
7.634766 0.171875 m /five glyphshow
15.269531 0.171875 m /zero glyphshow
grestore
[1 3] 0 setdash
gsave
453.4 226.6 73.12 40.7 clipbox
435.825 40.6968 m
435.825 267.3 l
stroke
grestore
[] 0 setdash
gsave
/o {
gsave
newpath
translate
0.5 setlinewidth
1 setlinejoin
0 setlinecap
0 0 m
0 4 l
gsave
0.000 setgray
fill
grestore
stroke
grestore
} bind def
435.825 40.6968 o
grestore
gsave
/o {
gsave
newpath
translate
0.5 setlinewidth
1 setlinejoin
0 setlinecap
0 0 m
0 -4 l
gsave
0.000 setgray
fill
grestore
stroke
grestore
} bind def
435.825 267.3 o
grestore
gsave
425.200000 27.618668 translate
0.000000 rotate
0.000000 0.171875 m /two glyphshow
7.634766 0.171875 m /zero glyphshow
15.269531 0.171875 m /zero glyphshow
grestore
[1 3] 0 setdash
gsave
453.4 226.6 73.12 40.7 clipbox
526.5 40.6968 m
526.5 267.3 l
stroke
grestore
[] 0 setdash
gsave
/o {
gsave
newpath
translate
0.5 setlinewidth
1 setlinejoin
0 setlinecap
0 0 m
0 4 l
gsave
0.000 setgray
fill
grestore
stroke
grestore
} bind def
526.5 40.6968 o
grestore
gsave
/o {
gsave
newpath
translate
0.5 setlinewidth
1 setlinejoin
0 setlinecap
0 0 m
0 -4 l
gsave
0.000 setgray
fill
grestore
stroke
grestore
} bind def
526.5 267.3 o
grestore
gsave
515.875000 27.618668 translate
0.000000 rotate
0.000000 0.171875 m /two glyphshow
7.634766 0.171875 m /five glyphshow
15.269531 0.171875 m /zero glyphshow
grestore
/DejaVuSans findfont
18.000 scalefont
setfont
gsave
265.671875 6.571793 translate
0.000000 rotate
0.000000 2.375000 m /t glyphshow
7.057617 2.375000 m /i glyphshow
12.058594 2.375000 m /m glyphshow
29.592773 2.375000 m /e glyphshow
40.666992 2.375000 m /space glyphshow
46.388672 2.375000 m /bracketleft glyphshow
53.411133 2.375000 m /s glyphshow
62.789062 2.375000 m /bracketright glyphshow
grestore
[1 3] 0 setdash
gsave
453.4 226.6 73.12 40.7 clipbox
73.125 40.6968 m
526.5 40.6968 l
stroke
grestore
[] 0 setdash
gsave
/o {
gsave
newpath
translate
0.5 setlinewidth
1 setlinejoin
0 setlinecap
0 0 m
4 0 l
gsave
0.000 setgray
fill
grestore
stroke
grestore
} bind def
73.125 40.6968 o
grestore
gsave
/o {
gsave
newpath
translate
0.5 setlinewidth
1 setlinejoin
0 setlinecap
0 0 m
-4 0 l
gsave
0.000 setgray
fill
grestore
stroke
grestore
} bind def
526.5 40.6968 o
grestore
/DejaVuSans findfont
12.000 scalefont
setfont
gsave
42.281250 36.235856 translate
0.000000 rotate
0.000000 0.171875 m /minus glyphshow
10.054688 0.171875 m /one glyphshow
17.689453 0.171875 m /period glyphshow
21.503906 0.171875 m /five glyphshow
grestore
[1 3] 0 setdash
gsave
453.4 226.6 73.12 40.7 clipbox
73.125 69.0222 m
526.5 69.0222 l
stroke
grestore
[] 0 setdash
gsave
/o {
gsave
newpath
translate
0.5 setlinewidth
1 setlinejoin
0 setlinecap
0 0 m
4 0 l
gsave
0.000 setgray
fill
grestore
stroke
grestore
} bind def
73.125 69.0222 o
grestore
gsave
/o {
gsave
newpath
translate
0.5 setlinewidth
1 setlinejoin
0 setlinecap
0 0 m
-4 0 l
gsave
0.000 setgray
fill
grestore
stroke
grestore
} bind def
526.5 69.0222 o
grestore
gsave
42.031250 64.483131 translate
0.000000 rotate
0.000000 0.171875 m /minus glyphshow
10.054688 0.171875 m /one glyphshow
17.689453 0.171875 m /period glyphshow
21.503906 0.171875 m /zero glyphshow
grestore
[1 3] 0 setdash
gsave
453.4 226.6 73.12 40.7 clipbox
73.125 97.3476 m
526.5 97.3476 l
stroke
grestore
[] 0 setdash
gsave
/o {
gsave
newpath
translate
0.5 setlinewidth
1 setlinejoin
0 setlinecap
0 0 m
4 0 l
gsave
0.000 setgray
fill
grestore
stroke
grestore
} bind def
73.125 97.3476 o
grestore
gsave
/o {
gsave
newpath
translate
0.5 setlinewidth
1 setlinejoin
0 setlinecap
0 0 m
-4 0 l
gsave
0.000 setgray
fill
grestore
stroke
grestore
} bind def
526.5 97.3476 o
grestore
gsave
42.281250 92.808532 translate
0.000000 rotate
0.000000 0.171875 m /minus glyphshow
10.054688 0.171875 m /zero glyphshow
17.689453 0.171875 m /period glyphshow
21.503906 0.171875 m /five glyphshow
grestore
[1 3] 0 setdash
gsave
453.4 226.6 73.12 40.7 clipbox
73.125 125.673 m
526.5 125.673 l
stroke
grestore
[] 0 setdash
gsave
/o {
gsave
newpath
translate
0.5 setlinewidth
1 setlinejoin
0 setlinecap
0 0 m
4 0 l
gsave
0.000 setgray
fill
grestore
stroke
grestore
} bind def
73.125 125.673 o
grestore
gsave
/o {
gsave
newpath
translate
0.5 setlinewidth
1 setlinejoin
0 setlinecap
0 0 m
-4 0 l
gsave
0.000 setgray
fill
grestore
stroke
grestore
} bind def
526.5 125.673 o
grestore
gsave
51.625000 121.133933 translate
0.000000 rotate
0.000000 0.171875 m /zero glyphshow
7.634766 0.171875 m /period glyphshow
11.449219 0.171875 m /zero glyphshow
grestore
[1 3] 0 setdash
gsave
453.4 226.6 73.12 40.7 clipbox
73.125 153.998 m
526.5 153.998 l
stroke
grestore
[] 0 setdash
gsave
/o {
gsave
newpath
translate
0.5 setlinewidth
1 setlinejoin
0 setlinecap
0 0 m
4 0 l
gsave
0.000 setgray
fill
grestore
stroke
grestore
} bind def
73.125 153.998 o
grestore
gsave
/o {
gsave
newpath
translate
0.5 setlinewidth
1 setlinejoin
0 setlinecap
0 0 m
-4 0 l
gsave
0.000 setgray
fill
grestore
stroke
grestore
} bind def
526.5 153.998 o
grestore
gsave
51.875000 149.459334 translate
0.000000 rotate
0.000000 0.171875 m /zero glyphshow
7.634766 0.171875 m /period glyphshow
11.449219 0.171875 m /five glyphshow
grestore
[1 3] 0 setdash
gsave
453.4 226.6 73.12 40.7 clipbox
73.125 182.324 m
526.5 182.324 l
stroke
grestore
[] 0 setdash
gsave
/o {
gsave
newpath
translate
0.5 setlinewidth
1 setlinejoin
0 setlinecap
0 0 m
4 0 l
gsave
0.000 setgray
fill
grestore
stroke
grestore
} bind def
73.125 182.324 o
grestore
gsave
/o {
gsave
newpath
translate
0.5 setlinewidth
1 setlinejoin
0 setlinecap
0 0 m
-4 0 l
gsave
0.000 setgray
fill
grestore
stroke
grestore
} bind def
526.5 182.324 o
grestore
gsave
52.140625 177.784735 translate
0.000000 rotate
0.000000 0.171875 m /one glyphshow
7.634766 0.171875 m /period glyphshow
11.449219 0.171875 m /zero glyphshow
grestore
[1 3] 0 setdash
gsave
453.4 226.6 73.12 40.7 clipbox
73.125 210.649 m
526.5 210.649 l
stroke
grestore
[] 0 setdash
gsave
/o {
gsave
newpath
translate
0.5 setlinewidth
1 setlinejoin
0 setlinecap
0 0 m
4 0 l
gsave
0.000 setgray
fill
grestore
stroke
grestore
} bind def
73.125 210.649 o
grestore
gsave
/o {
gsave
newpath
translate
0.5 setlinewidth
1 setlinejoin
0 setlinecap
0 0 m
-4 0 l
gsave
0.000 setgray
fill
grestore
stroke
grestore
} bind def
526.5 210.649 o
grestore
gsave
52.390625 206.188261 translate
0.000000 rotate
0.000000 0.171875 m /one glyphshow
7.634766 0.171875 m /period glyphshow
11.449219 0.171875 m /five glyphshow
grestore
[1 3] 0 setdash
gsave
453.4 226.6 73.12 40.7 clipbox
73.125 238.975 m
526.5 238.975 l
stroke
grestore
[] 0 setdash
gsave
/o {
gsave
newpath
translate
0.5 setlinewidth
1 setlinejoin
0 setlinecap
0 0 m
4 0 l
gsave
0.000 setgray
fill
grestore
stroke
grestore
} bind def
73.125 238.975 o
grestore
gsave
/o {
gsave
newpath
translate
0.5 setlinewidth
1 setlinejoin
0 setlinecap
0 0 m
-4 0 l
gsave
0.000 setgray
fill
grestore
stroke
grestore
} bind def
526.5 238.975 o
grestore
gsave
51.703125 234.435537 translate
0.000000 rotate
0.000000 0.171875 m /two glyphshow
7.634766 0.171875 m /period glyphshow
11.449219 0.171875 m /zero glyphshow
grestore
[1 3] 0 setdash
gsave
453.4 226.6 73.12 40.7 clipbox
73.125 267.3 m
526.5 267.3 l
stroke
grestore
[] 0 setdash
gsave
/o {
gsave
newpath
translate
0.5 setlinewidth
1 setlinejoin
0 setlinecap
0 0 m
4 0 l
gsave
0.000 setgray
fill
grestore
stroke
grestore
} bind def
73.125 267.3 o
grestore
gsave
/o {
gsave
newpath
translate
0.5 setlinewidth
1 setlinejoin
0 setlinecap
0 0 m
-4 0 l
gsave
0.000 setgray
fill
grestore
stroke
grestore
} bind def
526.5 267.3 o
grestore
gsave
51.953125 262.760938 translate
0.000000 rotate
0.000000 0.171875 m /two glyphshow
7.634766 0.171875 m /period glyphshow
11.449219 0.171875 m /five glyphshow
grestore
gsave
37.031250 129.998397 translate
90.000000 rotate
/Cmmi10 findfont
18.0 scalefont
setfont
0.000000 3.328125 moveto
/x glyphshow

/DejaVuSans findfont
18.0 scalefont
setfont
10.274414 3.328125 moveto
/space glyphshow

15.996094 3.328125 moveto
/bracketleft glyphshow

23.018555 3.328125 moveto
/m glyphshow

40.552734 3.328125 moveto
/bracketright glyphshow


grestore
1.000 setlinewidth
2 setlinecap
gsave
73.125 267.3 m
526.5 267.3 l
stroke
grestore
gsave
526.5 40.6968 m
526.5 267.3 l
stroke
grestore
gsave
73.125 40.6968 m
526.5 40.6968 l
stroke
grestore
gsave
73.125 40.6968 m
73.125 267.3 l
stroke
grestore
/DejaVuSans findfont
24.000 scalefont
setfont
gsave
185.375000 269.128125 translate
0.000000 rotate
0.000000 3.171875 m /P glyphshow
13.597656 3.171875 m /o glyphshow
28.281250 3.171875 m /s glyphshow
40.785156 3.171875 m /i glyphshow
47.453125 3.171875 m /t glyphshow
56.863281 3.171875 m /i glyphshow
63.531250 3.171875 m /o glyphshow
78.214844 3.171875 m /n glyphshow
93.425781 3.171875 m /space glyphshow
101.054688 3.171875 m /parenleft glyphshow
110.417969 3.171875 m /x glyphshow
124.621094 3.171875 m /parenright glyphshow
133.984375 3.171875 m /space glyphshow
141.613281 3.171875 m /v glyphshow
155.816406 3.171875 m /s glyphshow
168.320312 3.171875 m /space glyphshow
175.949219 3.171875 m /t glyphshow
185.359375 3.171875 m /i glyphshow
192.027344 3.171875 m /m glyphshow
215.406250 3.171875 m /e glyphshow
grestore
gsave
415.46 210.099 m
519.3 210.099 l
519.3 260.1 l
415.46 260.1 l
415.46 210.099 l
cl
gsave
1.000 setgray
fill
grestore
stroke
grestore
gsave
425.54 248.739 m
445.7 248.739 l
stroke
grestore
gsave
461.540000 237.699375 translate
0.000000 rotate
/Cmmi10 findfont
14.4 scalefont
setfont
0.000000 6.640625 moveto
/x glyphshow

/Cmmi10 findfont
10.08 scalefont
setfont
8.214172 2.967275 moveto
/g glyphshow

13.019708 2.967275 moveto
/o glyphshow

17.894106 2.967275 moveto
/a glyphshow

23.211183 2.967275 moveto
/l glyphshow


grestore
1.000 0.000 0.000 setrgbcolor
gsave
425.54 224.899 m
445.7 224.899 l
stroke
grestore
0.000 setgray
gsave
461.540000 215.858750 translate
0.000000 rotate
/Cmmi10 findfont
14.4 scalefont
setfont
0.000000 4.640625 moveto
/x glyphshow

/Cmmi10 findfont
10.08 scalefont
setfont
8.214172 0.967275 moveto
/m glyphshow

17.057942 0.967275 moveto
/e glyphshow

21.740517 0.967275 moveto
/a glyphshow

27.057594 0.967275 moveto
/s glyphshow

31.769681 0.967275 moveto
/u glyphshow

37.529439 0.967275 moveto
/r glyphshow

42.074290 0.967275 moveto
/e glyphshow

46.756865 0.967275 moveto
/d glyphshow


grestore

end
showpage
