%!PS-Adobe-3.0 EPSF-3.0
%%Title: /home/kariya/catkin_ws/src/crazyflieROS/logdata/20140626/y_filter.eps
%%Creator: matplotlib version 1.1.1rc, http://matplotlib.sourceforge.net/
%%CreationDate: Thu Jun 26 12:11:37 2014
%%Orientation: portrait
%%BoundingBox: 13 247 598 544
%%EndComments
%%BeginProlog
/mpldict 9 dict def
mpldict begin
/m { moveto } bind def
/l { lineto } bind def
/r { rlineto } bind def
/c { curveto } bind def
/cl { closepath } bind def
/box {
m
1 index 0 r
0 exch r
neg 0 r
cl
} bind def
/clipbox {
box
clip
newpath
} bind def
%!PS-Adobe-3.0 Resource-Font
%%Title: DejaVu Sans
%%Copyright: Copyright (c) 2003 by Bitstream, Inc. All Rights Reserved. Copyright (c) 2006 by Tavmjong Bah. All Rights Reserved. DejaVu changes are in public domain 
%%Creator: Converted from TrueType to type 3 by PPR
25 dict begin
/_d{bind def}bind def
/_m{moveto}_d
/_l{lineto}_d
/_cl{closepath eofill}_d
/_c{curveto}_d
/_sc{7 -1 roll{setcachedevice}{pop pop pop pop pop pop}ifelse}_d
/_e{exec}_d
/FontName /DejaVuSans def
/PaintType 0 def
/FontMatrix[.001 0 0 .001 0 0]def
/FontBBox[-1021 -415 1681 1167]def
/FontType 3 def
/Encoding [ /space /parenleft /parenright /period /zero /one /two /three /four /five /six /seven /colon /A /B /F /G /P /bracketleft /bracketright /a /d /e /f /g /i /l /m /n /o /r /s /t /y /minus ] def
/FontInfo 10 dict dup begin
/FamilyName (DejaVu Sans) def
/FullName (DejaVu Sans) def
/Notice (Copyright (c) 2003 by Bitstream, Inc. All Rights Reserved. Copyright (c) 2006 by Tavmjong Bah. All Rights Reserved. DejaVu changes are in public domain ) def
/Weight (Book) def
/Version (Version 2.33) def
/ItalicAngle 0.0 def
/isFixedPitch false def
/UnderlinePosition -130 def
/UnderlineThickness 90 def
end readonly def
/CharStrings 35 dict dup begin
/space{318 0 0 0 0 0 _sc
}_d
/parenleft{390 0 86 -131 310 759 _sc
310 759 _m
266 683 234 609 213 536 _c
191 463 181 389 181 314 _c
181 238 191 164 213 91 _c
234 17 266 -56 310 -131 _c
232 -131 _l
183 -54 146 20 122 94 _c
98 168 86 241 86 314 _c
86 386 98 459 122 533 _c
146 607 182 682 232 759 _c
310 759 _l
_cl}_d
/parenright{390 0 80 -131 304 759 _sc
80 759 _m
158 759 _l
206 682 243 607 267 533 _c
291 459 304 386 304 314 _c
304 241 291 168 267 94 _c
243 20 206 -54 158 -131 _c
80 -131 _l
123 -56 155 17 177 91 _c
198 164 209 238 209 314 _c
209 389 198 463 177 536 _c
155 609 123 683 80 759 _c
_cl}_d
/period{318 0 107 0 210 124 _sc
107 124 _m
210 124 _l
210 0 _l
107 0 _l
107 124 _l
_cl}_d
/zero{636 0 66 -13 570 742 _sc
318 664 _m
267 664 229 639 203 589 _c
177 539 165 464 165 364 _c
165 264 177 189 203 139 _c
229 89 267 64 318 64 _c
369 64 407 89 433 139 _c
458 189 471 264 471 364 _c
471 464 458 539 433 589 _c
407 639 369 664 318 664 _c
318 742 _m
399 742 461 709 505 645 _c
548 580 570 486 570 364 _c
570 241 548 147 505 83 _c
461 19 399 -13 318 -13 _c
236 -13 173 19 130 83 _c
87 147 66 241 66 364 _c
66 486 87 580 130 645 _c
173 709 236 742 318 742 _c
_cl}_d
/one{636 0 110 0 544 729 _sc
124 83 _m
285 83 _l
285 639 _l
110 604 _l
110 694 _l
284 729 _l
383 729 _l
383 83 _l
544 83 _l
544 0 _l
124 0 _l
124 83 _l
_cl}_d
/two{{636 0 73 0 536 742 _sc
192 83 _m
536 83 _l
536 0 _l
73 0 _l
73 83 _l
110 121 161 173 226 239 _c
290 304 331 346 348 365 _c
380 400 402 430 414 455 _c
426 479 433 504 433 528 _c
433 566 419 598 392 622 _c
365 646 330 659 286 659 _c
255 659 222 653 188 643 _c
154 632 117 616 78 594 _c
78 694 _l
118 710 155 722 189 730 _c
223 738 255 742 284 742 _c
359 742 419 723 464 685 _c
509 647 532 597 532 534 _c
532 504 526 475 515 449 _c
504 422 484 390 454 354 _c
446 344 420 317 376 272 _c
332 227 271 164 192 83 _c
_cl}_e}_d
/three{{636 0 76 -13 556 742 _sc
406 393 _m
453 383 490 362 516 330 _c
542 298 556 258 556 212 _c
556 140 531 84 482 45 _c
432 6 362 -13 271 -13 _c
240 -13 208 -10 176 -4 _c
144 1 110 10 76 22 _c
76 117 _l
103 101 133 89 166 81 _c
198 73 232 69 268 69 _c
330 69 377 81 409 105 _c
441 129 458 165 458 212 _c
458 254 443 288 413 312 _c
383 336 341 349 287 349 _c
202 349 _l
202 430 _l
291 430 _l
339 430 376 439 402 459 _c
428 478 441 506 441 543 _c
441 580 427 609 401 629 _c
374 649 336 659 287 659 _c
260 659 231 656 200 650 _c
169 644 135 635 98 623 _c
98 711 _l
135 721 170 729 203 734 _c
235 739 266 742 296 742 _c
}_e{370 742 429 725 473 691 _c
517 657 539 611 539 553 _c
539 513 527 479 504 451 _c
481 423 448 403 406 393 _c
_cl}_e}_d
/four{636 0 49 0 580 729 _sc
378 643 _m
129 254 _l
378 254 _l
378 643 _l
352 729 _m
476 729 _l
476 254 _l
580 254 _l
580 172 _l
476 172 _l
476 0 _l
378 0 _l
378 172 _l
49 172 _l
49 267 _l
352 729 _l
_cl}_d
/five{{636 0 77 -13 549 729 _sc
108 729 _m
495 729 _l
495 646 _l
198 646 _l
198 467 _l
212 472 227 476 241 478 _c
255 480 270 482 284 482 _c
365 482 429 459 477 415 _c
525 370 549 310 549 234 _c
549 155 524 94 475 51 _c
426 8 357 -13 269 -13 _c
238 -13 207 -10 175 -6 _c
143 -1 111 6 77 17 _c
77 116 _l
106 100 136 88 168 80 _c
199 72 232 69 267 69 _c
323 69 368 83 401 113 _c
433 143 450 183 450 234 _c
450 284 433 324 401 354 _c
368 384 323 399 267 399 _c
241 399 214 396 188 390 _c
162 384 135 375 108 363 _c
108 729 _l
_cl}_e}_d
/six{{636 0 70 -13 573 742 _sc
330 404 _m
286 404 251 388 225 358 _c
199 328 186 286 186 234 _c
186 181 199 139 225 109 _c
251 79 286 64 330 64 _c
374 64 409 79 435 109 _c
461 139 474 181 474 234 _c
474 286 461 328 435 358 _c
409 388 374 404 330 404 _c
526 713 _m
526 623 _l
501 635 476 644 451 650 _c
425 656 400 659 376 659 _c
310 659 260 637 226 593 _c
192 549 172 482 168 394 _c
187 422 211 444 240 459 _c
269 474 301 482 336 482 _c
409 482 467 459 509 415 _c
551 371 573 310 573 234 _c
573 159 550 99 506 54 _c
462 9 403 -13 330 -13 _c
246 -13 181 19 137 83 _c
92 147 70 241 70 364 _c
70 479 97 571 152 639 _c
206 707 280 742 372 742 _c
}_e{396 742 421 739 447 735 _c
472 730 498 723 526 713 _c
_cl}_e}_d
/seven{636 0 82 0 551 729 _sc
82 729 _m
551 729 _l
551 687 _l
286 0 _l
183 0 _l
432 646 _l
82 646 _l
82 729 _l
_cl}_d
/colon{337 0 117 0 220 517 _sc
117 124 _m
220 124 _l
220 0 _l
117 0 _l
117 124 _l
117 517 _m
220 517 _l
220 393 _l
117 393 _l
117 517 _l
_cl}_d
/A{684 0 8 0 676 729 _sc
342 632 _m
208 269 _l
476 269 _l
342 632 _l
286 729 _m
398 729 _l
676 0 _l
573 0 _l
507 187 _l
178 187 _l
112 0 _l
8 0 _l
286 729 _l
_cl}_d
/B{{686 0 98 0 615 729 _sc
197 348 _m
197 81 _l
355 81 _l
408 81 447 92 473 114 _c
498 136 511 169 511 215 _c
511 260 498 293 473 315 _c
447 337 408 348 355 348 _c
197 348 _l
197 648 _m
197 428 _l
343 428 _l
391 428 426 437 450 455 _c
474 473 486 500 486 538 _c
486 574 474 602 450 620 _c
426 638 391 648 343 648 _c
197 648 _l
98 729 _m
350 729 _l
425 729 483 713 524 682 _c
564 650 585 606 585 549 _c
585 504 574 468 553 442 _c
532 416 502 399 462 393 _c
510 382 548 360 575 327 _c
601 294 615 253 615 204 _c
615 138 592 88 548 53 _c
504 17 441 0 360 0 _c
98 0 _l
98 729 _l
}_e{_cl}_e}_d
/F{575 0 98 0 517 729 _sc
98 729 _m
517 729 _l
517 646 _l
197 646 _l
197 431 _l
486 431 _l
486 348 _l
197 348 _l
197 0 _l
98 0 _l
98 729 _l
_cl}_d
/G{{775 0 56 -13 693 742 _sc
595 104 _m
595 300 _l
434 300 _l
434 381 _l
693 381 _l
693 68 _l
655 40 613 20 567 7 _c
521 -6 472 -13 420 -13 _c
306 -13 216 20 152 86 _c
88 152 56 245 56 364 _c
56 482 88 575 152 642 _c
216 708 306 742 420 742 _c
467 742 512 736 555 724 _c
598 712 638 695 674 673 _c
674 568 _l
637 598 598 621 557 637 _c
516 653 473 661 428 661 _c
338 661 271 636 227 586 _c
182 536 160 462 160 364 _c
160 265 182 191 227 141 _c
271 91 338 67 428 67 _c
462 67 493 70 521 76 _c
549 82 573 91 595 104 _c
_cl}_e}_d
/P{603 0 98 0 569 729 _sc
197 648 _m
197 374 _l
321 374 _l
367 374 402 385 427 409 _c
452 433 465 467 465 511 _c
465 555 452 588 427 612 _c
402 636 367 648 321 648 _c
197 648 _l
98 729 _m
321 729 _l
402 729 464 710 506 673 _c
548 636 569 582 569 511 _c
569 439 548 384 506 348 _c
464 311 402 293 321 293 _c
197 293 _l
197 0 _l
98 0 _l
98 729 _l
_cl}_d
/bracketleft{390 0 86 -131 293 760 _sc
86 760 _m
293 760 _l
293 690 _l
176 690 _l
176 -61 _l
293 -61 _l
293 -131 _l
86 -131 _l
86 760 _l
_cl}_d
/bracketright{390 0 97 -131 304 760 _sc
304 760 _m
304 -131 _l
97 -131 _l
97 -61 _l
214 -61 _l
214 690 _l
97 690 _l
97 760 _l
304 760 _l
_cl}_d
/a{{613 0 60 -13 522 560 _sc
343 275 _m
270 275 220 266 192 250 _c
164 233 150 205 150 165 _c
150 133 160 107 181 89 _c
202 70 231 61 267 61 _c
317 61 357 78 387 114 _c
417 149 432 196 432 255 _c
432 275 _l
343 275 _l
522 312 _m
522 0 _l
432 0 _l
432 83 _l
411 49 385 25 355 10 _c
325 -5 287 -13 243 -13 _c
187 -13 142 2 109 33 _c
76 64 60 106 60 159 _c
60 220 80 266 122 298 _c
163 329 224 345 306 345 _c
432 345 _l
432 354 _l
432 395 418 427 391 450 _c
364 472 326 484 277 484 _c
245 484 215 480 185 472 _c
155 464 127 453 100 439 _c
100 522 _l
}_e{132 534 164 544 195 550 _c
226 556 256 560 286 560 _c
365 560 424 539 463 498 _c
502 457 522 395 522 312 _c
_cl}_e}_d
/d{{635 0 55 -13 544 760 _sc
454 464 _m
454 760 _l
544 760 _l
544 0 _l
454 0 _l
454 82 _l
435 49 411 25 382 10 _c
353 -5 319 -13 279 -13 _c
213 -13 159 13 117 65 _c
75 117 55 187 55 273 _c
55 359 75 428 117 481 _c
159 533 213 560 279 560 _c
319 560 353 552 382 536 _c
411 520 435 496 454 464 _c
148 273 _m
148 207 161 155 188 117 _c
215 79 253 61 301 61 _c
348 61 385 79 413 117 _c
440 155 454 207 454 273 _c
454 339 440 390 413 428 _c
385 466 348 485 301 485 _c
253 485 215 466 188 428 _c
161 390 148 339 148 273 _c
_cl}_e}_d
/e{{615 0 55 -13 562 560 _sc
562 296 _m
562 252 _l
149 252 _l
153 190 171 142 205 110 _c
238 78 284 62 344 62 _c
378 62 412 66 444 74 _c
476 82 509 95 541 113 _c
541 28 _l
509 14 476 3 442 -3 _c
408 -9 373 -13 339 -13 _c
251 -13 182 12 131 62 _c
80 112 55 181 55 268 _c
55 357 79 428 127 481 _c
175 533 241 560 323 560 _c
397 560 455 536 498 489 _c
540 441 562 377 562 296 _c
472 322 _m
471 371 457 410 431 440 _c
404 469 368 484 324 484 _c
274 484 234 469 204 441 _c
174 413 156 373 152 322 _c
472 322 _l
_cl}_e}_d
/f{352 0 23 0 371 760 _sc
371 760 _m
371 685 _l
285 685 _l
253 685 230 678 218 665 _c
205 652 199 629 199 595 _c
199 547 _l
347 547 _l
347 477 _l
199 477 _l
199 0 _l
109 0 _l
109 477 _l
23 477 _l
23 547 _l
109 547 _l
109 585 _l
109 645 123 690 151 718 _c
179 746 224 760 286 760 _c
371 760 _l
_cl}_d
/g{{635 0 55 -207 544 560 _sc
454 280 _m
454 344 440 395 414 431 _c
387 467 349 485 301 485 _c
253 485 215 467 188 431 _c
161 395 148 344 148 280 _c
148 215 161 165 188 129 _c
215 93 253 75 301 75 _c
349 75 387 93 414 129 _c
440 165 454 215 454 280 _c
544 68 _m
544 -24 523 -93 482 -139 _c
440 -184 377 -207 292 -207 _c
260 -207 231 -204 203 -200 _c
175 -195 147 -188 121 -178 _c
121 -91 _l
147 -105 173 -115 199 -122 _c
225 -129 251 -133 278 -133 _c
336 -133 380 -117 410 -87 _c
439 -56 454 -10 454 52 _c
454 96 _l
435 64 411 40 382 24 _c
353 8 319 0 279 0 _c
211 0 157 25 116 76 _c
75 127 55 195 55 280 _c
55 364 75 432 116 483 _c
157 534 211 560 279 560 _c
}_e{319 560 353 552 382 536 _c
411 520 435 496 454 464 _c
454 547 _l
544 547 _l
544 68 _l
_cl}_e}_d
/i{278 0 94 0 184 760 _sc
94 547 _m
184 547 _l
184 0 _l
94 0 _l
94 547 _l
94 760 _m
184 760 _l
184 646 _l
94 646 _l
94 760 _l
_cl}_d
/l{278 0 94 0 184 760 _sc
94 760 _m
184 760 _l
184 0 _l
94 0 _l
94 760 _l
_cl}_d
/m{{974 0 91 0 889 560 _sc
520 442 _m
542 482 569 511 600 531 _c
631 550 668 560 711 560 _c
767 560 811 540 842 500 _c
873 460 889 403 889 330 _c
889 0 _l
799 0 _l
799 327 _l
799 379 789 418 771 444 _c
752 469 724 482 686 482 _c
639 482 602 466 575 435 _c
548 404 535 362 535 309 _c
535 0 _l
445 0 _l
445 327 _l
445 379 435 418 417 444 _c
398 469 369 482 331 482 _c
285 482 248 466 221 435 _c
194 404 181 362 181 309 _c
181 0 _l
91 0 _l
91 547 _l
181 547 _l
181 462 _l
201 495 226 520 255 536 _c
283 552 317 560 357 560 _c
397 560 430 550 458 530 _c
486 510 506 480 520 442 _c
}_e{_cl}_e}_d
/n{634 0 91 0 549 560 _sc
549 330 _m
549 0 _l
459 0 _l
459 327 _l
459 379 448 417 428 443 _c
408 469 378 482 338 482 _c
289 482 251 466 223 435 _c
195 404 181 362 181 309 _c
181 0 _l
91 0 _l
91 547 _l
181 547 _l
181 462 _l
202 494 227 519 257 535 _c
286 551 320 560 358 560 _c
420 560 468 540 500 501 _c
532 462 549 405 549 330 _c
_cl}_d
/o{612 0 55 -13 557 560 _sc
306 484 _m
258 484 220 465 192 427 _c
164 389 150 338 150 273 _c
150 207 163 156 191 118 _c
219 80 257 62 306 62 _c
354 62 392 80 420 118 _c
448 156 462 207 462 273 _c
462 337 448 389 420 427 _c
392 465 354 484 306 484 _c
306 560 _m
384 560 445 534 490 484 _c
534 433 557 363 557 273 _c
557 183 534 113 490 63 _c
445 12 384 -13 306 -13 _c
227 -13 165 12 121 63 _c
77 113 55 183 55 273 _c
55 363 77 433 121 484 _c
165 534 227 560 306 560 _c
_cl}_d
/r{411 0 91 0 411 560 _sc
411 463 _m
401 469 390 473 378 476 _c
366 478 353 480 339 480 _c
288 480 249 463 222 430 _c
194 397 181 350 181 288 _c
181 0 _l
91 0 _l
91 547 _l
181 547 _l
181 462 _l
199 495 224 520 254 536 _c
284 552 321 560 365 560 _c
371 560 378 559 386 559 _c
393 558 401 557 411 555 _c
411 463 _l
_cl}_d
/s{{521 0 54 -13 472 560 _sc
443 531 _m
443 446 _l
417 458 391 468 364 475 _c
336 481 308 485 279 485 _c
234 485 200 478 178 464 _c
156 450 145 430 145 403 _c
145 382 153 366 169 354 _c
185 342 217 330 265 320 _c
296 313 _l
360 299 405 279 432 255 _c
458 230 472 195 472 151 _c
472 100 452 60 412 31 _c
372 1 316 -13 246 -13 _c
216 -13 186 -10 154 -5 _c
122 0 89 8 54 20 _c
54 113 _l
87 95 120 82 152 74 _c
184 65 216 61 248 61 _c
290 61 323 68 346 82 _c
368 96 380 117 380 144 _c
380 168 371 187 355 200 _c
339 213 303 226 247 238 _c
216 245 _l
160 257 119 275 95 299 _c
70 323 58 356 58 399 _c
58 450 76 490 112 518 _c
148 546 200 560 268 560 _c
}_e{301 560 332 557 362 552 _c
391 547 418 540 443 531 _c
_cl}_e}_d
/t{392 0 27 0 368 702 _sc
183 702 _m
183 547 _l
368 547 _l
368 477 _l
183 477 _l
183 180 _l
183 135 189 106 201 94 _c
213 81 238 75 276 75 _c
368 75 _l
368 0 _l
276 0 _l
206 0 158 13 132 39 _c
106 65 93 112 93 180 _c
93 477 _l
27 477 _l
27 547 _l
93 547 _l
93 702 _l
183 702 _l
_cl}_d
/y{592 0 30 -207 562 547 _sc
322 -50 _m
296 -114 271 -157 247 -177 _c
223 -197 191 -207 151 -207 _c
79 -207 _l
79 -132 _l
132 -132 _l
156 -132 175 -126 189 -114 _c
203 -102 218 -75 235 -31 _c
251 9 _l
30 547 _l
125 547 _l
296 119 _l
467 547 _l
562 547 _l
322 -50 _l
_cl}_d
/minus{838 0 106 272 732 355 _sc
106 355 _m
732 355 _l
732 272 _l
106 272 _l
106 355 _l
_cl}_d
end readonly def

/BuildGlyph
 {exch begin
 CharStrings exch
 2 copy known not{pop /.notdef}if
 true 3 1 roll get exec
 end}_d

/BuildChar {
 1 index /Encoding get exch get
 1 index /BuildGlyph get exec
}_d

FontName currentdict end definefont pop
%!PS-Adobe-3.0 Resource-Font
%%Title: cmmi10
%%Copyright: Copyright (C) 1994, Basil K. Malyshev. All Rights Reserved.012BaKoMa Fonts Collection, Level-B.
%%Creator: Converted from TrueType to type 3 by PPR
25 dict begin
/_d{bind def}bind def
/_m{moveto}_d
/_l{lineto}_d
/_cl{closepath eofill}_d
/_c{curveto}_d
/_sc{7 -1 roll{setcachedevice}{pop pop pop pop pop pop}ifelse}_d
/_e{exec}_d
/FontName /Cmmi10 def
/PaintType 0 def
/FontMatrix[.001 0 0 .001 0 0]def
/FontBBox[-34 -250 1048 750]def
/FontType 3 def
/Encoding [ /e /t /i /d /f /l /y /r ] def
/FontInfo 10 dict dup begin
/FamilyName (cmmi10) def
/FullName (cmmi10) def
/Notice (Copyright (C) 1994, Basil K. Malyshev. All Rights Reserved.012BaKoMa Fonts Collection, Level-B. ) def
/Weight (Regular) def
/Version (1.1/12-Nov-94) def
/ItalicAngle 0.0 def
/isFixedPitch false def
/UnderlinePosition -133 def
/UnderlineThickness 20 def
end readonly def
/CharStrings 8 dict dup begin
/e{{465 0 44 -10 430 442 _sc
201 -10 _m
169 -10 141 -2 117 14 _c
93 30 75 53 63 81 _c
50 109 44 138 44 170 _c
44 217 56 262 80 304 _c
104 346 136 379 177 404 _c
218 429 262 442 309 442 _c
337 442 362 434 384 419 _c
405 404 416 383 416 356 _c
416 317 400 288 370 270 _c
339 251 304 239 266 235 _c
228 231 185 229 139 229 _c
136 229 _l
125 189 120 155 120 127 _c
120 97 126 71 140 49 _c
154 26 175 15 203 15 _c
243 15 281 24 318 42 _c
354 60 384 86 407 118 _c
409 120 411 121 415 121 _c
418 121 421 119 425 115 _c
428 111 430 108 430 105 _c
430 102 429 100 428 99 _c
404 65 371 38 330 19 _c
288 0 245 -10 201 -10 _c
142 255 _m
}_e{180 255 216 256 249 260 _c
282 264 312 273 339 287 _c
365 301 379 324 379 355 _c
379 367 375 378 368 387 _c
361 396 352 403 342 408 _c
331 413 320 416 308 416 _c
280 416 254 408 232 393 _c
209 377 190 357 176 333 _c
161 308 150 282 142 255 _c
_cl}_e}_d
/t{{361 0 22 -10 330 626 _sc
62 81 _m
62 91 63 100 65 109 _c
137 396 _l
32 396 _l
25 396 22 400 22 409 _c
24 423 29 431 35 431 _c
146 431 _l
186 594 _l
188 602 193 610 201 616 _c
209 622 218 626 228 626 _c
236 626 243 623 249 618 _c
255 613 258 606 258 598 _c
258 596 257 594 257 593 _c
257 592 257 591 257 590 _c
217 431 _l
320 431 _l
326 431 330 426 330 418 _c
330 416 329 414 328 410 _c
327 406 326 402 324 400 _c
322 397 320 396 317 396 _c
208 396 _l
136 107 _l
131 88 129 72 129 58 _c
}_e{129 29 138 15 158 15 _c
187 15 213 28 236 56 _c
258 84 276 114 288 147 _c
290 151 293 153 296 153 _c
308 153 _l
310 153 312 152 314 150 _c
316 148 317 146 317 144 _c
317 142 316 141 316 141 _c
301 101 280 65 252 35 _c
224 5 192 -10 156 -10 _c
129 -10 107 -1 89 15 _c
71 32 62 54 62 81 _c
_cl}_e}_d
/i{{344 0 27 -10 296 661 _sc
78 72 _m
78 84 80 97 86 111 _c
167 326 _l
175 350 180 370 180 386 _c
180 406 172 416 158 416 _c
132 416 110 402 93 375 _c
75 347 63 317 55 284 _c
53 280 51 278 47 278 _c
35 278 _l
29 278 27 281 27 287 _c
27 290 _l
37 330 54 365 76 396 _c
98 426 126 442 160 442 _c
184 442 204 434 220 418 _c
236 402 245 383 245 359 _c
245 346 242 333 237 320 _c
156 105 _l
146 83 142 63 142 45 _c
142 25 149 15 165 15 _c
}_e{191 15 212 29 230 57 _c
247 85 259 115 267 147 _c
268 151 271 153 275 153 _c
287 153 _l
289 153 291 152 293 150 _c
295 148 296 146 296 144 _c
296 143 295 142 295 141 _c
285 103 269 68 247 37 _c
224 5 196 -10 163 -10 _c
139 -10 119 -2 103 13 _c
86 29 78 48 78 72 _c
191 606 _m
191 620 196 632 208 644 _c
220 655 233 661 247 661 _c
258 661 267 657 275 650 _c
282 643 286 634 286 624 _c
286 609 280 596 268 585 _c
256 573 243 568 229 568 _c
218 568 209 571 202 579 _c
194 586 191 595 191 606 _c
_cl}_e}_d
/d{{520 0 38 -10 519 694 _sc
174 -10 _m
132 -10 98 5 74 37 _c
50 68 38 105 38 149 _c
38 191 49 236 71 282 _c
93 328 122 366 160 396 _c
198 426 238 442 282 442 _c
302 442 319 436 335 425 _c
351 414 363 400 372 382 _c
428 605 _l
430 616 432 625 433 632 _c
433 642 411 648 368 648 _c
361 648 358 652 358 661 _c
358 663 358 666 360 670 _c
361 674 362 677 364 679 _c
366 681 368 683 372 683 _c
507 694 _l
515 694 519 689 519 681 _c
375 106 _l
370 94 368 78 368 58 _c
368 29 377 15 397 15 _c
417 15 433 28 444 55 _c
455 81 464 112 472 147 _c
}_e{473 151 476 153 480 153 _c
492 153 _l
494 153 496 151 498 149 _c
500 147 501 145 501 143 _c
489 96 476 59 462 31 _c
448 3 426 -10 395 -10 _c
372 -10 352 -3 335 9 _c
318 21 307 39 303 61 _c
260 13 217 -10 174 -10 _c
175 15 _m
199 15 222 24 245 42 _c
267 60 287 81 303 106 _c
303 106 304 108 304 110 _c
359 330 _l
355 353 346 373 333 390 _c
319 407 302 416 280 416 _c
257 416 236 406 217 388 _c
197 370 181 348 168 323 _c
154 296 142 259 130 213 _c
118 167 113 131 113 105 _c
113 81 118 60 128 42 _c
138 24 153 15 175 15 _c
_cl}_e}_d
/f{{489 0 53 -204 552 705 _sc
97 -164 _m
109 -173 124 -178 142 -178 _c
166 -178 185 -151 200 -99 _c
206 -73 223 9 251 151 _c
297 396 _l
211 396 _l
204 396 201 400 201 409 _c
203 423 208 431 214 431 _c
303 431 _l
315 496 _l
319 516 322 533 326 548 _c
329 562 332 576 336 588 _c
340 600 345 614 353 630 _c
364 652 379 670 399 684 _c
418 698 439 705 462 705 _c
476 705 490 702 504 697 _c
518 691 529 683 538 673 _c
547 662 552 649 552 635 _c
552 617 546 602 535 590 _c
523 578 510 572 494 572 _c
483 572 474 575 466 582 _c
458 588 455 597 455 608 _c
455 622 460 635 470 646 _c
480 657 492 663 507 665 _c
}_e{494 674 479 679 461 679 _c
451 679 441 674 432 665 _c
423 655 417 645 415 635 _c
411 617 401 571 387 497 _c
375 431 _l
478 431 _l
484 431 488 426 488 418 _c
487 416 486 413 485 409 _c
484 405 483 401 481 399 _c
479 397 477 396 475 396 _c
368 396 _l
322 152 _l
316 116 309 80 301 44 _c
293 8 283 -29 269 -68 _c
255 -106 238 -139 216 -165 _c
194 -191 169 -204 140 -204 _c
117 -204 97 -197 79 -185 _c
61 -172 53 -155 53 -134 _c
53 -116 58 -101 69 -89 _c
80 -77 94 -71 111 -71 _c
121 -71 130 -74 138 -81 _c
146 -87 150 -96 150 -107 _c
150 -121 144 -134 134 -146 _c
123 -158 111 -164 97 -164 _c
_cl}_e}_d
/l{{298 0 44 -10 262 694 _sc
44 81 _m
44 83 44 86 44 90 _c
44 94 45 97 46 101 _c
46 105 47 108 47 110 _c
171 605 _l
173 616 175 625 176 632 _c
176 642 154 648 111 648 _c
104 648 101 652 101 661 _c
101 663 102 666 103 670 _c
104 674 105 677 107 679 _c
109 681 111 683 115 683 _c
250 694 _l
258 694 262 689 262 681 _c
118 106 _l
113 95 111 79 111 58 _c
111 29 120 15 140 15 _c
160 15 176 27 186 53 _c
196 79 206 110 214 147 _c
215 151 218 153 222 153 _c
234 153 _l
236 153 238 151 240 149 _c
242 147 243 145 243 143 _c
}_e{235 111 227 85 221 67 _c
215 48 205 30 191 14 _c
177 -2 159 -10 138 -10 _c
111 -10 89 -1 71 15 _c
53 32 44 54 44 81 _c
_cl}_e}_d
/y{{490 0 27 -204 492 442 _sc
84 -142 _m
98 -166 122 -178 157 -178 _c
189 -178 216 -167 239 -145 _c
262 -123 281 -96 295 -65 _c
309 -33 320 -1 328 31 _c
298 3 266 -10 232 -10 _c
205 -10 182 -5 164 3 _c
146 11 131 25 121 43 _c
111 61 106 83 106 109 _c
106 131 109 153 115 176 _c
121 198 129 224 139 252 _c
149 280 159 305 167 326 _c
175 350 180 370 180 386 _c
180 406 172 416 158 416 _c
132 416 110 402 93 375 _c
75 347 63 317 55 284 _c
53 280 51 278 47 278 _c
35 278 _l
29 278 27 281 27 287 _c
27 290 _l
37 330 54 365 76 396 _c
98 426 126 442 160 442 _c
}_e{184 442 204 434 220 418 _c
236 402 245 383 245 359 _c
245 346 242 333 237 320 _c
233 312 226 294 216 267 _c
206 239 198 217 193 199 _c
187 181 183 163 179 146 _c
175 128 174 111 174 94 _c
174 72 178 53 188 38 _c
197 22 212 15 233 15 _c
274 15 311 40 344 91 _c
420 399 _l
422 407 427 415 435 421 _c
443 427 452 431 462 431 _c
470 431 477 428 483 423 _c
489 418 492 411 492 403 _c
492 399 491 396 491 395 _c
392 -2 _l
383 -36 367 -68 344 -100 _c
320 -131 292 -156 259 -175 _c
225 -194 191 -204 156 -204 _c
138 -204 121 -200 104 -194 _c
87 -187 73 -177 63 -164 _c
53 -150 48 -135 48 -117 _c
48 -99 53 -83 64 -70 _c
74 -56 89 -50 107 -50 _c
117 -50 126 -53 134 -60 _c
141 -66 145 -75 145 -86 _c
145 -101 139 -114 128 -126 _c
116 -137 103 -143 88 -143 _c
}_e{87 -143 86 -142 86 -142 _c
85 -142 84 -142 84 -142 _c
_cl}_e}_d
/r{{451 0 27 -10 434 442 _sc
77 17 _m
77 21 77 24 78 26 _c
153 324 _l
157 342 160 359 160 373 _c
160 401 150 416 131 416 _c
110 416 94 403 84 378 _c
74 353 64 322 55 284 _c
55 282 54 280 52 279 _c
50 278 48 278 47 278 _c
35 278 _l
33 278 31 279 29 281 _c
27 283 27 286 27 288 _c
34 317 41 342 48 362 _c
54 382 65 400 79 417 _c
93 433 110 442 132 442 _c
155 442 175 435 193 422 _c
210 408 221 391 225 369 _c
241 391 260 408 282 422 _c
304 435 328 442 354 442 _c
375 442 394 435 410 423 _c
426 411 434 394 434 373 _c
434 356 428 341 418 329 _c
407 316 393 310 376 310 _c
}_e{365 310 356 313 349 320 _c
341 326 338 335 338 346 _c
338 360 343 373 354 385 _c
364 397 377 403 391 403 _c
380 411 367 416 352 416 _c
323 416 298 405 277 385 _c
256 365 237 339 220 308 _c
149 22 _l
147 12 142 5 134 -1 _c
126 -7 117 -10 107 -10 _c
99 -10 92 -7 86 -3 _c
80 1 77 8 77 17 _c
_cl}_e}_d
end readonly def

/BuildGlyph
 {exch begin
 CharStrings exch
 2 copy known not{pop /.notdef}if
 true 3 1 roll get exec
 end}_d

/BuildChar {
 1 index /Encoding get exch get
 1 index /BuildGlyph get exec
}_d

FontName currentdict end definefont pop
end
%%EndProlog
mpldict begin
13.5 247.5 translate
585 297 0 0 clipbox
gsave
0 0 m
585 0 l
585 297 l
0 297 l
cl
1.000 setgray
fill
grestore
gsave
73.125 40.6968 m
526.5 40.6968 l
526.5 267.3 l
73.125 267.3 l
cl
1.000 setgray
fill
grestore
1.000 setlinewidth
1 setlinejoin
2 setlinecap
[] 0 setdash
1.000 0.000 0.000 setrgbcolor
gsave
453.4 226.6 73.12 40.7 clipbox
73.1895 153.998 m
139.708 153.998 l
139.836 223.006 l
140.355 223.006 l
140.484 235.081 l
140.615 235.081 l
140.743 235.196 l
141.261 235.196 l
141.391 225.014 l
141.65 225.014 l
141.78 233.8 l
141.91 233.8 l
142.039 241.043 l
142.298 241.043 l
142.427 245.691 l
142.945 245.691 l
143.075 250.99 l
143.399 250.99 l
143.529 228.676 l
143.852 228.676 l
143.982 244.354 l
144.241 244.354 l
144.37 247.274 l
144.694 247.274 l
144.823 249.219 l
145.147 249.219 l
145.276 256.563 l
145.536 256.563 l
145.665 253.366 l
145.99 253.366 l
146.118 230.907 l
146.443 230.907 l
146.573 230.732 l
146.831 230.732 l
146.961 231.711 l
147.284 231.711 l
147.415 228.936 l
147.738 228.936 l
147.868 231.835 l
148.386 231.835 l
148.515 228.546 l
148.774 228.546 l
148.904 226.736 l
149.228 226.736 l
149.357 223.453 l
149.681 223.453 l
149.811 201.36 l
150.07 201.36 l
150.2 192.54 l
150.523 192.54 l
150.652 185.496 l
150.977 185.496 l
151.106 174.414 l
151.365 174.414 l
151.495 156.081 l
151.624 156.081 l
151.753 162.188 l
152.078 162.188 l
152.207 166.44 l
152.466 166.44 l
152.596 168.85 l
152.92 168.85 l
153.049 161.167 l
153.114 161.167 l
153.244 214.912 l
153.567 214.912 l
153.697 219.545 l
153.956 219.545 l
154.085 225.29 l
154.215 225.29 l
154.344 230.259 l
154.409 230.259 l
154.54 236.298 l
154.605 236.298 l
154.733 237.051 l
155.057 237.051 l
155.187 222.912 l
155.511 222.912 l
155.641 221.442 l
155.964 221.442 l
156.093 219.876 l
156.352 219.876 l
156.482 233.282 l
156.806 233.282 l
156.935 234.166 l
157.259 234.166 l
157.388 236.044 l
157.648 236.044 l
157.777 232.695 l
158.101 232.695 l
158.23 237.863 l
158.295 237.863 l
158.425 233.733 l
158.554 233.733 l
158.684 203.419 l
158.749 203.419 l
158.878 216.438 l
159.137 216.438 l
159.266 215.519 l
159.591 215.519 l
159.72 213.159 l
159.785 213.159 l
159.98 216.192 l
160.046 216.192 l
160.174 225.646 l
160.253 225.646 l
160.367 228.688 l
160.497 228.688 l
160.628 181 l
160.693 181 l
160.821 172.7 l
161.08 172.7 l
161.209 179.388 l
161.339 179.388 l
161.469 181.546 l
161.534 181.546 l
161.663 192.497 l
161.793 192.497 l
161.922 192.658 l
162.181 192.658 l
162.311 193.286 l
162.636 193.286 l
162.764 179.342 l
162.829 179.342 l
162.959 180.653 l
163.283 180.653 l
163.412 175.835 l
163.671 175.835 l
163.8 163.014 l
164.125 163.014 l
164.254 172.343 l
164.578 172.343 l
164.707 170.862 l
164.966 170.862 l
165.096 167.787 l
165.419 167.787 l
165.561 163.519 l
165.873 163.519 l
166.003 173.294 l
166.068 173.294 l
166.199 167.639 l
166.523 167.639 l
166.65 175.11 l
166.716 175.11 l
166.846 181.648 l
167.363 181.648 l
167.492 188.089 l
167.558 188.089 l
167.687 186.724 l
167.817 186.724 l
167.946 187.513 l
168.205 187.513 l
168.334 192.442 l
168.658 192.442 l
168.787 189.598 l
168.852 189.598 l
168.982 183.956 l
169.305 183.956 l
169.435 185.565 l
169.5 185.565 l
169.63 179.326 l
170.213 179.316 l
170.342 182.131 l
170.6 182.131 l
170.731 194.743 l
171.249 194.743 l
171.379 208.552 l
171.727 208.552 l
171.832 209.395 l
172.156 209.395 l
172.285 198.625 l
172.355 198.625 l
172.48 183.557 l
172.803 183.557 l
172.933 197.297 l
173.192 197.297 l
173.321 190.103 l
173.646 190.103 l
173.775 182.963 l
173.84 182.963 l
173.969 198.589 l
174.293 198.589 l
174.422 204.587 l
174.492 204.587 l
174.616 205.506 l
174.941 205.506 l
175.07 202.351 l
175.135 202.351 l
175.264 203.166 l
175.329 203.166 l
175.523 204.449 l
176.042 204.449 l
176.17 198.586 l
176.236 198.586 l
176.365 190.973 l
176.698 190.973 l
176.819 161.346 l
176.885 161.346 l
177.013 169.244 l
177.338 169.244 l
177.467 168.903 l
177.791 168.903 l
177.92 169.427 l
178.179 169.378 l
178.309 171.741 l
178.632 171.741 l
178.762 167.87 l
178.827 167.87 l
178.956 168.643 l
179.086 168.643 l
179.215 167.845 l
179.733 167.845 l
179.864 168.495 l
179.929 168.495 l
180.058 156.225 l
180.122 156.225 l
180.251 166.072 l
180.575 166.072 l
180.705 181.619 l
181.029 181.619 l
181.158 201.06 l
181.418 201.06 l
181.547 200.688 l
181.677 200.688 l
181.806 200.497 l
182.065 200.497 l
182.195 187.609 l
182.324 187.609 l
182.453 178.466 l
182.714 178.466 l
182.844 175.769 l
182.972 175.769 l
183.102 176.357 l
183.385 176.357 l
183.49 172.33 l
183.62 172.33 l
183.749 178.034 l
184.267 178.034 l
184.396 180.211 l
184.656 180.211 l
184.785 167.98 l
185.109 167.98 l
185.238 164.301 l
185.563 164.301 l
185.692 163.348 l
185.967 163.348 l
186.08 164.88 l
186.405 164.88 l
186.535 164.466 l
186.859 164.466 l
186.987 174.876 l
187.246 174.876 l
187.376 168.516 l
187.7 168.516 l
187.83 165.282 l
187.894 165.282 l
188.024 164.048 l
188.348 164.048 l
188.477 205.172 l
188.801 205.172 l
188.93 200.24 l
189.189 200.24 l
189.319 202.221 l
189.643 202.221 l
189.773 212.733 l
190.096 212.733 l
190.226 209.145 l
190.485 209.145 l
190.614 208.349 l
190.938 208.349 l
191.068 207.167 l
191.391 207.167 l
191.521 209.531 l
191.781 209.531 l
191.91 201.72 l
192.235 201.72 l
192.363 188.489 l
192.427 188.489 l
192.557 168.395 l
193.076 168.395 l
193.205 165.123 l
193.529 165.123 l
193.658 177.692 l
193.723 177.692 l
193.918 180.907 l
193.982 180.907 l
194.112 186.041 l
194.177 186.041 l
194.306 189.767 l
194.63 189.767 l
194.759 184.316 l
195.022 184.316 l
195.148 178.056 l
195.472 178.056 l
195.602 159.614 l
195.731 159.614 l
195.861 162.56 l
195.925 162.56 l
196.055 168.551 l
196.12 168.551 l
196.249 179.736 l
196.314 179.736 l
196.444 183.102 l
196.573 183.102 l
196.703 185.938 l
196.961 185.938 l
197.096 186.65 l
197.415 186.65 l
197.544 173.397 l
197.609 173.397 l
197.739 156.49 l
197.869 156.49 l
197.998 161.034 l
198.257 161.034 l
198.386 166.507 l
198.516 166.507 l
198.646 168.971 l
198.711 168.971 l
198.84 166.959 l
199.164 166.959 l
199.294 165.929 l
199.553 165.929 l
199.682 166.924 l
200.006 166.924 l
200.135 168.147 l
200.459 168.147 l
200.589 160.019 l
201.108 160.019 l
201.237 177.758 l
201.301 177.758 l
201.431 171.918 l
201.755 171.918 l
201.884 172.602 l
201.949 172.602 l
202.078 205.455 l
202.402 205.455 l
202.532 203.696 l
202.601 203.696 l
202.726 194.914 l
203.05 194.914 l
203.179 206.053 l
203.438 206.053 l
203.568 196.971 l
203.892 196.971 l
204.022 207.614 l
204.54 207.614 l
204.669 205.919 l
204.993 205.919 l
205.122 219.695 l
205.449 219.695 l
205.576 220.164 l
205.834 220.164 l
205.964 217.614 l
206.288 217.614 l
206.418 215.574 l
206.677 215.574 l
206.806 216.058 l
207.13 216.058 l
207.26 216.311 l
207.583 216.311 l
207.713 216.119 l
207.988 216.119 l
208.102 223.322 l
208.43 223.322 l
208.555 226.776 l
208.879 226.776 l
209.008 216.294 l
209.073 216.294 l
209.203 204.083 l
209.527 204.083 l
209.656 200.916 l
209.721 200.916 l
209.851 204.322 l
210.175 204.322 l
210.304 205.685 l
210.369 205.685 l
210.498 210.537 l
210.631 210.537 l
210.757 213.072 l
211.016 213.072 l
211.146 211.888 l
211.276 211.888 l
211.405 208.993 l
211.664 208.993 l
211.793 210.974 l
212.117 210.974 l
212.247 209.545 l
212.572 209.545 l
212.7 208.571 l
212.765 208.571 l
212.894 209.006 l
212.96 209.006 l
213.089 209.276 l
213.219 209.276 l
213.348 209.621 l
213.607 209.621 l
213.736 203.466 l
214.061 203.466 l
214.191 204.93 l
214.255 204.93 l
214.384 205.827 l
214.708 205.827 l
214.838 212.924 l
214.908 212.924 l
215.097 205.67 l
215.161 205.67 l
215.291 202.149 l
215.55 202.149 l
215.679 191.099 l
215.809 191.099 l
215.939 193.702 l
216.028 193.702 l
216.133 187.216 l
216.198 187.216 l
216.327 212.543 l
216.652 212.543 l
216.78 217.275 l
216.912 217.275 l
217.04 215.801 l
217.105 215.801 l
217.234 209.085 l
217.558 209.085 l
217.688 210.77 l
217.947 210.77 l
218.076 204.886 l
218.4 204.886 l
218.53 209.61 l
218.853 209.61 l
218.983 216.806 l
219.242 216.806 l
219.372 222.673 l
219.695 222.673 l
219.825 211.436 l
220.149 211.436 l
220.278 205.422 l
220.537 205.422 l
220.667 194.27 l
220.991 194.27 l
221.12 184.375 l
221.444 184.375 l
221.574 220.004 l
221.833 220.004 l
221.962 219.736 l
222.286 219.736 l
222.416 218.934 l
222.739 218.934 l
222.868 219.848 l
223.128 219.848 l
223.257 219.364 l
223.581 219.364 l
223.711 220.058 l
223.776 220.058 l
223.905 219.837 l
224.229 219.837 l
224.359 229.421 l
224.424 229.421 l
224.553 226.52 l
224.877 226.52 l
225.006 225.76 l
225.071 225.76 l
225.2 224.578 l
225.525 224.578 l
225.654 223.061 l
225.978 223.061 l
226.107 221.442 l
226.172 221.442 l
226.301 220.617 l
226.626 220.617 l
226.755 215.307 l
227.079 215.307 l
227.208 221.156 l
227.469 221.156 l
227.597 221.878 l
227.923 221.878 l
228.05 218.393 l
228.31 218.393 l
228.439 172.663 l
228.763 172.663 l
228.893 173.439 l
229.216 173.439 l
229.346 175.008 l
229.604 175.008 l
229.734 175.394 l
230.058 175.394 l
230.188 178.298 l
230.512 178.298 l
230.641 178.181 l
230.965 178.181 l
231.094 177.359 l
231.159 177.359 l
231.289 175.399 l
231.548 175.399 l
231.678 171.854 l
232.001 171.854 l
232.131 204.626 l
232.262 204.626 l
232.39 204.987 l
232.454 204.987 l
232.584 207.338 l
232.908 207.338 l
233.037 209.616 l
233.296 209.616 l
233.426 210.109 l
233.491 210.109 l
233.62 210.32 l
233.944 210.32 l
234.073 206.905 l
234.138 206.905 l
234.268 208.642 l
234.591 208.642 l
234.721 211.654 l
235.045 211.654 l
235.175 210.77 l
235.434 210.77 l
235.563 215.602 l
235.888 215.602 l
236.016 209.578 l
236.341 209.578 l
236.47 208.252 l
236.535 208.252 l
236.664 211.676 l
236.989 211.676 l
237.118 210.897 l
237.182 210.897 l
237.312 209.285 l
237.83 209.28 l
237.96 212.554 l
238.284 212.554 l
238.413 200.516 l
238.478 200.516 l
238.607 193.482 l
238.931 193.482 l
239.061 181.136 l
239.125 181.136 l
239.256 175.88 l
239.579 175.88 l
239.709 174.023 l
239.968 174.023 l
240.096 177.046 l
240.421 177.046 l
240.55 180.638 l
240.875 180.638 l
241.003 187.228 l
241.069 187.228 l
241.198 227.425 l
241.523 227.425 l
241.652 227.116 l
241.91 227.116 l
242.04 226.592 l
242.17 226.592 l
242.299 224.778 l
242.558 224.778 l
242.687 218.601 l
242.818 218.601 l
242.947 206.627 l
243.012 206.627 l
243.141 200.777 l
243.206 200.777 l
243.335 189.382 l
243.659 189.382 l
243.789 183.255 l
244.113 183.255 l
244.242 193.896 l
244.306 193.896 l
244.436 209.743 l
244.76 209.743 l
244.89 213.655 l
244.954 213.655 l
245.084 221.098 l
245.408 221.098 l
245.537 224.552 l
245.796 224.552 l
245.926 223.973 l
246.249 223.973 l
246.38 220.085 l
246.705 220.085 l
246.833 221.582 l
247.092 221.582 l
247.221 209.05 l
247.545 209.05 l
247.675 203.255 l
248.193 203.255 l
248.322 198.148 l
248.648 198.148 l
248.776 184.465 l
248.84 184.465 l
248.97 183.551 l
249.1 183.551 l
249.229 181.97 l
249.488 181.97 l
249.618 178.814 l
249.748 178.814 l
249.877 170.335 l
249.968 170.335 l
250.071 172.448 l
250.396 172.448 l
250.525 170.591 l
250.784 170.591 l
250.913 174.68 l
251.237 174.68 l
251.366 174.395 l
251.691 174.395 l
251.819 173.745 l
252.079 173.745 l
252.209 177.092 l
252.533 177.092 l
252.662 177.495 l
252.792 177.495 l
252.921 182.793 l
252.986 182.793 l
253.115 188.979 l
253.181 188.979 l
253.31 188.322 l
253.64 188.322 l
253.763 180.197 l
254.022 180.197 l
254.152 174.036 l
254.476 174.036 l
254.605 175.321 l
254.929 175.321 l
255.059 186.386 l
255.123 186.386 l
255.252 189.015 l
255.318 189.015 l
255.512 180.471 l
255.577 180.471 l
255.706 187.428 l
255.771 187.428 l
255.901 199.517 l
255.966 199.517 l
256.095 198.518 l
256.426 198.518 l
256.548 203.129 l
256.872 203.129 l
257.001 201.918 l
257.131 201.918 l
257.261 205.39 l
257.325 205.39 l
257.455 204.179 l
257.714 204.179 l
257.843 169.074 l
258.168 169.074 l
258.297 172.173 l
258.621 172.173 l
258.75 172.869 l
258.815 172.869 l
258.944 163.891 l
259.268 163.891 l
259.398 201.1 l
259.464 201.1 l
259.592 199.758 l
259.657 199.758 l
259.787 200.031 l
259.916 200.031 l
260.045 197.138 l
260.111 197.138 l
260.24 190.209 l
260.564 190.209 l
260.693 199.828 l
260.953 199.828 l
261.082 212.053 l
261.406 212.053 l
261.536 210.674 l
261.859 210.674 l
261.988 208.643 l
262.248 208.643 l
262.377 212.724 l
262.509 212.724 l
262.701 212.569 l
263.154 212.569 l
263.284 215.653 l
263.544 215.653 l
263.672 185.714 l
263.996 185.714 l
264.126 187.323 l
264.451 187.323 l
264.579 182.228 l
264.838 182.228 l
264.968 178.077 l
265.291 178.077 l
265.421 169.625 l
265.745 169.625 l
265.875 155.792 l
266.133 155.792 l
266.263 168.615 l
266.588 168.615 l
266.717 177.113 l
266.846 177.113 l
266.976 177.874 l
267.235 177.874 l
267.365 184.535 l
267.689 184.535 l
267.817 184.812 l
268.077 184.812 l
268.206 184.114 l
268.725 184.114 l
268.854 184.526 l
269.179 184.526 l
269.308 180.829 l
269.631 180.829 l
269.761 162.202 l
270.02 162.202 l
270.149 171.832 l
270.473 171.832 l
270.603 168.687 l
271.121 168.687 l
271.25 207.577 l
271.574 207.577 l
271.704 203.843 l
272.028 203.843 l
272.158 206.037 l
272.416 206.037 l
272.545 208.746 l
272.805 208.746 l
272.999 170.103 l
273.064 170.103 l
273.193 172.217 l
273.712 172.217 l
273.841 183.872 l
273.906 183.872 l
274.035 186.196 l
274.359 186.196 l
274.488 182.072 l
274.813 182.072 l
274.942 179.47 l
275.007 179.47 l
275.136 190.481 l
275.201 190.481 l
275.33 197.368 l
275.85 197.388 l
275.978 198.86 l
276.306 198.86 l
276.432 197.21 l
276.756 197.21 l
276.885 199.895 l
277.144 199.895 l
277.273 209.441 l
277.793 209.441 l
277.921 207.79 l
278.246 207.79 l
278.375 209.128 l
278.699 209.128 l
278.828 209.975 l
278.893 209.975 l
279.023 212.192 l
279.152 212.192 l
279.281 210.887 l
279.541 210.887 l
279.671 204.798 l
279.994 204.798 l
280.123 222.547 l
280.188 222.547 l
280.318 218.993 l
280.383 218.993 l
280.512 220.062 l
280.836 220.062 l
280.966 220.46 l
281.678 220.42 l
281.808 218.316 l
282.585 218.422 l
282.714 215.162 l
282.779 215.162 l
282.909 214.694 l
283.233 214.694 l
283.362 223.594 l
283.426 223.594 l
283.559 221.397 l
283.88 221.397 l
284.01 221.884 l
284.074 221.884 l
284.204 221.135 l
284.53 221.135 l
284.658 218.129 l
284.916 218.129 l
285.046 207.283 l
285.176 207.283 l
285.305 201.647 l
285.369 201.647 l
285.499 204.595 l
285.564 204.595 l
285.694 200.701 l
286.017 200.701 l
286.147 210.97 l
286.277 210.97 l
286.406 217.447 l
286.664 217.447 l
286.795 220.552 l
287.118 220.552 l
287.248 221.352 l
287.507 221.352 l
287.637 219.996 l
288.025 219.996 l
288.155 220.846 l
288.22 220.846 l
288.349 221.616 l
288.414 221.616 l
288.543 207.355 l
288.609 207.355 l
288.737 202.621 l
288.867 202.621 l
288.997 192.293 l
289.256 192.293 l
289.385 197.663 l
289.71 197.663 l
289.838 190.259 l
290.163 190.259 l
290.291 183.087 l
290.551 183.087 l
290.68 189.284 l
290.81 189.284 l
290.94 185.404 l
291.199 185.404 l
291.328 188.267 l
291.653 188.267 l
291.781 210.443 l
292.106 210.443 l
292.235 211.66 l
292.494 211.66 l
292.624 209.126 l
292.972 209.126 l
293.077 206.447 l
293.157 206.447 l
293.272 205.485 l
293.595 205.485 l
293.725 208.124 l
294.049 208.124 l
294.178 201.918 l
294.243 201.918 l
294.372 191.017 l
294.437 191.017 l
294.566 194.232 l
294.891 194.232 l
295.02 196.408 l
295.085 196.408 l
295.214 198.742 l
295.344 198.742 l
295.473 196.868 l
295.539 196.868 l
295.668 188.779 l
295.992 188.779 l
296.121 185.55 l
296.445 185.55 l
296.575 182.642 l
296.841 182.642 l
296.963 182.913 l
297.093 182.913 l
297.223 178.358 l
297.483 178.358 l
297.614 178.867 l
297.935 178.867 l
298.064 218.008 l
298.388 218.008 l
298.518 222.607 l
298.809 222.607 l
298.906 221.468 l
299.23 221.468 l
299.36 221.696 l
299.425 221.696 l
299.554 222.687 l
299.878 222.687 l
300.007 222.124 l
300.331 222.124 l
300.461 218.749 l
300.53 218.749 l
300.656 211.059 l
300.98 211.059 l
301.109 211.5 l
301.627 211.5 l
301.757 218.249 l
302.017 218.249 l
302.145 217.366 l
302.468 217.366 l
302.598 211.75 l
302.664 211.75 l
302.792 210.616 l
302.922 210.616 l
303.052 212.453 l
303.116 212.453 l
303.247 212.692 l
303.57 212.692 l
303.699 212.472 l
304.023 212.472 l
304.153 216.003 l
304.414 216.003 l
304.541 216.606 l
304.613 216.606 l
304.735 217.504 l
304.865 217.504 l
304.994 215.114 l
305.253 215.114 l
305.385 214.583 l
305.513 214.583 l
305.641 225.305 l
305.901 225.305 l
306.031 225.958 l
306.355 225.958 l
306.484 223.727 l
306.808 223.727 l
306.937 218.695 l
307.002 218.695 l
307.132 220.924 l
307.196 220.924 l
307.391 220.391 l
307.652 220.293 l
307.779 228.934 l
307.909 228.934 l
308.039 231.733 l
308.299 231.733 l
308.427 229.25 l
308.751 229.25 l
308.881 226.63 l
308.946 226.63 l
309.075 228.35 l
309.399 228.35 l
309.528 231.221 l
309.787 231.221 l
309.917 232.172 l
310.241 232.172 l
310.37 229.62 l
310.695 229.62 l
310.824 221.665 l
311.082 221.665 l
311.212 223.467 l
311.536 223.467 l
311.665 223.793 l
311.99 223.793 l
312.119 218.478 l
312.443 218.478 l
312.572 214.437 l
312.831 214.437 l
312.961 224.914 l
313.285 224.914 l
313.414 225.734 l
313.479 225.734 l
313.608 223.762 l
313.933 223.762 l
314.063 238.957 l
314.386 238.957 l
314.515 228.548 l
314.774 228.548 l
314.904 221.997 l
315.228 221.997 l
315.357 217.516 l
315.617 217.516 l
315.745 216.317 l
316.07 216.317 l
316.199 214.558 l
316.523 214.558 l
316.655 213.313 l
316.912 213.313 l
317.041 211.06 l
317.365 211.06 l
317.495 201.482 l
317.818 201.482 l
317.948 209.743 l
318.013 209.743 l
318.142 213.123 l
318.467 213.123 l
318.596 215.428 l
318.855 215.428 l
318.984 215.035 l
319.308 215.035 l
319.438 227.588 l
319.762 227.588 l
319.891 230.816 l
320.215 230.816 l
320.344 232.351 l
320.603 232.351 l
320.733 230.158 l
321.057 230.158 l
321.186 222.548 l
321.445 222.548 l
321.576 227.851 l
321.898 227.851 l
322.028 228.882 l
322.093 228.882 l
322.223 229.148 l
322.742 229.148 l
322.87 230.005 l
323 230.005 l
323.13 227.145 l
323.194 227.145 l
323.323 226.419 l
323.388 226.419 l
323.583 223.759 l
323.842 223.759 l
323.971 218.255 l
324.296 218.255 l
324.424 218.482 l
324.489 218.482 l
324.619 219.18 l
324.684 219.18 l
324.813 218.74 l
325.008 218.74 l
325.137 218.207 l
325.396 218.207 l
325.526 211.503 l
325.594 211.503 l
325.72 221.77 l
325.979 221.77 l
326.109 214.681 l
326.432 214.681 l
326.562 169.494 l
326.889 169.494 l
327.016 163.47 l
327.341 163.47 l
327.469 160.459 l
327.728 160.459 l
327.857 198.251 l
328.182 198.251 l
328.311 209.146 l
328.635 209.146 l
328.764 223.492 l
329.024 223.492 l
329.153 220.455 l
329.283 220.455 l
329.412 220.243 l
329.931 220.229 l
330.059 212.951 l
330.319 212.951 l
330.448 216.209 l
330.578 216.209 l
330.707 222.017 l
331.226 221.921 l
331.42 221.864 l
331.614 221.864 l
331.744 223.165 l
331.873 223.165 l
332.003 220.632 l
332.262 220.632 l
332.391 210.074 l
332.715 210.074 l
332.844 206.093 l
333.169 206.093 l
333.298 214.842 l
333.363 214.842 l
333.492 215.627 l
333.557 215.627 l
333.752 219.201 l
333.816 219.201 l
333.946 218.485 l
334.205 218.485 l
334.334 219.569 l
334.66 219.569 l
334.79 217.186 l
334.852 217.186 l
334.982 217.422 l
335.306 217.422 l
335.435 216.859 l
335.759 216.859 l
335.889 218.194 l
336.213 218.194 l
336.342 222.16 l
336.624 222.16 l
336.731 223.405 l
337.055 223.405 l
337.184 229.294 l
337.508 229.294 l
337.637 226.771 l
337.897 226.771 l
338.026 225.049 l
338.544 225.049 l
338.674 222.408 l
338.998 222.408 l
339.128 221.955 l
339.193 221.955 l
339.321 226.873 l
339.646 226.873 l
339.775 225.035 l
339.84 225.035 l
339.969 222.725 l
340.293 222.725 l
340.422 220.225 l
340.746 220.225 l
340.876 220.09 l
340.941 220.09 l
341.07 220.444 l
341.135 220.444 l
341.265 220.305 l
341.394 220.305 l
341.524 217.903 l
341.588 217.903 l
341.718 221.114 l
342.042 221.114 l
342.171 220.287 l
342.43 220.287 l
342.56 219.484 l
342.884 219.484 l
343.014 218.065 l
343.078 218.065 l
343.207 219.057 l
343.337 219.057 l
343.467 215.598 l
343.725 215.598 l
343.855 218.36 l
344.18 218.36 l
344.308 224.055 l
344.568 224.055 l
344.762 220.824 l
345.021 220.824 l
345.15 216.946 l
345.474 216.946 l
345.603 219.938 l
345.94 219.938 l
346.057 223.502 l
346.382 223.502 l
346.511 224.073 l
346.579 224.073 l
346.705 218.461 l
346.963 218.461 l
347.094 215.561 l
347.418 215.561 l
347.547 216.397 l
347.612 216.397 l
347.742 216.668 l
347.871 216.668 l
348 216.256 l
348.259 216.256 l
348.389 220.614 l
348.713 220.614 l
348.842 220.766 l
349.167 220.766 l
349.296 218.511 l
349.557 218.511 l
349.684 220.251 l
350.008 220.251 l
350.138 217.792 l
350.461 217.792 l
350.591 214.5 l
350.658 214.5 l
350.785 223.105 l
351.109 223.105 l
351.239 225.647 l
351.757 225.647 l
351.886 224.01 l
352.145 224.01 l
352.275 221.989 l
352.405 221.989 l
352.534 220.567 l
352.599 220.567 l
352.729 220.745 l
352.793 220.745 l
352.922 219.785 l
353.053 219.785 l
353.181 221.315 l
353.246 221.315 l
353.376 223.812 l
353.7 223.812 l
353.83 226.539 l
353.894 226.539 l
354.024 227.275 l
354.348 227.275 l
354.48 225.886 l
354.542 225.886 l
354.671 219.397 l
354.996 219.397 l
355.125 216.122 l
355.449 216.122 l
355.578 215.495 l
355.837 215.495 l
355.968 213.015 l
356.032 213.015 l
356.161 213.318 l
356.485 213.318 l
356.614 209.23 l
356.744 209.23 l
356.874 212.031 l
357.132 212.031 l
357.262 220.847 l
357.586 220.847 l
357.717 217.59 l
357.78 217.59 l
357.91 222.835 l
358.234 222.835 l
358.363 216.06 l
358.428 216.06 l
358.622 214.774 l
358.882 214.774 l
359.011 217.682 l
359.076 217.682 l
359.206 216.547 l
359.529 216.547 l
359.658 214.152 l
359.917 214.152 l
360.047 235.131 l
360.177 235.131 l
360.306 224.005 l
360.371 224.005 l
360.501 195.025 l
360.631 195.025 l
360.759 172.036 l
361.019 172.036 l
361.148 171.471 l
361.472 171.471 l
361.601 231.035 l
361.667 231.035 l
361.796 230.614 l
362.12 230.614 l
362.25 228.602 l
362.313 228.602 l
362.443 224.508 l
362.769 224.508 l
362.897 224.931 l
363.221 224.931 l
363.35 226.042 l
363.416 226.042 l
363.545 219.102 l
363.803 219.102 l
363.933 202.059 l
364.451 202.059 l
364.581 214.119 l
364.907 214.119 l
365.034 233.674 l
365.358 233.674 l
365.488 228.04 l
365.815 228.04 l
365.941 229.407 l
366.006 229.407 l
366.135 216.609 l
366.461 216.609 l
366.589 223.091 l
366.675 223.091 l
366.783 227.962 l
366.913 227.962 l
367.042 226.705 l
367.301 226.705 l
367.431 220.658 l
367.497 220.658 l
367.625 222.186 l
367.951 222.186 l
368.078 230.813 l
368.143 230.813 l
368.273 233.143 l
368.406 233.143 l
368.531 231.133 l
368.791 231.088 l
368.92 235.533 l
369.244 235.533 l
369.374 240.796 l
369.699 240.796 l
369.827 243.856 l
369.916 243.856 l
370.021 242.152 l
370.351 242.152 l
370.475 240.758 l
370.54 240.758 l
370.669 240.132 l
370.734 240.132 l
370.928 238.477 l
371.005 238.477 l
371.122 238.627 l
371.381 238.627 l
371.511 240.82 l
371.835 240.82 l
371.965 243.626 l
372.029 243.626 l
372.158 247.005 l
372.289 247.005 l
372.418 248.235 l
372.507 248.235 l
372.613 248.416 l
372.936 248.416 l
373.066 246.586 l
373.325 246.586 l
373.454 244.509 l
373.781 244.509 l
373.907 245.174 l
373.972 245.174 l
374.102 244.01 l
374.426 244.01 l
374.555 241.875 l
374.879 241.875 l
375.008 241.647 l
375.074 241.647 l
375.203 242.253 l
375.527 242.253 l
375.657 243.134 l
375.98 243.134 l
376.109 243.915 l
376.369 243.915 l
376.498 244.214 l
376.822 244.214 l
376.952 247.36 l
377.016 247.36 l
377.146 246.654 l
377.664 246.654 l
377.794 246.153 l
377.923 246.153 l
378.052 243.133 l
378.313 243.133 l
378.442 241.75 l
378.766 241.75 l
378.894 241.171 l
379.218 241.171 l
379.348 240.099 l
379.609 240.099 l
379.737 245.026 l
380.06 245.026 l
380.19 244.633 l
380.514 244.633 l
380.644 240.702 l
380.902 240.702 l
381.032 241.387 l
381.162 241.387 l
381.291 242.107 l
381.55 242.107 l
381.681 241.518 l
382.004 241.518 l
382.133 242.444 l
382.457 242.444 l
382.587 246.939 l
382.845 246.939 l
382.975 249.766 l
383.299 249.766 l
383.428 250.965 l
383.493 250.965 l
383.623 252.813 l
383.947 252.813 l
384.076 256.366 l
384.207 256.366 l
384.335 256.973 l
384.613 256.973 l
384.723 255.025 l
385.048 255.025 l
385.178 253.907 l
385.436 253.907 l
385.565 251.235 l
385.695 251.235 l
385.824 249.074 l
386.149 249.074 l
386.278 246.132 l
386.538 246.132 l
386.667 240.762 l
386.991 240.762 l
387.12 237.881 l
387.379 237.881 l
387.508 240.286 l
387.833 240.286 l
387.962 245.805 l
388.287 245.805 l
388.416 251.509 l
388.675 251.509 l
388.804 254.026 l
389.128 254.026 l
389.257 253.351 l
389.581 253.351 l
389.711 252.156 l
389.971 252.156 l
390.1 253.62 l
390.423 253.62 l
390.553 252.53 l
390.877 252.53 l
391.006 251.611 l
391.071 251.611 l
391.2 250.486 l
391.333 250.486 l
391.46 251.237 l
391.718 251.237 l
391.848 251.585 l
392.172 251.585 l
392.302 251.18 l
392.56 251.18 l
392.69 249.703 l
393.014 249.703 l
393.143 248.526 l
393.467 248.526 l
393.597 244.842 l
393.855 244.842 l
393.997 245.367 l
394.309 245.367 l
394.439 246.173 l
394.957 246.173 l
395.087 245.733 l
395.41 245.733 l
395.541 245.122 l
395.605 245.122 l
395.735 244.961 l
396.058 244.961 l
396.187 245.658 l
396.252 245.658 l
396.382 246.822 l
396.706 246.822 l
396.835 246.441 l
397.094 246.441 l
397.224 249.067 l
397.548 249.088 l
397.677 248.592 l
397.742 248.592 l
397.872 247.711 l
398.649 247.767 l
398.779 243.613 l
399.037 243.613 l
399.167 247.793 l
399.297 247.793 l
399.426 246.298 l
399.75 246.298 l
399.879 249.32 l
399.944 249.32 l
400.074 247.698 l
400.398 247.698 l
400.527 246.578 l
400.786 246.578 l
400.915 247.402 l
401.271 247.402 l
401.369 247.538 l
401.434 247.538 l
401.628 247.047 l
401.822 247.139 l
401.888 247.139 l
402.017 246.78 l
402.082 246.78 l
402.275 244.93 l
402.56 244.93 l
402.665 241.932 l
402.923 241.932 l
403.053 239.725 l
403.376 239.725 l
403.506 241.688 l
403.57 241.688 l
403.7 245.046 l
404.026 245.046 l
404.154 246.051 l
404.485 246.051 l
404.608 247.057 l
404.867 247.057 l
404.996 245.988 l
405.126 245.988 l
405.255 247.281 l
405.514 247.281 l
405.644 253.401 l
406.421 253.367 l
406.55 252.045 l
406.874 252.045 l
407.004 252.802 l
407.263 252.802 l
407.392 252.18 l
407.522 252.18 l
407.651 252.592 l
407.717 252.592 l
407.846 247.273 l
408.173 247.273 l
408.299 249.233 l
408.364 249.233 l
408.493 248.886 l
408.818 248.886 l
408.947 250.639 l
409.206 250.639 l
409.335 249.041 l
409.66 249.041 l
409.789 247.589 l
409.855 247.589 l
409.983 247.401 l
410.113 247.401 l
410.242 245.334 l
410.307 245.334 l
410.436 244.93 l
410.566 244.93 l
410.696 242.783 l
410.955 242.783 l
411.085 245.594 l
411.408 245.594 l
411.537 247.601 l
411.801 247.601 l
411.926 248.303 l
412.25 248.303 l
412.379 249.372 l
412.445 249.372 l
412.574 247.604 l
412.898 247.604 l
413.027 244.818 l
413.092 244.818 l
413.222 246.16 l
413.546 246.16 l
413.675 244.796 l
413.804 244.796 l
413.934 247.254 l
414.453 247.254 l
414.582 246.286 l
414.647 246.286 l
414.776 246.114 l
415.1 246.114 l
415.229 249.492 l
415.294 249.492 l
415.424 251.774 l
415.489 251.774 l
415.618 249.747 l
415.748 249.747 l
415.877 250.115 l
416.136 250.115 l
416.266 255.118 l
416.59 255.118 l
416.719 252.912 l
416.784 252.912 l
416.913 251.276 l
417.237 251.276 l
417.367 252.053 l
417.691 252.053 l
417.821 253.668 l
418.079 253.668 l
418.209 254.36 l
418.532 254.36 l
418.662 251.94 l
418.986 251.94 l
419.115 248.726 l
419.378 248.726 l
419.504 247.145 l
419.828 247.145 l
419.958 244.65 l
420.281 244.65 l
420.411 244.35 l
420.67 244.35 l
420.799 243.866 l
421.124 243.866 l
421.253 243.473 l
421.577 243.473 l
421.706 242.789 l
421.965 242.789 l
422.095 243.722 l
422.613 243.722 l
422.742 245.01 l
423.067 245.01 l
423.196 245.259 l
423.52 245.259 l
423.649 242.684 l
423.908 242.684 l
424.037 235.134 l
424.362 235.134 l
424.491 238.852 l
424.621 238.746 l
424.88 238.702 l
425.009 238.702 l
425.139 243.093 l
425.204 243.093 l
425.333 245.742 l
425.657 245.742 l
425.786 246.252 l
425.851 246.252 l
425.98 244.082 l
426.758 244.133 l
426.888 243.475 l
427.212 243.475 l
427.341 244.503 l
427.6 244.503 l
427.73 246.918 l
428.053 246.918 l
428.183 246.383 l
428.443 246.383 l
428.571 248.288 l
428.702 248.288 l
428.83 248.059 l
429.089 248.059 l
429.219 249.922 l
429.543 249.922 l
429.673 249.323 l
429.738 249.323 l
429.867 248.04 l
430.19 248.04 l
430.32 247.55 l
430.385 247.55 l
430.514 248.174 l
431.033 248.137 l
431.162 247.95 l
431.486 247.95 l
431.615 244.313 l
431.94 244.313 l
432.069 243.716 l
432.328 243.716 l
432.458 244.955 l
432.781 244.955 l
432.911 244.442 l
433.235 244.442 l
433.365 246.991 l
433.623 246.991 l
433.753 247.237 l
434.077 247.237 l
434.207 247.655 l
434.53 247.655 l
434.659 248.022 l
434.725 248.022 l
434.854 246.805 l
435.178 246.805 l
435.307 247.936 l
435.373 247.936 l
435.502 248.225 l
436.02 248.225 l
436.149 246.205 l
436.214 246.205 l
436.344 245.466 l
436.667 245.466 l
436.797 245.787 l
437.121 245.787 l
437.251 246.228 l
437.509 246.228 l
437.639 245.363 l
437.963 245.363 l
438.093 243.655 l
438.157 243.655 l
438.287 246.873 l
438.416 246.873 l
438.546 248.181 l
438.611 248.181 l
438.74 246.641 l
439.065 246.641 l
439.193 246.09 l
439.258 246.09 l
439.388 244.486 l
439.906 244.46 l
440.179 245.393 l
440.386 245.407 l
440.488 244.929 l
440.748 244.929 l
440.878 245.9 l
441.007 245.9 l
441.137 248.818 l
441.234 248.818 l
441.331 247.492 l
441.655 247.492 l
441.784 246.972 l
441.849 246.972 l
442.043 245.867 l
442.108 245.867 l
442.237 245.715 l
442.951 245.753 l
443.08 246.261 l
443.996 246.246 l
444.116 248.296 l
444.442 248.296 l
444.57 247.801 l
444.895 247.801 l
445.023 247.347 l
445.088 247.347 l
445.217 246.724 l
445.346 246.724 l
445.476 240.748 l
445.541 240.748 l
445.672 238.787 l
445.994 238.787 l
446.124 232.229 l
446.383 232.229 l
446.513 211.507 l
446.836 211.507 l
446.965 191.868 l
447.03 191.868 l
447.16 173.548 l
447.289 173.548 l
447.419 165.943 l
447.678 165.943 l
447.807 156.923 l
448.16 156.923 l
448.261 134.957 l
448.585 134.957 l
448.715 78.1929 l
448.781 78.1929 l
448.908 76.6006 l
448.974 76.6006 l
449.103 75.4115 l
449.427 75.4115 l
449.556 60.265 l
449.88 60.265 l
450.009 53.8368 l
450.269 53.8368 l
450.398 52.8291 l
450.528 52.8291 l
450.657 54.7875 l
450.722 54.7875 l
450.852 58.3096 l
451.175 58.3096 l
451.305 58.5417 l
451.565 58.5417 l
451.694 48.0639 l
452.018 48.0639 l
452.147 51.1701 l
452.212 51.1701 l
452.342 73.5141 l
452.473 73.5141 l
452.601 95.0004 l
452.859 95.0004 l
452.989 100.231 l
453.313 100.231 l
453.442 146.344 l
453.572 146.344 l
453.701 145.993 l
453.766 145.993 l
453.896 162.245 l
505.451 162.245 l
505.451 162.245 l
stroke
grestore
0.000 0.000 1.000 setrgbcolor
gsave
453.4 226.6 73.12 40.7 clipbox
73.125 153.998 m
152.66 153.998 l
153.503 170.813 l
154.215 180.666 l
154.928 187.715 l
155.641 192.756 l
156.352 196.362 l
157.065 198.942 l
157.777 200.787 l
158.555 202.207 l
159.332 203.191 l
160.174 203.921 l
161.793 204.722 l
163.153 205.053 l
165.097 205.275 l
168.399 205.392 l
172.998 205.42 l
173.84 200.213 l
174.552 197.162 l
175.265 194.979 l
176.042 193.301 l
176.819 192.136 l
177.726 191.219 l
178.697 190.587 l
179.798 190.146 l
181.288 189.819 l
183.385 189.618 l
185.368 189.543 l
192.299 189.498 l
234.591 189.534 l
236.082 189.836 l
238.219 190.025 l
242.235 190.117 l
260.305 190.133 l
310.888 190.133 l
311.73 201.547 l
312.443 208.235 l
313.155 213.02 l
313.867 216.442 l
314.645 219.074 l
315.422 220.901 l
316.199 222.168 l
317.3 223.329 l
318.207 223.923 l
319.308 224.374 l
320.734 224.699 l
322.742 224.907 l
326.562 225.018 l
341.848 225.04 l
380.319 225.04 l
381.096 230.709 l
381.874 234.643 l
382.651 237.372 l
383.428 239.266 l
384.207 240.58 l
384.983 241.491 l
385.891 242.208 l
386.926 242.729 l
388.221 243.107 l
389.971 243.359 l
392.819 243.505 l
399.426 243.555 l
459.012 243.557 l
459.855 213.895 l
460.567 196.513 l
461.279 184.079 l
461.993 175.185 l
462.704 168.823 l
463.417 164.273 l
464.194 160.773 l
464.906 158.514 l
465.684 156.777 l
466.461 155.571 l
467.368 154.623 l
468.274 154.004 l
469.311 153.555 l
470.671 153.217 l
472.549 152.996 l
475.787 152.874 l
484.92 152.84 l
505.451 152.84 l
505.451 152.84 l
stroke
grestore
0.500 setlinewidth
0 setlinecap
[1 3] 0 setdash
0.000 setgray
gsave
453.4 226.6 73.12 40.7 clipbox
73.125 40.6968 m
73.125 267.3 l
stroke
grestore
[] 0 setdash
gsave
/o {
gsave
newpath
translate
0.5 setlinewidth
1 setlinejoin
0 setlinecap
0 0 m
0 4 l
gsave
0.000 setgray
fill
grestore
stroke
grestore
} bind def
73.125 40.6968 o
grestore
gsave
/o {
gsave
newpath
translate
0.5 setlinewidth
1 setlinejoin
0 setlinecap
0 0 m
0 -4 l
gsave
0.000 setgray
fill
grestore
stroke
grestore
} bind def
73.125 267.3 o
grestore
/DejaVuSans findfont
12.000 scalefont
setfont
gsave
70.101562 27.618668 translate
0.000000 rotate
0.000000 0.171875 m /zero glyphshow
grestore
[1 3] 0 setdash
gsave
453.4 226.6 73.12 40.7 clipbox
137.893 40.6968 m
137.893 267.3 l
stroke
grestore
[] 0 setdash
gsave
/o {
gsave
newpath
translate
0.5 setlinewidth
1 setlinejoin
0 setlinecap
0 0 m
0 4 l
gsave
0.000 setgray
fill
grestore
stroke
grestore
} bind def
137.893 40.6968 o
grestore
gsave
/o {
gsave
newpath
translate
0.5 setlinewidth
1 setlinejoin
0 setlinecap
0 0 m
0 -4 l
gsave
0.000 setgray
fill
grestore
stroke
grestore
} bind def
137.893 267.3 o
grestore
gsave
131.306920 27.618668 translate
0.000000 rotate
0.000000 0.171875 m /one glyphshow
7.634766 0.171875 m /zero glyphshow
grestore
[1 3] 0 setdash
gsave
453.4 226.6 73.12 40.7 clipbox
202.661 40.6968 m
202.661 267.3 l
stroke
grestore
[] 0 setdash
gsave
/o {
gsave
newpath
translate
0.5 setlinewidth
1 setlinejoin
0 setlinecap
0 0 m
0 4 l
gsave
0.000 setgray
fill
grestore
stroke
grestore
} bind def
202.661 40.6968 o
grestore
gsave
/o {
gsave
newpath
translate
0.5 setlinewidth
1 setlinejoin
0 setlinecap
0 0 m
0 -4 l
gsave
0.000 setgray
fill
grestore
stroke
grestore
} bind def
202.661 267.3 o
grestore
gsave
195.856027 27.618668 translate
0.000000 rotate
0.000000 0.171875 m /two glyphshow
7.634766 0.171875 m /zero glyphshow
grestore
[1 3] 0 setdash
gsave
453.4 226.6 73.12 40.7 clipbox
267.429 40.6968 m
267.429 267.3 l
stroke
grestore
[] 0 setdash
gsave
/o {
gsave
newpath
translate
0.5 setlinewidth
1 setlinejoin
0 setlinecap
0 0 m
0 4 l
gsave
0.000 setgray
fill
grestore
stroke
grestore
} bind def
267.429 40.6968 o
grestore
gsave
/o {
gsave
newpath
translate
0.5 setlinewidth
1 setlinejoin
0 setlinecap
0 0 m
0 -4 l
gsave
0.000 setgray
fill
grestore
stroke
grestore
} bind def
267.429 267.3 o
grestore
gsave
260.647321 27.618668 translate
0.000000 rotate
0.000000 0.171875 m /three glyphshow
7.634766 0.171875 m /zero glyphshow
grestore
[1 3] 0 setdash
gsave
453.4 226.6 73.12 40.7 clipbox
332.196 40.6968 m
332.196 267.3 l
stroke
grestore
[] 0 setdash
gsave
/o {
gsave
newpath
translate
0.5 setlinewidth
1 setlinejoin
0 setlinecap
0 0 m
0 4 l
gsave
0.000 setgray
fill
grestore
stroke
grestore
} bind def
332.196 40.6968 o
grestore
gsave
/o {
gsave
newpath
translate
0.5 setlinewidth
1 setlinejoin
0 setlinecap
0 0 m
0 -4 l
gsave
0.000 setgray
fill
grestore
stroke
grestore
} bind def
332.196 267.3 o
grestore
gsave
325.251116 27.618668 translate
0.000000 rotate
0.000000 0.171875 m /four glyphshow
7.634766 0.171875 m /zero glyphshow
grestore
[1 3] 0 setdash
gsave
453.4 226.6 73.12 40.7 clipbox
396.964 40.6968 m
396.964 267.3 l
stroke
grestore
[] 0 setdash
gsave
/o {
gsave
newpath
translate
0.5 setlinewidth
1 setlinejoin
0 setlinecap
0 0 m
0 4 l
gsave
0.000 setgray
fill
grestore
stroke
grestore
} bind def
396.964 40.6968 o
grestore
gsave
/o {
gsave
newpath
translate
0.5 setlinewidth
1 setlinejoin
0 setlinecap
0 0 m
0 -4 l
gsave
0.000 setgray
fill
grestore
stroke
grestore
} bind def
396.964 267.3 o
grestore
gsave
390.183036 27.618668 translate
0.000000 rotate
0.000000 0.171875 m /five glyphshow
7.634766 0.171875 m /zero glyphshow
grestore
[1 3] 0 setdash
gsave
453.4 226.6 73.12 40.7 clipbox
461.732 40.6968 m
461.732 267.3 l
stroke
grestore
[] 0 setdash
gsave
/o {
gsave
newpath
translate
0.5 setlinewidth
1 setlinejoin
0 setlinecap
0 0 m
0 4 l
gsave
0.000 setgray
fill
grestore
stroke
grestore
} bind def
461.732 40.6968 o
grestore
gsave
/o {
gsave
newpath
translate
0.5 setlinewidth
1 setlinejoin
0 setlinecap
0 0 m
0 -4 l
gsave
0.000 setgray
fill
grestore
stroke
grestore
} bind def
461.732 267.3 o
grestore
gsave
454.911830 27.618668 translate
0.000000 rotate
0.000000 0.171875 m /six glyphshow
7.634766 0.171875 m /zero glyphshow
grestore
[1 3] 0 setdash
gsave
453.4 226.6 73.12 40.7 clipbox
526.5 40.6968 m
526.5 267.3 l
stroke
grestore
[] 0 setdash
gsave
/o {
gsave
newpath
translate
0.5 setlinewidth
1 setlinejoin
0 setlinecap
0 0 m
0 4 l
gsave
0.000 setgray
fill
grestore
stroke
grestore
} bind def
526.5 40.6968 o
grestore
gsave
/o {
gsave
newpath
translate
0.5 setlinewidth
1 setlinejoin
0 setlinecap
0 0 m
0 -4 l
gsave
0.000 setgray
fill
grestore
stroke
grestore
} bind def
526.5 267.3 o
grestore
gsave
519.750000 27.618668 translate
0.000000 rotate
0.000000 0.171875 m /seven glyphshow
7.634766 0.171875 m /zero glyphshow
grestore
/DejaVuSans findfont
18.000 scalefont
setfont
gsave
265.671875 6.571793 translate
0.000000 rotate
0.000000 2.375000 m /t glyphshow
7.057617 2.375000 m /i glyphshow
12.058594 2.375000 m /m glyphshow
29.592773 2.375000 m /e glyphshow
40.666992 2.375000 m /space glyphshow
46.388672 2.375000 m /bracketleft glyphshow
53.411133 2.375000 m /s glyphshow
62.789062 2.375000 m /bracketright glyphshow
grestore
[1 3] 0 setdash
gsave
453.4 226.6 73.12 40.7 clipbox
73.125 40.6968 m
526.5 40.6968 l
stroke
grestore
[] 0 setdash
gsave
/o {
gsave
newpath
translate
0.5 setlinewidth
1 setlinejoin
0 setlinecap
0 0 m
4 0 l
gsave
0.000 setgray
fill
grestore
stroke
grestore
} bind def
73.125 40.6968 o
grestore
gsave
/o {
gsave
newpath
translate
0.5 setlinewidth
1 setlinejoin
0 setlinecap
0 0 m
-4 0 l
gsave
0.000 setgray
fill
grestore
stroke
grestore
} bind def
526.5 40.6968 o
grestore
/DejaVuSans findfont
12.000 scalefont
setfont
gsave
42.031250 36.157731 translate
0.000000 rotate
0.000000 0.171875 m /minus glyphshow
10.054688 0.171875 m /one glyphshow
17.689453 0.171875 m /period glyphshow
21.503906 0.171875 m /zero glyphshow
grestore
[1 3] 0 setdash
gsave
453.4 226.6 73.12 40.7 clipbox
73.125 97.3476 m
526.5 97.3476 l
stroke
grestore
[] 0 setdash
gsave
/o {
gsave
newpath
translate
0.5 setlinewidth
1 setlinejoin
0 setlinecap
0 0 m
4 0 l
gsave
0.000 setgray
fill
grestore
stroke
grestore
} bind def
73.125 97.3476 o
grestore
gsave
/o {
gsave
newpath
translate
0.5 setlinewidth
1 setlinejoin
0 setlinecap
0 0 m
-4 0 l
gsave
0.000 setgray
fill
grestore
stroke
grestore
} bind def
526.5 97.3476 o
grestore
gsave
42.281250 92.808532 translate
0.000000 rotate
0.000000 0.171875 m /minus glyphshow
10.054688 0.171875 m /zero glyphshow
17.689453 0.171875 m /period glyphshow
21.503906 0.171875 m /five glyphshow
grestore
[1 3] 0 setdash
gsave
453.4 226.6 73.12 40.7 clipbox
73.125 153.998 m
526.5 153.998 l
stroke
grestore
[] 0 setdash
gsave
/o {
gsave
newpath
translate
0.5 setlinewidth
1 setlinejoin
0 setlinecap
0 0 m
4 0 l
gsave
0.000 setgray
fill
grestore
stroke
grestore
} bind def
73.125 153.998 o
grestore
gsave
/o {
gsave
newpath
translate
0.5 setlinewidth
1 setlinejoin
0 setlinecap
0 0 m
-4 0 l
gsave
0.000 setgray
fill
grestore
stroke
grestore
} bind def
526.5 153.998 o
grestore
gsave
51.625000 149.459334 translate
0.000000 rotate
0.000000 0.171875 m /zero glyphshow
7.634766 0.171875 m /period glyphshow
11.449219 0.171875 m /zero glyphshow
grestore
[1 3] 0 setdash
gsave
453.4 226.6 73.12 40.7 clipbox
73.125 210.649 m
526.5 210.649 l
stroke
grestore
[] 0 setdash
gsave
/o {
gsave
newpath
translate
0.5 setlinewidth
1 setlinejoin
0 setlinecap
0 0 m
4 0 l
gsave
0.000 setgray
fill
grestore
stroke
grestore
} bind def
73.125 210.649 o
grestore
gsave
/o {
gsave
newpath
translate
0.5 setlinewidth
1 setlinejoin
0 setlinecap
0 0 m
-4 0 l
gsave
0.000 setgray
fill
grestore
stroke
grestore
} bind def
526.5 210.649 o
grestore
gsave
51.875000 206.110136 translate
0.000000 rotate
0.000000 0.171875 m /zero glyphshow
7.634766 0.171875 m /period glyphshow
11.449219 0.171875 m /five glyphshow
grestore
[1 3] 0 setdash
gsave
453.4 226.6 73.12 40.7 clipbox
73.125 267.3 m
526.5 267.3 l
stroke
grestore
[] 0 setdash
gsave
/o {
gsave
newpath
translate
0.5 setlinewidth
1 setlinejoin
0 setlinecap
0 0 m
4 0 l
gsave
0.000 setgray
fill
grestore
stroke
grestore
} bind def
73.125 267.3 o
grestore
gsave
/o {
gsave
newpath
translate
0.5 setlinewidth
1 setlinejoin
0 setlinecap
0 0 m
-4 0 l
gsave
0.000 setgray
fill
grestore
stroke
grestore
} bind def
526.5 267.3 o
grestore
gsave
52.140625 262.760938 translate
0.000000 rotate
0.000000 0.171875 m /one glyphshow
7.634766 0.171875 m /period glyphshow
11.449219 0.171875 m /zero glyphshow
grestore
gsave
37.031250 130.498397 translate
90.000000 rotate
/Cmmi10 findfont
18.0 scalefont
setfont
0.000000 4.328125 moveto
/y glyphshow

/DejaVuSans findfont
18.0 scalefont
setfont
8.824219 4.328125 moveto
/space glyphshow

14.545898 4.328125 moveto
/bracketleft glyphshow

21.568359 4.328125 moveto
/m glyphshow

39.102539 4.328125 moveto
/bracketright glyphshow


grestore
1.000 setlinewidth
2 setlinecap
gsave
73.125 267.3 m
526.5 267.3 l
stroke
grestore
gsave
526.5 40.6968 m
526.5 267.3 l
stroke
grestore
gsave
73.125 40.6968 m
526.5 40.6968 l
stroke
grestore
gsave
73.125 40.6968 m
73.125 267.3 l
stroke
grestore
/DejaVuSans findfont
24.000 scalefont
setfont
gsave
44.507812 267.300000 translate
0.000000 rotate
0.000000 5.000000 m /G glyphshow
18.597656 5.000000 m /o glyphshow
33.281250 5.000000 m /a glyphshow
47.988281 5.000000 m /l glyphshow
54.656250 5.000000 m /space glyphshow
62.285156 5.000000 m /P glyphshow
75.882812 5.000000 m /o glyphshow
90.566406 5.000000 m /s glyphshow
103.070312 5.000000 m /i glyphshow
109.738281 5.000000 m /t glyphshow
119.148438 5.000000 m /i glyphshow
125.816406 5.000000 m /o glyphshow
140.500000 5.000000 m /n glyphshow
155.710938 5.000000 m /space glyphshow
163.339844 5.000000 m /parenleft glyphshow
172.703125 5.000000 m /y glyphshow
186.906250 5.000000 m /parenright glyphshow
196.269531 5.000000 m /colon glyphshow
204.355469 5.000000 m /space glyphshow
211.984375 5.000000 m /B glyphshow
228.449219 5.000000 m /e glyphshow
243.214844 5.000000 m /f glyphshow
251.664062 5.000000 m /o glyphshow
266.347656 5.000000 m /r glyphshow
275.714844 5.000000 m /e glyphshow
290.480469 5.000000 m /space glyphshow
298.109375 5.000000 m /a glyphshow
312.816406 5.000000 m /n glyphshow
328.027344 5.000000 m /d glyphshow
343.261719 5.000000 m /space glyphshow
350.890625 5.000000 m /A glyphshow
366.433594 5.000000 m /f glyphshow
374.507812 5.000000 m /t glyphshow
383.917969 5.000000 m /e glyphshow
398.683594 5.000000 m /r glyphshow
408.550781 5.000000 m /space glyphshow
416.179688 5.000000 m /F glyphshow
428.234375 5.000000 m /i glyphshow
434.902344 5.000000 m /l glyphshow
441.570312 5.000000 m /t glyphshow
450.980469 5.000000 m /e glyphshow
465.746094 5.000000 m /r glyphshow
475.613281 5.000000 m /i glyphshow
482.281250 5.000000 m /n glyphshow
497.492188 5.000000 m /g glyphshow
grestore
gsave
80.325 47.8968 m
174.165 47.8968 l
174.165 96.898 l
80.325 96.898 l
80.325 47.8968 l
cl
gsave
1.000 setgray
fill
grestore
stroke
grestore
1.000 0.000 0.000 setrgbcolor
gsave
90.405 85.5374 m
110.565 85.5374 l
stroke
grestore
0.000 setgray
gsave
126.405000 77.497418 translate
0.000000 rotate
/Cmmi10 findfont
14.4 scalefont
setfont
0.000000 3.640625 moveto
/y glyphshow


grestore
0.000 0.000 1.000 setrgbcolor
gsave
90.405 64.6968 m
110.565 64.6968 l
stroke
grestore
0.000 setgray
gsave
126.405000 53.656793 translate
0.000000 rotate
/Cmmi10 findfont
14.4 scalefont
setfont
0.000000 6.640625 moveto
/y glyphshow

/Cmmi10 findfont
10.08 scalefont
setfont
7.054779 2.967275 moveto
/f glyphshow

11.978363 2.967275 moveto
/i glyphshow

15.446021 2.967275 moveto
/l glyphshow

18.446410 2.967275 moveto
/t glyphshow

22.081302 2.967275 moveto
/e glyphshow

26.763876 2.967275 moveto
/r glyphshow

31.308728 2.967275 moveto
/e glyphshow

35.991302 2.967275 moveto
/d glyphshow


grestore

end
showpage
