%!PS-Adobe-3.0 EPSF-3.0
%%Title: /home/kariya/catkin_ws/src/crazyflieROS/logdata/20140626/y_manual.eps
%%Creator: matplotlib version 1.1.1rc, http://matplotlib.sourceforge.net/
%%CreationDate: Thu Jun 26 12:53:19 2014
%%Orientation: portrait
%%BoundingBox: 13 247 598 544
%%EndComments
%%BeginProlog
/mpldict 9 dict def
mpldict begin
/m { moveto } bind def
/l { lineto } bind def
/r { rlineto } bind def
/c { curveto } bind def
/cl { closepath } bind def
/box {
m
1 index 0 r
0 exch r
neg 0 r
cl
} bind def
/clipbox {
box
clip
newpath
} bind def
%!PS-Adobe-3.0 Resource-Font
%%Title: DejaVu Sans
%%Copyright: Copyright (c) 2003 by Bitstream, Inc. All Rights Reserved. Copyright (c) 2006 by Tavmjong Bah. All Rights Reserved. DejaVu changes are in public domain 
%%Creator: Converted from TrueType to type 3 by PPR
25 dict begin
/_d{bind def}bind def
/_m{moveto}_d
/_l{lineto}_d
/_cl{closepath eofill}_d
/_c{curveto}_d
/_sc{7 -1 roll{setcachedevice}{pop pop pop pop pop pop}ifelse}_d
/_e{exec}_d
/FontName /DejaVuSans def
/PaintType 0 def
/FontMatrix[.001 0 0 .001 0 0]def
/FontBBox[-1021 -415 1681 1167]def
/FontType 3 def
/Encoding [ /space /parenleft /parenright /period /zero /one /two /five /P /bracketleft /bracketright /e /i /m /n /o /s /t /v /y /minus ] def
/FontInfo 10 dict dup begin
/FamilyName (DejaVu Sans) def
/FullName (DejaVu Sans) def
/Notice (Copyright (c) 2003 by Bitstream, Inc. All Rights Reserved. Copyright (c) 2006 by Tavmjong Bah. All Rights Reserved. DejaVu changes are in public domain ) def
/Weight (Book) def
/Version (Version 2.33) def
/ItalicAngle 0.0 def
/isFixedPitch false def
/UnderlinePosition -130 def
/UnderlineThickness 90 def
end readonly def
/CharStrings 21 dict dup begin
/space{318 0 0 0 0 0 _sc
}_d
/parenleft{390 0 86 -131 310 759 _sc
310 759 _m
266 683 234 609 213 536 _c
191 463 181 389 181 314 _c
181 238 191 164 213 91 _c
234 17 266 -56 310 -131 _c
232 -131 _l
183 -54 146 20 122 94 _c
98 168 86 241 86 314 _c
86 386 98 459 122 533 _c
146 607 182 682 232 759 _c
310 759 _l
_cl}_d
/parenright{390 0 80 -131 304 759 _sc
80 759 _m
158 759 _l
206 682 243 607 267 533 _c
291 459 304 386 304 314 _c
304 241 291 168 267 94 _c
243 20 206 -54 158 -131 _c
80 -131 _l
123 -56 155 17 177 91 _c
198 164 209 238 209 314 _c
209 389 198 463 177 536 _c
155 609 123 683 80 759 _c
_cl}_d
/period{318 0 107 0 210 124 _sc
107 124 _m
210 124 _l
210 0 _l
107 0 _l
107 124 _l
_cl}_d
/zero{636 0 66 -13 570 742 _sc
318 664 _m
267 664 229 639 203 589 _c
177 539 165 464 165 364 _c
165 264 177 189 203 139 _c
229 89 267 64 318 64 _c
369 64 407 89 433 139 _c
458 189 471 264 471 364 _c
471 464 458 539 433 589 _c
407 639 369 664 318 664 _c
318 742 _m
399 742 461 709 505 645 _c
548 580 570 486 570 364 _c
570 241 548 147 505 83 _c
461 19 399 -13 318 -13 _c
236 -13 173 19 130 83 _c
87 147 66 241 66 364 _c
66 486 87 580 130 645 _c
173 709 236 742 318 742 _c
_cl}_d
/one{636 0 110 0 544 729 _sc
124 83 _m
285 83 _l
285 639 _l
110 604 _l
110 694 _l
284 729 _l
383 729 _l
383 83 _l
544 83 _l
544 0 _l
124 0 _l
124 83 _l
_cl}_d
/two{{636 0 73 0 536 742 _sc
192 83 _m
536 83 _l
536 0 _l
73 0 _l
73 83 _l
110 121 161 173 226 239 _c
290 304 331 346 348 365 _c
380 400 402 430 414 455 _c
426 479 433 504 433 528 _c
433 566 419 598 392 622 _c
365 646 330 659 286 659 _c
255 659 222 653 188 643 _c
154 632 117 616 78 594 _c
78 694 _l
118 710 155 722 189 730 _c
223 738 255 742 284 742 _c
359 742 419 723 464 685 _c
509 647 532 597 532 534 _c
532 504 526 475 515 449 _c
504 422 484 390 454 354 _c
446 344 420 317 376 272 _c
332 227 271 164 192 83 _c
_cl}_e}_d
/five{{636 0 77 -13 549 729 _sc
108 729 _m
495 729 _l
495 646 _l
198 646 _l
198 467 _l
212 472 227 476 241 478 _c
255 480 270 482 284 482 _c
365 482 429 459 477 415 _c
525 370 549 310 549 234 _c
549 155 524 94 475 51 _c
426 8 357 -13 269 -13 _c
238 -13 207 -10 175 -6 _c
143 -1 111 6 77 17 _c
77 116 _l
106 100 136 88 168 80 _c
199 72 232 69 267 69 _c
323 69 368 83 401 113 _c
433 143 450 183 450 234 _c
450 284 433 324 401 354 _c
368 384 323 399 267 399 _c
241 399 214 396 188 390 _c
162 384 135 375 108 363 _c
108 729 _l
_cl}_e}_d
/P{603 0 98 0 569 729 _sc
197 648 _m
197 374 _l
321 374 _l
367 374 402 385 427 409 _c
452 433 465 467 465 511 _c
465 555 452 588 427 612 _c
402 636 367 648 321 648 _c
197 648 _l
98 729 _m
321 729 _l
402 729 464 710 506 673 _c
548 636 569 582 569 511 _c
569 439 548 384 506 348 _c
464 311 402 293 321 293 _c
197 293 _l
197 0 _l
98 0 _l
98 729 _l
_cl}_d
/bracketleft{390 0 86 -131 293 760 _sc
86 760 _m
293 760 _l
293 690 _l
176 690 _l
176 -61 _l
293 -61 _l
293 -131 _l
86 -131 _l
86 760 _l
_cl}_d
/bracketright{390 0 97 -131 304 760 _sc
304 760 _m
304 -131 _l
97 -131 _l
97 -61 _l
214 -61 _l
214 690 _l
97 690 _l
97 760 _l
304 760 _l
_cl}_d
/e{{615 0 55 -13 562 560 _sc
562 296 _m
562 252 _l
149 252 _l
153 190 171 142 205 110 _c
238 78 284 62 344 62 _c
378 62 412 66 444 74 _c
476 82 509 95 541 113 _c
541 28 _l
509 14 476 3 442 -3 _c
408 -9 373 -13 339 -13 _c
251 -13 182 12 131 62 _c
80 112 55 181 55 268 _c
55 357 79 428 127 481 _c
175 533 241 560 323 560 _c
397 560 455 536 498 489 _c
540 441 562 377 562 296 _c
472 322 _m
471 371 457 410 431 440 _c
404 469 368 484 324 484 _c
274 484 234 469 204 441 _c
174 413 156 373 152 322 _c
472 322 _l
_cl}_e}_d
/i{278 0 94 0 184 760 _sc
94 547 _m
184 547 _l
184 0 _l
94 0 _l
94 547 _l
94 760 _m
184 760 _l
184 646 _l
94 646 _l
94 760 _l
_cl}_d
/m{{974 0 91 0 889 560 _sc
520 442 _m
542 482 569 511 600 531 _c
631 550 668 560 711 560 _c
767 560 811 540 842 500 _c
873 460 889 403 889 330 _c
889 0 _l
799 0 _l
799 327 _l
799 379 789 418 771 444 _c
752 469 724 482 686 482 _c
639 482 602 466 575 435 _c
548 404 535 362 535 309 _c
535 0 _l
445 0 _l
445 327 _l
445 379 435 418 417 444 _c
398 469 369 482 331 482 _c
285 482 248 466 221 435 _c
194 404 181 362 181 309 _c
181 0 _l
91 0 _l
91 547 _l
181 547 _l
181 462 _l
201 495 226 520 255 536 _c
283 552 317 560 357 560 _c
397 560 430 550 458 530 _c
486 510 506 480 520 442 _c
}_e{_cl}_e}_d
/n{634 0 91 0 549 560 _sc
549 330 _m
549 0 _l
459 0 _l
459 327 _l
459 379 448 417 428 443 _c
408 469 378 482 338 482 _c
289 482 251 466 223 435 _c
195 404 181 362 181 309 _c
181 0 _l
91 0 _l
91 547 _l
181 547 _l
181 462 _l
202 494 227 519 257 535 _c
286 551 320 560 358 560 _c
420 560 468 540 500 501 _c
532 462 549 405 549 330 _c
_cl}_d
/o{612 0 55 -13 557 560 _sc
306 484 _m
258 484 220 465 192 427 _c
164 389 150 338 150 273 _c
150 207 163 156 191 118 _c
219 80 257 62 306 62 _c
354 62 392 80 420 118 _c
448 156 462 207 462 273 _c
462 337 448 389 420 427 _c
392 465 354 484 306 484 _c
306 560 _m
384 560 445 534 490 484 _c
534 433 557 363 557 273 _c
557 183 534 113 490 63 _c
445 12 384 -13 306 -13 _c
227 -13 165 12 121 63 _c
77 113 55 183 55 273 _c
55 363 77 433 121 484 _c
165 534 227 560 306 560 _c
_cl}_d
/s{{521 0 54 -13 472 560 _sc
443 531 _m
443 446 _l
417 458 391 468 364 475 _c
336 481 308 485 279 485 _c
234 485 200 478 178 464 _c
156 450 145 430 145 403 _c
145 382 153 366 169 354 _c
185 342 217 330 265 320 _c
296 313 _l
360 299 405 279 432 255 _c
458 230 472 195 472 151 _c
472 100 452 60 412 31 _c
372 1 316 -13 246 -13 _c
216 -13 186 -10 154 -5 _c
122 0 89 8 54 20 _c
54 113 _l
87 95 120 82 152 74 _c
184 65 216 61 248 61 _c
290 61 323 68 346 82 _c
368 96 380 117 380 144 _c
380 168 371 187 355 200 _c
339 213 303 226 247 238 _c
216 245 _l
160 257 119 275 95 299 _c
70 323 58 356 58 399 _c
58 450 76 490 112 518 _c
148 546 200 560 268 560 _c
}_e{301 560 332 557 362 552 _c
391 547 418 540 443 531 _c
_cl}_e}_d
/t{392 0 27 0 368 702 _sc
183 702 _m
183 547 _l
368 547 _l
368 477 _l
183 477 _l
183 180 _l
183 135 189 106 201 94 _c
213 81 238 75 276 75 _c
368 75 _l
368 0 _l
276 0 _l
206 0 158 13 132 39 _c
106 65 93 112 93 180 _c
93 477 _l
27 477 _l
27 547 _l
93 547 _l
93 702 _l
183 702 _l
_cl}_d
/v{592 0 30 0 562 547 _sc
30 547 _m
125 547 _l
296 88 _l
467 547 _l
562 547 _l
357 0 _l
235 0 _l
30 547 _l
_cl}_d
/y{592 0 30 -207 562 547 _sc
322 -50 _m
296 -114 271 -157 247 -177 _c
223 -197 191 -207 151 -207 _c
79 -207 _l
79 -132 _l
132 -132 _l
156 -132 175 -126 189 -114 _c
203 -102 218 -75 235 -31 _c
251 9 _l
30 547 _l
125 547 _l
296 119 _l
467 547 _l
562 547 _l
322 -50 _l
_cl}_d
/minus{838 0 106 272 732 355 _sc
106 355 _m
732 355 _l
732 272 _l
106 272 _l
106 355 _l
_cl}_d
end readonly def

/BuildGlyph
 {exch begin
 CharStrings exch
 2 copy known not{pop /.notdef}if
 true 3 1 roll get exec
 end}_d

/BuildChar {
 1 index /Encoding get exch get
 1 index /BuildGlyph get exec
}_d

FontName currentdict end definefont pop
%!PS-Adobe-3.0 Resource-Font
%%Title: cmmi10
%%Copyright: Copyright (C) 1994, Basil K. Malyshev. All Rights Reserved.012BaKoMa Fonts Collection, Level-B.
%%Creator: Converted from TrueType to type 3 by PPR
25 dict begin
/_d{bind def}bind def
/_m{moveto}_d
/_l{lineto}_d
/_cl{closepath eofill}_d
/_c{curveto}_d
/_sc{7 -1 roll{setcachedevice}{pop pop pop pop pop pop}ifelse}_d
/_e{exec}_d
/FontName /Cmmi10 def
/PaintType 0 def
/FontMatrix[.001 0 0 .001 0 0]def
/FontBBox[-34 -250 1048 750]def
/FontType 3 def
/Encoding [ /e /g /m /o /d /s /u /l /y /a /r ] def
/FontInfo 10 dict dup begin
/FamilyName (cmmi10) def
/FullName (cmmi10) def
/Notice (Copyright (C) 1994, Basil K. Malyshev. All Rights Reserved.012BaKoMa Fonts Collection, Level-B. ) def
/Weight (Regular) def
/Version (1.1/12-Nov-94) def
/ItalicAngle 0.0 def
/isFixedPitch false def
/UnderlinePosition -133 def
/UnderlineThickness 20 def
end readonly def
/CharStrings 11 dict dup begin
/e{{465 0 44 -10 430 442 _sc
201 -10 _m
169 -10 141 -2 117 14 _c
93 30 75 53 63 81 _c
50 109 44 138 44 170 _c
44 217 56 262 80 304 _c
104 346 136 379 177 404 _c
218 429 262 442 309 442 _c
337 442 362 434 384 419 _c
405 404 416 383 416 356 _c
416 317 400 288 370 270 _c
339 251 304 239 266 235 _c
228 231 185 229 139 229 _c
136 229 _l
125 189 120 155 120 127 _c
120 97 126 71 140 49 _c
154 26 175 15 203 15 _c
243 15 281 24 318 42 _c
354 60 384 86 407 118 _c
409 120 411 121 415 121 _c
418 121 421 119 425 115 _c
428 111 430 108 430 105 _c
430 102 429 100 428 99 _c
404 65 371 38 330 19 _c
288 0 245 -10 201 -10 _c
142 255 _m
}_e{180 255 216 256 249 260 _c
282 264 312 273 339 287 _c
365 301 379 324 379 355 _c
379 367 375 378 368 387 _c
361 396 352 403 342 408 _c
331 413 320 416 308 416 _c
280 416 254 408 232 393 _c
209 377 190 357 176 333 _c
161 308 150 282 142 255 _c
_cl}_e}_d
/g{{477 0 14 -204 476 442 _sc
14 -142 _m
14 -126 19 -111 31 -99 _c
42 -87 56 -81 72 -81 _c
82 -81 91 -84 99 -91 _c
106 -97 110 -106 110 -117 _c
110 -129 106 -139 99 -149 _c
92 -159 83 -166 73 -170 _c
91 -175 119 -178 157 -178 _c
187 -178 215 -166 241 -142 _c
266 -118 283 -91 291 -61 _c
320 55 _l
284 18 246 0 207 0 _c
178 0 153 7 133 22 _c
113 36 97 56 87 80 _c
76 104 71 130 71 158 _c
71 188 77 220 89 254 _c
101 288 119 319 142 348 _c
164 376 190 399 220 416 _c
249 433 280 442 313 442 _c
332 442 349 436 365 426 _c
381 415 393 401 403 383 _c
409 409 424 422 446 422 _c
454 422 461 419 467 414 _c
473 409 476 402 476 394 _c
476 392 476 390 476 389 _c
476 388 475 387 475 386 _c
}_e{361 -67 _l
355 -87 346 -106 332 -124 _c
318 -141 301 -155 282 -167 _c
263 -179 242 -188 220 -194 _c
198 -200 176 -204 156 -204 _c
118 -204 84 -200 56 -193 _c
28 -185 14 -168 14 -142 _c
209 26 _m
251 26 293 55 335 114 _c
390 332 _l
385 355 376 375 362 391 _c
348 407 331 416 311 416 _c
289 416 268 407 248 389 _c
228 371 212 349 199 324 _c
187 300 175 265 163 220 _c
151 175 146 140 146 114 _c
146 91 151 71 161 53 _c
171 35 187 26 209 26 _c
_cl}_e}_d
/m{{878 0 27 -10 851 442 _sc
77 17 _m
77 21 77 24 78 26 _c
153 324 _l
157 342 160 359 160 373 _c
160 401 150 416 131 416 _c
110 416 94 403 84 378 _c
74 353 64 322 55 284 _c
55 282 54 280 52 279 _c
50 278 48 278 47 278 _c
35 278 _l
33 278 31 279 29 281 _c
27 283 27 286 27 288 _c
34 317 41 342 48 362 _c
54 382 65 400 79 417 _c
93 433 110 442 132 442 _c
156 442 178 434 198 418 _c
217 402 227 382 227 358 _c
247 384 270 404 297 419 _c
323 434 352 442 382 442 _c
413 442 440 434 463 418 _c
486 402 498 379 498 349 _c
518 378 542 401 570 417 _c
597 433 627 442 660 442 _c
}_e{694 442 722 432 743 414 _c
764 395 775 368 775 334 _c
775 306 768 273 756 235 _c
744 196 729 153 711 105 _c
701 81 697 61 697 45 _c
697 25 704 15 720 15 _c
746 15 767 29 785 57 _c
802 85 814 115 822 147 _c
824 151 826 153 830 153 _c
842 153 _l
844 153 846 152 848 150 _c
850 148 851 146 851 144 _c
851 143 850 142 850 141 _c
840 103 824 68 802 37 _c
780 5 752 -10 718 -10 _c
694 -10 674 -2 658 13 _c
641 29 633 48 633 72 _c
633 83 635 96 641 111 _c
659 161 675 205 688 245 _c
700 284 707 319 707 349 _c
707 367 703 383 696 396 _c
688 409 676 416 658 416 _c
}_e{622 416 590 404 563 382 _c
536 360 513 330 494 294 _c
492 287 491 282 491 279 _c
427 22 _l
424 12 419 5 411 -1 _c
403 -7 394 -10 385 -10 _c
377 -10 370 -7 364 -3 _c
358 1 355 8 355 17 _c
355 21 355 24 356 26 _c
420 281 _l
426 308 430 331 430 349 _c
430 367 426 383 418 396 _c
410 409 398 416 380 416 _c
355 416 332 410 312 400 _c
292 389 274 375 259 357 _c
243 339 229 318 217 294 _c
149 22 _l
147 12 142 5 134 -1 _c
126 -7 117 -10 107 -10 _c
99 -10 92 -7 86 -3 _c
80 1 77 8 77 17 _c
_cl}_e}_d
/o{{484 0 40 -10 471 442 _sc
201 -10 _m
169 -10 141 -2 117 12 _c
92 26 73 46 60 72 _c
46 97 40 126 40 158 _c
40 203 52 248 78 292 _c
103 336 136 372 178 400 _c
220 428 264 442 310 442 _c
334 442 356 437 376 429 _c
395 421 412 409 426 394 _c
440 378 451 360 459 340 _c
467 319 471 297 471 273 _c
471 238 463 204 449 170 _c
434 136 414 106 389 78 _c
363 50 334 29 301 13 _c
268 -2 235 -10 201 -10 _c
203 15 _m
233 15 260 25 284 45 _c
308 65 329 91 345 122 _c
361 152 373 185 381 219 _c
389 253 394 284 394 312 _c
394 340 386 365 372 385 _c
358 405 336 416 308 416 _c
269 416 235 399 206 366 _c
176 332 154 292 139 246 _c
124 200 117 157 117 119 _c
117 90 124 65 139 45 _c
154 25 175 15 203 15 _c
_cl}_e}_d
/d{{520 0 38 -10 519 694 _sc
174 -10 _m
132 -10 98 5 74 37 _c
50 68 38 105 38 149 _c
38 191 49 236 71 282 _c
93 328 122 366 160 396 _c
198 426 238 442 282 442 _c
302 442 319 436 335 425 _c
351 414 363 400 372 382 _c
428 605 _l
430 616 432 625 433 632 _c
433 642 411 648 368 648 _c
361 648 358 652 358 661 _c
358 663 358 666 360 670 _c
361 674 362 677 364 679 _c
366 681 368 683 372 683 _c
507 694 _l
515 694 519 689 519 681 _c
375 106 _l
370 94 368 78 368 58 _c
368 29 377 15 397 15 _c
417 15 433 28 444 55 _c
455 81 464 112 472 147 _c
}_e{473 151 476 153 480 153 _c
492 153 _l
494 153 496 151 498 149 _c
500 147 501 145 501 143 _c
489 96 476 59 462 31 _c
448 3 426 -10 395 -10 _c
372 -10 352 -3 335 9 _c
318 21 307 39 303 61 _c
260 13 217 -10 174 -10 _c
175 15 _m
199 15 222 24 245 42 _c
267 60 287 81 303 106 _c
303 106 304 108 304 110 _c
359 330 _l
355 353 346 373 333 390 _c
319 407 302 416 280 416 _c
257 416 236 406 217 388 _c
197 370 181 348 168 323 _c
154 296 142 259 130 213 _c
118 167 113 131 113 105 _c
113 81 118 60 128 42 _c
138 24 153 15 175 15 _c
_cl}_e}_d
/s{{468 0 52 -10 419 442 _sc
87 61 _m
105 30 141 15 195 15 _c
218 15 240 19 261 27 _c
282 35 300 47 314 63 _c
328 79 335 98 335 121 _c
335 138 328 152 316 163 _c
304 174 289 182 271 186 _c
217 197 _l
192 203 172 214 156 231 _c
140 248 132 269 132 293 _c
132 322 140 348 156 371 _c
172 394 193 412 219 424 _c
245 436 273 442 302 442 _c
332 442 359 434 383 420 _c
407 405 419 384 419 356 _c
419 340 414 327 406 315 _c
397 303 385 298 370 298 _c
361 298 353 300 347 306 _c
341 312 338 319 338 328 _c
338 336 340 343 344 351 _c
348 358 354 364 362 368 _c
369 372 377 375 385 375 _c
379 389 368 399 352 406 _c
336 412 318 416 300 416 _c
282 416 265 412 249 406 _c
232 399 218 389 208 376 _c
198 362 193 347 193 329 _c
193 317 197 306 205 297 _c
213 288 224 282 237 278 _c
}_e{295 266 _l
313 262 330 255 346 245 _c
361 235 373 222 382 207 _c
391 192 396 175 396 156 _c
396 131 389 106 375 82 _c
361 58 344 39 324 25 _c
288 1 245 -10 194 -10 _c
158 -10 126 -2 96 14 _c
66 30 52 54 52 86 _c
52 104 57 119 67 133 _c
77 147 92 154 111 154 _c
121 154 130 150 138 144 _c
145 137 149 128 149 118 _c
149 102 143 89 132 78 _c
120 66 107 61 92 61 _c
87 61 _l
_cl}_e}_d
/u{{572 0 27 -10 546 442 _sc
106 109 _m
106 131 109 153 115 176 _c
121 198 129 224 139 252 _c
149 280 159 305 167 326 _c
175 350 180 370 180 386 _c
180 406 172 416 158 416 _c
132 416 110 402 93 375 _c
75 347 63 317 55 284 _c
53 280 51 278 47 278 _c
35 278 _l
29 278 27 281 27 287 _c
27 290 _l
37 330 54 365 76 396 _c
98 426 126 442 160 442 _c
184 442 204 434 220 418 _c
236 402 245 383 245 359 _c
245 346 242 333 237 320 _c
233 312 226 294 216 267 _c
206 239 198 217 193 199 _c
187 181 183 163 179 146 _c
175 128 174 111 174 94 _c
174 72 178 53 188 38 _c
197 22 212 15 234 15 _c
}_e{276 15 314 41 346 94 _c
346 96 347 99 348 101 _c
348 103 349 106 349 109 _c
421 399 _l
423 407 428 415 436 421 _c
444 427 453 431 463 431 _c
471 431 478 428 484 423 _c
490 418 493 411 493 403 _c
493 399 492 396 492 395 _c
420 107 _l
415 87 413 70 413 58 _c
413 29 422 15 442 15 _c
463 15 479 28 490 55 _c
500 81 509 112 517 147 _c
518 151 521 153 525 153 _c
537 153 _l
539 153 541 151 543 149 _c
545 147 546 145 546 143 _c
538 114 531 89 525 69 _c
518 49 507 30 493 14 _c
479 -2 461 -10 440 -10 _c
418 -10 399 -4 383 6 _c
366 17 355 33 349 53 _c
}_e{333 33 316 18 296 7 _c
276 -4 254 -10 232 -10 _c
193 -10 162 0 140 21 _c
117 41 106 71 106 109 _c
_cl}_e}_d
/l{{298 0 44 -10 262 694 _sc
44 81 _m
44 83 44 86 44 90 _c
44 94 45 97 46 101 _c
46 105 47 108 47 110 _c
171 605 _l
173 616 175 625 176 632 _c
176 642 154 648 111 648 _c
104 648 101 652 101 661 _c
101 663 102 666 103 670 _c
104 674 105 677 107 679 _c
109 681 111 683 115 683 _c
250 694 _l
258 694 262 689 262 681 _c
118 106 _l
113 95 111 79 111 58 _c
111 29 120 15 140 15 _c
160 15 176 27 186 53 _c
196 79 206 110 214 147 _c
215 151 218 153 222 153 _c
234 153 _l
236 153 238 151 240 149 _c
242 147 243 145 243 143 _c
}_e{235 111 227 85 221 67 _c
215 48 205 30 191 14 _c
177 -2 159 -10 138 -10 _c
111 -10 89 -1 71 15 _c
53 32 44 54 44 81 _c
_cl}_e}_d
/y{{490 0 27 -204 492 442 _sc
84 -142 _m
98 -166 122 -178 157 -178 _c
189 -178 216 -167 239 -145 _c
262 -123 281 -96 295 -65 _c
309 -33 320 -1 328 31 _c
298 3 266 -10 232 -10 _c
205 -10 182 -5 164 3 _c
146 11 131 25 121 43 _c
111 61 106 83 106 109 _c
106 131 109 153 115 176 _c
121 198 129 224 139 252 _c
149 280 159 305 167 326 _c
175 350 180 370 180 386 _c
180 406 172 416 158 416 _c
132 416 110 402 93 375 _c
75 347 63 317 55 284 _c
53 280 51 278 47 278 _c
35 278 _l
29 278 27 281 27 287 _c
27 290 _l
37 330 54 365 76 396 _c
98 426 126 442 160 442 _c
}_e{184 442 204 434 220 418 _c
236 402 245 383 245 359 _c
245 346 242 333 237 320 _c
233 312 226 294 216 267 _c
206 239 198 217 193 199 _c
187 181 183 163 179 146 _c
175 128 174 111 174 94 _c
174 72 178 53 188 38 _c
197 22 212 15 233 15 _c
274 15 311 40 344 91 _c
420 399 _l
422 407 427 415 435 421 _c
443 427 452 431 462 431 _c
470 431 477 428 483 423 _c
489 418 492 411 492 403 _c
492 399 491 396 491 395 _c
392 -2 _l
383 -36 367 -68 344 -100 _c
320 -131 292 -156 259 -175 _c
225 -194 191 -204 156 -204 _c
138 -204 121 -200 104 -194 _c
87 -187 73 -177 63 -164 _c
53 -150 48 -135 48 -117 _c
48 -99 53 -83 64 -70 _c
74 -56 89 -50 107 -50 _c
117 -50 126 -53 134 -60 _c
141 -66 145 -75 145 -86 _c
145 -101 139 -114 128 -126 _c
116 -137 103 -143 88 -143 _c
}_e{87 -143 86 -142 86 -142 _c
85 -142 84 -142 84 -142 _c
_cl}_e}_d
/a{{528 0 38 -10 501 442 _sc
174 -10 _m
132 -10 98 5 74 37 _c
50 68 38 105 38 149 _c
38 191 49 236 71 282 _c
93 328 122 366 160 396 _c
198 426 238 442 282 442 _c
302 442 319 436 335 426 _c
351 415 363 400 372 382 _c
379 408 394 422 416 422 _c
424 422 431 419 437 414 _c
443 409 446 402 446 394 _c
446 392 445 390 445 389 _c
445 388 445 387 445 386 _c
375 107 _l
370 87 368 70 368 58 _c
368 29 377 15 397 15 _c
417 15 433 28 444 55 _c
455 81 464 112 472 147 _c
473 151 476 153 480 153 _c
492 153 _l
494 153 496 151 498 149 _c
500 147 501 145 501 143 _c
}_e{489 96 476 59 462 31 _c
448 3 426 -10 395 -10 _c
372 -10 352 -3 335 9 _c
318 21 307 39 303 61 _c
260 13 217 -10 174 -10 _c
175 15 _m
199 15 222 24 245 42 _c
267 60 287 81 303 106 _c
303 106 304 107 304 109 _c
358 326 _l
359 329 _l
355 353 346 373 333 390 _c
319 407 302 416 280 416 _c
257 416 236 406 217 388 _c
197 370 181 348 168 323 _c
154 296 142 259 130 213 _c
118 167 113 131 113 105 _c
113 81 118 60 128 42 _c
138 24 153 15 175 15 _c
_cl}_e}_d
/r{{451 0 27 -10 434 442 _sc
77 17 _m
77 21 77 24 78 26 _c
153 324 _l
157 342 160 359 160 373 _c
160 401 150 416 131 416 _c
110 416 94 403 84 378 _c
74 353 64 322 55 284 _c
55 282 54 280 52 279 _c
50 278 48 278 47 278 _c
35 278 _l
33 278 31 279 29 281 _c
27 283 27 286 27 288 _c
34 317 41 342 48 362 _c
54 382 65 400 79 417 _c
93 433 110 442 132 442 _c
155 442 175 435 193 422 _c
210 408 221 391 225 369 _c
241 391 260 408 282 422 _c
304 435 328 442 354 442 _c
375 442 394 435 410 423 _c
426 411 434 394 434 373 _c
434 356 428 341 418 329 _c
407 316 393 310 376 310 _c
}_e{365 310 356 313 349 320 _c
341 326 338 335 338 346 _c
338 360 343 373 354 385 _c
364 397 377 403 391 403 _c
380 411 367 416 352 416 _c
323 416 298 405 277 385 _c
256 365 237 339 220 308 _c
149 22 _l
147 12 142 5 134 -1 _c
126 -7 117 -10 107 -10 _c
99 -10 92 -7 86 -3 _c
80 1 77 8 77 17 _c
_cl}_e}_d
end readonly def

/BuildGlyph
 {exch begin
 CharStrings exch
 2 copy known not{pop /.notdef}if
 true 3 1 roll get exec
 end}_d

/BuildChar {
 1 index /Encoding get exch get
 1 index /BuildGlyph get exec
}_d

FontName currentdict end definefont pop
end
%%EndProlog
mpldict begin
13.5 247.5 translate
585 297 0 0 clipbox
gsave
0 0 m
585 0 l
585 297 l
0 297 l
cl
1.000 setgray
fill
grestore
gsave
73.125 40.6968 m
526.5 40.6968 l
526.5 267.3 l
73.125 267.3 l
cl
1.000 setgray
fill
grestore
1.000 setlinewidth
1 setlinejoin
2 setlinecap
[] 0 setdash
0.000 setgray
gsave
453.4 226.6 73.12 40.7 clipbox
73.125 170.184 m
174.268 170.184 l
174.347 170.524 l
175.06 193.439 l
175.141 199.417 l
175.214 201.613 l
175.351 206.021 l
175.429 208.641 l
175.501 210.891 l
175.568 211.7 l
175.648 213.849 l
175.716 214.785 l
175.792 216.168 l
175.858 216.664 l
175.936 217.984 l
176.006 218.559 l
176.082 219.408 l
176.152 219.859 l
176.227 220.524 l
176.297 220.878 l
176.372 221.399 l
176.443 221.676 l
176.517 222.085 l
176.588 222.302 l
176.662 222.622 l
176.732 222.792 l
176.807 223.043 l
176.943 223.259 l
177.029 223.51 l
177.164 223.687 l
177.243 223.834 l
177.451 224.011 l
177.533 224.118 l
177.891 224.308 l
178.04 224.377 l
181.379 224.568 l
191.968 224.569 l
192.039 224.23 l
192.195 221.152 l
192.258 219.415 l
192.425 213.265 l
192.54 209.923 l
192.629 205.131 l
192.709 202.079 l
192.889 191.421 l
193.306 178.022 l
193.687 170.647 l
194.085 166.627 l
194.487 164.57 l
194.811 163.661 l
195.246 163.015 l
195.736 162.679 l
196.407 162.5 l
197.767 162.424 l
202.119 162.299 l
202.246 161.109 l
203.316 132.359 l
203.715 128.066 l
204.114 125.87 l
204.513 124.746 l
204.948 124.136 l
205.456 123.81 l
206.163 123.643 l
207.596 123.575 l
215.847 123.569 l
244.21 123.569 l
244.501 126.137 l
244.754 131.271 l
245.843 156.472 l
246.241 161.272 l
246.64 163.727 l
247.058 165.023 l
247.475 165.666 l
247.928 166.004 l
250.957 166.298 l
282.348 166.3 l
364.101 166.3 l
364.497 169.484 l
364.573 172.506 l
365.316 203.868 l
365.733 212.338 l
366.132 216.414 l
366.549 218.565 l
366.966 219.633 l
367.402 220.178 l
367.909 220.469 l
368.671 220.624 l
370.394 220.681 l
379.934 220.684 l
380.079 219.262 l
380.318 209.362 l
380.967 173.205 l
381.383 161.9 l
381.783 156.461 l
382.182 153.677 l
382.508 152.447 l
382.648 152.299 l
382.791 151.828 l
382.935 151.65 l
383.009 151.502 l
383.218 151.324 l
383.3 151.216 l
383.653 151.032 l
383.736 150.98 l
386.854 150.762 l
433.221 150.761 l
433.291 151.1 l
433.37 151.601 l
433.437 151.867 l
433.599 153.373 l
433.661 154.163 l
433.806 156.587 l
433.873 157.435 l
433.948 158.688 l
434.016 159.352 l
434.092 160.334 l
434.163 160.855 l
434.321 162.606 l
434.385 163.268 l
434.532 165.766 l
434.597 166.491 l
434.672 167.562 l
434.742 168.13 l
434.817 168.969 l
434.887 169.414 l
434.962 170.072 l
435.032 170.421 l
435.108 170.936 l
435.177 171.21 l
435.253 171.614 l
435.323 171.828 l
435.397 172.145 l
435.467 172.313 l
435.544 172.561 l
435.679 172.774 l
435.76 173.023 l
435.899 173.197 l
435.979 173.343 l
436.19 173.534 l
436.27 173.623 l
436.625 173.811 l
436.703 173.854 l
439.895 174.068 l
473.945 174.069 l
474.362 172.112 l
474.779 171.141 l
475.232 170.631 l
475.758 170.369 l
476.592 170.23 l
478.66 170.186 l
510.396 170.184 l
510.759 170.184 l
510.759 170.184 l
stroke
grestore
1.000 0.000 0.000 setrgbcolor
gsave
453.4 226.6 73.12 40.7 clipbox
97.4996 173.475 m
100.8 173.475 l
100.854 173.667 l
100.909 173.475 l
104.717 173.475 l
104.79 173.667 l
104.79 173.667 l
104.79 173.667 l
104.899 173.44 l
105.044 173.475 l
107.927 173.437 l
108.054 173.206 l
108.163 173.475 l
108.181 173.44 l
108.834 173.437 l
110.774 173.44 l
110.901 173.667 l
111.028 173.698 l
111.083 173.674 l
111.21 174.212 l
111.336 174.29 l
111.464 175.008 l
111.554 175.023 l
111.699 176.56 l
111.808 176.59 l
112.171 180.042 l
112.225 180.042 l
112.37 181.263 l
112.407 181.263 l
112.552 182.454 l
112.588 182.485 l
112.733 183.262 l
112.769 183.262 l
112.95 183.85 l
113.078 183.106 l
113.096 183.169 l
113.277 183.125 l
113.314 183.125 l
113.458 181.504 l
113.549 181.504 l
113.712 179.442 l
113.857 179.429 l
113.984 177.574 l
114.038 177.574 l
114.184 175.288 l
114.292 175.288 l
114.419 172.771 l
114.474 172.771 l
114.619 171.307 l
114.71 171.307 l
114.837 169.921 l
114.946 169.891 l
115 168.405 l
115.072 168.409 l
115.127 168.66 l
115.181 168.412 l
115.254 168.412 l
115.381 167.914 l
115.489 167.914 l
115.616 168.166 l
115.671 168.17 l
115.798 168.932 l
115.853 168.932 l
115.997 169.431 l
116.106 169.431 l
116.251 170.72 l
116.342 170.72 l
116.469 170.959 l
116.524 170.959 l
116.65 171.147 l
116.759 171.147 l
116.886 171.955 l
117.049 171.905 l
117.121 171.905 l
117.248 171.137 l
117.303 171.137 l
117.484 170.395 l
117.502 170.395 l
117.629 169.9 l
117.792 168.907 l
117.847 169.146 l
117.847 169.146 l
117.847 169.146 l
117.998 167.911 l
118.101 167.911 l
118.228 166.694 l
118.355 166.413 l
118.518 165.162 l
118.536 165.162 l
118.681 164.163 l
118.754 164.163 l
118.881 163.139 l
119.026 162.136 l
119.062 162.136 l
119.207 160.854 l
119.298 160.807 l
119.426 160.302 l
119.443 160.302 l
119.57 159.704 l
119.697 159.45 l
119.733 159.45 l
119.878 158.892 l
120.097 158.899 l
120.205 158.646 l
120.331 158.853 l
120.459 158.86 l
120.513 159.07 l
120.513 159.07 l
120.513 159.07 l
120.64 158.81 l
120.803 159.598 l
121.129 159.603 l
121.274 160.127 l
121.551 160.182 l
121.71 159.406 l
121.782 159.406 l
121.927 158.399 l
122.036 158.378 l
122.2 157.362 l
122.218 157.362 l
122.363 156.338 l
122.399 156.338 l
122.544 154.562 l
122.635 154.562 l
122.78 153.212 l
122.87 153.212 l
123.018 152.28 l
123.07 152.28 l
123.215 151.164 l
123.306 151.164 l
123.433 150.905 l
123.541 150.905 l
123.686 150.506 l
123.904 150.506 l
123.977 150.269 l
124.013 150.437 l
124.176 150.681 l
124.212 150.685 l
124.375 151.287 l
124.394 151.287 l
124.593 152.04 l
124.757 152.027 l
124.883 153.795 l
124.938 153.795 l
125.101 154.887 l
125.173 154.887 l
125.301 155.709 l
125.409 155.721 l
125.536 156.146 l
125.554 156.146 l
125.681 156.912 l
125.718 156.912 l
125.863 157.422 l
125.922 157.427 l
126.044 157.74 l
126.08 157.74 l
126.225 158.244 l
126.534 158.299 l
126.679 157.798 l
126.751 157.798 l
126.824 157.035 l
126.878 157.043 l
126.933 157.043 l
127.078 155.62 l
127.169 155.602 l
127.295 154.36 l
127.368 154.36 l
127.495 153.025 l
127.622 151.775 l
127.658 151.775 l
127.785 150.047 l
127.839 150.047 l
127.984 148.705 l
128.021 148.705 l
128.148 147.101 l
128.202 147.101 l
128.365 145.277 l
128.384 145.277 l
128.564 144.281 l
128.637 144.281 l
128.765 143.065 l
128.873 143.057 l
129 142.16 l
129.018 142.173 l
129.073 142.173 l
129.2 141.673 l
129.345 141.666 l
129.472 141.18 l
129.599 141.187 l
129.707 140.944 l
129.816 141.187 l
129.84 141.187 l
129.961 141.436 l
130.088 141.596 l
130.233 142.392 l
130.251 142.392 l
130.396 142.891 l
130.505 142.893 l
130.632 143.363 l
130.687 143.383 l
130.795 143.235 l
130.941 143.97 l
131.104 143.964 l
131.231 144.229 l
131.466 144.235 l
131.611 144.812 l
131.72 144.812 l
131.865 145.93 l
131.957 145.93 l
132.083 146.939 l
132.101 146.939 l
132.246 148.037 l
132.264 148.07 l
132.409 149.561 l
132.5 149.561 l
132.645 151.373 l
132.682 151.415 l
132.827 152.473 l
132.917 152.511 l
133.062 154.34 l
133.099 154.34 l
133.37 156.398 l
133.407 156.398 l
133.624 158.448 l
133.716 158.448 l
133.842 159.947 l
133.951 159.98 l
134.077 161.257 l
134.132 161.257 l
134.259 162.512 l
134.314 162.512 l
134.495 163.515 l
134.567 163.515 l
134.713 164.491 l
134.749 164.491 l
134.894 164.995 l
134.985 164.995 l
135.112 165.956 l
135.221 165.965 l
135.347 166.687 l
135.51 167.42 l
135.583 167.42 l
135.729 167.904 l
135.765 167.904 l
135.892 168.394 l
136.018 168.15 l
136.073 168.15 l
136.218 167.663 l
136.363 167.663 l
136.496 166.919 l
136.544 166.919 l
136.689 165.171 l
136.78 165.171 l
136.907 164.422 l
136.925 164.422 l
137.052 162.981 l
137.778 160.891 l
137.795 160.998 l
137.925 161.18 l
138.143 161.134 l
138.269 161.629 l
138.384 162.094 l
138.739 162.555 l
138.883 163.825 l
138.974 163.825 l
139.01 164.335 l
139.313 164.829 l
139.45 165.331 l
139.519 165.318 l
139.66 165.557 l
139.733 165.556 l
139.878 166.067 l
139.945 166.049 l
140.027 166.589 l
140.096 166.043 l
140.168 166.306 l
140.308 166.306 l
140.386 166.017 l
140.531 166.007 l
140.673 166.27 l
140.748 165.99 l
140.821 165.697 l
140.966 165.979 l
141.395 164.205 l
141.476 164.469 l
141.619 163.593 l
141.691 163.593 l
141.909 162.65 l
141.982 162.69 l
142.057 162.401 l
142.127 162.662 l
142.272 162.443 l
142.417 163.348 l
142.491 163.029 l
142.929 164.763 l
143.003 164.785 l
143.215 165.661 l
143.36 170.471 l
143.505 170.471 l
143.58 166.821 l
143.65 167.391 l
143.798 166.82 l
143.941 166.825 l
144.231 164.863 l
144.303 164.863 l
144.733 160.98 l
144.812 161.5 l
144.817 161.5 l
144.956 160.476 l
145.101 159.921 l
145.176 159.92 l
145.32 158.601 l
145.455 158.046 l
145.464 158.281 l
145.536 158.317 l
145.758 157.826 l
145.898 157.62 l
146.044 157.62 l
146.189 157.155 l
146.261 157.155 l
146.481 156.699 l
146.552 156.965 l
146.697 156.768 l
146.769 156.768 l
147.133 158.518 l
147.205 158.518 l
147.495 159.798 l
147.712 159.894 l
148.081 161.059 l
148.14 161.059 l
148.367 161.857 l
148.44 161.653 l
148.585 162.163 l
148.728 162.19 l
148.873 162.705 l
148.948 162.713 l
149.091 162.972 l
149.171 162.762 l
149.378 163.483 l
149.453 163.483 l
149.52 163.043 l
149.599 163.252 l
149.744 163.485 l
149.817 163.533 l
150.025 164.239 l
150.11 164.239 l
151.268 168.939 l
151.413 169.367 l
151.485 169.367 l
151.704 170.849 l
151.847 170.848 l
152.501 173.271 l
152.794 174.858 l
152.863 174.858 l
153.085 175.946 l
153.154 175.726 l
153.376 176.908 l
153.524 176.908 l
153.737 177.839 l
153.745 177.839 l
153.884 178.723 l
154.036 179.6 l
154.088 179.6 l
154.197 180.317 l
154.377 182.591 l
154.388 182.591 l
154.676 185.928 l
154.75 185.928 l
154.964 188.458 l
154.966 188.458 l
155.184 190.384 l
155.257 190.384 l
155.402 192.141 l
155.547 192.278 l
155.764 193.646 l
155.982 194.578 l
157.512 198.266 l
157.723 201.478 l
157.795 201.478 l
157.863 201.204 l
157.94 202.459 l
158.013 202.459 l
158.158 203.722 l
158.229 203.722 l
158.303 206.051 l
158.451 207.607 l
158.819 210.477 l
158.956 213.914 l
159.246 218.154 l
159.319 218.154 l
159.543 223.322 l
159.675 223.573 l
159.754 225.665 l
159.827 225.729 l
160.044 228.546 l
160.121 228.546 l
160.264 230.478 l
160.479 232.463 l
160.629 233.724 l
160.697 233.979 l
160.921 236.324 l
161.059 236.115 l
161.279 237.441 l
161.423 237.702 l
161.638 239.647 l
161.642 239.647 l
161.999 240.669 l
162.016 240.669 l
162.148 241.795 l
162.229 241.525 l
162.439 244.206 l
162.512 244.206 l
162.656 243.938 l
162.729 244.571 l
162.803 244.314 l
163.021 244.314 l
163.163 245.919 l
163.236 245.919 l
163.309 246.055 l
163.453 245.776 l
163.599 244.654 l
163.673 244.455 l
163.745 244.747 l
164.107 242.579 l
164.186 242.579 l
165.122 233.093 l
165.195 229.767 l
165.268 230.007 l
165.487 230.007 l
165.632 224.819 l
165.71 224.819 l
165.911 220.677 l
165.923 220.677 l
166.201 218.007 l
166.277 218.007 l
166.5 211.074 l
166.716 208.519 l
166.933 205.373 l
166.937 205.373 l
167.09 202.221 l
167.152 202.221 l
167.45 195.703 l
167.523 195.386 l
167.812 190.096 l
167.885 190.096 l
168.175 185.463 l
168.395 182.313 l
168.539 182.37 l
168.684 180.645 l
168.757 180.645 l
168.901 179.03 l
169.555 175.997 l
169.699 174.082 l
169.916 172.843 l
170.067 172.843 l
170.209 171.555 l
170.351 170.884 l
170.5 170.884 l
170.643 168.842 l
170.715 168.842 l
170.861 167.362 l
171.15 165.105 l
171.222 165.105 l
171.441 163.494 l
171.516 163.494 l
171.66 163.173 l
171.732 163.173 l
171.88 161.609 l
172.095 160.654 l
172.167 160.97 l
172.31 160.652 l
172.533 160.703 l
172.674 160.386 l
173.109 160.494 l
173.326 161.43 l
173.617 161.43 l
173.762 162.922 l
173.834 162.922 l
173.979 164.508 l
174.125 164.508 l
174.352 166.412 l
174.587 166.403 l
174.77 167.043 l
174.873 167.043 l
175.067 167.685 l
175.078 167.685 l
175.142 168.341 l
175.288 168.668 l
175.726 168.685 l
175.866 171.376 l
176.01 171.745 l
176.228 175.244 l
176.301 175.244 l
176.594 180.933 l
176.663 180.933 l
177.826 199.035 l
177.899 199.035 l
178.041 202.067 l
178.114 202.067 l
178.328 206.298 l
178.339 206.298 l
178.551 208.247 l
178.622 208.247 l
178.84 210.497 l
178.913 210.497 l
179.202 212.891 l
179.274 212.891 l
179.419 213.611 l
179.564 213.607 l
179.709 213.994 l
179.927 213.979 l
180.001 215.378 l
180.073 214.304 l
180.217 215.035 l
180.293 215.035 l
180.499 217.787 l
180.585 217.792 l
180.87 220.469 l
180.945 220.469 l
181.161 222.434 l
181.307 222.597 l
181.454 225.195 l
181.603 224.984 l
181.668 224.984 l
181.743 224.311 l
181.886 225.076 l
181.958 224.444 l
182.106 225.68 l
182.249 225.186 l
182.394 226.097 l
182.612 225.918 l
182.829 226.345 l
182.975 226.149 l
183.038 227.849 l
183.116 227.045 l
183.269 227.045 l
183.487 228.234 l
183.633 227.454 l
183.701 227.448 l
183.844 227.152 l
183.917 227.152 l
184.062 227.332 l
184.28 226.155 l
184.354 226.155 l
184.526 225.273 l
184.569 225.273 l
184.642 225.16 l
184.715 224.38 l
184.866 225.344 l
184.932 225.344 l
185.005 223.827 l
185.077 223.838 l
185.214 224.299 l
185.295 223.692 l
185.442 223.396 l
185.513 223.396 l
185.586 223.87 l
185.802 223.223 l
186.096 223.218 l
186.238 223.52 l
186.383 223.355 l
186.533 223.355 l
186.674 223.67 l
186.891 223.676 l
187.18 223.24 l
187.255 223.24 l
187.535 221.984 l
187.547 221.984 l
187.689 221.539 l
187.908 222.852 l
188.052 222.247 l
188.125 222.815 l
188.276 222.374 l
188.415 223.545 l
188.489 223.545 l
188.632 223.096 l
188.85 224.555 l
189.068 225.823 l
189.212 225.817 l
189.357 226.94 l
189.72 228.312 l
189.865 228.03 l
189.942 229.596 l
190.012 229.161 l
190.228 230.155 l
190.298 230.155 l
190.386 229.951 l
190.518 230.992 l
190.657 231.058 l
190.736 232.362 l
190.887 232.398 l
191.025 233.959 l
191.098 233.959 l
191.244 234.241 l
191.317 236.332 l
191.389 236.071 l
191.963 237.857 l
192.197 237.857 l
192.356 238.683 l
192.5 238.171 l
192.549 238.195 l
192.632 238.195 l
192.849 239.138 l
192.876 238.87 l
192.928 238.87 l
192.982 238.332 l
193.004 238.867 l
193.004 238.867 l
193.071 238.916 l
193.2 238.142 l
193.398 238.142 l
193.506 234.797 l
193.796 232.527 l
193.905 232.78 l
193.923 232.78 l
194.068 229.118 l
194.105 229.118 l
194.232 228.536 l
194.558 224.911 l
194.63 224.911 l
194.757 223.169 l
194.794 223.169 l
194.851 222.29 l
194.903 222.58 l
194.921 222.58 l
195.066 220.383 l
195.12 220.504 l
195.247 217.588 l
195.319 217.588 l
195.501 214.544 l
195.556 214.544 l
195.7 212.746 l
195.737 212.746 l
195.9 209.716 l
195.973 209.716 l
196.118 206.944 l
196.227 206.944 l
196.371 204.476 l
196.462 204.476 l
196.607 201.347 l
196.698 201.347 l
196.843 198.251 l
196.879 198.251 l
197.079 196.271 l
197.133 196.271 l
197.26 193.172 l
197.315 193.172 l
197.441 190.603 l
197.496 190.603 l
197.623 187.545 l
197.804 187.545 l
197.931 182.495 l
198.04 182.495 l
198.185 178.48 l
198.276 178.48 l
198.421 174.832 l
198.53 174.832 l
198.676 172.272 l
198.765 172.272 l
198.893 170.936 l
199.037 168.356 l
199.128 168.335 l
199.273 167.035 l
199.309 167.035 l
199.436 166.71 l
199.545 166.71 l
199.672 165.735 l
199.853 165.735 l
199.98 164.737 l
200.107 163.764 l
200.162 163.756 l
200.307 163.127 l
200.452 163.102 l
200.525 163.102 l
200.651 162.45 l
200.706 162.446 l
200.833 161.838 l
200.887 161.559 l
200.887 161.559 l
200.887 161.559 l
200.944 161.88 l
200.996 161.558 l
201.558 161.559 l
201.668 161.284 l
201.685 161.286 l
202.03 161.286 l
202.157 161.604 l
202.284 161.237 l
202.303 161.237 l
202.43 160.541 l
202.556 160.539 l
202.883 157.871 l
203.045 153.967 l
203.081 153.967 l
203.227 152.021 l
203.245 152.021 l
203.39 146.7 l
203.48 146.7 l
203.607 142.311 l
203.662 142.311 l
203.788 137.429 l
203.843 137.429 l
203.988 131.156 l
204.207 127.483 l
204.226 127.483 l
204.387 122.504 l
204.46 122.504 l
204.587 118.361 l
204.623 118.361 l
204.804 114.379 l
204.877 114.379 l
205.004 111.602 l
205.149 109.278 l
205.442 109.278 l
205.567 106.189 l
205.657 106.188 l
205.784 105.405 l
205.838 105.329 l
205.965 105.694 l
206.092 104.874 l
206.219 104.637 l
206.456 104.709 l
206.563 105.068 l
206.581 105.064 l
206.745 105.14 l
206.873 106.99 l
206.944 106.99 l
207.071 106.77 l
207.18 106.77 l
207.289 107.396 l
207.307 107.39 l
207.416 107.39 l
207.47 108.337 l
207.542 108.14 l
207.597 108.14 l
207.724 108.652 l
207.779 108.652 l
207.906 108.974 l
208.015 108.974 l
208.141 108.652 l
208.268 108.646 l
208.413 107.396 l
208.577 107.396 l
208.703 103.977 l
208.758 103.977 l
208.885 103.014 l
208.939 103.014 l
209.066 99.1647 l
209.175 99.1123 l
209.32 95.576 l
209.465 95.576 l
209.592 92.4008 l
209.737 88.1564 l
209.755 88.1564 l
210.045 85.6624 l
210.082 85.6624 l
210.209 81.0995 l
210.263 81.0995 l
210.39 78.6567 l
210.444 78.6567 l
210.825 74.9727 l
210.988 74.9727 l
211.133 72.9956 l
211.17 72.9956 l
211.297 71.6274 l
211.351 71.6274 l
211.405 70.4976 l
211.46 71.1177 l
215.395 71.1177 l
215.523 70.5687 l
215.541 70.5687 l
215.668 71.1069 l
215.776 71.1069 l
215.903 73.0263 l
216.03 74.4263 l
216.139 74.4263 l
216.302 77.3095 l
216.321 77.3095 l
216.374 78.4466 l
216.447 78.1931 l
216.483 78.1931 l
216.61 80.5661 l
216.665 80.5661 l
216.846 82.9798 l
216.918 82.9798 l
217.045 86.3484 l
217.1 86.3484 l
217.228 88.2875 l
217.39 91.9515 l
217.463 91.9515 l
217.608 94.7761 l
217.645 94.7761 l
217.771 97.2799 l
217.916 99.8187 l
218.079 102.909 l
218.134 102.909 l
218.261 104.899 l
218.369 104.899 l
218.498 110.372 l
218.642 114.005 l
218.732 114.083 l
218.877 118.481 l
219.095 120.802 l
219.258 125.417 l
219.349 125.417 l
219.493 130.769 l
219.585 130.769 l
219.711 133.023 l
219.82 133.023 l
219.947 138.126 l
220.074 140.732 l
220.128 140.732 l
220.256 143.445 l
220.382 145.837 l
220.437 145.837 l
220.563 150.586 l
220.6 150.586 l
220.767 153.876 l
220.854 153.876 l
220.999 157.316 l
221.09 157.316 l
221.216 158.767 l
221.343 158.767 l
221.471 162.578 l
221.579 162.578 l
221.706 163.941 l
221.761 163.941 l
221.888 165.234 l
222.178 165.985 l
222.432 165.972 l
222.577 165.286 l
222.903 165.246 l
223.084 163.499 l
223.212 163.499 l
223.338 162.761 l
223.574 162.761 l
223.701 158.465 l
223.846 154.821 l
223.937 154.821 l
224.081 151.052 l
224.118 151.052 l
224.245 147.916 l
224.3 147.916 l
224.445 142.816 l
224.553 142.816 l
224.698 139.336 l
224.717 139.336 l
224.861 134.922 l
224.898 134.922 l
225.061 132.132 l
225.152 132.132 l
225.279 128.479 l
225.388 128.411 l
225.533 124.854 l
226.095 121.194 l
226.167 121.194 l
226.24 119.824 l
226.276 120.225 l
226.421 120.225 l
226.548 119.17 l
226.603 119.17 l
226.712 118.846 l
226.73 118.851 l
226.839 118.851 l
226.965 118.2 l
227.02 118.2 l
227.147 118.523 l
227.22 118.523 l
227.346 118.2 l
227.473 119.171 l
227.527 119.175 l
227.582 119.5 l
227.636 119.175 l
227.673 119.175 l
227.82 119.824 l
227.909 119.824 l
227.982 120.548 l
228.018 119.824 l
228.061 119.824 l
228.198 121.013 l
228.216 121.013 l
228.362 122.172 l
228.417 122.172 l
228.452 122.356 l
228.579 124.794 l
228.598 124.794 l
228.743 125.456 l
228.779 125.456 l
228.906 127.121 l
229.051 128.802 l
229.161 128.802 l
229.287 130.451 l
229.421 130.496 l
229.54 131.809 l
229.631 131.809 l
229.758 133.414 l
229.885 133.499 l
230.103 133.499 l
230.23 132.554 l
230.302 132.242 l
230.358 132.25 l
230.393 132.25 l
230.521 130.979 l
230.557 130.979 l
230.666 130.638 l
230.69 130.638 l
230.81 128.351 l
230.847 128.351 l
231.027 125.747 l
231.082 125.747 l
231.209 125.131 l
231.488 120.651 l
231.572 120.651 l
231.699 119.414 l
231.718 119.414 l
231.862 116.22 l
231.989 116.132 l
232.116 113.36 l
232.17 113.36 l
232.297 111.672 l
232.569 108.988 l
232.66 108.988 l
232.786 108.831 l
232.968 108.831 l
233.095 105.486 l
233.204 105.486 l
233.349 104.044 l
233.621 104.115 l
233.748 104.478 l
233.802 104.478 l
233.929 104.793 l
234.038 104.478 l
234.166 78.2622 l
234.292 104.478 l
234.437 105.061 l
234.473 105.061 l
234.654 106.236 l
234.709 106.236 l
234.763 79.5462 l
234.817 106.027 l
235.017 106.027 l
235.144 79.9767 l
235.271 106.74 l
235.38 106.74 l
235.525 107.41 l
235.561 107.41 l
235.67 106.466 l
235.797 107.182 l
235.906 105.753 l
235.978 106.365 l
236.015 105.803 l
236.087 105.803 l
236.214 105.174 l
236.232 105.174 l
236.287 105.803 l
236.287 105.803 l
236.287 105.803 l
236.414 104.171 l
236.54 105.369 l
236.667 104.377 l
236.74 104.377 l
236.795 103.324 l
236.795 103.324 l
236.795 103.324 l
236.903 104.569 l
237.012 76.4258 l
237.139 104.721 l
237.194 104.721 l
237.32 104.335 l
237.484 104.335 l
237.556 105.173 l
237.556 105.173 l
237.556 105.173 l
237.665 103.902 l
237.683 104.145 l
237.737 104.153 l
237.865 105.327 l
237.919 105.327 l
238.064 104.106 l
238.336 104.074 l
238.499 103.219 l
238.572 103.219 l
238.698 103.497 l
238.826 103.499 l
238.971 104.028 l
239.061 104.028 l
239.188 74.225 l
239.297 105.493 l
239.315 104.674 l
239.424 104.648 l
239.587 105.45 l
239.678 105.407 l
239.787 104.867 l
239.859 105.407 l
239.895 104.867 l
240.041 104.867 l
240.168 105.174 l
240.243 104.306 l
240.276 104.867 l
240.331 104.867 l
240.459 104.256 l
240.603 103.381 l
240.639 103.381 l
240.784 101.829 l
240.875 101.829 l
240.947 100.309 l
240.984 100.632 l
241.002 100.632 l
241.165 98.7433 l
241.238 98.7433 l
241.31 97.194 l
241.383 65.4289 l
241.437 68.5105 l
241.491 68.5105 l
241.546 96.9238 l
241.618 96.3245 l
241.745 94.7262 l
241.854 94.7262 l
241.981 95.0869 l
242.126 93.9449 l
242.217 93.9449 l
242.347 93.0741 l
242.471 59.2189 l
242.526 59.2189 l
242.598 92.0468 l
242.651 91.109 l
242.706 91.109 l
242.834 91.5044 l
243.25 91.5519 l
243.377 90.896 l
243.486 90.896 l
243.613 91.3427 l
243.668 90.945 l
243.668 90.945 l
243.668 90.945 l
243.795 91.9067 l
243.921 91.3936 l
243.976 91.3936 l
244.103 92.2642 l
244.212 92.2642 l
244.322 93.0054 l
244.342 93.0054 l
244.466 93.1852 l
244.539 93.1852 l
244.703 92.0238 l
244.777 92.0238 l
244.901 92.6011 l
245.029 91.5862 l
245.173 91.9537 l
245.246 90.6203 l
245.282 90.9339 l
245.336 90.9339 l
245.464 89.683 l
245.517 89.683 l
245.663 88.1329 l
245.681 88.1329 l
245.735 58.6892 l
245.79 87.8246 l
245.862 87.7224 l
246.134 85.758 l
246.315 85.758 l
246.442 82.6493 l
246.46 82.6493 l
246.587 83.5061 l
246.696 83.5061 l
246.823 80.8421 l
246.932 80.7785 l
247.059 79.6263 l
247.132 45.9498 l
247.168 78.7764 l
247.186 78.7764 l
247.331 79.3033 l
247.422 79.3033 l
247.567 78.7468 l
247.603 78.7468 l
247.712 79.0102 l
247.893 77.5548 l
247.929 77.5548 l
248.074 78.7176 l
248.201 76.6249 l
248.328 76.9227 l
248.455 76.3555 l
248.51 76.3555 l
248.564 76.628 l
248.636 45.7921 l
248.673 76.3498 l
248.745 76.3498 l
248.873 49.4109 l
248.981 49.3732 l
249.108 48.1087 l
249.236 79.0768 l
249.255 79.0768 l
249.416 81.9418 l
249.489 81.9418 l
249.616 83.156 l
249.67 83.156 l
249.78 84.4072 l
249.852 83.9546 l
249.87 83.9546 l
249.997 86.0644 l
250.015 86.0644 l
250.142 88.1586 l
250.269 89.7467 l
250.341 89.7467 l
250.505 91.0805 l
250.523 91.0805 l
250.65 92.7778 l
250.686 92.7778 l
250.813 94.4391 l
250.94 69.2555 l
251.067 97.0448 l
251.285 97.0448 l
251.412 100.16 l
251.574 101.382 l
251.665 101.382 l
251.792 104.038 l
251.828 104.038 l
252.01 105.257 l
252.082 105.257 l
252.245 107.878 l
252.318 107.878 l
252.445 80.4411 l
252.572 111.143 l
252.626 111.143 l
252.789 113.836 l
252.935 113.836 l
253.061 117.857 l
253.17 117.857 l
253.297 120 l
253.352 120 l
253.497 123.086 l
253.588 123.086 l
253.714 124.618 l
253.769 124.618 l
253.914 128.976 l
254.023 128.976 l
254.204 132.074 l
254.258 132.074 l
254.458 135.593 l
254.494 135.593 l
254.621 135.854 l
254.748 138.397 l
254.893 140.97 l
254.986 140.97 l
255.111 142.764 l
255.165 142.764 l
255.31 145.686 l
255.346 145.686 l
255.492 146.981 l
255.582 146.981 l
255.709 148.763 l
255.872 150.695 l
255.892 150.695 l
256.036 152.253 l
256.145 152.253 l
256.289 154.485 l
256.435 154.49 l
256.562 155.771 l
256.689 156.703 l
256.743 156.729 l
256.924 158.41 l
256.98 158.41 l
257.015 158.729 l
257.16 158.17 l
257.305 159.435 l
257.396 159.435 l
257.523 160.071 l
257.65 160.65 l
257.795 160.759 l
257.831 160.759 l
257.958 161.697 l
258.012 161.697 l
258.139 162.637 l
258.285 163.233 l
258.303 163.233 l
258.429 163.552 l
258.484 163.522 l
258.557 163.871 l
258.592 163.554 l
258.683 163.554 l
258.792 164.165 l
258.919 163.843 l
259.046 164.481 l
259.119 164.481 l
259.246 165.407 l
259.336 165.103 l
259.336 165.103 l
259.336 165.103 l
259.481 165.732 l
259.771 165.731 l
259.844 166.056 l
259.844 166.056 l
259.844 166.056 l
259.971 165.405 l
260.189 165.404 l
260.297 166.043 l
260.443 164.425 l
260.552 164.729 l
260.678 163.742 l
260.732 163.742 l
260.86 163.015 l
260.914 163.015 l
261.042 161.346 l
261.116 161.346 l
261.241 160.403 l
261.441 158.348 l
261.48 158.348 l
261.64 156.927 l
261.733 156.927 l
261.858 155.358 l
261.971 155.358 l
262.116 153.707 l
262.223 153.707 l
262.369 153.051 l
262.494 152.715 l
262.621 152.838 l
262.752 151.989 l
263.29 151.807 l
263.417 152.26 l
263.582 152.278 l
263.725 153.235 l
263.816 153.335 l
263.87 153.352 l
263.979 154.517 l
263.997 153.559 l
264.033 153.559 l
264.124 153.878 l
264.251 152.952 l
264.432 152.958 l
264.559 152.343 l
264.613 152.343 l
264.813 151.29 l
265.031 151.22 l
265.158 149.99 l
265.285 149.382 l
265.339 149.26 l
265.339 149.26 l
265.339 149.26 l
265.393 149.532 l
265.52 148.319 l
265.593 148.319 l
265.665 146.916 l
265.703 147.226 l
265.78 147.226 l
265.865 145.995 l
265.903 146.293 l
265.944 146.305 l
266.064 145.514 l
266.173 145.514 l
266.301 144.891 l
266.427 144.891 l
266.554 144.58 l
266.686 144.57 l
266.755 143.949 l
266.808 144.077 l
266.849 143.989 l
266.917 143.959 l
267.062 144.58 l
267.098 144.58 l
267.225 144.891 l
267.262 144.891 l
267.391 145.995 l
267.46 145.995 l
268.386 151.975 l
268.422 151.975 l
268.567 153.118 l
268.658 153.118 l
268.786 154.022 l
268.918 155.032 l
268.986 155.032 l
269.132 156.53 l
269.202 156.612 l
269.329 157.808 l
269.383 157.286 l
269.383 157.286 l
269.383 157.286 l
269.528 158.699 l
269.619 158.699 l
269.746 159.355 l
269.764 159.355 l
269.891 160.251 l
269.927 160.251 l
270.054 161.355 l
270.235 162.849 l
270.29 162.849 l
270.416 163.185 l
270.471 163.185 l
270.598 164.66 l
270.652 164.66 l
270.798 165.867 l
270.834 165.867 l
270.997 167.079 l
271.015 167.079 l
271.16 168.225 l
271.397 168.895 l
271.561 170.741 l
271.599 170.741 l
271.669 171.025 l
271.669 171.025 l
271.669 171.025 l
271.724 170.438 l
271.724 170.438 l
271.724 170.438 l
271.849 171.384 l
271.922 171.384 l
271.995 171.661 l
271.995 171.661 l
271.995 171.661 l
272.105 171.075 l
272.23 171.386 l
272.357 171.105 l
272.466 171.105 l
272.593 174.145 l
272.611 174.145 l
272.738 167.367 l
272.793 167.367 l
272.922 164.203 l
273.012 164.17 l
273.155 161.47 l
274.08 150.819 l
274.099 150.819 l
274.225 149.539 l
274.337 148.457 l
274.372 148.457 l
274.484 147.548 l
274.554 147.548 l
274.679 147.415 l
274.769 147.415 l
274.896 148.644 l
274.933 148.34 l
275.132 148.332 l
275.277 150.77 l
275.386 150.77 l
275.549 152.898 l
275.621 152.898 l
275.767 155.961 l
275.803 155.961 l
275.93 157.185 l
276.075 159.404 l
276.165 159.404 l
276.274 160.933 l
276.312 160.933 l
276.43 162.863 l
276.673 165.511 l
276.693 165.511 l
276.909 167.68 l
276.964 167.68 l
277.09 169.167 l
277.199 169.213 l
277.362 171.36 l
277.435 171.36 l
277.562 170.77 l
277.689 171.135 l
277.744 171.135 l
277.888 171.798 l
277.979 171.798 l
278.106 172.151 l
278.215 172.153 l
278.342 172.477 l
278.469 172.193 l
278.524 172.557 l
278.577 172.232 l
278.705 172.268 l
278.831 172.924 l
278.94 172.924 l
279.067 172.27 l
279.249 172.27 l
279.375 173.63 l
279.502 173.63 l
279.611 173.253 l
279.738 174.232 l
279.792 174.232 l
279.919 175.862 l
280.047 176.696 l
280.572 182.329 l
280.59 182.329 l
280.735 185.016 l
280.827 185.016 l
280.971 187.799 l
281.062 187.799 l
281.225 189.806 l
281.243 189.806 l
281.406 191.02 l
281.424 191.02 l
281.624 192.416 l
281.66 192.416 l
281.787 193.64 l
281.969 194.251 l
282.023 194.251 l
282.096 194.545 l
282.132 194.251 l
282.15 194.251 l
282.277 194.545 l
282.35 194.545 l
282.458 195.481 l
282.476 195.382 l
282.531 195.393 l
282.676 196.019 l
282.877 196.019 l
283.021 197.083 l
283.111 197.083 l
283.238 196.76 l
283.365 197.297 l
283.909 197.285 l
284.054 196.659 l
284.163 196.671 l
284.313 195.729 l
284.344 195.729 l
284.472 194.922 l
284.526 194.89 l
284.581 195.1 l
284.725 192.088 l
284.816 192.088 l
284.961 189.43 l
285.632 179.116 l
285.723 179.116 l
285.85 174.943 l
286.013 171.32 l
286.049 171.32 l
286.195 169.338 l
286.267 169.338 l
286.395 168.017 l
286.521 167.025 l
286.629 166.355 l
286.756 166.688 l
286.937 166.688 l
287.065 165.69 l
287.192 166.023 l
287.482 166.023 l
287.609 166.365 l
287.79 166.366 l
287.935 167.035 l
288.099 167.039 l
288.243 167.683 l
288.335 167.683 l
288.443 168.003 l
288.461 168 l
288.824 167.996 l
288.933 168.94 l
288.987 168.618 l
289.041 168.94 l
289.114 168.94 l
289.241 169.569 l
289.35 169.569 l
289.477 174.687 l
289.604 175.218 l
289.712 170.235 l
289.73 170.527 l
290.13 171.23 l
290.314 172.599 l
290.329 172.599 l
290.458 173.96 l
290.547 173.96 l
290.694 174.556 l
290.718 174.556 l
290.914 176.143 l
291.054 176.503 l
291.073 176.503 l
291.272 178.287 l
291.363 178.287 l
291.526 179.242 l
291.544 179.242 l
291.653 178.834 l
291.762 179.056 l
291.87 178.97 l
291.943 179.194 l
291.943 179.194 l
291.943 179.194 l
292.07 178.482 l
292.179 178.394 l
292.36 177.18 l
292.451 177.18 l
292.632 175.518 l
292.705 175.518 l
292.85 174.159 l
292.922 174.159 l
293.069 172.294 l
293.176 172.293 l
293.285 170.859 l
293.413 170.818 l
293.539 169.469 l
293.847 168.889 l
293.976 168.138 l
294.047 168.138 l
294.159 167.894 l
294.301 168.571 l
294.356 168.571 l
294.482 169.205 l
294.573 169.205 l
294.7 170.07 l
294.754 170.07 l
294.88 171.548 l
294.917 171.548 l
295.063 174.051 l
295.171 174.051 l
295.316 174.883 l
295.352 174.883 l
295.48 177.187 l
295.588 177.187 l
295.733 178.511 l
296.204 181.085 l
296.259 181.085 l
296.404 181.695 l
296.459 181.695 l
296.622 182.233 l
296.676 182.233 l
296.803 182.769 l
296.876 182.769 l
296.984 182.518 l
297.112 182.67 l
297.238 182.755 l
297.384 182.831 l
297.492 182.831 l
297.637 183.211 l
297.728 183.211 l
297.783 183.355 l
297.837 183.202 l
297.855 183.202 l
297.964 183.41 l
298.073 183.271 l
298.199 183.868 l
298.254 183.868 l
298.381 183.548 l
298.453 183.548 l
298.508 183.354 l
298.562 183.551 l
298.744 183.481 l
298.798 183.762 l
298.852 183.638 l
299.107 183.727 l
299.234 184.595 l
299.342 184.398 l
299.487 185.442 l
299.524 185.442 l
299.669 186.761 l
299.777 186.761 l
299.922 188.685 l
300.013 188.685 l
300.14 190.733 l
300.194 190.733 l
300.34 194.069 l
300.43 194.069 l
300.576 196.435 l
300.612 196.435 l
300.757 199.402 l
300.794 199.409 l
300.943 201.171 l
300.993 201.171 l
301.138 204.394 l
301.337 204.895 l
301.464 207.63 l
301.736 210.326 l
301.827 210.326 l
301.954 213.137 l
302.008 213.171 l
302.062 212.861 l
302.117 213.059 l
302.262 214.735 l
302.479 215.408 l
302.606 216.074 l
302.733 216.074 l
302.86 217.845 l
302.99 218.774 l
303.042 219.034 l
303.187 219.225 l
303.277 219.225 l
303.404 220.433 l
303.513 220.502 l
303.64 221.237 l
303.767 220.785 l
303.984 221.868 l
304.057 221.868 l
304.184 222.44 l
304.311 223.192 l
304.42 221.849 l
304.548 222.452 l
304.655 222.145 l
304.784 222.488 l
304.837 222.045 l
304.891 222.202 l
305.091 222.185 l
305.2 221.716 l
305.218 221.733 l
305.689 221.734 l
305.835 219.193 l
305.943 219.193 l
306.052 218.709 l
306.179 218.824 l
306.306 217.279 l
306.36 217.279 l
306.505 215.244 l
306.542 215.244 l
306.687 212.506 l
306.778 212.445 l
306.923 209.264 l
307.031 209.264 l
307.177 204.492 l
307.213 204.492 l
307.36 201.269 l
307.448 201.269 l
307.575 195.928 l
307.63 195.928 l
307.756 192.163 l
307.811 192.163 l
307.956 186.793 l
308.174 183.478 l
308.3 179.166 l
308.355 179.166 l
308.5 173.33 l
308.609 173.33 l
308.754 168.509 l
308.79 168.509 l
308.953 166.164 l
309.026 166.164 l
309.153 163.89 l
309.208 163.89 l
309.353 162.293 l
309.391 162.293 l
309.516 161.311 l
309.57 161.311 l
309.699 160.762 l
309.824 161.001 l
309.879 161.001 l
309.914 160.236 l
310.35 160.261 l
310.423 161.012 l
310.459 160.865 l
310.659 160.826 l
310.785 161.226 l
310.912 161.196 l
311.039 161.732 l
311.149 161.734 l
311.257 162.127 l
311.275 162.102 l
311.384 162.099 l
311.511 162.302 l
311.638 162.07 l
311.746 162.066 l
311.873 161.834 l
312.001 161.834 l
312.127 162.424 l
312.254 162.221 l
312.399 162.253 l
312.49 162.253 l
312.617 162.873 l
312.653 162.873 l
312.798 163.491 l
312.853 163.491 l
312.98 164.153 l
313.088 164.154 l
313.215 164.36 l
313.397 164.377 l
313.525 164.58 l
313.632 164.58 l
313.778 163.759 l
313.814 163.759 l
314.14 162.321 l
314.177 162.321 l
314.303 160.479 l
314.358 160.479 l
314.521 158.114 l
314.612 158.036 l
314.757 155.724 l
314.793 155.724 l
314.94 152.28 l
315.036 152.28 l
315.158 151.459 l
315.301 149.943 l
315.391 149.943 l
315.538 147.929 l
315.556 147.929 l
315.683 144.877 l
315.737 144.877 l
315.882 143.654 l
315.9 143.654 l
316.027 141.765 l
316.066 141.765 l
316.298 139.17 l
316.316 139.17 l
316.552 137.531 l
316.588 137.531 l
316.715 137.697 l
316.824 137.121 l
316.951 137.467 l
317.115 138.117 l
317.188 138.117 l
317.332 139.505 l
317.659 141.182 l
317.676 141.182 l
317.824 142.573 l
317.913 142.573 l
318.058 144.582 l
318.166 144.582 l
318.293 145.581 l
318.348 145.581 l
318.493 147.319 l
318.583 147.319 l
318.71 148.34 l
318.765 148.34 l
318.91 149.781 l
318.946 149.781 l
319.129 150.697 l
319.145 150.697 l
319.274 152.309 l
319.309 152.309 l
319.454 153.9 l
319.545 153.9 l
319.671 155.368 l
319.745 155.368 l
319.889 157.347 l
319.98 157.347 l
320.125 159.077 l
320.216 159.077 l
320.361 160.702 l
320.705 161.821 l
320.85 163.047 l
320.944 163.047 l
321.068 163.813 l
321.214 164.782 l
321.249 164.782 l
321.394 165.365 l
321.43 165.365 l
321.593 166.327 l
321.667 166.327 l
321.793 166.7 l
321.829 166.7 l
321.956 167.647 l
321.975 167.647 l
322.102 168.401 l
322.156 168.401 l
322.301 169.919 l
322.392 169.919 l
322.537 171.829 l
322.646 171.829 l
322.791 174.132 l
322.882 174.132 l
323.026 177.454 l
323.117 177.537 l
323.267 180.883 l
323.462 182.649 l
323.48 182.649 l
323.607 185.416 l
323.752 187.153 l
323.788 187.153 l
323.933 190.296 l
324.024 190.296 l
324.169 193.188 l
324.278 193.227 l
324.423 195.696 l
324.822 198.52 l
324.949 199.999 l
325.112 200.828 l
325.13 200.828 l
325.275 202.467 l
325.366 202.467 l
325.529 202.96 l
325.547 202.96 l
325.675 203.447 l
325.837 203.931 l
325.964 203.931 l
326.037 204.456 l
326.073 204.276 l
326.146 204.276 l
326.218 204.127 l
326.254 204.284 l
326.527 204.306 l
326.635 204.138 l
326.708 204.321 l
326.708 204.321 l
326.708 204.321 l
326.853 203.645 l
327.18 203.481 l
327.234 203.294 l
327.306 203.309 l
327.471 203.305 l
327.633 202.953 l
327.959 202.943 l
328.068 202.587 l
328.285 202.053 l
328.34 202.053 l
328.557 200.973 l
328.576 200.973 l
328.721 200.063 l
328.757 200.063 l
328.902 198.748 l
328.993 198.733 l
329.138 196.52 l
329.228 195.627 l
329.392 193.293 l
329.483 193.293 l
329.627 189.956 l
329.664 189.956 l
329.827 187.203 l
329.845 187.203 l
330.008 184.382 l
330.045 184.382 l
330.226 181.357 l
330.262 181.357 l
330.408 177.593 l
330.444 177.488 l
330.679 174.158 l
330.752 174.158 l
330.879 172.877 l
331.024 170.712 l
331.115 170.712 l
331.242 169.47 l
331.386 168.443 l
331.477 168.443 l
331.604 167.844 l
331.713 167.649 l
331.84 167.842 l
331.895 167.456 l
331.949 167.648 l
332.021 167.648 l
332.148 167.456 l
332.293 168.221 l
332.384 168.221 l
332.529 169.524 l
332.62 169.559 l
332.765 171.503 l
332.874 171.503 l
333.019 173.093 l
333.057 173.093 l
333.218 174.316 l
333.291 174.317 l
333.418 175.327 l
333.472 175.327 l
333.617 176.151 l
333.708 176.151 l
333.835 176.428 l
333.962 176.471 l
334.07 176.472 l
334.234 175.914 l
334.27 175.914 l
334.433 174.744 l
334.451 174.744 l
334.614 173.302 l
334.687 173.302 l
334.832 170.169 l
334.941 169.479 l
335.104 166.432 l
335.177 166.432 l
335.322 162.401 l
335.358 162.401 l
335.521 159.387 l
335.594 159.387 l
335.721 156.789 l
335.776 156.789 l
335.92 153.424 l
335.958 153.424 l
336.102 151.777 l
336.156 151.777 l
336.301 149.341 l
336.374 149.341 l
336.52 147.452 l
336.61 147.386 l
336.736 146.406 l
336.882 145.249 l
336.936 145.23 l
337.063 144.619 l
337.153 144.615 l
337.407 143.703 l
337.462 143.703 l
337.607 143.382 l
337.662 143.38 l
337.788 143.182 l
337.825 143.182 l
337.952 143.379 l
338.06 143.38 l
338.205 144.153 l
338.315 144.172 l
338.441 144.77 l
338.496 144.77 l
338.641 146.172 l
338.731 146.172 l
338.858 147.285 l
339.003 148.26 l
339.058 148.292 l
339.203 149.711 l
339.275 149.711 l
339.42 150.527 l
339.457 150.527 l
339.602 152.119 l
339.711 152.164 l
339.856 153.583 l
339.946 153.606 l
340.092 155.298 l
340.726 158.97 l
340.853 159.985 l
340.998 161.714 l
341.034 161.714 l
341.216 163.008 l
341.288 163.008 l
341.433 165.118 l
341.524 165.118 l
341.669 166.812 l
341.76 166.812 l
341.905 168.901 l
341.995 168.901 l
342.159 170.949 l
342.249 170.949 l
342.394 173.11 l
342.485 173.211 l
342.63 175.628 l
342.739 175.628 l
342.884 177.86 l
342.975 177.86 l
343.12 179.457 l
343.211 179.476 l
343.356 180.894 l
343.7 182.095 l
343.827 182.5 l
343.936 182.783 l
344.063 182.579 l
344.19 182.578 l
344.317 182.239 l
344.371 182.239 l
344.534 180.524 l
344.607 180.524 l
344.752 178.069 l
344.843 178.069 l
344.969 175.225 l
345.024 175.225 l
345.187 171.122 l
345.26 171.122 l
345.387 167.655 l
345.405 167.655 l
345.568 163.935 l
345.64 163.935 l
345.768 160.878 l
345.822 160.878 l
345.967 157.068 l
346.058 156.97 l
346.186 155.029 l
346.205 155.029 l
346.533 151.007 l
346.556 151.007 l
346.665 149.964 l
346.696 149.964 l
346.824 148.609 l
346.875 148.609 l
347.055 147.787 l
347.074 147.787 l
347.237 147.175 l
347.309 147.069 l
347.454 146.862 l
347.69 146.958 l
347.817 147.271 l
347.999 147.159 l
348.18 148.048 l
348.379 148.531 l
348.415 148.531 l
348.542 149.405 l
348.597 149.405 l
348.76 151.075 l
348.851 151.075 l
348.977 152.311 l
349.086 152.356 l
349.213 153.203 l
349.341 154.083 l
349.449 154.083 l
349.558 154.727 l
349.576 154.644 l
349.649 154.745 l
349.757 154.745 l
349.884 155.698 l
350.047 155.704 l
350.192 155.536 l
350.229 155.536 l
350.356 155.249 l
350.429 155.249 l
350.574 154.615 l
350.665 154.589 l
350.809 153.53 l
350.846 153.53 l
350.991 152.316 l
351.081 152.316 l
351.226 151.583 l
351.263 151.583 l
351.39 150.746 l
351.589 149.872 l
351.643 149.864 l
351.771 149.443 l
352.06 149.443 l
352.169 149.292 l
352.315 149.832 l
352.423 149.833 l
352.568 150.861 l
352.659 150.861 l
352.822 151.765 l
352.895 151.765 l
353.022 152.738 l
353.076 152.738 l
353.203 153.451 l
353.384 155.822 l
353.402 155.351 l
353.511 155.351 l
353.638 157.056 l
353.693 157.056 l
353.82 158.952 l
353.874 158.952 l
354.001 160.039 l
354.056 160.039 l
354.182 161.631 l
354.327 163.277 l
354.364 163.277 l
354.509 164.631 l
354.527 164.631 l
354.672 166.202 l
354.781 166.289 l
354.907 167.396 l
354.962 167.396 l
355.089 168.853 l
355.288 170.143 l
355.452 169.869 l
355.597 170.988 l
355.797 170.988 l
355.941 171.54 l
356.105 171.54 l
356.231 171.816 l
356.286 171.816 l
356.449 172.644 l
356.522 172.644 l
356.721 174.023 l
356.776 174.023 l
356.975 175.4 l
357.011 175.4 l
357.138 176.775 l
357.211 176.775 l
357.338 178.697 l
357.374 178.697 l
357.537 180.974 l
357.628 180.974 l
357.791 183.065 l
357.845 183.065 l
357.972 184.152 l
358.045 184.152 l
358.172 185.201 l
358.208 185.201 l
358.335 185.078 l
358.462 185.078 l
358.589 185.869 l
358.716 185.333 l
358.825 185.318 l
359.027 183.935 l
359.061 183.935 l
359.188 182.826 l
359.314 182.085 l
359.333 182.085 l
359.46 180.684 l
359.569 180.684 l
359.695 178.182 l
359.859 177.87 l
360.003 176.459 l
360.04 176.459 l
360.167 175.84 l
360.221 175.84 l
360.366 174.717 l
360.457 174.717 l
360.584 173.833 l
360.638 173.833 l
360.766 173.273 l
360.91 172.678 l
361.001 172.678 l
361.146 172.122 l
361.309 172.122 l
361.437 172.4 l
361.563 171.288 l
361.853 171.288 l
361.981 171.594 l
361.999 171.594 l
362.107 171.288 l
362.252 172.421 l
362.398 172.434 l
362.524 172.993 l
362.579 172.993 l
362.706 174.435 l
362.851 175.787 l
362.887 175.787 l
363.032 177.523 l
363.123 177.523 l
363.268 179.202 l
363.304 179.202 l
363.522 180.964 l
363.558 180.964 l
363.703 181.525 l
363.921 181.525 l
364.066 181.162 l
364.306 180.959 l
364.356 178.949 l
364.493 178.374 l
364.611 176.007 l
365.335 170.573 l
365.372 170.573 l
365.48 170.84 l
365.499 170.828 l
365.607 170.818 l
365.753 173.347 l
365.789 173.347 l
365.915 175.046 l
365.97 175.046 l
366.097 178.084 l
366.152 178.084 l
366.297 182.824 l
366.387 182.824 l
366.55 187.246 l
366.642 187.246 l
366.768 191.176 l
366.877 191.189 l
367.004 194.852 l
367.204 197.714 l
367.24 197.714 l
367.384 200.329 l
367.421 200.329 l
367.566 203.482 l
367.656 203.482 l
367.802 206.911 l
367.91 206.911 l
368.056 209.98 l
368.4 212.28 l
368.527 214.958 l
368.636 214.958 l
368.763 216.242 l
368.871 216.258 l
369.004 218.667 l
369.053 218.689 l
369.162 219.204 l
369.289 218.828 l
369.416 219.734 l
369.543 219.734 l
369.67 220.734 l
369.815 221.229 l
369.942 221.333 l
370.087 221.349 l
370.214 221.216 l
370.286 221.215 l
370.377 221.458 l
370.504 221.078 l
370.631 221.319 l
370.685 220.96 l
370.685 220.96 l
370.685 220.96 l
370.812 221.675 l
370.921 221.675 l
371.048 221.052 l
371.175 221.287 l
371.283 221.288 l
371.411 220.578 l
371.537 220.579 l
371.664 220.341 l
371.846 220.341 l
371.973 220.722 l
372.136 220.722 l
372.263 221.438 l
372.281 221.438 l
372.408 222.519 l
372.498 222.52 l
372.644 223.126 l
372.699 223.149 l
372.807 222.757 l
372.952 224.727 l
373.007 224.727 l
373.224 226.341 l
373.315 226.341 l
373.442 226.817 l
373.569 226.817 l
373.696 228 l
373.714 228 l
373.859 228.47 l
373.895 228.47 l
374.023 228.938 l
374.221 228.939 l
374.366 229.405 l
374.385 229.405 l
374.457 229.834 l
374.493 229.636 l
374.566 229.636 l
374.694 230.068 l
374.856 230.76 l
374.929 230.76 l
375.001 231.23 l
375.037 230.999 l
375.11 230.999 l
375.237 231.697 l
375.4 232.393 l
375.473 232.393 l
375.672 233.542 l
375.709 233.542 l
375.836 234.711 l
376.018 234.711 l
376.144 235.17 l
376.307 235.853 l
376.38 235.853 l
376.507 236.08 l
376.633 235.853 l
376.76 236.08 l
376.924 236.08 l
376.978 235.586 l
376.996 235.892 l
376.996 235.892 l
377.105 236.305 l
377.125 236.304 l
377.178 236.304 l
377.232 236.079 l
377.286 236.304 l
377.467 236.304 l
377.54 236.077 l
377.594 237.025 l
377.649 236.302 l
377.667 236.302 l
377.776 236.529 l
377.903 236.076 l
378.03 236.304 l
378.139 236.304 l
378.266 236.979 l
378.447 237.872 l
378.556 237.872 l
378.629 238.317 l
378.683 238.244 l
378.701 238.244 l
378.773 238.027 l
378.828 238.537 l
378.888 238.246 l
378.9 238.246 l
378.974 239.418 l
379.01 239.2 l
379.027 239.2 l
379.208 240.073 l
379.281 239.982 l
379.408 240.724 l
379.589 241.262 l
379.662 241.262 l
379.789 242.648 l
379.826 242.648 l
379.916 243.7 l
379.953 243.506 l
380.063 243.49 l
380.206 243.908 l
380.462 243.908 l
380.588 244.458 l
380.754 243.826 l
380.77 243.826 l
380.841 244.37 l
380.932 242.76 l
380.968 242.866 l
381.117 242.866 l
381.221 243.213 l
381.349 242.994 l
381.729 241.55 l
381.766 241.55 l
381.838 240.871 l
381.874 241.099 l
381.893 241.099 l
382.074 240.415 l
382.201 240.643 l
382.31 240.643 l
382.382 241.182 l
382.418 240.869 l
382.509 240.87 l
382.72 240.642 l
382.865 240.642 l
382.943 240.869 l
383.086 240.642 l
383.228 241.183 l
383.301 240.438 l
383.446 241.18 l
383.585 241.18 l
383.664 240.64 l
383.737 240.64 l
383.883 240.1 l
384.031 240.549 l
384.099 240.549 l
384.243 240.772 l
384.461 240.59 l
384.533 240.59 l
384.679 239.632 l
384.968 239.331 l
385.042 239.714 l
385.261 238.316 l
385.333 238.603 l
385.621 236.797 l
385.694 236.797 l
385.906 234.938 l
385.912 234.938 l
386.066 234.019 l
386.124 234.019 l
386.202 234.266 l
386.42 231.914 l
386.493 231.914 l
386.725 229.993 l
386.922 227.799 l
386.927 227.799 l
387.137 225.401 l
387.217 225.401 l
387.292 224.816 l
387.437 221.352 l
387.653 217.417 l
387.726 216.603 l
387.944 211.345 l
388.312 204.537 l
388.475 200.284 l
388.729 195.795 l
388.784 195.795 l
388.929 190.194 l
388.965 190.194 l
389.255 183.64 l
389.328 183.64 l
389.473 178.737 l
389.509 178.737 l
389.654 172.926 l
389.745 172.926 l
389.872 169.704 l
390.035 163.618 l
390.053 163.618 l
390.216 159.111 l
390.289 159.111 l
390.434 153.258 l
390.543 153.258 l
390.67 149.472 l
390.724 149.472 l
390.852 145.208 l
390.978 145.115 l
391.105 141.93 l
391.123 141.93 l
391.142 141.812 l
391.287 138.845 l
391.379 138.845 l
391.54 136.226 l
391.635 136.226 l
391.758 134.707 l
391.885 132.814 l
392.393 130.238 l
392.411 130.238 l
392.538 129.739 l
392.737 129.734 l
392.774 129.734 l
392.846 130.004 l
392.882 129.746 l
392.901 129.746 l
393.064 130.526 l
393.136 130.526 l
393.299 131.854 l
393.373 131.854 l
393.517 133.559 l
393.989 138.089 l
394.134 141.309 l
394.244 141.309 l
394.37 144.478 l
394.479 144.508 l
394.605 147.346 l
394.714 147.418 l
394.841 149.75 l
394.914 149.75 l
395.059 152.065 l
395.131 152.065 l
395.258 152.893 l
395.421 154.276 l
395.494 154.276 l
395.639 155.392 l
395.82 155.745 l
396.001 155.744 l
396.129 156.021 l
396.292 156.021 l
396.419 155.469 l
396.528 155.469 l
396.655 154.919 l
396.799 154.275 l
397.017 154.276 l
397.144 153.819 l
397.253 153.723 l
397.38 154.189 l
397.507 154.189 l
397.634 153.722 l
397.688 154.467 l
397.761 154.381 l
397.797 154.381 l
397.942 155.863 l
398.051 155.863 l
398.196 158.506 l
398.287 158.506 l
398.432 161.277 l
398.541 161.277 l
398.686 164.055 l
398.722 164.055 l
398.903 166.281 l
399.066 167.115 l
399.085 167.115 l
399.23 169.053 l
399.32 169.053 l
399.448 169.883 l
399.593 170.418 l
399.92 170.417 l
400.082 169.594 l
400.173 169.594 l
400.317 168.566 l
400.409 168.489 l
400.536 167.127 l
400.662 166.033 l
401.224 160.942 l
401.261 160.942 l
401.388 159.869 l
401.533 158.796 l
401.569 158.796 l
401.696 157.306 l
401.914 156.99 l
402.167 156.923 l
402.349 157.993 l
402.403 157.993 l
402.53 158.466 l
402.695 159.276 l
402.711 159.276 l
402.838 160.831 l
402.947 161.083 l
403.147 161.905 l
403.183 161.905 l
403.328 163.449 l
403.655 164.354 l
403.8 164.354 l
403.926 164.631 l
403.981 164.631 l
404.108 164.354 l
404.235 164.354 l
404.271 164.1 l
404.289 164.355 l
404.289 164.355 l
404.398 164.374 l
404.544 163.076 l
404.635 163.061 l
404.761 162.249 l
404.815 162.249 l
404.961 160.897 l
405.069 160.897 l
405.196 159.006 l
405.251 159.006 l
405.395 157.174 l
405.486 157.12 l
405.613 155.972 l
405.758 154.083 l
405.849 154.083 l
405.976 153.45 l
406.103 152.817 l
406.212 152.817 l
406.34 152.001 l
406.521 151.625 l
406.574 151.625 l
406.701 151.899 l
406.883 151.789 l
407.011 151.685 l
407.118 151.686 l
407.245 152.141 l
407.3 152.141 l
407.426 152.42 l
407.845 152.518 l
408.025 152.892 l
408.515 152.995 l
408.642 153.091 l
408.751 152.911 l
408.878 153.181 l
408.95 152.834 l
408.986 153.099 l
409.113 153.1 l
409.24 152.933 l
409.476 153.025 l
409.603 153.288 l
409.73 153.373 l
410.021 153.724 l
410.147 153.986 l
410.274 153.726 l
411.108 153.635 l
411.235 153.288 l
411.308 153.552 l
411.344 153.294 l
411.598 153.288 l
411.725 153.552 l
411.779 153.552 l
411.906 153.373 l
412.069 153.897 l
412.142 153.897 l
412.287 154.768 l
412.324 154.768 l
412.541 156.149 l
412.559 156.149 l
412.686 156.669 l
412.813 156.994 l
412.885 156.994 l
413.012 158.089 l
413.121 158.089 l
413.23 158.289 l
413.375 157.783 l
413.466 157.771 l
413.611 156.629 l
413.719 156.598 l
413.883 154.16 l
413.901 154.16 l
414.082 151.904 l
414.137 151.904 l
414.282 148.711 l
414.318 148.711 l
414.445 147.14 l
414.463 147.14 l
414.59 144.798 l
414.626 144.798 l
414.753 142.046 l
414.808 142.046 l
414.953 138.588 l
415.044 138.588 l
415.188 135.385 l
415.224 135.385 l
415.37 133.308 l
415.424 133.308 l
415.551 131.789 l
415.587 131.789 l
415.714 130.519 l
415.841 129.486 l
415.896 129.486 l
416.023 127.9 l
416.168 126.819 l
416.331 126.819 l
416.44 127.083 l
416.494 126.797 l
416.548 127.063 l
416.621 127.063 l
416.748 127.581 l
416.857 127.563 l
417.002 128.126 l
417.038 128.126 l
417.165 128.947 l
417.328 129.771 l
417.401 129.771 l
417.528 130.327 l
417.582 130.327 l
417.728 130.885 l
417.836 130.885 l
417.964 131.18 l
418.072 131.181 l
418.217 131.718 l
418.362 131.745 l
418.562 131.745 l
418.689 132.027 l
418.797 132.027 l
419.069 133.445 l
419.078 133.445 l
419.158 133.729 l
419.294 133.974 l
419.373 135.061 l
419.458 135.062 l
419.675 136.474 l
419.815 136.689 l
419.949 137.953 l
420.02 137.953 l
420.105 138.164 l
420.238 139.184 l
420.316 139.386 l
420.453 139.038 l
420.531 139.77 l
420.678 139.596 l
420.891 140.241 l
421.036 139.916 l
421.108 140.506 l
421.181 140.43 l
421.262 140.687 l
421.328 140.608 l
421.399 140.608 l
421.544 141.18 l
421.618 141.179 l
421.832 141.571 l
421.978 141.405 l
422.124 141.699 l
422.263 141.614 l
422.35 141.832 l
422.56 142.431 l
422.707 142.219 l
422.916 143.112 l
422.922 143.112 l
423.213 143.993 l
423.292 143.993 l
423.576 144.77 l
423.784 144.875 l
423.793 144.885 l
423.865 144.657 l
423.935 144.785 l
424.011 144.785 l
424.083 144.995 l
424.155 144.893 l
424.373 144.794 l
424.445 144.721 l
424.512 144.801 l
424.662 144.834 l
424.735 144.956 l
424.802 144.875 l
424.881 144.85 l
425.026 144.788 l
425.097 144.901 l
425.17 144.612 l
425.238 144.756 l
425.257 144.756 l
425.389 144.553 l
425.749 144.391 l
425.823 144.48 l
426.04 144.782 l
426.477 145.97 l
426.622 146.822 l
426.695 146.822 l
426.912 147.238 l
427.056 147.321 l
427.201 147.587 l
427.564 147.608 l
427.782 147.549 l
427.965 146.772 l
428.072 146.772 l
428.427 145.562 l
428.508 145.044 l
428.725 144.169 l
428.798 144.169 l
429.015 143.557 l
429.232 143.561 l
429.592 144.564 l
429.668 144.584 l
430.098 145.855 l
430.396 145.799 l
430.683 145.162 l
430.901 143.65 l
430.968 143.65 l
431.046 142.813 l
431.328 140.656 l
431.334 140.656 l
431.407 139.447 l
431.839 134.326 l
431.99 133.866 l
432.208 131.548 l
432.279 131.548 l
432.496 130.6 l
432.569 130.592 l
432.856 129.723 l
432.933 129.704 l
433.296 129.304 l
433.372 129.28 l
433.522 129.443 l
433.807 129.443 l
433.879 129.278 l
433.95 129.408 l
434.093 129.163 l
434.17 129.163 l
434.324 129.039 l
434.46 128.937 l
434.746 128.07 l
434.892 127.934 l
442.872 127.934 l
443.02 103.116 l
443.306 107.709 l
443.375 107.709 l
443.452 111.565 l
443.525 111.565 l
444.757 137.64 l
444.829 137.64 l
445.047 143.593 l
445.12 143.593 l
445.337 148.255 l
445.627 154.288 l
445.989 159.991 l
446.054 160.224 l
446.422 164.51 l
446.425 164.51 l
446.637 166.67 l
446.643 166.67 l
446.859 168.428 l
447.295 170.881 l
447.372 170.881 l
447.586 171.678 l
447.733 171.778 l
448.021 172.634 l
448.238 172.577 l
448.383 172.862 l
448.457 172.862 l
448.603 172.674 l
448.746 172.81 l
448.891 172.647 l
448.963 172.939 l
449.033 172.781 l
449.036 172.781 l
449.181 172.912 l
449.254 172.897 l
449.547 173.332 l
449.618 173.311 l
449.765 173.741 l
449.911 173.455 l
449.989 173.742 l
450.197 173.148 l
450.273 173.148 l
450.416 172.769 l
450.994 172.427 l
451.43 172.427 l
451.652 172.152 l
451.725 172.152 l
452.081 170.42 l
452.084 170.42 l
452.736 164.971 l
452.809 164.971 l
453.095 162.513 l
453.099 162.513 l
453.453 160.843 l
453.463 160.843 l
454.115 157.457 l
454.188 157.457 l
454.479 155.387 l
454.549 155.387 l
454.912 153.076 l
454.985 153.076 l
455.302 150.88 l
455.382 150.88 l
455.506 148.871 l
455.74 148.073 l
455.865 146.792 l
455.92 146.792 l
456.065 145.017 l
456.155 145.017 l
456.283 143.907 l
456.319 143.905 l
456.464 142.939 l
456.523 142.939 l
456.664 142.625 l
456.683 142.625 l
456.809 142.221 l
456.953 142.137 l
457.098 141.619 l
457.479 141.658 l
457.552 141.739 l
457.588 141.704 l
457.77 141.795 l
457.896 141.994 l
458.078 142.098 l
458.204 142.41 l
458.259 142.41 l
458.406 142.686 l
458.441 142.686 l
458.587 142.955 l
458.622 142.955 l
458.676 143.254 l
458.748 143.228 l
458.93 143.261 l
459.093 143.531 l
459.166 143.531 l
459.293 144.085 l
459.438 144.265 l
459.474 144.265 l
459.674 145.075 l
459.786 145.075 l
459.928 146.272 l
460.018 146.309 l
460.163 147.247 l
460.236 147.247 l
460.471 149.064 l
460.508 149.064 l
460.653 150.46 l
460.671 150.491 l
460.834 151.436 l
460.925 151.436 l
461.053 152.6 l
461.215 153.866 l
461.233 153.866 l
461.433 154.622 l
461.469 154.622 l
461.614 156.036 l
461.706 156.036 l
461.889 157.309 l
461.959 157.309 l
462.103 158.337 l
462.212 158.337 l
462.339 159.719 l
462.376 159.719 l
462.521 161.617 l
462.612 161.617 l
462.738 162.895 l
462.902 164.75 l
462.92 164.75 l
463.137 165.71 l
463.155 165.71 l
463.301 166.852 l
463.337 166.867 l
463.518 167.649 l
463.591 167.649 l
463.736 168.033 l
463.827 168.033 l
463.953 167.839 l
464.171 167.838 l
464.427 167.271 l
464.481 167.271 l
464.626 166.535 l
464.698 166.535 l
464.842 165.82 l
464.915 165.82 l
465.042 165.457 l
465.062 165.457 l
465.187 165.103 l
465.223 165.103 l
465.35 164.727 l
465.588 164.73 l
465.75 165.198 l
466.131 165.923 l
466.257 166.471 l
466.311 166.471 l
466.456 167.65 l
466.492 167.65 l
466.637 169.289 l
466.674 169.289 l
466.911 170.776 l
466.932 170.776 l
467.073 172.973 l
467.091 172.973 l
467.236 175.034 l
467.635 178.087 l
467.762 179.602 l
467.816 179.602 l
467.961 181.537 l
467.998 181.537 l
468.508 184.181 l
468.56 184.181 l
468.687 184.933 l
468.705 184.933 l
468.868 185.626 l
469.049 185.753 l
469.086 185.753 l
469.158 185.955 l
469.213 185.949 l
469.339 185.744 l
469.468 185.831 l
469.595 185.647 l
469.614 185.647 l
469.739 184.939 l
469.829 184.939 l
469.958 184.611 l
470.228 184.693 l
470.3 184.28 l
470.337 184.668 l
470.428 184.779 l
470.682 185.456 l
470.772 185.462 l
470.917 186.042 l
471.062 186.046 l
471.08 186.046 l
471.207 186.379 l
471.334 186.264 l
471.443 186.594 l
471.57 186.251 l
471.715 186.458 l
471.806 186.47 l
471.969 185.965 l
472.06 185.965 l
472.223 185.166 l
472.241 185.166 l
472.404 184.255 l
472.477 184.255 l
472.622 182.652 l
472.658 182.652 l
472.821 181.696 l
472.84 181.696 l
472.985 180.203 l
473.166 179.065 l
473.239 178.274 l
473.965 173.322 l
474.073 173.322 l
474.218 172.714 l
474.363 172.68 l
474.472 172.893 l
474.544 172.834 l
474.691 173.981 l
474.78 173.981 l
474.943 176.05 l
475.016 176.05 l
475.142 177.239 l
475.342 179.142 l
475.451 179.243 l
475.578 181.502 l
475.923 183.924 l
476.049 185.059 l
476.195 186.865 l
476.285 186.881 l
476.43 188.651 l
476.648 189.301 l
476.793 190.312 l
477.047 190.583 l
477.138 190.583 l
477.265 190.943 l
477.392 190.393 l
477.627 190.289 l
477.772 188.869 l
477.827 188.966 l
477.937 188.987 l
478.064 187.58 l
478.117 187.58 l
478.244 186.296 l
478.498 183.961 l
478.534 183.961 l
478.697 181.035 l
478.77 181.035 l
478.933 177.911 l
478.951 177.911 l
479.223 175.724 l
479.259 175.724 l
479.386 173.969 l
479.531 171.702 l
479.622 171.702 l
479.768 169.465 l
479.858 169.432 l
480.004 167.529 l
480.021 167.529 l
481.092 161.266 l
481.127 161.266 l
481.308 160.53 l
481.381 160.53 l
481.49 160.328 l
481.616 160.368 l
481.671 160.368 l
481.801 159.843 l
481.907 159.846 l
482.034 159.359 l
482.198 158.58 l
482.215 158.58 l
482.307 158.336 l
482.669 157.051 l
482.724 157.051 l
482.85 156.131 l
482.959 156.108 l
483.086 155.55 l
483.195 155.539 l
483.306 155.297 l
483.466 155.962 l
483.557 155.962 l
483.702 157.134 l
483.793 157.149 l
483.938 157.666 l
483.974 157.666 l
484.101 159.142 l
484.156 159.142 l
484.283 160.434 l
484.301 160.434 l
484.446 162.234 l
484.519 162.234 l
484.645 163.011 l
484.7 163.011 l
484.827 163.786 l
485.226 165.079 l
485.734 165.093 l
485.806 164.84 l
485.842 165.093 l
485.951 165.093 l
486.006 164.853 l
486.078 164.877 l
486.151 164.856 l
486.278 165.108 l
486.405 164.852 l
486.531 165.108 l
486.641 165.108 l
486.767 164.868 l
486.894 164.868 l
487.003 165.122 l
487.021 165.108 l
487.276 165.108 l
487.42 165.62 l
487.565 165.62 l
487.678 165.888 l
487.73 165.888 l
487.874 166.899 l
488.037 166.899 l
488.164 167.665 l
488.218 167.665 l
488.381 168.436 l
488.399 168.436 l
488.581 169.46 l
488.708 169.472 l
488.853 170.495 l
488.944 170.495 l
489.088 170.99 l
489.126 170.99 l
489.252 172.037 l
489.306 172.037 l
489.433 173.06 l
489.614 174.337 l
489.669 174.337 l
489.814 176.316 l
489.905 176.316 l
490.032 177.574 l
490.05 177.574 l
490.195 178.521 l
490.213 178.521 l
490.358 179.873 l
490.449 179.873 l
490.575 181.007 l
490.63 181.007 l
490.811 181.908 l
490.884 181.908 l
491.029 182.2 l
491.228 182.448 l
491.356 182.688 l
491.482 182.593 l
491.7 182.587 l
491.774 182.587 l
491.899 182.112 l
491.918 182.112 l
492.045 181.606 l
492.389 180.915 l
492.465 180.915 l
492.589 180.432 l
492.752 180.432 l
492.861 180.188 l
492.879 180.242 l
493.025 180.251 l
493.137 180.027 l
493.151 180.079 l
493.277 180.267 l
493.296 180.267 l
493.442 180.801 l
493.681 180.88 l
493.805 181.571 l
493.914 181.588 l
494.094 182.813 l
494.112 182.813 l
494.203 182.571 l
494.221 182.689 l
494.275 182.689 l
494.384 182.506 l
494.511 182.971 l
494.62 183.172 l
494.765 182.654 l
494.819 182.551 l
494.928 182.536 l
495.073 181.822 l
495.291 181.533 l
495.436 180.549 l
495.545 180.549 l
495.744 179.958 l
495.781 179.958 l
495.907 179.493 l
496.053 179.11 l
496.143 179.11 l
496.288 178.71 l
496.633 178.738 l
496.762 178.819 l
496.869 178.819 l
496.995 178.56 l
497.177 178.56 l
497.303 177.816 l
497.34 177.816 l
497.413 177.338 l
497.467 177.344 l
497.521 177.344 l
497.667 175.938 l
497.775 175.933 l
497.921 174.925 l
498.011 174.925 l
498.138 174.001 l
498.265 173.017 l
498.319 173.017 l
498.464 170.978 l
498.555 170.978 l
498.701 169.194 l
498.736 169.194 l
498.899 167.665 l
499.607 167.665 l
499.752 168.692 l
499.951 168.699 l
500.078 170.508 l
500.133 171.309 l
500.205 171.2 l
500.314 171.257 l
500.387 172.288 l
500.441 172.059 l
500.459 172.059 l
500.731 172.617 l
500.749 172.617 l
500.876 172.031 l
501.058 171.03 l
501.094 171.03 l
501.239 169.714 l
501.348 169.705 l
501.475 168.686 l
501.53 168.686 l
501.656 167.921 l
501.711 167.921 l
501.837 167.666 l
501.946 167.667 l
502.073 167.93 l
502.096 167.93 l
502.149 168.195 l
502.2 167.932 l
502.255 167.932 l
502.382 168.209 l
502.509 168.213 l
502.672 168.764 l
502.726 168.764 l
502.853 168.495 l
502.998 168.497 l
503.179 167.395 l
503.216 167.395 l
503.362 165.245 l
503.452 165.18 l
503.597 162.513 l
503.724 162.485 l
503.85 160.855 l
503.887 160.855 l
504.014 159.563 l
504.195 158.399 l
504.249 158.399 l
504.412 157.165 l
504.485 157.165 l
504.612 156.909 l
510.76 156.909 l
510.76 156.909 l
stroke
grestore
0.500 setlinewidth
0 setlinecap
[1 3] 0 setdash
0.000 setgray
gsave
453.4 226.6 73.12 40.7 clipbox
73.125 40.6968 m
73.125 267.3 l
stroke
grestore
[] 0 setdash
gsave
/o {
gsave
newpath
translate
0.5 setlinewidth
1 setlinejoin
0 setlinecap
0 0 m
0 4 l
gsave
0.000 setgray
fill
grestore
stroke
grestore
} bind def
73.125 40.6968 o
grestore
gsave
/o {
gsave
newpath
translate
0.5 setlinewidth
1 setlinejoin
0 setlinecap
0 0 m
0 -4 l
gsave
0.000 setgray
fill
grestore
stroke
grestore
} bind def
73.125 267.3 o
grestore
/DejaVuSans findfont
12.000 scalefont
setfont
gsave
70.101562 27.618668 translate
0.000000 rotate
0.000000 0.171875 m /zero glyphshow
grestore
[1 3] 0 setdash
gsave
453.4 226.6 73.12 40.7 clipbox
163.8 40.6968 m
163.8 267.3 l
stroke
grestore
[] 0 setdash
gsave
/o {
gsave
newpath
translate
0.5 setlinewidth
1 setlinejoin
0 setlinecap
0 0 m
0 4 l
gsave
0.000 setgray
fill
grestore
stroke
grestore
} bind def
163.8 40.6968 o
grestore
gsave
/o {
gsave
newpath
translate
0.5 setlinewidth
1 setlinejoin
0 setlinecap
0 0 m
0 -4 l
gsave
0.000 setgray
fill
grestore
stroke
grestore
} bind def
163.8 267.3 o
grestore
gsave
157.018750 27.618668 translate
0.000000 rotate
0.000000 0.171875 m /five glyphshow
7.634766 0.171875 m /zero glyphshow
grestore
[1 3] 0 setdash
gsave
453.4 226.6 73.12 40.7 clipbox
254.475 40.6968 m
254.475 267.3 l
stroke
grestore
[] 0 setdash
gsave
/o {
gsave
newpath
translate
0.5 setlinewidth
1 setlinejoin
0 setlinecap
0 0 m
0 4 l
gsave
0.000 setgray
fill
grestore
stroke
grestore
} bind def
254.475 40.6968 o
grestore
gsave
/o {
gsave
newpath
translate
0.5 setlinewidth
1 setlinejoin
0 setlinecap
0 0 m
0 -4 l
gsave
0.000 setgray
fill
grestore
stroke
grestore
} bind def
254.475 267.3 o
grestore
gsave
244.068750 27.618668 translate
0.000000 rotate
0.000000 0.171875 m /one glyphshow
7.634766 0.171875 m /zero glyphshow
15.269531 0.171875 m /zero glyphshow
grestore
[1 3] 0 setdash
gsave
453.4 226.6 73.12 40.7 clipbox
345.15 40.6968 m
345.15 267.3 l
stroke
grestore
[] 0 setdash
gsave
/o {
gsave
newpath
translate
0.5 setlinewidth
1 setlinejoin
0 setlinecap
0 0 m
0 4 l
gsave
0.000 setgray
fill
grestore
stroke
grestore
} bind def
345.15 40.6968 o
grestore
gsave
/o {
gsave
newpath
translate
0.5 setlinewidth
1 setlinejoin
0 setlinecap
0 0 m
0 -4 l
gsave
0.000 setgray
fill
grestore
stroke
grestore
} bind def
345.15 267.3 o
grestore
gsave
334.743750 27.618668 translate
0.000000 rotate
0.000000 0.171875 m /one glyphshow
7.634766 0.171875 m /five glyphshow
15.269531 0.171875 m /zero glyphshow
grestore
[1 3] 0 setdash
gsave
453.4 226.6 73.12 40.7 clipbox
435.825 40.6968 m
435.825 267.3 l
stroke
grestore
[] 0 setdash
gsave
/o {
gsave
newpath
translate
0.5 setlinewidth
1 setlinejoin
0 setlinecap
0 0 m
0 4 l
gsave
0.000 setgray
fill
grestore
stroke
grestore
} bind def
435.825 40.6968 o
grestore
gsave
/o {
gsave
newpath
translate
0.5 setlinewidth
1 setlinejoin
0 setlinecap
0 0 m
0 -4 l
gsave
0.000 setgray
fill
grestore
stroke
grestore
} bind def
435.825 267.3 o
grestore
gsave
425.200000 27.618668 translate
0.000000 rotate
0.000000 0.171875 m /two glyphshow
7.634766 0.171875 m /zero glyphshow
15.269531 0.171875 m /zero glyphshow
grestore
[1 3] 0 setdash
gsave
453.4 226.6 73.12 40.7 clipbox
526.5 40.6968 m
526.5 267.3 l
stroke
grestore
[] 0 setdash
gsave
/o {
gsave
newpath
translate
0.5 setlinewidth
1 setlinejoin
0 setlinecap
0 0 m
0 4 l
gsave
0.000 setgray
fill
grestore
stroke
grestore
} bind def
526.5 40.6968 o
grestore
gsave
/o {
gsave
newpath
translate
0.5 setlinewidth
1 setlinejoin
0 setlinecap
0 0 m
0 -4 l
gsave
0.000 setgray
fill
grestore
stroke
grestore
} bind def
526.5 267.3 o
grestore
gsave
515.875000 27.618668 translate
0.000000 rotate
0.000000 0.171875 m /two glyphshow
7.634766 0.171875 m /five glyphshow
15.269531 0.171875 m /zero glyphshow
grestore
/DejaVuSans findfont
18.000 scalefont
setfont
gsave
265.671875 6.571793 translate
0.000000 rotate
0.000000 2.375000 m /t glyphshow
7.057617 2.375000 m /i glyphshow
12.058594 2.375000 m /m glyphshow
29.592773 2.375000 m /e glyphshow
40.666992 2.375000 m /space glyphshow
46.388672 2.375000 m /bracketleft glyphshow
53.411133 2.375000 m /s glyphshow
62.789062 2.375000 m /bracketright glyphshow
grestore
[1 3] 0 setdash
gsave
453.4 226.6 73.12 40.7 clipbox
73.125 40.6968 m
526.5 40.6968 l
stroke
grestore
[] 0 setdash
gsave
/o {
gsave
newpath
translate
0.5 setlinewidth
1 setlinejoin
0 setlinecap
0 0 m
4 0 l
gsave
0.000 setgray
fill
grestore
stroke
grestore
} bind def
73.125 40.6968 o
grestore
gsave
/o {
gsave
newpath
translate
0.5 setlinewidth
1 setlinejoin
0 setlinecap
0 0 m
-4 0 l
gsave
0.000 setgray
fill
grestore
stroke
grestore
} bind def
526.5 40.6968 o
grestore
/DejaVuSans findfont
12.000 scalefont
setfont
gsave
42.031250 36.157731 translate
0.000000 rotate
0.000000 0.171875 m /minus glyphshow
10.054688 0.171875 m /two glyphshow
17.689453 0.171875 m /period glyphshow
21.503906 0.171875 m /zero glyphshow
grestore
[1 3] 0 setdash
gsave
453.4 226.6 73.12 40.7 clipbox
73.125 73.0687 m
526.5 73.0687 l
stroke
grestore
[] 0 setdash
gsave
/o {
gsave
newpath
translate
0.5 setlinewidth
1 setlinejoin
0 setlinecap
0 0 m
4 0 l
gsave
0.000 setgray
fill
grestore
stroke
grestore
} bind def
73.125 73.0687 o
grestore
gsave
/o {
gsave
newpath
translate
0.5 setlinewidth
1 setlinejoin
0 setlinecap
0 0 m
-4 0 l
gsave
0.000 setgray
fill
grestore
stroke
grestore
} bind def
526.5 73.0687 o
grestore
gsave
42.281250 68.607742 translate
0.000000 rotate
0.000000 0.171875 m /minus glyphshow
10.054688 0.171875 m /one glyphshow
17.689453 0.171875 m /period glyphshow
21.503906 0.171875 m /five glyphshow
grestore
[1 3] 0 setdash
gsave
453.4 226.6 73.12 40.7 clipbox
73.125 105.441 m
526.5 105.441 l
stroke
grestore
[] 0 setdash
gsave
/o {
gsave
newpath
translate
0.5 setlinewidth
1 setlinejoin
0 setlinecap
0 0 m
4 0 l
gsave
0.000 setgray
fill
grestore
stroke
grestore
} bind def
73.125 105.441 o
grestore
gsave
/o {
gsave
newpath
translate
0.5 setlinewidth
1 setlinejoin
0 setlinecap
0 0 m
-4 0 l
gsave
0.000 setgray
fill
grestore
stroke
grestore
} bind def
526.5 105.441 o
grestore
gsave
42.031250 100.901504 translate
0.000000 rotate
0.000000 0.171875 m /minus glyphshow
10.054688 0.171875 m /one glyphshow
17.689453 0.171875 m /period glyphshow
21.503906 0.171875 m /zero glyphshow
grestore
[1 3] 0 setdash
gsave
453.4 226.6 73.12 40.7 clipbox
73.125 137.812 m
526.5 137.812 l
stroke
grestore
[] 0 setdash
gsave
/o {
gsave
newpath
translate
0.5 setlinewidth
1 setlinejoin
0 setlinecap
0 0 m
4 0 l
gsave
0.000 setgray
fill
grestore
stroke
grestore
} bind def
73.125 137.812 o
grestore
gsave
/o {
gsave
newpath
translate
0.5 setlinewidth
1 setlinejoin
0 setlinecap
0 0 m
-4 0 l
gsave
0.000 setgray
fill
grestore
stroke
grestore
} bind def
526.5 137.812 o
grestore
gsave
42.281250 133.273391 translate
0.000000 rotate
0.000000 0.171875 m /minus glyphshow
10.054688 0.171875 m /zero glyphshow
17.689453 0.171875 m /period glyphshow
21.503906 0.171875 m /five glyphshow
grestore
[1 3] 0 setdash
gsave
453.4 226.6 73.12 40.7 clipbox
73.125 170.184 m
526.5 170.184 l
stroke
grestore
[] 0 setdash
gsave
/o {
gsave
newpath
translate
0.5 setlinewidth
1 setlinejoin
0 setlinecap
0 0 m
4 0 l
gsave
0.000 setgray
fill
grestore
stroke
grestore
} bind def
73.125 170.184 o
grestore
gsave
/o {
gsave
newpath
translate
0.5 setlinewidth
1 setlinejoin
0 setlinecap
0 0 m
-4 0 l
gsave
0.000 setgray
fill
grestore
stroke
grestore
} bind def
526.5 170.184 o
grestore
gsave
51.625000 165.645277 translate
0.000000 rotate
0.000000 0.171875 m /zero glyphshow
7.634766 0.171875 m /period glyphshow
11.449219 0.171875 m /zero glyphshow
grestore
[1 3] 0 setdash
gsave
453.4 226.6 73.12 40.7 clipbox
73.125 202.556 m
526.5 202.556 l
stroke
grestore
[] 0 setdash
gsave
/o {
gsave
newpath
translate
0.5 setlinewidth
1 setlinejoin
0 setlinecap
0 0 m
4 0 l
gsave
0.000 setgray
fill
grestore
stroke
grestore
} bind def
73.125 202.556 o
grestore
gsave
/o {
gsave
newpath
translate
0.5 setlinewidth
1 setlinejoin
0 setlinecap
0 0 m
-4 0 l
gsave
0.000 setgray
fill
grestore
stroke
grestore
} bind def
526.5 202.556 o
grestore
gsave
51.875000 198.017164 translate
0.000000 rotate
0.000000 0.171875 m /zero glyphshow
7.634766 0.171875 m /period glyphshow
11.449219 0.171875 m /five glyphshow
grestore
[1 3] 0 setdash
gsave
453.4 226.6 73.12 40.7 clipbox
73.125 234.928 m
526.5 234.928 l
stroke
grestore
[] 0 setdash
gsave
/o {
gsave
newpath
translate
0.5 setlinewidth
1 setlinejoin
0 setlinecap
0 0 m
4 0 l
gsave
0.000 setgray
fill
grestore
stroke
grestore
} bind def
73.125 234.928 o
grestore
gsave
/o {
gsave
newpath
translate
0.5 setlinewidth
1 setlinejoin
0 setlinecap
0 0 m
-4 0 l
gsave
0.000 setgray
fill
grestore
stroke
grestore
} bind def
526.5 234.928 o
grestore
gsave
52.140625 230.389051 translate
0.000000 rotate
0.000000 0.171875 m /one glyphshow
7.634766 0.171875 m /period glyphshow
11.449219 0.171875 m /zero glyphshow
grestore
[1 3] 0 setdash
gsave
453.4 226.6 73.12 40.7 clipbox
73.125 267.3 m
526.5 267.3 l
stroke
grestore
[] 0 setdash
gsave
/o {
gsave
newpath
translate
0.5 setlinewidth
1 setlinejoin
0 setlinecap
0 0 m
4 0 l
gsave
0.000 setgray
fill
grestore
stroke
grestore
} bind def
73.125 267.3 o
grestore
gsave
/o {
gsave
newpath
translate
0.5 setlinewidth
1 setlinejoin
0 setlinecap
0 0 m
-4 0 l
gsave
0.000 setgray
fill
grestore
stroke
grestore
} bind def
526.5 267.3 o
grestore
gsave
52.390625 262.839063 translate
0.000000 rotate
0.000000 0.171875 m /one glyphshow
7.634766 0.171875 m /period glyphshow
11.449219 0.171875 m /five glyphshow
grestore
gsave
37.031250 130.498397 translate
90.000000 rotate
/Cmmi10 findfont
18.0 scalefont
setfont
0.000000 4.328125 moveto
/y glyphshow

/DejaVuSans findfont
18.0 scalefont
setfont
8.824219 4.328125 moveto
/space glyphshow

14.545898 4.328125 moveto
/bracketleft glyphshow

21.568359 4.328125 moveto
/m glyphshow

39.102539 4.328125 moveto
/bracketright glyphshow


grestore
1.000 setlinewidth
2 setlinecap
gsave
73.125 267.3 m
526.5 267.3 l
stroke
grestore
gsave
526.5 40.6968 m
526.5 267.3 l
stroke
grestore
gsave
73.125 40.6968 m
526.5 40.6968 l
stroke
grestore
gsave
73.125 40.6968 m
73.125 267.3 l
stroke
grestore
/DejaVuSans findfont
24.000 scalefont
setfont
gsave
185.375000 267.300000 translate
0.000000 rotate
0.000000 5.000000 m /P glyphshow
13.597656 5.000000 m /o glyphshow
28.281250 5.000000 m /s glyphshow
40.785156 5.000000 m /i glyphshow
47.453125 5.000000 m /t glyphshow
56.863281 5.000000 m /i glyphshow
63.531250 5.000000 m /o glyphshow
78.214844 5.000000 m /n glyphshow
93.425781 5.000000 m /space glyphshow
101.054688 5.000000 m /parenleft glyphshow
110.417969 5.000000 m /y glyphshow
124.621094 5.000000 m /parenright glyphshow
133.984375 5.000000 m /space glyphshow
141.613281 5.000000 m /v glyphshow
155.816406 5.000000 m /s glyphshow
168.320312 5.000000 m /space glyphshow
175.949219 5.000000 m /t glyphshow
185.359375 5.000000 m /i glyphshow
192.027344 5.000000 m /m glyphshow
215.406250 5.000000 m /e glyphshow
grestore
gsave
416.46 210.099 m
519.3 210.099 l
519.3 260.1 l
416.46 260.1 l
416.46 210.099 l
cl
gsave
1.000 setgray
fill
grestore
stroke
grestore
gsave
426.54 248.739 m
446.7 248.739 l
stroke
grestore
gsave
462.540000 237.699375 translate
0.000000 rotate
/Cmmi10 findfont
14.4 scalefont
setfont
0.000000 6.640625 moveto
/y glyphshow

/Cmmi10 findfont
10.08 scalefont
setfont
7.054779 2.967275 moveto
/g glyphshow

11.860315 2.967275 moveto
/o glyphshow

16.734712 2.967275 moveto
/a glyphshow

22.051790 2.967275 moveto
/l glyphshow


grestore
1.000 0.000 0.000 setrgbcolor
gsave
426.54 224.899 m
446.7 224.899 l
stroke
grestore
0.000 setgray
gsave
462.540000 215.858750 translate
0.000000 rotate
/Cmmi10 findfont
14.4 scalefont
setfont
0.000000 4.640625 moveto
/y glyphshow

/Cmmi10 findfont
10.08 scalefont
setfont
7.054779 0.967275 moveto
/m glyphshow

15.898549 0.967275 moveto
/e glyphshow

20.581123 0.967275 moveto
/a glyphshow

25.898201 0.967275 moveto
/s glyphshow

30.610287 0.967275 moveto
/u glyphshow

36.370045 0.967275 moveto
/r glyphshow

40.914897 0.967275 moveto
/e glyphshow

45.597472 0.967275 moveto
/d glyphshow


grestore

end
showpage
