%!PS-Adobe-3.0 EPSF-3.0
%%Title: /home/kariya/catkin_ws/src/crazyflieROS/logdata/20140626/yaw_manual.eps
%%Creator: matplotlib version 1.1.1rc, http://matplotlib.sourceforge.net/
%%CreationDate: Thu Jun 26 18:43:20 2014
%%Orientation: portrait
%%BoundingBox: 13 247 598 544
%%EndComments
%%BeginProlog
/mpldict 9 dict def
mpldict begin
/m { moveto } bind def
/l { lineto } bind def
/r { rlineto } bind def
/c { curveto } bind def
/cl { closepath } bind def
/box {
m
1 index 0 r
0 exch r
neg 0 r
cl
} bind def
/clipbox {
box
clip
newpath
} bind def
%!PS-Adobe-3.0 Resource-Font
%%Title: DejaVu Sans
%%Copyright: Copyright (c) 2003 by Bitstream, Inc. All Rights Reserved. Copyright (c) 2006 by Tavmjong Bah. All Rights Reserved. DejaVu changes are in public domain 
%%Creator: Converted from TrueType to type 3 by PPR
25 dict begin
/_d{bind def}bind def
/_m{moveto}_d
/_l{lineto}_d
/_cl{closepath eofill}_d
/_c{curveto}_d
/_sc{7 -1 roll{setcachedevice}{pop pop pop pop pop pop}ifelse}_d
/_e{exec}_d
/FontName /DejaVuSans def
/PaintType 0 def
/FontMatrix[.001 0 0 .001 0 0]def
/FontBBox[-1021 -415 1681 1167]def
/FontType 3 def
/Encoding [ /space /parenleft /parenright /zero /one /two /five /P /bracketleft /bracketright /d /e /g /i /m /n /o /s /t /v /minus ] def
/FontInfo 10 dict dup begin
/FamilyName (DejaVu Sans) def
/FullName (DejaVu Sans) def
/Notice (Copyright (c) 2003 by Bitstream, Inc. All Rights Reserved. Copyright (c) 2006 by Tavmjong Bah. All Rights Reserved. DejaVu changes are in public domain ) def
/Weight (Book) def
/Version (Version 2.33) def
/ItalicAngle 0.0 def
/isFixedPitch false def
/UnderlinePosition -130 def
/UnderlineThickness 90 def
end readonly def
/CharStrings 21 dict dup begin
/space{318 0 0 0 0 0 _sc
}_d
/parenleft{390 0 86 -131 310 759 _sc
310 759 _m
266 683 234 609 213 536 _c
191 463 181 389 181 314 _c
181 238 191 164 213 91 _c
234 17 266 -56 310 -131 _c
232 -131 _l
183 -54 146 20 122 94 _c
98 168 86 241 86 314 _c
86 386 98 459 122 533 _c
146 607 182 682 232 759 _c
310 759 _l
_cl}_d
/parenright{390 0 80 -131 304 759 _sc
80 759 _m
158 759 _l
206 682 243 607 267 533 _c
291 459 304 386 304 314 _c
304 241 291 168 267 94 _c
243 20 206 -54 158 -131 _c
80 -131 _l
123 -56 155 17 177 91 _c
198 164 209 238 209 314 _c
209 389 198 463 177 536 _c
155 609 123 683 80 759 _c
_cl}_d
/zero{636 0 66 -13 570 742 _sc
318 664 _m
267 664 229 639 203 589 _c
177 539 165 464 165 364 _c
165 264 177 189 203 139 _c
229 89 267 64 318 64 _c
369 64 407 89 433 139 _c
458 189 471 264 471 364 _c
471 464 458 539 433 589 _c
407 639 369 664 318 664 _c
318 742 _m
399 742 461 709 505 645 _c
548 580 570 486 570 364 _c
570 241 548 147 505 83 _c
461 19 399 -13 318 -13 _c
236 -13 173 19 130 83 _c
87 147 66 241 66 364 _c
66 486 87 580 130 645 _c
173 709 236 742 318 742 _c
_cl}_d
/one{636 0 110 0 544 729 _sc
124 83 _m
285 83 _l
285 639 _l
110 604 _l
110 694 _l
284 729 _l
383 729 _l
383 83 _l
544 83 _l
544 0 _l
124 0 _l
124 83 _l
_cl}_d
/two{{636 0 73 0 536 742 _sc
192 83 _m
536 83 _l
536 0 _l
73 0 _l
73 83 _l
110 121 161 173 226 239 _c
290 304 331 346 348 365 _c
380 400 402 430 414 455 _c
426 479 433 504 433 528 _c
433 566 419 598 392 622 _c
365 646 330 659 286 659 _c
255 659 222 653 188 643 _c
154 632 117 616 78 594 _c
78 694 _l
118 710 155 722 189 730 _c
223 738 255 742 284 742 _c
359 742 419 723 464 685 _c
509 647 532 597 532 534 _c
532 504 526 475 515 449 _c
504 422 484 390 454 354 _c
446 344 420 317 376 272 _c
332 227 271 164 192 83 _c
_cl}_e}_d
/five{{636 0 77 -13 549 729 _sc
108 729 _m
495 729 _l
495 646 _l
198 646 _l
198 467 _l
212 472 227 476 241 478 _c
255 480 270 482 284 482 _c
365 482 429 459 477 415 _c
525 370 549 310 549 234 _c
549 155 524 94 475 51 _c
426 8 357 -13 269 -13 _c
238 -13 207 -10 175 -6 _c
143 -1 111 6 77 17 _c
77 116 _l
106 100 136 88 168 80 _c
199 72 232 69 267 69 _c
323 69 368 83 401 113 _c
433 143 450 183 450 234 _c
450 284 433 324 401 354 _c
368 384 323 399 267 399 _c
241 399 214 396 188 390 _c
162 384 135 375 108 363 _c
108 729 _l
_cl}_e}_d
/P{603 0 98 0 569 729 _sc
197 648 _m
197 374 _l
321 374 _l
367 374 402 385 427 409 _c
452 433 465 467 465 511 _c
465 555 452 588 427 612 _c
402 636 367 648 321 648 _c
197 648 _l
98 729 _m
321 729 _l
402 729 464 710 506 673 _c
548 636 569 582 569 511 _c
569 439 548 384 506 348 _c
464 311 402 293 321 293 _c
197 293 _l
197 0 _l
98 0 _l
98 729 _l
_cl}_d
/bracketleft{390 0 86 -131 293 760 _sc
86 760 _m
293 760 _l
293 690 _l
176 690 _l
176 -61 _l
293 -61 _l
293 -131 _l
86 -131 _l
86 760 _l
_cl}_d
/bracketright{390 0 97 -131 304 760 _sc
304 760 _m
304 -131 _l
97 -131 _l
97 -61 _l
214 -61 _l
214 690 _l
97 690 _l
97 760 _l
304 760 _l
_cl}_d
/d{{635 0 55 -13 544 760 _sc
454 464 _m
454 760 _l
544 760 _l
544 0 _l
454 0 _l
454 82 _l
435 49 411 25 382 10 _c
353 -5 319 -13 279 -13 _c
213 -13 159 13 117 65 _c
75 117 55 187 55 273 _c
55 359 75 428 117 481 _c
159 533 213 560 279 560 _c
319 560 353 552 382 536 _c
411 520 435 496 454 464 _c
148 273 _m
148 207 161 155 188 117 _c
215 79 253 61 301 61 _c
348 61 385 79 413 117 _c
440 155 454 207 454 273 _c
454 339 440 390 413 428 _c
385 466 348 485 301 485 _c
253 485 215 466 188 428 _c
161 390 148 339 148 273 _c
_cl}_e}_d
/e{{615 0 55 -13 562 560 _sc
562 296 _m
562 252 _l
149 252 _l
153 190 171 142 205 110 _c
238 78 284 62 344 62 _c
378 62 412 66 444 74 _c
476 82 509 95 541 113 _c
541 28 _l
509 14 476 3 442 -3 _c
408 -9 373 -13 339 -13 _c
251 -13 182 12 131 62 _c
80 112 55 181 55 268 _c
55 357 79 428 127 481 _c
175 533 241 560 323 560 _c
397 560 455 536 498 489 _c
540 441 562 377 562 296 _c
472 322 _m
471 371 457 410 431 440 _c
404 469 368 484 324 484 _c
274 484 234 469 204 441 _c
174 413 156 373 152 322 _c
472 322 _l
_cl}_e}_d
/g{{635 0 55 -207 544 560 _sc
454 280 _m
454 344 440 395 414 431 _c
387 467 349 485 301 485 _c
253 485 215 467 188 431 _c
161 395 148 344 148 280 _c
148 215 161 165 188 129 _c
215 93 253 75 301 75 _c
349 75 387 93 414 129 _c
440 165 454 215 454 280 _c
544 68 _m
544 -24 523 -93 482 -139 _c
440 -184 377 -207 292 -207 _c
260 -207 231 -204 203 -200 _c
175 -195 147 -188 121 -178 _c
121 -91 _l
147 -105 173 -115 199 -122 _c
225 -129 251 -133 278 -133 _c
336 -133 380 -117 410 -87 _c
439 -56 454 -10 454 52 _c
454 96 _l
435 64 411 40 382 24 _c
353 8 319 0 279 0 _c
211 0 157 25 116 76 _c
75 127 55 195 55 280 _c
55 364 75 432 116 483 _c
157 534 211 560 279 560 _c
}_e{319 560 353 552 382 536 _c
411 520 435 496 454 464 _c
454 547 _l
544 547 _l
544 68 _l
_cl}_e}_d
/i{278 0 94 0 184 760 _sc
94 547 _m
184 547 _l
184 0 _l
94 0 _l
94 547 _l
94 760 _m
184 760 _l
184 646 _l
94 646 _l
94 760 _l
_cl}_d
/m{{974 0 91 0 889 560 _sc
520 442 _m
542 482 569 511 600 531 _c
631 550 668 560 711 560 _c
767 560 811 540 842 500 _c
873 460 889 403 889 330 _c
889 0 _l
799 0 _l
799 327 _l
799 379 789 418 771 444 _c
752 469 724 482 686 482 _c
639 482 602 466 575 435 _c
548 404 535 362 535 309 _c
535 0 _l
445 0 _l
445 327 _l
445 379 435 418 417 444 _c
398 469 369 482 331 482 _c
285 482 248 466 221 435 _c
194 404 181 362 181 309 _c
181 0 _l
91 0 _l
91 547 _l
181 547 _l
181 462 _l
201 495 226 520 255 536 _c
283 552 317 560 357 560 _c
397 560 430 550 458 530 _c
486 510 506 480 520 442 _c
}_e{_cl}_e}_d
/n{634 0 91 0 549 560 _sc
549 330 _m
549 0 _l
459 0 _l
459 327 _l
459 379 448 417 428 443 _c
408 469 378 482 338 482 _c
289 482 251 466 223 435 _c
195 404 181 362 181 309 _c
181 0 _l
91 0 _l
91 547 _l
181 547 _l
181 462 _l
202 494 227 519 257 535 _c
286 551 320 560 358 560 _c
420 560 468 540 500 501 _c
532 462 549 405 549 330 _c
_cl}_d
/o{612 0 55 -13 557 560 _sc
306 484 _m
258 484 220 465 192 427 _c
164 389 150 338 150 273 _c
150 207 163 156 191 118 _c
219 80 257 62 306 62 _c
354 62 392 80 420 118 _c
448 156 462 207 462 273 _c
462 337 448 389 420 427 _c
392 465 354 484 306 484 _c
306 560 _m
384 560 445 534 490 484 _c
534 433 557 363 557 273 _c
557 183 534 113 490 63 _c
445 12 384 -13 306 -13 _c
227 -13 165 12 121 63 _c
77 113 55 183 55 273 _c
55 363 77 433 121 484 _c
165 534 227 560 306 560 _c
_cl}_d
/s{{521 0 54 -13 472 560 _sc
443 531 _m
443 446 _l
417 458 391 468 364 475 _c
336 481 308 485 279 485 _c
234 485 200 478 178 464 _c
156 450 145 430 145 403 _c
145 382 153 366 169 354 _c
185 342 217 330 265 320 _c
296 313 _l
360 299 405 279 432 255 _c
458 230 472 195 472 151 _c
472 100 452 60 412 31 _c
372 1 316 -13 246 -13 _c
216 -13 186 -10 154 -5 _c
122 0 89 8 54 20 _c
54 113 _l
87 95 120 82 152 74 _c
184 65 216 61 248 61 _c
290 61 323 68 346 82 _c
368 96 380 117 380 144 _c
380 168 371 187 355 200 _c
339 213 303 226 247 238 _c
216 245 _l
160 257 119 275 95 299 _c
70 323 58 356 58 399 _c
58 450 76 490 112 518 _c
148 546 200 560 268 560 _c
}_e{301 560 332 557 362 552 _c
391 547 418 540 443 531 _c
_cl}_e}_d
/t{392 0 27 0 368 702 _sc
183 702 _m
183 547 _l
368 547 _l
368 477 _l
183 477 _l
183 180 _l
183 135 189 106 201 94 _c
213 81 238 75 276 75 _c
368 75 _l
368 0 _l
276 0 _l
206 0 158 13 132 39 _c
106 65 93 112 93 180 _c
93 477 _l
27 477 _l
27 547 _l
93 547 _l
93 702 _l
183 702 _l
_cl}_d
/v{592 0 30 0 562 547 _sc
30 547 _m
125 547 _l
296 88 _l
467 547 _l
562 547 _l
357 0 _l
235 0 _l
30 547 _l
_cl}_d
/minus{838 0 106 272 732 355 _sc
106 355 _m
732 355 _l
732 272 _l
106 272 _l
106 355 _l
_cl}_d
end readonly def

/BuildGlyph
 {exch begin
 CharStrings exch
 2 copy known not{pop /.notdef}if
 true 3 1 roll get exec
 end}_d

/BuildChar {
 1 index /Encoding get exch get
 1 index /BuildGlyph get exec
}_d

FontName currentdict end definefont pop
%!PS-Adobe-3.0 Resource-Font
%%Title: cmmi10
%%Copyright: Copyright (C) 1994, Basil K. Malyshev. All Rights Reserved.012BaKoMa Fonts Collection, Level-B.
%%Creator: Converted from TrueType to type 3 by PPR
25 dict begin
/_d{bind def}bind def
/_m{moveto}_d
/_l{lineto}_d
/_cl{closepath eofill}_d
/_c{curveto}_d
/_sc{7 -1 roll{setcachedevice}{pop pop pop pop pop pop}ifelse}_d
/_e{exec}_d
/FontName /Cmmi10 def
/PaintType 0 def
/FontMatrix[.001 0 0 .001 0 0]def
/FontBBox[-34 -250 1048 750]def
/FontType 3 def
/Encoding [ /e /psi /g /m /o /d /s /u /l /a /r ] def
/FontInfo 10 dict dup begin
/FamilyName (cmmi10) def
/FullName (cmmi10) def
/Notice (Copyright (C) 1994, Basil K. Malyshev. All Rights Reserved.012BaKoMa Fonts Collection, Level-B. ) def
/Weight (Regular) def
/Version (1.1/12-Nov-94) def
/ItalicAngle 0.0 def
/isFixedPitch false def
/UnderlinePosition -133 def
/UnderlineThickness 20 def
end readonly def
/CharStrings 11 dict dup begin
/e{{465 0 44 -10 430 442 _sc
201 -10 _m
169 -10 141 -2 117 14 _c
93 30 75 53 63 81 _c
50 109 44 138 44 170 _c
44 217 56 262 80 304 _c
104 346 136 379 177 404 _c
218 429 262 442 309 442 _c
337 442 362 434 384 419 _c
405 404 416 383 416 356 _c
416 317 400 288 370 270 _c
339 251 304 239 266 235 _c
228 231 185 229 139 229 _c
136 229 _l
125 189 120 155 120 127 _c
120 97 126 71 140 49 _c
154 26 175 15 203 15 _c
243 15 281 24 318 42 _c
354 60 384 86 407 118 _c
409 120 411 121 415 121 _c
418 121 421 119 425 115 _c
428 111 430 108 430 105 _c
430 102 429 100 428 99 _c
404 65 371 38 330 19 _c
288 0 245 -10 201 -10 _c
142 255 _m
}_e{180 255 216 256 249 260 _c
282 264 312 273 339 287 _c
365 301 379 324 379 355 _c
379 367 375 378 368 387 _c
361 396 352 403 342 408 _c
331 413 320 416 308 416 _c
280 416 254 408 232 393 _c
209 377 190 357 176 333 _c
161 308 150 282 142 255 _c
_cl}_e}_d
/psi{{651 0 27 -204 634 694 _sc
238 -194 _m
285 -8 _l
256 -8 228 -2 201 8 _c
173 18 151 34 135 55 _c
118 76 110 102 110 133 _c
110 150 113 170 119 192 _c
125 214 131 234 138 253 _c
145 271 155 296 167 326 _c
175 350 180 370 180 386 _c
180 406 172 416 158 416 _c
132 416 110 402 93 375 _c
75 347 63 317 55 284 _c
53 280 51 278 47 278 _c
35 278 _l
29 278 27 281 27 287 _c
27 290 _l
37 330 54 365 76 396 _c
98 426 126 442 160 442 _c
184 442 204 434 220 418 _c
236 402 245 383 245 359 _c
245 346 242 333 237 320 _c
225 289 215 265 209 247 _c
202 229 195 209 189 187 _c
183 164 180 144 180 126 _c
}_e{180 93 190 68 210 50 _c
230 32 257 21 291 17 _c
459 688 _l
460 692 463 694 467 694 _c
479 694 _l
484 694 487 690 487 684 _c
320 15 _l
331 15 _l
359 15 388 23 419 40 _c
450 56 478 78 504 105 _c
530 132 550 161 565 192 _c
580 223 588 252 588 280 _c
588 300 584 315 578 327 _c
571 338 562 350 552 362 _c
542 374 537 383 537 391 _c
537 404 542 416 553 427 _c
563 437 575 443 589 443 _c
605 443 616 435 623 421 _c
630 406 634 389 634 371 _c
634 351 632 332 628 312 _c
624 292 618 269 612 243 _c
596 182 564 127 516 79 _c
499 62 481 47 461 33 _c
441 19 419 9 397 1 _c
375 -6 352 -10 330 -10 _c
314 -10 _l
267 -198 _l
265 -202 263 -204 259 -204 _c
}_e{247 -204 _l
244 -204 242 -203 240 -201 _c
238 -199 238 -196 238 -194 _c
_cl}_e}_d
/g{{477 0 14 -204 476 442 _sc
14 -142 _m
14 -126 19 -111 31 -99 _c
42 -87 56 -81 72 -81 _c
82 -81 91 -84 99 -91 _c
106 -97 110 -106 110 -117 _c
110 -129 106 -139 99 -149 _c
92 -159 83 -166 73 -170 _c
91 -175 119 -178 157 -178 _c
187 -178 215 -166 241 -142 _c
266 -118 283 -91 291 -61 _c
320 55 _l
284 18 246 0 207 0 _c
178 0 153 7 133 22 _c
113 36 97 56 87 80 _c
76 104 71 130 71 158 _c
71 188 77 220 89 254 _c
101 288 119 319 142 348 _c
164 376 190 399 220 416 _c
249 433 280 442 313 442 _c
332 442 349 436 365 426 _c
381 415 393 401 403 383 _c
409 409 424 422 446 422 _c
454 422 461 419 467 414 _c
473 409 476 402 476 394 _c
476 392 476 390 476 389 _c
476 388 475 387 475 386 _c
}_e{361 -67 _l
355 -87 346 -106 332 -124 _c
318 -141 301 -155 282 -167 _c
263 -179 242 -188 220 -194 _c
198 -200 176 -204 156 -204 _c
118 -204 84 -200 56 -193 _c
28 -185 14 -168 14 -142 _c
209 26 _m
251 26 293 55 335 114 _c
390 332 _l
385 355 376 375 362 391 _c
348 407 331 416 311 416 _c
289 416 268 407 248 389 _c
228 371 212 349 199 324 _c
187 300 175 265 163 220 _c
151 175 146 140 146 114 _c
146 91 151 71 161 53 _c
171 35 187 26 209 26 _c
_cl}_e}_d
/m{{878 0 27 -10 851 442 _sc
77 17 _m
77 21 77 24 78 26 _c
153 324 _l
157 342 160 359 160 373 _c
160 401 150 416 131 416 _c
110 416 94 403 84 378 _c
74 353 64 322 55 284 _c
55 282 54 280 52 279 _c
50 278 48 278 47 278 _c
35 278 _l
33 278 31 279 29 281 _c
27 283 27 286 27 288 _c
34 317 41 342 48 362 _c
54 382 65 400 79 417 _c
93 433 110 442 132 442 _c
156 442 178 434 198 418 _c
217 402 227 382 227 358 _c
247 384 270 404 297 419 _c
323 434 352 442 382 442 _c
413 442 440 434 463 418 _c
486 402 498 379 498 349 _c
518 378 542 401 570 417 _c
597 433 627 442 660 442 _c
}_e{694 442 722 432 743 414 _c
764 395 775 368 775 334 _c
775 306 768 273 756 235 _c
744 196 729 153 711 105 _c
701 81 697 61 697 45 _c
697 25 704 15 720 15 _c
746 15 767 29 785 57 _c
802 85 814 115 822 147 _c
824 151 826 153 830 153 _c
842 153 _l
844 153 846 152 848 150 _c
850 148 851 146 851 144 _c
851 143 850 142 850 141 _c
840 103 824 68 802 37 _c
780 5 752 -10 718 -10 _c
694 -10 674 -2 658 13 _c
641 29 633 48 633 72 _c
633 83 635 96 641 111 _c
659 161 675 205 688 245 _c
700 284 707 319 707 349 _c
707 367 703 383 696 396 _c
688 409 676 416 658 416 _c
}_e{622 416 590 404 563 382 _c
536 360 513 330 494 294 _c
492 287 491 282 491 279 _c
427 22 _l
424 12 419 5 411 -1 _c
403 -7 394 -10 385 -10 _c
377 -10 370 -7 364 -3 _c
358 1 355 8 355 17 _c
355 21 355 24 356 26 _c
420 281 _l
426 308 430 331 430 349 _c
430 367 426 383 418 396 _c
410 409 398 416 380 416 _c
355 416 332 410 312 400 _c
292 389 274 375 259 357 _c
243 339 229 318 217 294 _c
149 22 _l
147 12 142 5 134 -1 _c
126 -7 117 -10 107 -10 _c
99 -10 92 -7 86 -3 _c
80 1 77 8 77 17 _c
_cl}_e}_d
/o{{484 0 40 -10 471 442 _sc
201 -10 _m
169 -10 141 -2 117 12 _c
92 26 73 46 60 72 _c
46 97 40 126 40 158 _c
40 203 52 248 78 292 _c
103 336 136 372 178 400 _c
220 428 264 442 310 442 _c
334 442 356 437 376 429 _c
395 421 412 409 426 394 _c
440 378 451 360 459 340 _c
467 319 471 297 471 273 _c
471 238 463 204 449 170 _c
434 136 414 106 389 78 _c
363 50 334 29 301 13 _c
268 -2 235 -10 201 -10 _c
203 15 _m
233 15 260 25 284 45 _c
308 65 329 91 345 122 _c
361 152 373 185 381 219 _c
389 253 394 284 394 312 _c
394 340 386 365 372 385 _c
358 405 336 416 308 416 _c
269 416 235 399 206 366 _c
176 332 154 292 139 246 _c
124 200 117 157 117 119 _c
117 90 124 65 139 45 _c
154 25 175 15 203 15 _c
_cl}_e}_d
/d{{520 0 38 -10 519 694 _sc
174 -10 _m
132 -10 98 5 74 37 _c
50 68 38 105 38 149 _c
38 191 49 236 71 282 _c
93 328 122 366 160 396 _c
198 426 238 442 282 442 _c
302 442 319 436 335 425 _c
351 414 363 400 372 382 _c
428 605 _l
430 616 432 625 433 632 _c
433 642 411 648 368 648 _c
361 648 358 652 358 661 _c
358 663 358 666 360 670 _c
361 674 362 677 364 679 _c
366 681 368 683 372 683 _c
507 694 _l
515 694 519 689 519 681 _c
375 106 _l
370 94 368 78 368 58 _c
368 29 377 15 397 15 _c
417 15 433 28 444 55 _c
455 81 464 112 472 147 _c
}_e{473 151 476 153 480 153 _c
492 153 _l
494 153 496 151 498 149 _c
500 147 501 145 501 143 _c
489 96 476 59 462 31 _c
448 3 426 -10 395 -10 _c
372 -10 352 -3 335 9 _c
318 21 307 39 303 61 _c
260 13 217 -10 174 -10 _c
175 15 _m
199 15 222 24 245 42 _c
267 60 287 81 303 106 _c
303 106 304 108 304 110 _c
359 330 _l
355 353 346 373 333 390 _c
319 407 302 416 280 416 _c
257 416 236 406 217 388 _c
197 370 181 348 168 323 _c
154 296 142 259 130 213 _c
118 167 113 131 113 105 _c
113 81 118 60 128 42 _c
138 24 153 15 175 15 _c
_cl}_e}_d
/s{{468 0 52 -10 419 442 _sc
87 61 _m
105 30 141 15 195 15 _c
218 15 240 19 261 27 _c
282 35 300 47 314 63 _c
328 79 335 98 335 121 _c
335 138 328 152 316 163 _c
304 174 289 182 271 186 _c
217 197 _l
192 203 172 214 156 231 _c
140 248 132 269 132 293 _c
132 322 140 348 156 371 _c
172 394 193 412 219 424 _c
245 436 273 442 302 442 _c
332 442 359 434 383 420 _c
407 405 419 384 419 356 _c
419 340 414 327 406 315 _c
397 303 385 298 370 298 _c
361 298 353 300 347 306 _c
341 312 338 319 338 328 _c
338 336 340 343 344 351 _c
348 358 354 364 362 368 _c
369 372 377 375 385 375 _c
379 389 368 399 352 406 _c
336 412 318 416 300 416 _c
282 416 265 412 249 406 _c
232 399 218 389 208 376 _c
198 362 193 347 193 329 _c
193 317 197 306 205 297 _c
213 288 224 282 237 278 _c
}_e{295 266 _l
313 262 330 255 346 245 _c
361 235 373 222 382 207 _c
391 192 396 175 396 156 _c
396 131 389 106 375 82 _c
361 58 344 39 324 25 _c
288 1 245 -10 194 -10 _c
158 -10 126 -2 96 14 _c
66 30 52 54 52 86 _c
52 104 57 119 67 133 _c
77 147 92 154 111 154 _c
121 154 130 150 138 144 _c
145 137 149 128 149 118 _c
149 102 143 89 132 78 _c
120 66 107 61 92 61 _c
87 61 _l
_cl}_e}_d
/u{{572 0 27 -10 546 442 _sc
106 109 _m
106 131 109 153 115 176 _c
121 198 129 224 139 252 _c
149 280 159 305 167 326 _c
175 350 180 370 180 386 _c
180 406 172 416 158 416 _c
132 416 110 402 93 375 _c
75 347 63 317 55 284 _c
53 280 51 278 47 278 _c
35 278 _l
29 278 27 281 27 287 _c
27 290 _l
37 330 54 365 76 396 _c
98 426 126 442 160 442 _c
184 442 204 434 220 418 _c
236 402 245 383 245 359 _c
245 346 242 333 237 320 _c
233 312 226 294 216 267 _c
206 239 198 217 193 199 _c
187 181 183 163 179 146 _c
175 128 174 111 174 94 _c
174 72 178 53 188 38 _c
197 22 212 15 234 15 _c
}_e{276 15 314 41 346 94 _c
346 96 347 99 348 101 _c
348 103 349 106 349 109 _c
421 399 _l
423 407 428 415 436 421 _c
444 427 453 431 463 431 _c
471 431 478 428 484 423 _c
490 418 493 411 493 403 _c
493 399 492 396 492 395 _c
420 107 _l
415 87 413 70 413 58 _c
413 29 422 15 442 15 _c
463 15 479 28 490 55 _c
500 81 509 112 517 147 _c
518 151 521 153 525 153 _c
537 153 _l
539 153 541 151 543 149 _c
545 147 546 145 546 143 _c
538 114 531 89 525 69 _c
518 49 507 30 493 14 _c
479 -2 461 -10 440 -10 _c
418 -10 399 -4 383 6 _c
366 17 355 33 349 53 _c
}_e{333 33 316 18 296 7 _c
276 -4 254 -10 232 -10 _c
193 -10 162 0 140 21 _c
117 41 106 71 106 109 _c
_cl}_e}_d
/l{{298 0 44 -10 262 694 _sc
44 81 _m
44 83 44 86 44 90 _c
44 94 45 97 46 101 _c
46 105 47 108 47 110 _c
171 605 _l
173 616 175 625 176 632 _c
176 642 154 648 111 648 _c
104 648 101 652 101 661 _c
101 663 102 666 103 670 _c
104 674 105 677 107 679 _c
109 681 111 683 115 683 _c
250 694 _l
258 694 262 689 262 681 _c
118 106 _l
113 95 111 79 111 58 _c
111 29 120 15 140 15 _c
160 15 176 27 186 53 _c
196 79 206 110 214 147 _c
215 151 218 153 222 153 _c
234 153 _l
236 153 238 151 240 149 _c
242 147 243 145 243 143 _c
}_e{235 111 227 85 221 67 _c
215 48 205 30 191 14 _c
177 -2 159 -10 138 -10 _c
111 -10 89 -1 71 15 _c
53 32 44 54 44 81 _c
_cl}_e}_d
/a{{528 0 38 -10 501 442 _sc
174 -10 _m
132 -10 98 5 74 37 _c
50 68 38 105 38 149 _c
38 191 49 236 71 282 _c
93 328 122 366 160 396 _c
198 426 238 442 282 442 _c
302 442 319 436 335 426 _c
351 415 363 400 372 382 _c
379 408 394 422 416 422 _c
424 422 431 419 437 414 _c
443 409 446 402 446 394 _c
446 392 445 390 445 389 _c
445 388 445 387 445 386 _c
375 107 _l
370 87 368 70 368 58 _c
368 29 377 15 397 15 _c
417 15 433 28 444 55 _c
455 81 464 112 472 147 _c
473 151 476 153 480 153 _c
492 153 _l
494 153 496 151 498 149 _c
500 147 501 145 501 143 _c
}_e{489 96 476 59 462 31 _c
448 3 426 -10 395 -10 _c
372 -10 352 -3 335 9 _c
318 21 307 39 303 61 _c
260 13 217 -10 174 -10 _c
175 15 _m
199 15 222 24 245 42 _c
267 60 287 81 303 106 _c
303 106 304 107 304 109 _c
358 326 _l
359 329 _l
355 353 346 373 333 390 _c
319 407 302 416 280 416 _c
257 416 236 406 217 388 _c
197 370 181 348 168 323 _c
154 296 142 259 130 213 _c
118 167 113 131 113 105 _c
113 81 118 60 128 42 _c
138 24 153 15 175 15 _c
_cl}_e}_d
/r{{451 0 27 -10 434 442 _sc
77 17 _m
77 21 77 24 78 26 _c
153 324 _l
157 342 160 359 160 373 _c
160 401 150 416 131 416 _c
110 416 94 403 84 378 _c
74 353 64 322 55 284 _c
55 282 54 280 52 279 _c
50 278 48 278 47 278 _c
35 278 _l
33 278 31 279 29 281 _c
27 283 27 286 27 288 _c
34 317 41 342 48 362 _c
54 382 65 400 79 417 _c
93 433 110 442 132 442 _c
155 442 175 435 193 422 _c
210 408 221 391 225 369 _c
241 391 260 408 282 422 _c
304 435 328 442 354 442 _c
375 442 394 435 410 423 _c
426 411 434 394 434 373 _c
434 356 428 341 418 329 _c
407 316 393 310 376 310 _c
}_e{365 310 356 313 349 320 _c
341 326 338 335 338 346 _c
338 360 343 373 354 385 _c
364 397 377 403 391 403 _c
380 411 367 416 352 416 _c
323 416 298 405 277 385 _c
256 365 237 339 220 308 _c
149 22 _l
147 12 142 5 134 -1 _c
126 -7 117 -10 107 -10 _c
99 -10 92 -7 86 -3 _c
80 1 77 8 77 17 _c
_cl}_e}_d
end readonly def

/BuildGlyph
 {exch begin
 CharStrings exch
 2 copy known not{pop /.notdef}if
 true 3 1 roll get exec
 end}_d

/BuildChar {
 1 index /Encoding get exch get
 1 index /BuildGlyph get exec
}_d

FontName currentdict end definefont pop
end
%%EndProlog
mpldict begin
13.5 247.5 translate
585 297 0 0 clipbox
gsave
0 0 m
585 0 l
585 297 l
0 297 l
cl
1.000 setgray
fill
grestore
gsave
73.125 40.6968 m
526.5 40.6968 l
526.5 267.3 l
73.125 267.3 l
cl
1.000 setgray
fill
grestore
1.000 setlinewidth
1 setlinejoin
2 setlinecap
[] 0 setdash
0.000 setgray
gsave
453.4 226.6 73.12 40.7 clipbox
73.125 258.236 m
261.021 258.138 l
261.185 256.809 l
261.312 253.779 l
261.966 227.299 l
262.473 207.096 l
263.796 157.682 l
264.177 148.147 l
264.236 147.217 l
264.521 143.469 l
264.939 140.463 l
265.356 138.972 l
265.628 138.058 l
265.846 136.183 l
266.244 128.86 l
267.442 112.332 l
267.84 107.095 l
268.239 104.415 l
268.638 103.044 l
268.784 102.449 l
269.074 99.7238 l
269.491 95.7419 l
269.908 93.7657 l
270.325 92.7849 l
270.76 92.2837 l
271.232 92.0292 l
271.413 93.4006 l
271.685 95.6282 l
272.12 97.0369 l
272.537 97.6956 l
272.791 98.1138 l
273.063 100.324 l
273.462 102.545 l
274.079 104.521 l
274.206 104.588 l
274.224 104.499 l
274.357 103.65 l
274.713 97.1855 l
275.131 92.8386 l
275.529 90.7469 l
275.947 89.6431 l
276.273 89.184 l
276.463 90.4457 l
277.198 96.0789 l
277.615 97.2201 l
278.05 97.8033 l
278.558 98.1139 l
279.302 98.2785 l
280.426 98.3346 l
280.825 96.746 l
281.242 95.9076 l
281.695 95.4673 l
282.257 95.2316 l
283.201 95.1123 l
285.994 95.0818 l
510.759 95.0816 l
510.759 95.0816 l
stroke
grestore
1.000 0.000 0.000 setrgbcolor
gsave
453.4 226.6 73.12 40.7 clipbox
97.4996 259.309 m
101.58 259.398 l
101.707 258.242 l
102.831 258.264 l
110.774 258.346 l
110.901 258.396 l
111.028 257.449 l
111.155 257.504 l
111.681 260.634 l
111.808 261.66 l
111.989 262.351 l
112.044 262.319 l
112.044 262.319 l
112.044 262.319 l
112.189 262.506 l
112.225 262.506 l
112.304 262.826 l
112.352 262.764 l
112.407 262.764 l
112.533 262.52 l
112.643 262.447 l
112.787 262.103 l
112.95 262.032 l
113.096 261.116 l
113.205 261.089 l
113.332 260.241 l
113.422 260.241 l
113.549 259.928 l
113.694 259.481 l
113.748 259.522 l
113.803 259.493 l
113.912 259.432 l
114.075 259.287 l
114.166 259.287 l
114.292 259.145 l
114.51 258.76 l
114.583 258.76 l
114.71 258.643 l
115.018 257.945 l
115.036 257.951 l
115.145 257.844 l
115.471 257.685 l
116.106 257.674 l
116.251 258.007 l
116.759 258.101 l
116.886 258.185 l
117.031 259.573 l
117.121 259.573 l
117.248 260.36 l
117.303 260.36 l
117.431 260.779 l
117.448 260.971 l
117.538 260.816 l
117.629 260.816 l
117.774 260.228 l
117.792 260.228 l
117.919 260 l
117.974 260 l
118.119 259.451 l
118.282 259.35 l
118.428 259.154 l
118.536 259.082 l
118.699 258.908 l
118.754 258.908 l
118.899 258.687 l
119.062 258.589 l
119.135 258.468 l
119.19 258.482 l
119.298 258.527 l
119.426 258.436 l
119.624 258.502 l
119.733 258.571 l
119.842 258.463 l
119.969 258.532 l
120.097 258.549 l
120.241 258.399 l
120.349 258.399 l
120.476 258.169 l
120.64 258.078 l
120.767 258.04 l
120.894 258.357 l
121.551 258.56 l
121.601 258.726 l
121.655 258.674 l
121.782 258.676 l
121.8 258.869 l
121.891 258.855 l
122.218 258.761 l
122.381 258.602 l
122.508 258.512 l
122.653 258.16 l
123.07 257.907 l
123.197 257.464 l
123.777 257.471 l
123.904 257.289 l
124.031 257.126 l
124.085 257.126 l
124.212 257.329 l
124.321 257.398 l
124.339 257.391 l
124.503 257.474 l
124.629 257.706 l
124.757 257.899 l
124.883 257.962 l
125.173 258.023 l
125.283 258.074 l
125.409 257.913 l
125.536 258.146 l
125.554 258.146 l
125.681 258.581 l
126.08 258.681 l
126.207 258.831 l
126.334 259.036 l
126.352 259.019 l
126.534 259.063 l
126.661 259.177 l
126.751 259.179 l
126.824 259.324 l
126.878 259.308 l
127.005 259.275 l
127.132 258.832 l
127.169 258.832 l
127.295 258.543 l
127.368 258.543 l
127.531 258.091 l
127.567 257.989 l
127.894 257.656 l
128.021 257.69 l
128.166 257.545 l
128.637 257.647 l
128.783 257.982 l
129 257.972 l
129.127 257.744 l
129.181 257.744 l
129.309 257.481 l
129.345 257.481 l
129.472 257.362 l
129.599 257.259 l
129.725 257.382 l
129.84 257.383 l
129.961 257.537 l
130.088 257.487 l
130.216 257.721 l
130.559 257.857 l
130.615 257.857 l
130.741 258.091 l
131.358 258.044 l
131.484 257.77 l
131.72 257.706 l
131.848 258.131 l
132.101 258.392 l
132.156 258.345 l
132.5 258.377 l
132.645 258.537 l
132.899 258.524 l
132.917 258.524 l
133.044 258.757 l
133.189 259.092 l
133.28 259.041 l
133.443 258.758 l
133.588 258.717 l
133.716 258.521 l
133.824 258.664 l
133.969 258.361 l
134.314 258.454 l
134.441 258.619 l
134.586 258.426 l
134.622 258.428 l
134.749 258.602 l
134.876 258.683 l
135.184 258.564 l
135.347 258.475 l
135.492 258.19 l
135.656 258.099 l
136.073 257.844 l
136.145 257.952 l
136.181 257.871 l
136.671 257.96 l
136.798 258.217 l
136.925 258.222 l
137.052 258.612 l
137.07 258.609 l
137.163 258.609 l
137.288 258.824 l
137.778 258.84 l
137.941 258.219 l
138.032 258.219 l
138.177 257.746 l
138.384 257.826 l
138.54 258.233 l
138.974 258.226 l
139.01 258.074 l
139.305 258.065 l
139.313 258.065 l
139.45 257.688 l
139.588 257.506 l
139.805 257.462 l
140.027 257.384 l
140.168 257.759 l
140.46 257.835 l
140.673 257.996 l
140.677 258.164 l
140.748 258.156 l
141.111 257.976 l
141.256 258.142 l
141.546 257.531 l
141.691 257.653 l
141.765 257.645 l
141.909 257.15 l
142.057 257.182 l
142.272 257.389 l
142.635 257.764 l
142.929 257.597 l
143.003 257.587 l
143.209 257.223 l
143.215 257.223 l
143.36 257.425 l
143.505 257.425 l
143.65 258.2 l
143.871 257.74 l
144.01 257.76 l
144.013 257.859 l
144.086 257.837 l
144.47 257.908 l
144.667 258.182 l
144.817 258.214 l
144.956 258.079 l
145.32 258.373 l
145.536 258.786 l
145.683 258.829 l
145.972 258.754 l
146.044 258.754 l
146.261 258.297 l
147.205 258.663 l
147.277 258.588 l
147.634 259.269 l
147.64 259.269 l
147.858 258.976 l
148.081 259.165 l
148.296 259.162 l
148.44 259.327 l
148.728 259.173 l
148.805 259.202 l
149.022 258.728 l
149.308 258.618 l
149.525 258.137 l
149.599 258.121 l
149.744 257.674 l
149.817 257.558 l
149.886 257.643 l
150.469 257.551 l
150.905 257.068 l
150.977 256.738 l
151.123 257.159 l
151.341 256.834 l
151.485 256.953 l
151.63 257.408 l
151.776 257.413 l
151.847 257.093 l
151.92 257.185 l
151.993 257.185 l
152.134 257.872 l
152.137 257.842 l
152.422 257.94 l
152.43 257.976 l
152.43 257.976 l
152.43 257.976 l
152.501 257.893 l
152.648 258.015 l
152.718 257.993 l
152.863 257.609 l
153.154 257.572 l
153.597 258.508 l
153.683 258.558 l
153.81 258.956 l
154.183 259.088 l
154.197 259.088 l
154.327 258.48 l
154.458 258.457 l
155.547 258.38 l
155.619 258.109 l
155.692 258.149 l
155.764 258.147 l
155.838 258.333 l
155.909 258.273 l
156.562 258.364 l
156.854 258.631 l
157.142 258.952 l
158.013 257.653 l
158.087 258.046 l
158.158 258.033 l
158.303 258.079 l
158.451 258.21 l
158.547 258.08 l
158.6 258.138 l
158.673 258.381 l
158.745 258.298 l
158.885 258.322 l
159.029 258.539 l
159.391 258.356 l
159.678 258.325 l
159.754 258.098 l
159.827 258.096 l
159.902 257.958 l
159.972 257.993 l
160.264 257.934 l
160.398 257.783 l
160.479 257.968 l
160.769 258.198 l
160.921 258.111 l
161.059 258.29 l
161.132 258.192 l
161.202 258.275 l
161.496 258.249 l
161.642 258.156 l
161.925 258.207 l
162.148 258.216 l
162.366 258.431 l
162.512 258.465 l
162.656 258.24 l
163.236 257.754 l
163.309 257.626 l
163.453 257.744 l
163.964 257.859 l
164.107 258.277 l
164.46 258.236 l
164.542 258.047 l
164.69 258.075 l
164.904 257.692 l
165.268 257.355 l
165.487 257.355 l
165.994 258.183 l
166.067 258.183 l
166.21 258.413 l
166.572 258.423 l
166.79 258.641 l
166.862 258.641 l
166.937 258.766 l
167.011 258.719 l
167.152 258.635 l
167.226 258.769 l
167.517 258.388 l
167.738 258.319 l
168.17 257.855 l
168.175 257.855 l
168.321 257.632 l
168.395 257.898 l
168.467 257.879 l
168.539 257.879 l
168.757 257.634 l
169.195 257.008 l
169.414 257.022 l
169.627 257.399 l
169.699 257.399 l
169.916 257.707 l
170.067 257.707 l
170.279 257.945 l
170.5 257.945 l
170.643 258.244 l
170.861 258.334 l
170.932 258.494 l
171.005 258.432 l
171.222 258.411 l
171.431 258.882 l
171.441 258.869 l
171.88 258.9 l
172.457 257.33 l
172.746 257.306 l
172.818 257.073 l
172.964 257.277 l
173.255 257.285 l
173.399 257.149 l
173.617 257.205 l
173.762 257.821 l
173.834 257.821 l
174.046 258.123 l
174.125 258.123 l
174.421 258.674 l
174.482 258.674 l
174.587 259.079 l
174.724 259.704 l
175.006 259.785 l
175.078 260.011 l
175.084 259.976 l
175.222 260.072 l
175.726 260.274 l
175.866 259.929 l
176.228 259.355 l
176.301 259.355 l
176.447 259.021 l
176.518 259.145 l
176.802 258.826 l
176.872 258.728 l
176.955 258.688 l
177.235 258.28 l
177.319 258.28 l
177.535 257.974 l
177.752 258.131 l
178.041 257.425 l
178.339 257.386 l
178.477 257.599 l
178.622 257.597 l
178.913 258.092 l
178.985 258.048 l
179.193 258.389 l
179.274 258.389 l
179.492 258.693 l
179.564 258.693 l
179.709 258.501 l
179.782 258.501 l
179.927 258.914 l
180.145 259.149 l
180.293 259.149 l
180.436 259.486 l
180.805 259.442 l
181.016 258.914 l
181.09 258.914 l
181.307 258.137 l
181.958 257.904 l
182.177 257.421 l
182.394 257.361 l
182.829 256.99 l
182.975 257.203 l
183.269 257.391 l
183.487 258.193 l
183.917 258.916 l
184.062 259.008 l
184.211 258.884 l
184.419 258.786 l
184.932 258.758 l
185.077 259.107 l
185.295 259.079 l
185.658 259.281 l
186.238 259.185 l
186.608 259.155 l
186.674 259.155 l
186.885 258.619 l
187.255 258.51 l
187.399 258.061 l
187.472 258.051 l
187.619 257.839 l
187.758 257.751 l
187.834 257.374 l
188.052 256.957 l
188.489 256.717 l
188.632 256.294 l
188.777 256.352 l
188.993 256.338 l
188.997 256.338 l
189.14 255.748 l
189.503 255.725 l
189.793 256.215 l
189.865 256.215 l
190.012 256.662 l
190.082 256.622 l
190.298 256.652 l
190.386 256.928 l
190.595 257.29 l
190.736 257.292 l
190.953 257.878 l
191.098 257.878 l
191.308 258.284 l
191.317 258.284 l
191.534 258.597 l
191.751 258.421 l
191.896 258.628 l
192.042 258.697 l
192.197 258.487 l
192.356 258.989 l
192.428 259.178 l
192.487 259.077 l
192.704 258.994 l
192.803 258.895 l
192.982 258.965 l
193.125 259.045 l
193.398 259.045 l
193.506 258.748 l
193.742 258.507 l
194.086 258.818 l
194.232 258.825 l
194.286 258.937 l
194.286 258.937 l
194.286 258.937 l
194.395 258.756 l
194.558 258.825 l
195.066 258.775 l
195.229 258.149 l
195.319 258.149 l
195.338 257.964 l
195.428 257.973 l
195.556 258.018 l
195.683 257.97 l
195.737 257.97 l
195.864 258.147 l
196.19 258.509 l
196.227 258.509 l
196.335 258.384 l
196.48 258.481 l
196.589 258.481 l
196.698 258.317 l
196.825 258.52 l
196.879 258.411 l
196.933 258.472 l
197.006 258.472 l
197.133 258.62 l
197.206 258.567 l
197.206 258.567 l
197.206 258.567 l
197.351 258.876 l
197.496 258.959 l
197.641 259.186 l
197.804 259.186 l
197.913 259.331 l
198.04 259.156 l
198.221 258.61 l
198.276 258.61 l
198.441 257.937 l
198.53 257.937 l
198.676 257.446 l
198.893 257.347 l
199.001 257.092 l
199.164 257.19 l
199.255 257.19 l
199.382 257.433 l
199.545 257.433 l
199.672 257.275 l
200.089 257.367 l
200.143 257.482 l
200.198 257.441 l
200.27 257.435 l
200.397 257.322 l
200.525 257.322 l
200.633 257.125 l
200.76 257.336 l
200.833 257.336 l
200.978 257.717 l
201.196 257.774 l
201.322 258.158 l
201.794 258.092 l
201.939 257.826 l
202.03 257.826 l
202.175 257.432 l
202.556 257.527 l
202.847 257.923 l
202.883 257.923 l
203.045 258.442 l
203.136 258.455 l
203.281 258.673 l
203.353 258.673 l
203.48 258.826 l
203.535 258.847 l
203.535 258.847 l
203.535 258.847 l
203.68 258.592 l
204.315 257.47 l
204.768 257.533 l
204.896 258.124 l
205.004 258.125 l
205.131 258.712 l
205.442 258.712 l
205.567 259.209 l
205.784 259.156 l
205.91 258.738 l
206.092 258.667 l
206.219 258.613 l
206.328 258.613 l
206.456 258.296 l
206.563 258.161 l
206.581 258.183 l
206.708 258.173 l
206.944 258.282 l
207.089 258.461 l
207.416 258.514 l
207.542 258.606 l
207.906 258.702 l
208.015 258.848 l
208.032 258.842 l
208.268 258.814 l
208.395 258.516 l
208.577 258.515 l
208.685 258.299 l
208.885 258.473 l
208.939 258.473 l
209.066 258.86 l
209.465 258.802 l
209.61 258.446 l
209.719 258.446 l
209.864 258.143 l
209.9 258.143 l
210.027 257.991 l
210.444 258.018 l
210.571 258.249 l
210.68 258.282 l
210.698 258.258 l
211.17 258.357 l
211.242 258.503 l
211.297 258.494 l
211.351 258.494 l
211.424 258.68 l
211.478 258.671 l
215.395 258.671 l
215.523 253.571 l
215.541 253.571 l
215.668 253.298 l
215.776 253.298 l
215.903 254.739 l
216.03 256.256 l
216.139 256.256 l
216.266 258.502 l
216.411 259.797 l
216.483 259.797 l
216.61 260.338 l
216.755 260.439 l
216.81 260.572 l
216.864 260.533 l
216.918 260.533 l
217.064 259.932 l
217.1 259.932 l
217.246 258.867 l
217.354 258.853 l
217.481 257.91 l
217.645 257.653 l
217.771 257.063 l
217.898 256.759 l
218.026 256.598 l
218.369 256.653 l
218.498 256.197 l
218.624 256.038 l
218.732 256.152 l
218.859 256.108 l
219.04 256.438 l
219.349 256.495 l
219.512 256.673 l
219.585 256.673 l
219.711 256.809 l
219.82 256.809 l
219.947 257.286 l
220.001 257.389 l
220.056 257.324 l
220.437 257.347 l
220.563 257.679 l
220.854 257.734 l
220.983 257.898 l
221.09 257.933 l
221.216 257.847 l
221.633 257.944 l
221.779 258.029 l
221.815 258.029 l
221.942 257.829 l
222.903 258.808 l
223.066 259.615 l
223.212 259.615 l
223.338 259.994 l
223.574 259.994 l
223.592 260.407 l
223.701 260.402 l
223.828 260.385 l
223.846 260.412 l
223.937 260.412 l
224.064 260.622 l
224.118 260.622 l
224.245 260.073 l
224.3 260.073 l
224.427 259.808 l
224.626 259.042 l
224.717 259.042 l
224.735 258.735 l
224.843 258.747 l
224.988 258.687 l
225.152 258.704 l
225.279 258.997 l
225.388 259.007 l
225.515 259.228 l
225.641 259.107 l
225.805 259.122 l
225.932 258.968 l
226.077 258.653 l
226.095 258.658 l
226.167 258.658 l
226.312 258.277 l
226.349 258.277 l
226.421 257.997 l
226.476 258.02 l
226.839 258.071 l
226.965 258.14 l
227.02 258.181 l
227.056 258.11 l
227.147 258.11 l
227.274 257.966 l
227.346 257.998 l
227.346 257.998 l
227.346 257.998 l
227.419 257.877 l
227.455 257.888 l
227.582 258.057 l
227.673 257.997 l
227.784 258.092 l
227.928 257.747 l
228.061 257.708 l
228.18 257.42 l
228.316 257.317 l
228.435 257.179 l
228.543 257.099 l
228.689 256.008 l
228.779 255.98 l
229.087 256.787 l
229.161 256.787 l
229.287 257.344 l
229.341 257.344 l
229.468 257.591 l
229.504 257.591 l
229.631 257.744 l
229.74 257.688 l
229.867 257.921 l
230.103 257.921 l
230.23 258.411 l
230.248 258.547 l
230.34 258.483 l
230.847 258.518 l
230.973 258.745 l
231.136 258.695 l
231.209 258.695 l
231.354 258.399 l
231.391 258.399 l
231.517 258.04 l
231.572 258.04 l
231.699 257.844 l
231.718 257.844 l
231.862 258.147 l
231.917 258.147 l
232.061 258.472 l
232.17 258.472 l
232.388 259.207 l
232.478 259.207 l
232.605 259.399 l
232.66 259.399 l
232.786 259.577 l
232.968 259.577 l
233.095 259.961 l
233.331 260.05 l
233.457 260.149 l
233.621 260.149 l
233.748 259.695 l
233.802 259.695 l
233.947 258.692 l
234.038 258.692 l
234.166 258.292 l
234.292 257.997 l
234.347 257.917 l
234.401 257.982 l
234.6 258.019 l
234.727 257.646 l
234.89 257.638 l
235.017 257.851 l
235.144 257.86 l
235.289 258.314 l
235.38 258.315 l
235.507 258.741 l
235.561 258.741 l
235.688 259.161 l
235.978 259.456 l
236.106 259.682 l
236.232 259.682 l
236.377 259.439 l
236.54 259.372 l
236.667 259.225 l
236.74 259.225 l
236.795 258.969 l
236.849 259.014 l
236.903 259.014 l
237.03 258.826 l
237.194 258.797 l
237.32 258.513 l
237.484 258.513 l
237.502 258.217 l
237.592 258.436 l
237.737 258.374 l
237.865 258.29 l
238.463 258.198 l
238.59 258.096 l
238.698 258.074 l
238.717 258.103 l
239.043 258.074 l
239.061 258.074 l
239.188 257.799 l
239.297 257.768 l
239.442 258.524 l
239.551 258.524 l
239.678 259.217 l
239.823 259.399 l
240.168 259.335 l
240.294 259.071 l
240.459 259.052 l
240.585 258.487 l
240.766 258.425 l
240.911 258.178 l
241.129 258.095 l
241.238 257.886 l
241.256 257.953 l
241.419 257.946 l
241.546 258.026 l
241.691 258.204 l
241.727 258.204 l
241.854 257.982 l
241.981 257.848 l
242.09 257.891 l
242.271 257.557 l
242.526 257.47 l
242.651 257.161 l
242.706 257.161 l
242.815 257.006 l
242.834 257.028 l
243.069 257.07 l
243.196 257.241 l
243.25 257.241 l
243.377 257.628 l
243.486 257.628 l
243.613 258.202 l
243.668 258.387 l
243.722 258.322 l
243.976 258.245 l
244.103 258.062 l
244.212 258.062 l
244.322 257.52 l
244.342 257.52 l
244.485 257.119 l
244.539 257.119 l
244.665 256.911 l
244.777 256.898 l
244.901 256.55 l
245.029 256.442 l
245.102 256.393 l
245.102 256.393 l
245.102 256.393 l
245.173 256.488 l
245.227 256.471 l
245.246 256.471 l
245.41 256.969 l
245.428 256.969 l
245.575 257.82 l
245.612 257.82 l
245.735 258.328 l
245.88 258.556 l
245.971 258.556 l
246.116 259.221 l
246.315 259.221 l
246.442 259.44 l
246.46 259.44 l
246.587 259.561 l
246.696 259.561 l
246.823 259.786 l
246.95 259.684 l
247.059 259.673 l
247.186 259.084 l
247.385 258.868 l
247.603 258.802 l
247.73 258.639 l
247.929 258.422 l
248.129 258.084 l
248.328 258.058 l
248.438 257.942 l
248.564 257.992 l
248.873 257.781 l
249.436 258.583 l
249.489 258.583 l
249.616 258.432 l
249.67 258.432 l
249.78 258.142 l
249.797 258.159 l
249.87 258.161 l
249.997 257.784 l
250.015 257.784 l
250.16 257.315 l
250.341 257.21 l
250.468 256.765 l
250.523 256.765 l
250.65 256.593 l
250.686 256.593 l
250.831 256.027 l
251.121 255.95 l
251.484 256.023 l
251.611 256.138 l
251.665 256.138 l
251.792 256.855 l
251.828 256.855 l
251.956 256.978 l
252.082 256.968 l
252.209 257.078 l
252.318 257.008 l
252.463 257.261 l
252.499 257.261 l
252.644 257.766 l
252.753 257.766 l
252.88 258.514 l
252.935 258.514 l
253.061 260.063 l
253.17 260.063 l
253.297 260.836 l
253.352 260.836 l
253.479 260.976 l
253.787 260.922 l
254.023 260.579 l
254.168 259.513 l
254.258 259.513 l
254.404 257.999 l
254.44 257.999 l
254.587 256.945 l
254.621 256.945 l
254.748 256.164 l
254.948 255.66 l
255.056 255.61 l
255.201 256.247 l
255.474 256.253 l
255.619 257.12 l
255.709 257.12 l
255.836 257.339 l
256.017 257.322 l
256.163 257.648 l
256.435 257.54 l
256.58 257.252 l
256.853 257.586 l
256.98 257.858 l
257.142 258.18 l
257.16 258.18 l
257.323 258.532 l
257.396 258.532 l
257.541 259.202 l
257.831 259.349 l
257.958 259.168 l
258.194 259.132 l
258.321 258.806 l
258.429 258.793 l
258.557 258.339 l
258.683 258.308 l
258.792 258.335 l
258.919 258.793 l
259.046 259.136 l
259.191 259.23 l
259.318 259.291 l
259.518 259.307 l
259.663 258.995 l
259.771 258.995 l
259.898 258.516 l
259.934 258.516 l
260.08 258.029 l
260.189 258.023 l
260.316 257.643 l
260.443 257.577 l
260.552 257.404 l
260.66 257.5 l
260.732 257.44 l
260.769 257.507 l
261.48 257.435 l
261.64 256.764 l
261.733 256.764 l
261.878 254.41 l
261.971 254.41 l
262.095 249.855 l
262.294 246.434 l
262.448 241.685 l
262.494 241.685 l
262.693 235.593 l
262.711 235.593 l
262.855 226.86 l
262.947 226.86 l
263.092 216.878 l
263.183 216.878 l
263.327 207.022 l
263.417 207.022 l
263.553 199.338 l
263.582 199.338 l
263.743 191.333 l
263.797 191.333 l
263.943 183.121 l
263.979 183.121 l
264.106 178.811 l
264.124 178.811 l
264.251 173.608 l
264.305 173.608 l
264.432 169.414 l
264.559 164.02 l
264.613 164.02 l
264.759 157.005 l
264.777 157.005 l
264.958 153.659 l
265.031 153.659 l
265.176 149.54 l
265.267 149.54 l
265.412 147.109 l
265.593 147.108 l
265.725 145.135 l
265.78 145.135 l
265.903 144.395 l
265.944 144.393 l
266.082 144.144 l
266.173 144.144 l
266.301 142.676 l
266.427 142.676 l
266.572 139.082 l
266.686 139.032 l
266.808 136.303 l
266.826 136.303 l
267.025 133.693 l
267.098 133.693 l
267.243 130.746 l
267.262 130.746 l
267.406 128.687 l
267.46 128.687 l
267.607 124.284 l
267.697 124.284 l
267.841 120.248 l
267.932 120.248 l
268.077 115.592 l
268.114 115.592 l
268.259 112.623 l
268.295 112.623 l
268.458 109.677 l
268.531 109.677 l
268.694 106.735 l
268.786 106.735 l
268.918 104.634 l
268.986 104.634 l
269.132 103.048 l
269.166 103.048 l
269.311 102.098 l
269.329 102.098 l
269.455 100.908 l
269.51 100.908 l
269.655 99.0435 l
269.764 99.0435 l
269.891 97.0889 l
269.927 97.0889 l
270.072 95.6053 l
270.163 95.6053 l
270.29 94.335 l
270.416 93.705 l
270.471 93.705 l
270.598 93.2707 l
270.652 93.2707 l
270.779 93.0112 l
270.857 92.9357 l
271.015 92.6315 l
271.272 92.4444 l
271.415 91.8525 l
271.561 91.7287 l
271.669 91.7653 l
271.867 92.2256 l
271.922 92.2256 l
272.049 92.9868 l
272.105 92.9868 l
272.23 93.4433 l
272.357 93.8624 l
272.466 93.8624 l
272.593 94.617 l
272.611 94.617 l
272.738 95.3214 l
272.793 95.3214 l
272.922 95.9946 l
273.012 95.997 l
273.155 96.6465 l
273.5 98.071 l
273.608 99.4436 l
273.919 101.983 l
273.938 101.983 l
274.061 103.973 l
274.099 103.973 l
274.245 105.931 l
274.751 107.837 l
274.769 107.837 l
274.933 107.198 l
274.95 107.198 l
275.096 106.453 l
275.132 106.453 l
275.277 103.987 l
275.386 103.987 l
275.531 100.453 l
275.621 100.453 l
275.767 96.6009 l
275.803 96.6009 l
276.003 93.69 l
276.039 93.69 l
276.165 91.2806 l
276.274 89.4664 l
276.312 89.4664 l
276.43 87.855 l
276.491 87.7866 l
276.607 86.9032 l
276.728 85.9867 l
276.836 85.9867 l
276.964 85.662 l
277.126 87.1188 l
277.199 87.1188 l
277.344 88.9525 l
277.435 89.0154 l
277.58 91.0585 l
277.616 91.0902 l
277.779 92.607 l
277.86 92.607 l
277.979 93.2443 l
278.124 94.3196 l
278.215 94.3196 l
278.342 94.9644 l
278.487 95.9901 l
278.65 96.0688 l
278.777 96.8189 l
278.94 96.8189 l
279.067 97.3587 l
279.122 97.3587 l
279.249 97.6591 l
279.375 97.8924 l
279.43 97.8924 l
279.557 98.3404 l
279.611 98.3404 l
279.738 99.0193 l
279.792 99.0193 l
279.919 99.6014 l
280.082 100.496 l
280.155 100.496 l
280.301 101.175 l
280.336 101.175 l
280.464 101.326 l
280.681 101.387 l
280.935 101.285 l
281.062 101.035 l
281.208 100.541 l
281.262 100.432 l
281.497 99.8098 l
281.552 99.8098 l
281.715 99.3373 l
281.787 99.3373 l
281.914 99.1252 l
281.933 99.1252 l
282.077 98.5912 l
282.114 98.4806 l
282.277 98.2908 l
282.404 97.4755 l
282.458 97.4755 l
282.567 96.8468 l
282.64 96.8468 l
282.676 96.0012 l
282.877 96.0012 l
283.002 94.6339 l
283.129 93.6725 l
283.238 93.6557 l
283.365 93.1936 l
283.474 92.9916 l
283.619 93.2814 l
283.728 93.2814 l
283.873 93.8335 l
283.909 93.8335 l
284.036 94.1636 l
284.344 94.1795 l
284.472 94.438 l
285.124 96.1547 l
285.179 96.1547 l
285.36 95.6795 l
285.396 95.5774 l
285.487 95.5397 l
285.614 94.9332 l
285.723 94.9332 l
285.85 93.8994 l
286.013 92.7116 l
286.049 92.7116 l
286.177 92.3513 l
286.521 92.4104 l
286.703 93.0745 l
286.937 93.0745 l
287.065 94.3217 l
287.192 94.9538 l
287.3 94.9538 l
287.427 96.032 l
287.79 95.9962 l
287.901 95.8745 l
287.972 96.0125 l
288.007 95.9286 l
288.026 95.9286 l
288.153 95.6894 l
288.335 95.6694 l
288.479 95.1149 l
288.57 95.1149 l
288.715 94.8555 l
288.933 94.8691 l
289.059 95.3141 l
289.114 95.3141 l
289.259 95.5873 l
289.35 95.5873 l
289.495 96.1712 l
289.604 96.1712 l
289.73 97.1754 l
290.241 98.1542 l
290.281 98.0798 l
290.602 97.9146 l
290.639 97.9146 l
290.766 97.3244 l
290.806 97.3244 l
290.928 97.0997 l
290.946 97.0997 l
291.127 96.3134 l
291.181 96.3134 l
291.314 95.815 l
291.363 95.815 l
291.49 95.0911 l
291.725 94.9923 l
291.856 94.7141 l
291.943 94.6584 l
292.124 94.401 l
292.288 94.6236 l
292.451 94.6001 l
292.614 94.2176 l
292.705 94.2176 l
292.814 94.4055 l
292.922 94.3716 l
293.054 94.4182 l
293.176 94.37 l
293.285 94.374 l
293.466 94.8283 l
293.521 94.8283 l
293.648 94.9727 l
293.72 95.0836 l
293.775 95.0451 l
293.847 95.0451 l
293.976 95.1903 l
294.159 95.2875 l
294.301 95.5657 l
294.663 95.4682 l
294.826 95.0426 l
294.917 95.0402 l
295.044 94.6553 l
295.244 94.4744 l
295.262 94.4917 l
295.461 94.405 l
295.624 94.1554 l
295.715 94.1554 l
295.842 93.828 l
296.132 93.6279 l
296.277 94.0063 l
296.459 94.0088 l
296.587 94.3075 l
296.676 94.3075 l
296.803 94.6918 l
296.876 94.6918 l
297.003 95.0526 l
297.021 95.0423 l
297.366 94.9357 l
297.565 94.9489 l
297.964 95.0442 l
298.091 95.4035 l
298.254 95.4173 l
298.381 95.3093 l
298.617 95.2849 l
298.762 95.0116 l
299.161 94.9254 l
299.324 94.8474 l
299.652 94.791 l
299.795 94.6768 l
300.448 94.7458 l
300.794 94.6338 l
300.947 94.4591 l
301.101 94.3682 l
301.301 94.2266 l
301.409 94.2236 l
301.536 94.3991 l
301.827 94.4504 l
301.99 94.8306 l
302.86 94.8142 l
302.99 94.5679 l
303.241 94.5416 l
303.513 94.5374 l
303.658 94.7923 l
303.695 94.8178 l
303.822 94.9583 l
304.184 94.8797 l
304.329 94.6728 l
304.548 94.6667 l
304.692 94.9508 l
304.784 94.9508 l
304.91 95.2491 l
305.091 95.2954 l
305.2 95.3825 l
305.327 95.3574 l
305.472 95.3247 l
305.58 95.3247 l
305.689 95.0813 l
305.708 95.1314 l
305.798 95.0959 l
305.816 95.0959 l
305.943 94.9311 l
306.052 94.8486 l
306.07 94.8638 l
306.36 94.9909 l
306.524 94.8284 l
306.542 94.8284 l
306.687 94.1422 l
306.778 94.1396 l
306.904 94.3881 l
307.086 93.9995 l
307.14 93.9995 l
307.267 93.3066 l
307.322 93.3066 l
307.448 92.9604 l
307.521 92.9144 l
307.575 92.9382 l
307.63 92.9382 l
307.756 93.5213 l
307.811 93.5213 l
307.974 94.0326 l
307.993 94.0326 l
308.137 94.2769 l
308.174 94.2769 l
308.3 94.5587 l
308.355 94.5587 l
308.482 94.9455 l
308.645 95.3699 l
308.899 95.4583 l
309.062 95.8182 l
309.081 95.8134 l
309.208 95.8849 l
309.334 96.1498 l
309.699 96.2362 l
309.824 95.9112 l
310.115 95.9344 l
310.242 96.075 l
310.423 95.9796 l
310.586 96.2442 l
311.021 96.2759 l
311.149 96.382 l
311.366 96.6656 l
311.384 96.6656 l
311.511 96.543 l
311.656 96.6911 l
311.819 96.6272 l
311.873 96.6272 l
312.001 96.2217 l
312.127 95.8733 l
312.274 95.6033 l
312.363 95.6033 l
312.49 95.4558 l
312.708 95.2137 l
313.215 95.1622 l
313.342 95.0016 l
313.397 95.0262 l
313.451 94.9917 l
313.759 94.9468 l
313.904 94.7541 l
313.941 94.7541 l
314.05 94.4969 l
314.231 94.6153 l
314.267 94.5332 l
314.358 94.5332 l
314.521 93.8442 l
314.612 93.8233 l
314.739 93.3237 l
314.921 93.373 l
315.036 93.528 l
315.158 93.3967 l
315.267 93.285 l
315.286 93.2962 l
315.432 93.3748 l
315.468 93.3748 l
315.592 93.5702 l
315.664 93.5702 l
315.828 94.1343 l
315.9 94.1343 l
316.027 94.4113 l
316.066 94.4113 l
316.135 94.5876 l
316.189 94.5696 l
316.244 94.573 l
316.335 94.7164 l
316.371 94.7117 l
316.552 94.0297 l
316.588 94.0297 l
316.715 93.673 l
316.897 92.6547 l
316.951 92.6547 l
317.079 92.0759 l
317.223 91.4197 l
317.315 91.4197 l
317.441 91.0493 l
317.55 91.1217 l
317.713 91.5297 l
317.803 91.5297 l
317.949 92.4481 l
318.039 92.4648 l
318.185 94.0787 l
318.22 94.0787 l
318.42 95.1889 l
318.456 95.1889 l
318.583 96.012 l
318.71 96.8705 l
318.765 96.8705 l
318.892 97.3968 l
318.946 97.7721 l
319 97.7447 l
319.145 97.7516 l
319.327 97.2512 l
319.436 97.2512 l
319.581 96.879 l
319.617 96.879 l
319.762 96.4691 l
319.853 96.4602 l
319.98 96.254 l
320.108 96.0908 l
320.288 95.7977 l
320.343 95.7977 l
320.469 95.6238 l
320.614 95.3272 l
320.705 95.3272 l
320.85 94.665 l
320.944 94.665 l
321.068 94.3249 l
321.195 94.1041 l
321.249 93.9894 l
321.304 94.0343 l
321.43 94.1012 l
321.557 94.2856 l
321.684 94.4234 l
321.702 94.414 l
321.829 94.414 l
321.956 94.703 l
321.975 94.703 l
322.102 94.9393 l
322.156 94.9393 l
322.301 95.2051 l
322.392 95.2051 l
322.537 95.8348 l
322.664 95.9451 l
322.882 96.0657 l
323.026 96.3035 l
323.117 96.3052 l
323.244 96.4508 l
323.425 96.7519 l
323.607 96.6888 l
323.628 96.8769 l
323.733 96.842 l
323.915 96.9014 l
324.06 97.1741 l
324.405 97.1793 l
324.55 96.8703 l
324.713 96.7759 l
324.84 96.1685 l
324.949 96.1155 l
325.076 95.8279 l
325.13 95.8279 l
325.257 95.4814 l
325.529 95.1854 l
325.547 95.1854 l
325.675 94.8206 l
325.819 94.4105 l
326.037 94.4809 l
326.207 94.6303 l
326.273 94.7214 l
326.4 94.7409 l
326.635 94.7757 l
326.708 94.9714 l
326.744 94.9127 l
326.817 94.9127 l
326.943 95.1292 l
327.125 95.441 l
327.18 95.441 l
327.306 95.712 l
327.597 95.7587 l
327.723 95.8804 l
327.85 95.8914 l
327.868 95.8428 l
328.213 95.7627 l
328.34 95.5943 l
328.486 95.3135 l
328.631 95.2513 l
328.793 94.9916 l
328.811 94.9916 l
328.957 94.5393 l
328.993 94.5393 l
329.156 93.805 l
329.483 93.7231 l
329.591 93.5518 l
329.609 93.5552 l
329.773 93.617 l
329.918 93.7731 l
330.045 93.8724 l
330.189 94.0513 l
330.262 94.0513 l
330.389 93.9224 l
330.444 94.0683 l
330.498 93.9568 l
330.879 93.9486 l
331.006 94.1707 l
331.115 94.1677 l
331.26 94.6086 l
331.351 94.6086 l
331.369 94.8311 l
331.477 94.8218 l
331.876 95.1485 l
332.257 95.2575 l
332.275 95.3806 l
332.366 95.3528 l
332.384 95.3528 l
332.529 94.9945 l
332.62 94.9865 l
332.783 94.481 l
332.874 94.481 l
333.001 94.1714 l
333.057 94.1082 l
333.109 94.1769 l
333.164 94.1769 l
333.309 94.4173 l
333.69 94.6314 l
333.962 94.5911 l
334.089 94.3501 l
334.107 94.3829 l
334.198 94.3829 l
334.324 94.5384 l
334.379 94.5384 l
334.506 94.9937 l
334.56 94.9937 l
334.687 95.3905 l
334.832 95.8501 l
335.05 95.9551 l
335.177 96.1222 l
335.195 96.1943 l
335.231 96.1828 l
335.231 96.1828 l
335.394 95.76 l
335.594 95.662 l
335.666 95.6248 l
335.811 95.0077 l
335.884 95.0077 l
336.011 94.6887 l
336.156 94.7116 l
336.301 94.0631 l
336.374 94.0631 l
336.501 94.2199 l
336.664 93.9885 l
336.936 94.0445 l
337.045 94.1075 l
337.153 94.0745 l
337.552 94.5999 l
337.589 94.5999 l
337.716 94.9104 l
337.97 94.8102 l
338.151 94.647 l
338.187 94.647 l
338.315 94.5338 l
338.459 94.6853 l
338.622 94.7737 l
338.768 95.1056 l
338.858 95.1067 l
339.003 95.724 l
339.348 96.3686 l
339.475 96.6596 l
339.62 96.5994 l
339.819 96.6092 l
339.946 96.7746 l
340.074 96.6409 l
340.236 96.7218 l
340.853 96.6448 l
340.998 96.4059 l
341.161 96.3447 l
341.343 95.8243 l
341.398 95.8243 l
341.524 95.5453 l
341.651 95.1578 l
341.76 95.1406 l
341.888 94.7712 l
342.014 94.4369 l
342.159 94.3292 l
342.249 94.3292 l
342.377 94.4628 l
342.485 94.5442 l
342.613 94.4526 l
342.757 94.3838 l
342.975 94.4552 l
343.102 94.7234 l
343.247 94.9914 l
343.591 94.9641 l
343.736 94.8076 l
343.954 94.7132 l
344.154 94.5735 l
344.19 94.5735 l
344.317 94.4595 l
344.371 94.4595 l
344.48 94.3089 l
344.498 94.3285 l
344.734 94.0062 l
344.77 94.1588 l
344.843 94.1588 l
344.969 93.8232 l
345.024 93.8232 l
345.169 93.3568 l
345.26 93.3568 l
345.387 92.8207 l
345.514 92.7289 l
345.659 91.9703 l
345.695 91.9703 l
345.822 91.7309 l
345.967 92.3816 l
346.058 92.396 l
346.186 93.0283 l
346.205 93.0283 l
346.499 94.9937 l
346.556 94.9937 l
346.665 95.4683 l
346.696 95.4683 l
346.806 95.8355 l
346.824 95.8317 l
346.875 95.8317 l
346.933 95.9735 l
346.984 95.907 l
347.2 95.9152 l
347.328 95.5728 l
347.473 95.5556 l
347.635 95.7536 l
348.125 95.8551 l
348.198 95.9493 l
348.234 95.9194 l
348.288 95.9194 l
348.415 95.7376 l
348.488 95.597 l
348.542 95.6115 l
348.724 95.5807 l
348.851 95.3086 l
348.996 95.3802 l
349.213 95.3359 l
349.341 94.9952 l
349.449 94.9955 l
349.576 95.3778 l
349.812 95.4274 l
349.993 95.9907 l
350.047 95.9907 l
350.174 96.3081 l
350.356 96.4074 l
350.501 96.8334 l
350.556 96.8334 l
350.682 97.1593 l
350.775 97.1642 l
350.9 97.7549 l
350.955 97.7549 l
351.081 98.0175 l
351.136 98.1218 l
351.208 98.1085 l
351.263 98.1085 l
351.39 97.9856 l
351.571 97.9959 l
351.734 97.6273 l
351.752 97.6273 l
351.879 97.1016 l
351.934 97.1016 l
352.06 96.7579 l
352.188 96.5589 l
352.387 96.4647 l
352.423 96.4647 l
352.568 96.1122 l
352.659 96.1122 l
352.786 95.6781 l
352.931 95.6062 l
353.076 95.5026 l
353.221 95.1923 l
353.33 95.1923 l
353.457 94.8509 l
353.693 94.7543 l
353.802 94.4708 l
353.82 94.4987 l
354.473 94.4894 l
354.545 94.3393 l
354.599 94.3534 l
354.962 94.3623 l
355.089 94.0602 l
356.231 93.1351 l
356.286 93.1351 l
356.413 92.9208 l
356.522 92.9643 l
356.558 92.9334 l
356.776 92.9467 l
356.921 93.2337 l
357.011 93.2324 l
357.156 93.6519 l
357.211 93.6519 l
357.356 94.6677 l
357.374 94.6677 l
357.501 94.8499 l
358.208 96.2919 l
358.245 96.2016 l
358.462 96.2016 l
358.589 95.7564 l
358.716 95.546 l
359.188 95.2244 l
359.314 95.2945 l
359.569 95.2437 l
359.623 95.0725 l
359.677 95.0921 l
359.75 95.1015 l
359.895 94.7889 l
359.967 94.7889 l
360.13 94.0973 l
360.403 93.9867 l
360.548 93.4493 l
360.893 93.5138 l
361.019 93.6942 l
361.074 93.6999 l
361.201 93.8072 l
361.527 93.8748 l
361.545 93.8748 l
361.672 93.6287 l
361.817 93.4258 l
361.999 93.4338 l
362.107 93.3115 l
362.289 93.7259 l
362.398 93.7248 l
362.524 93.8787 l
362.706 93.8759 l
362.851 94.3115 l
362.996 94.3974 l
363.141 95.3907 l
363.195 95.397 l
363.358 96.1253 l
363.431 96.1253 l
363.576 97.2206 l
363.667 97.2206 l
363.794 97.5901 l
363.921 97.7911 l
364.048 97.2115 l
364.175 97.1848 l
364.294 96.7896 l
364.306 96.7896 l
364.356 96.0896 l
364.493 95.9644 l
364.611 95.4451 l
364.721 95.4204 l
364.85 94.6974 l
364.955 94.6332 l
365.1 94.4585 l
365.245 94.3974 l
365.372 94.2851 l
365.97 94.2451 l
366.097 94.882 l
366.152 94.882 l
366.297 95.5606 l
366.387 95.5606 l
366.532 95.7958 l
366.642 95.7958 l
366.768 95.9329 l
367.004 96.0678 l
367.149 96.4098 l
367.24 96.4098 l
367.312 96.6397 l
367.348 96.5426 l
367.421 96.5426 l
367.548 96.6671 l
367.656 96.684 l
367.783 96.4923 l
367.91 96.6318 l
368.037 96.7419 l
368.146 96.6517 l
368.273 96.6913 l
368.291 97.0073 l
368.4 96.9822 l
368.527 97.3364 l
368.744 97.4061 l
368.763 97.5681 l
368.871 97.541 l
368.982 97.6173 l
369.107 97.3874 l
369.162 97.3874 l
369.343 96.9416 l
369.434 96.9416 l
369.561 96.2743 l
369.67 96.1701 l
369.851 95.9165 l
370.685 95.9925 l
370.812 96.1103 l
370.921 96.0332 l
370.939 96.0472 l
371.175 96.2656 l
371.283 96.2059 l
371.411 96.4197 l
371.846 96.6899 l
371.954 96.538 l
371.973 96.5673 l
372.136 96.5328 l
372.263 96.3218 l
372.445 96.2256 l
372.589 95.9386 l
372.608 95.9534 l
372.699 95.9565 l
372.827 95.7215 l
373.061 95.6107 l
373.17 95.3097 l
373.19 95.3126 l
373.315 95.2932 l
373.442 94.8241 l
373.569 94.8759 l
373.659 94.6955 l
373.696 94.7221 l
373.895 94.7783 l
374.04 94.9411 l
374.077 94.9411 l
374.095 94.7831 l
374.185 94.8438 l
374.457 94.7688 l
374.584 94.45 l
374.602 94.4643 l
374.82 94.5181 l
374.929 94.6086 l
375.056 94.4247 l
375.11 94.4247 l
375.237 94.1339 l
375.364 93.7541 l
375.382 93.7803 l
376.018 93.8201 l
376.144 93.9612 l
376.271 93.954 l
376.397 93.8898 l
376.507 93.8898 l
376.633 93.7632 l
376.688 93.7723 l
376.724 93.7004 l
376.924 93.7977 l
377.087 93.9924 l
377.467 94.0226 l
377.613 94.362 l
377.903 94.4212 l
378.03 94.351 l
378.139 94.3536 l
378.266 94.5013 l
378.411 94.7136 l
378.502 94.7136 l
378.646 95.0535 l
378.937 95.2553 l
379.173 95.3116 l
379.335 95.539 l
379.408 95.539 l
379.553 95.8167 l
380.588 95.8095 l
380.679 95.9173 l
380.859 95.27 l
380.932 95.2613 l
381.059 95.0817 l
381.185 94.9915 l
381.221 94.9915 l
381.385 94.4166 l
381.475 94.4166 l
381.62 93.7117 l
381.766 93.62 l
381.893 93.434 l
381.948 93.4993 l
382.001 93.4377 l
382.094 93.5376 l
382.509 94.0879 l
382.865 94.6197 l
383.01 94.5618 l
383.585 94.6108 l
383.664 95.0847 l
384.093 95.3616 l
384.099 95.3616 l
384.461 96.1676 l
384.533 96.1676 l
384.753 96.4145 l
384.968 96.5173 l
385.108 96.5452 l
385.114 96.5128 l
385.186 96.5128 l
385.333 96.3421 l
385.405 96.2674 l
385.621 95.4761 l
385.767 95.3709 l
385.988 94.6096 l
386.202 94.328 l
386.927 96.517 l
387 96.4541 l
387.075 96.4088 l
387.217 96.007 l
387.437 95.6465 l
387.726 95.4597 l
388.016 95.0236 l
388.204 94.8179 l
388.24 94.8179 l
388.366 94.2459 l
388.421 94.2459 l
388.548 93.6888 l
388.603 93.6888 l
388.752 93.3152 l
389.328 93.4094 l
389.455 93.5161 l
389.527 93.6216 l
390.289 94.0889 l
390.416 93.9609 l
390.579 94.0694 l
390.724 93.979 l
390.833 93.9066 l
390.96 94.2737 l
390.978 94.2737 l
391.105 95.007 l
391.142 95.0189 l
391.287 95.3393 l
391.379 95.3393 l
391.504 95.5887 l
391.629 95.6753 l
392.048 95.6288 l
392.194 95.1767 l
392.429 95.2873 l
392.719 95.3559 l
392.846 95.4422 l
392.901 95.4313 l
393.027 95.5997 l
393.082 95.5997 l
393.209 95.8342 l
393.264 95.8342 l
393.426 96.4189 l
393.825 96.3152 l
393.898 96.7466 l
393.954 96.7424 l
393.989 96.7424 l
394.115 96.9429 l
394.244 96.8185 l
394.351 96.8341 l
394.496 96.6818 l
394.587 96.6818 l
394.714 96.5479 l
394.914 96.511 l
395.023 96.4954 l
395.168 96.5963 l
395.494 96.6351 l
395.621 96.735 l
395.748 96.6534 l
395.766 96.6932 l
395.858 96.6491 l
396.167 96.6273 l
396.31 96.0338 l
396.419 96.0338 l
396.546 95.3873 l
396.655 95.3869 l
396.673 95.1363 l
396.782 95.1457 l
396.89 95.0237 l
396.909 95.0354 l
397.017 95.0715 l
397.144 94.9267 l
397.398 94.7572 l
397.634 94.7013 l
397.688 94.5686 l
397.742 94.6126 l
397.924 94.5284 l
398.069 95.0504 l
398.16 95.0508 l
398.305 95.5094 l
398.414 95.5165 l
398.541 95.893 l
398.686 96.2762 l
398.74 96.1732 l
398.957 96.0052 l
399.103 95.57 l
399.139 95.57 l
399.266 94.8293 l
399.32 94.8293 l
399.448 93.8834 l
399.593 93.302 l
399.683 93.302 l
399.828 92.739 l
400.173 92.6373 l
400.409 92.5202 l
400.571 93.2183 l
400.609 93.2183 l
400.662 93.4929 l
401.334 96.3875 l
401.388 96.3875 l
401.497 96.5246 l
401.515 96.518 l
401.569 96.518 l
401.696 96.3046 l
401.861 96.2704 l
401.932 96.2704 l
402.059 96.4032 l
402.53 96.4393 l
402.548 96.267 l
402.639 96.3277 l
402.82 96.292 l
402.966 95.861 l
403.074 95.8587 l
403.183 95.6223 l
403.31 95.6566 l
403.655 95.2933 l
403.673 95.2933 l
403.691 95.149 l
403.781 95.2202 l
403.8 95.2202 l
403.926 95.4226 l
404.035 95.3908 l
404.184 95.2486 l
404.271 95.1825 l
404.398 95.0589 l
404.526 95.0151 l
404.635 95.301 l
404.653 95.2759 l
404.797 95.3744 l
405.069 95.3495 l
405.196 94.8855 l
405.378 94.2052 l
405.54 93.5614 l
405.613 93.5614 l
405.743 93.1071 l
406.212 93.0841 l
406.34 92.9397 l
406.465 93.1649 l
406.574 93.1933 l
406.719 94.1626 l
407.011 94.5859 l
407.155 95.3121 l
407.245 95.3121 l
407.372 95.8338 l
407.535 95.978 l
407.608 95.978 l
407.735 96.1375 l
407.845 96.2439 l
407.989 95.7634 l
408.098 95.7541 l
408.243 95.107 l
408.279 95.107 l
408.442 94.685 l
408.515 94.685 l
408.678 94.17 l
409.113 93.9721 l
409.24 93.8606 l
409.476 93.9517 l
409.494 93.8745 l
409.73 93.8655 l
409.857 93.757 l
409.984 93.374 l
410.328 93.4506 l
410.473 94.0209 l
410.637 94.1202 l
410.782 94.1366 l
410.873 94.1366 l
411.017 94.4872 l
411.108 94.4869 l
411.256 94.9539 l
411.471 95.0221 l
411.598 95.1779 l
411.652 95.262 l
411.706 95.1768 l
412.015 95.1022 l
412.16 94.7604 l
412.269 94.75 l
412.396 94.5271 l
412.432 94.5271 l
412.577 93.9691 l
412.686 93.9507 l
412.813 93.3045 l
412.885 93.3045 l
413.012 92.8188 l
413.121 92.8188 l
413.248 92.5646 l
413.357 92.572 l
413.484 93.1012 l
413.593 93.1035 l
413.719 93.2795 l
414.445 95.3557 l
414.463 95.3557 l
414.59 95.7933 l
414.68 95.8911 l
414.862 96.3204 l
414.916 96.3204 l
415.044 96.6543 l
415.714 96.3044 l
415.769 96.4725 l
415.841 96.4536 l
415.896 96.4536 l
416.041 96.2292 l
416.44 96.2648 l
416.585 96.7181 l
416.621 96.7181 l
416.766 97.3215 l
416.857 97.3309 l
416.984 97.5944 l
417.165 97.6376 l
417.31 97.9272 l
417.474 97.8839 l
417.582 97.8226 l
417.764 97.908 l
417.836 97.908 l
417.945 97.4938 l
417.964 97.5011 l
418.072 97.4973 l
418.217 97.0109 l
418.326 96.7805 l
418.58 96.5546 l
418.797 96.5822 l
418.938 96.4 l
419.01 96.0718 l
419.078 96.0718 l
419.158 95.6872 l
419.512 95.1262 l
419.592 95.0571 l
419.756 94.8429 l
419.815 94.8404 l
420.02 94.5062 l
420.238 94.8552 l
420.316 94.7693 l
420.601 95.281 l
420.747 95.1941 l
421.181 94.8675 l
421.466 94.4088 l
421.689 94.3567 l
421.832 94.2938 l
421.836 94.2992 l
422.272 94.4548 l
422.414 94.3877 l
422.707 94.4486 l
422.922 94.7822 l
423.005 94.6915 l
423.14 94.8535 l
423.292 94.8215 l
423.43 94.9209 l
423.502 94.9209 l
423.937 95.7779 l
424.011 95.7779 l
424.155 96.0417 l
424.445 96.0004 l
424.808 95.1457 l
424.881 95.1457 l
425.097 94.5988 l
425.389 94.6555 l
425.678 94.3693 l
425.896 94.3304 l
426.186 93.971 l
426.55 94.0645 l
426.766 94.6657 l
426.841 94.6657 l
427.129 95.1439 l
427.201 95.1439 l
427.489 95.4839 l
427.782 95.4133 l
428.001 95.2809 l
428.072 95.2809 l
428.364 94.5773 l
428.508 94.4701 l
428.725 94.1923 l
429.015 94.1198 l
429.232 93.8382 l
429.387 93.981 l
429.523 94.0014 l
429.74 94.5566 l
429.885 94.6638 l
430.03 94.7123 l
430.32 94.6301 l
430.54 94.5229 l
431.046 94.1114 l
431.193 94.2032 l
431.337 94.0407 l
431.407 94.0385 l
431.554 93.7671 l
431.628 93.7671 l
431.771 93.3425 l
431.917 93.3625 l
431.99 93.5558 l
432.062 93.4591 l
432.134 93.4996 l
432.279 93.7057 l
432.715 94.0344 l
432.859 93.901 l
432.933 93.8967 l
433.077 93.78 l
433.223 94.1421 l
433.296 94.1421 l
433.522 94.753 l
433.6 94.753 l
433.736 95.0543 l
433.95 95.3258 l
434.02 95.2883 l
434.238 95.4801 l
434.39 95.496 l
434.533 95.6833 l
434.67 95.6027 l
434.81 95.128 l
442.872 95.128 l
443.02 98.3844 l
443.09 98.5372 l
443.663 97.4379 l
443.669 97.4379 l
443.959 96.2588 l
444.034 96.2098 l
444.24 95.2114 l
444.249 95.2241 l
444.467 95.0164 l
444.612 95.0194 l
445.038 96.2371 l
445.12 96.2371 l
445.266 96.406 l
445.485 96.3417 l
445.554 96.1893 l
445.7 96.5253 l
446.561 94.5646 l
447.733 94.609 l
447.948 94.9761 l
448.094 94.9846 l
448.302 94.103 l
448.312 94.103 l
448.592 93.7795 l
448.6 93.791 l
448.675 93.8742 l
449.109 94.5832 l
449.254 94.6509 l
449.404 94.8361 l
449.618 95.0365 l
449.832 95.6209 l
449.835 95.6209 l
449.989 95.7522 l
450.197 95.5489 l
450.273 95.5489 l
450.487 94.9823 l
450.64 94.9421 l
450.777 94.5704 l
450.851 94.5704 l
450.999 94.3793 l
451.215 94.7268 l
451.43 94.7027 l
451.576 94.8687 l
451.725 94.7655 l
451.793 94.8459 l
451.864 94.7397 l
451.941 94.8095 l
452.155 94.8247 l
452.306 94.7416 l
452.519 94.6529 l
452.736 94.3339 l
452.881 94.3062 l
452.954 94.1924 l
453.099 93.4844 l
453.244 93.4683 l
453.679 94.2259 l
453.751 94.2196 l
453.897 94.3892 l
454.188 94.551 l
454.406 94.2465 l
454.619 94.1531 l
454.839 94.043 l
454.985 93.9625 l
455.229 94.0432 l
455.43 94.6374 l
455.494 94.6473 l
455.612 94.9538 l
455.63 94.9538 l
455.776 95.7027 l
455.817 95.7027 l
455.958 96.0136 l
456.029 96.0136 l
456.173 96.4416 l
456.264 96.4237 l
456.391 96.6062 l
456.446 96.6062 l
456.591 95.9162 l
456.683 95.9162 l
456.809 95.0411 l
456.846 95.0411 l
456.989 93.7019 l
457.062 93.6849 l
457.189 92.2165 l
457.244 92.2165 l
457.372 91.1968 l
457.479 91.1968 l
457.606 90.5724 l
457.661 90.5724 l
457.77 90.3683 l
457.914 90.7299 l
457.951 90.7299 l
458.078 90.8845 l
458.241 91.1213 l
458.259 91.1213 l
458.386 91.8382 l
458.441 91.8382 l
458.567 92.2149 l
458.622 92.2149 l
458.767 92.4729 l
458.803 92.4729 l
458.948 92.8257 l
459.057 92.9101 l
459.22 93.3048 l
459.293 93.3048 l
459.438 93.7561 l
459.601 93.8461 l
459.729 94.2283 l
459.786 94.2283 l
459.911 94.6736 l
460.072 94.885 l
460.2 95.1163 l
460.382 95.1759 l
460.508 95.5731 l
460.653 96.1952 l
460.798 96.3333 l
460.943 97.2584 l
461.053 97.2584 l
461.179 97.7524 l
461.451 98.2325 l
461.469 98.2325 l
461.632 98.6298 l
461.723 98.525 l
461.832 98.5039 l
461.959 98.1609 l
462.086 97.8099 l
462.103 97.846 l
462.212 97.846 l
462.267 97.9755 l
462.339 97.9514 l
462.376 97.9514 l
462.557 98.5118 l
462.612 98.5118 l
462.738 99.1432 l
462.865 99.1472 l
462.992 98.9164 l
463.047 98.9164 l
463.174 98.7286 l
463.355 98.2049 l
463.464 98.2042 l
463.591 98.3086 l
463.754 97.5337 l
463.827 97.5337 l
463.972 97.2724 l
464.062 97.2698 l
464.171 97.1096 l
464.372 96.8221 l
464.481 97.0966 l
464.662 96.6569 l
464.698 96.6569 l
464.824 96.345 l
464.915 96.345 l
465.042 96.1792 l
465.062 96.1792 l
465.204 95.6681 l
465.223 95.6681 l
465.368 95.0842 l
465.459 95.0842 l
465.588 94.9532 l
465.716 94.8529 l
465.768 94.8635 l
465.803 94.7947 l
465.948 94.6962 l
466.076 94.6715 l
466.184 94.7764 l
466.347 95.0126 l
466.492 95.1161 l
466.619 95.3701 l
466.753 95.515 l
466.765 95.464 l
466.841 95.4881 l
466.982 96.2111 l
467.218 96.1829 l
467.345 95.5091 l
467.454 95.5102 l
467.599 96.2423 l
467.635 96.2423 l
467.762 96.7311 l
467.816 96.7311 l
467.943 97.3667 l
467.998 97.3631 l
468.142 97.6385 l
468.614 97.6031 l
468.705 97.4362 l
468.741 97.4483 l
468.777 97.4483 l
468.941 97.8271 l
468.977 97.8271 l
469.122 98.7412 l
469.158 98.7551 l
469.303 99.7956 l
469.339 99.7956 l
469.503 100.406 l
469.614 100.406 l
469.739 100.967 l
469.992 100.863 l
470.155 99.9113 l
470.228 99.9113 l
470.373 98.2814 l
470.482 97.7745 l
470.627 96.4281 l
470.682 96.4011 l
470.863 95.2027 l
470.899 95.2027 l
471.044 93.0476 l
471.08 93.0476 l
471.262 91.4792 l
471.334 91.4792 l
471.462 90.3915 l
471.57 90.3448 l
471.715 88.8886 l
471.933 88.0739 l
471.951 88.0799 l
472.06 88.0799 l
472.187 88.2335 l
472.241 88.2205 l
472.423 88.8078 l
472.477 88.8078 l
472.604 90.1327 l
472.749 90.9206 l
472.84 90.9206 l
472.985 92.4864 l
473.554 94.7563 l
473.565 94.7563 l
473.692 94.9016 l
473.874 94.6595 l
473.927 94.6595 l
474.058 94.4028 l
474.073 94.4028 l
474.2 94.1835 l
474.655 94.1607 l
474.78 93.9697 l
474.908 94.3024 l
474.926 94.276 l
475.142 94.3835 l
475.288 94.7189 l
475.36 94.8277 l
475.451 94.8353 l
475.578 95.1532 l
475.814 95.3415 l
475.941 95.7566 l
476.049 95.7587 l
476.195 96.1087 l
476.285 96.1148 l
476.412 96.3219 l
476.575 96.1671 l
476.775 96.0606 l
476.903 95.8452 l
476.958 95.8452 l
477.101 95.5056 l
477.138 95.5056 l
477.283 95.03 l
477.373 95.03 l
477.5 94.7778 l
477.627 94.6714 l
477.937 94.7764 l
478.064 94.4815 l
478.117 94.4815 l
478.262 93.9879 l
478.353 93.9879 l
478.479 93.804 l
478.534 93.804 l
478.679 92.9246 l
478.951 92.8582 l
479.114 92.7136 l
479.151 92.7136 l
479.259 92.8371 l
479.386 92.5598 l
479.495 92.5716 l
479.622 92.4367 l
479.768 92.7007 l
479.785 92.6949 l
479.877 92.8024 l
479.985 92.8127 l
480.112 92.7508 l
480.258 93.0365 l
480.293 93.0365 l
480.439 93.6089 l
480.601 93.5967 l
480.728 93.7694 l
480.91 93.8743 l
481.327 94.7525 l
481.49 94.7738 l
481.616 94.9776 l
481.925 95.0848 l
482.034 95.0961 l
482.161 94.9632 l
482.215 95.1606 l
482.288 95.1521 l
482.307 95.1521 l
482.527 95.6396 l
482.941 96.1132 l
482.959 96.1132 l
483.069 95.9129 l
483.195 96.0721 l
483.306 95.8938 l
483.322 95.913 l
483.43 95.913 l
483.576 96.2752 l
483.793 96.2426 l
483.938 95.8519 l
483.974 95.8519 l
484.12 95.4735 l
484.301 95.4166 l
484.428 95.6861 l
484.591 95.7203 l
484.718 95.9206 l
484.954 96.0358 l
485.099 95.6515 l
485.226 95.6188 l
485.318 95.6723 l
485.443 95.5913 l
485.734 95.5318 l
485.806 95.3909 l
485.86 95.4051 l
485.951 95.3331 l
486.078 94.9771 l
486.278 94.8504 l
486.296 94.9697 l
486.477 95.1936 l
486.531 95.2768 l
487.13 96.0839 l
487.565 95.4572 l
487.613 95.6192 l
487.91 95.6072 l
488.055 95.8481 l
488.091 95.8481 l
488.236 96.1485 l
488.654 96.1937 l
488.798 96.5057 l
488.944 96.51 l
489.07 96.9271 l
489.197 97.0048 l
489.342 97.2894 l
489.379 97.2894 l
489.397 97.1756 l
489.451 97.2975 l
489.451 97.2975 l
489.542 97.3413 l
489.687 97.2112 l
489.796 97.1996 l
489.926 96.8204 l
490.158 96.3405 l
490.213 96.3405 l
490.376 95.7403 l
490.449 95.7403 l
490.575 95.2968 l
490.63 95.2968 l
490.757 95.0152 l
490.993 94.8949 l
491.138 94.4782 l
491.664 94.6789 l
491.827 94.8461 l
491.99 94.7773 l
492.045 94.7331 l
492.099 94.7803 l
492.353 95.3022 l
492.661 95.1972 l
492.752 95.1794 l
492.897 95.3855 l
493.025 95.3855 l
493.084 95.6203 l
493.151 95.5645 l
493.296 95.6084 l
493.424 95.5589 l
493.535 95.5817 l
493.551 95.5351 l
493.771 95.4948 l
493.787 95.4948 l
493.932 96.1043 l
494.021 96.1121 l
494.148 96.5174 l
494.203 96.5174 l
494.275 96.6358 l
494.312 96.6084 l
494.384 96.6084 l
494.511 96.8948 l
494.62 96.8914 l
494.692 97.0355 l
494.728 96.9879 l
494.801 96.9879 l
494.928 96.7832 l
495.109 96.1779 l
495.164 96.1779 l
495.345 94.6679 l
495.364 94.6679 l
495.49 93.4649 l
495.545 93.4649 l
495.671 92.8253 l
495.907 92.7538 l
496.053 93.374 l
496.143 93.374 l
496.288 94.1986 l
496.379 94.2144 l
496.506 94.6417 l
496.651 95.4599 l
496.687 95.4599 l
496.814 95.6827 l
496.869 95.6827 l
496.995 96.1767 l
497.122 96.567 l
497.34 96.6738 l
497.467 97.3213 l
497.648 97.2345 l
497.793 96.6 l
497.903 96.5946 l
498.047 95.8972 l
498.138 95.8972 l
498.265 94.746 l
498.319 94.746 l
498.446 94.4203 l
498.664 93.3337 l
498.682 93.3337 l
498.809 92.8717 l
499.607 92.8637 l
499.752 94.5141 l
499.843 94.5141 l
499.987 96.5744 l
500.078 96.5744 l
500.223 97.9293 l
500.314 97.9293 l
500.441 98.0861 l
500.459 98.0861 l
500.64 97.9607 l
500.749 97.6302 l
500.895 96.0743 l
500.985 96.0743 l
501.112 94.8972 l
501.402 94.2183 l
501.801 98.3997 l
501.892 98.3997 l
502.055 96.1084 l
502.096 96.1084 l
502.218 94.8886 l
502.255 94.8886 l
502.345 94.126 l
502.382 94.1285 l
502.726 94.5516 l
502.853 95.2694 l
502.871 95.2694 l
503.016 97.6524 l
503.088 97.6524 l
503.216 98.7222 l
503.346 98.6792 l
503.488 95.5932 l
503.578 95.5932 l
503.706 94.1326 l
503.724 94.1326 l
503.868 91.383 l
503.887 91.383 l
504.014 88.5048 l
504.213 86.0951 l
504.249 86.0951 l
504.394 84.6881 l
504.485 84.6684 l
504.612 84.1625 l
510.76 84.1625 l
510.76 84.1625 l
stroke
grestore
0.500 setlinewidth
0 setlinecap
[1 3] 0 setdash
0.000 setgray
gsave
453.4 226.6 73.12 40.7 clipbox
73.125 40.6968 m
73.125 267.3 l
stroke
grestore
[] 0 setdash
gsave
/o {
gsave
newpath
translate
0.5 setlinewidth
1 setlinejoin
0 setlinecap
0 0 m
0 4 l
gsave
0.000 setgray
fill
grestore
stroke
grestore
} bind def
73.125 40.6968 o
grestore
gsave
/o {
gsave
newpath
translate
0.5 setlinewidth
1 setlinejoin
0 setlinecap
0 0 m
0 -4 l
gsave
0.000 setgray
fill
grestore
stroke
grestore
} bind def
73.125 267.3 o
grestore
/DejaVuSans findfont
12.000 scalefont
setfont
gsave
70.101562 27.618668 translate
0.000000 rotate
0.000000 0.171875 m /zero glyphshow
grestore
[1 3] 0 setdash
gsave
453.4 226.6 73.12 40.7 clipbox
163.8 40.6968 m
163.8 267.3 l
stroke
grestore
[] 0 setdash
gsave
/o {
gsave
newpath
translate
0.5 setlinewidth
1 setlinejoin
0 setlinecap
0 0 m
0 4 l
gsave
0.000 setgray
fill
grestore
stroke
grestore
} bind def
163.8 40.6968 o
grestore
gsave
/o {
gsave
newpath
translate
0.5 setlinewidth
1 setlinejoin
0 setlinecap
0 0 m
0 -4 l
gsave
0.000 setgray
fill
grestore
stroke
grestore
} bind def
163.8 267.3 o
grestore
gsave
157.018750 27.618668 translate
0.000000 rotate
0.000000 0.171875 m /five glyphshow
7.634766 0.171875 m /zero glyphshow
grestore
[1 3] 0 setdash
gsave
453.4 226.6 73.12 40.7 clipbox
254.475 40.6968 m
254.475 267.3 l
stroke
grestore
[] 0 setdash
gsave
/o {
gsave
newpath
translate
0.5 setlinewidth
1 setlinejoin
0 setlinecap
0 0 m
0 4 l
gsave
0.000 setgray
fill
grestore
stroke
grestore
} bind def
254.475 40.6968 o
grestore
gsave
/o {
gsave
newpath
translate
0.5 setlinewidth
1 setlinejoin
0 setlinecap
0 0 m
0 -4 l
gsave
0.000 setgray
fill
grestore
stroke
grestore
} bind def
254.475 267.3 o
grestore
gsave
244.068750 27.618668 translate
0.000000 rotate
0.000000 0.171875 m /one glyphshow
7.634766 0.171875 m /zero glyphshow
15.269531 0.171875 m /zero glyphshow
grestore
[1 3] 0 setdash
gsave
453.4 226.6 73.12 40.7 clipbox
345.15 40.6968 m
345.15 267.3 l
stroke
grestore
[] 0 setdash
gsave
/o {
gsave
newpath
translate
0.5 setlinewidth
1 setlinejoin
0 setlinecap
0 0 m
0 4 l
gsave
0.000 setgray
fill
grestore
stroke
grestore
} bind def
345.15 40.6968 o
grestore
gsave
/o {
gsave
newpath
translate
0.5 setlinewidth
1 setlinejoin
0 setlinecap
0 0 m
0 -4 l
gsave
0.000 setgray
fill
grestore
stroke
grestore
} bind def
345.15 267.3 o
grestore
gsave
334.743750 27.618668 translate
0.000000 rotate
0.000000 0.171875 m /one glyphshow
7.634766 0.171875 m /five glyphshow
15.269531 0.171875 m /zero glyphshow
grestore
[1 3] 0 setdash
gsave
453.4 226.6 73.12 40.7 clipbox
435.825 40.6968 m
435.825 267.3 l
stroke
grestore
[] 0 setdash
gsave
/o {
gsave
newpath
translate
0.5 setlinewidth
1 setlinejoin
0 setlinecap
0 0 m
0 4 l
gsave
0.000 setgray
fill
grestore
stroke
grestore
} bind def
435.825 40.6968 o
grestore
gsave
/o {
gsave
newpath
translate
0.5 setlinewidth
1 setlinejoin
0 setlinecap
0 0 m
0 -4 l
gsave
0.000 setgray
fill
grestore
stroke
grestore
} bind def
435.825 267.3 o
grestore
gsave
425.200000 27.618668 translate
0.000000 rotate
0.000000 0.171875 m /two glyphshow
7.634766 0.171875 m /zero glyphshow
15.269531 0.171875 m /zero glyphshow
grestore
[1 3] 0 setdash
gsave
453.4 226.6 73.12 40.7 clipbox
526.5 40.6968 m
526.5 267.3 l
stroke
grestore
[] 0 setdash
gsave
/o {
gsave
newpath
translate
0.5 setlinewidth
1 setlinejoin
0 setlinecap
0 0 m
0 4 l
gsave
0.000 setgray
fill
grestore
stroke
grestore
} bind def
526.5 40.6968 o
grestore
gsave
/o {
gsave
newpath
translate
0.5 setlinewidth
1 setlinejoin
0 setlinecap
0 0 m
0 -4 l
gsave
0.000 setgray
fill
grestore
stroke
grestore
} bind def
526.5 267.3 o
grestore
gsave
515.875000 27.618668 translate
0.000000 rotate
0.000000 0.171875 m /two glyphshow
7.634766 0.171875 m /five glyphshow
15.269531 0.171875 m /zero glyphshow
grestore
/DejaVuSans findfont
18.000 scalefont
setfont
gsave
265.671875 6.571793 translate
0.000000 rotate
0.000000 2.375000 m /t glyphshow
7.057617 2.375000 m /i glyphshow
12.058594 2.375000 m /m glyphshow
29.592773 2.375000 m /e glyphshow
40.666992 2.375000 m /space glyphshow
46.388672 2.375000 m /bracketleft glyphshow
53.411133 2.375000 m /s glyphshow
62.789062 2.375000 m /bracketright glyphshow
grestore
[1 3] 0 setdash
gsave
453.4 226.6 73.12 40.7 clipbox
73.125 40.6968 m
526.5 40.6968 l
stroke
grestore
[] 0 setdash
gsave
/o {
gsave
newpath
translate
0.5 setlinewidth
1 setlinejoin
0 setlinecap
0 0 m
4 0 l
gsave
0.000 setgray
fill
grestore
stroke
grestore
} bind def
73.125 40.6968 o
grestore
gsave
/o {
gsave
newpath
translate
0.5 setlinewidth
1 setlinejoin
0 setlinecap
0 0 m
-4 0 l
gsave
0.000 setgray
fill
grestore
stroke
grestore
} bind def
526.5 40.6968 o
grestore
/DejaVuSans findfont
12.000 scalefont
setfont
gsave
38.203125 36.157731 translate
0.000000 rotate
0.000000 0.171875 m /minus glyphshow
10.054688 0.171875 m /one glyphshow
17.689453 0.171875 m /five glyphshow
25.324219 0.171875 m /zero glyphshow
grestore
[1 3] 0 setdash
gsave
453.4 226.6 73.12 40.7 clipbox
73.125 86.0174 m
526.5 86.0174 l
stroke
grestore
[] 0 setdash
gsave
/o {
gsave
newpath
translate
0.5 setlinewidth
1 setlinejoin
0 setlinecap
0 0 m
4 0 l
gsave
0.000 setgray
fill
grestore
stroke
grestore
} bind def
73.125 86.0174 o
grestore
gsave
/o {
gsave
newpath
translate
0.5 setlinewidth
1 setlinejoin
0 setlinecap
0 0 m
-4 0 l
gsave
0.000 setgray
fill
grestore
stroke
grestore
} bind def
526.5 86.0174 o
grestore
gsave
38.203125 81.478372 translate
0.000000 rotate
0.000000 0.171875 m /minus glyphshow
10.054688 0.171875 m /one glyphshow
17.689453 0.171875 m /zero glyphshow
25.324219 0.171875 m /zero glyphshow
grestore
[1 3] 0 setdash
gsave
453.4 226.6 73.12 40.7 clipbox
73.125 131.338 m
526.5 131.338 l
stroke
grestore
[] 0 setdash
gsave
/o {
gsave
newpath
translate
0.5 setlinewidth
1 setlinejoin
0 setlinecap
0 0 m
4 0 l
gsave
0.000 setgray
fill
grestore
stroke
grestore
} bind def
73.125 131.338 o
grestore
gsave
/o {
gsave
newpath
translate
0.5 setlinewidth
1 setlinejoin
0 setlinecap
0 0 m
-4 0 l
gsave
0.000 setgray
fill
grestore
stroke
grestore
} bind def
526.5 131.338 o
grestore
gsave
45.843750 126.799013 translate
0.000000 rotate
0.000000 0.171875 m /minus glyphshow
10.054688 0.171875 m /five glyphshow
17.689453 0.171875 m /zero glyphshow
grestore
[1 3] 0 setdash
gsave
453.4 226.6 73.12 40.7 clipbox
73.125 176.659 m
526.5 176.659 l
stroke
grestore
[] 0 setdash
gsave
/o {
gsave
newpath
translate
0.5 setlinewidth
1 setlinejoin
0 setlinecap
0 0 m
4 0 l
gsave
0.000 setgray
fill
grestore
stroke
grestore
} bind def
73.125 176.659 o
grestore
gsave
/o {
gsave
newpath
translate
0.5 setlinewidth
1 setlinejoin
0 setlinecap
0 0 m
-4 0 l
gsave
0.000 setgray
fill
grestore
stroke
grestore
} bind def
526.5 176.659 o
grestore
gsave
63.078125 172.119655 translate
0.000000 rotate
0.000000 0.171875 m /zero glyphshow
grestore
[1 3] 0 setdash
gsave
453.4 226.6 73.12 40.7 clipbox
73.125 221.979 m
526.5 221.979 l
stroke
grestore
[] 0 setdash
gsave
/o {
gsave
newpath
translate
0.5 setlinewidth
1 setlinejoin
0 setlinecap
0 0 m
4 0 l
gsave
0.000 setgray
fill
grestore
stroke
grestore
} bind def
73.125 221.979 o
grestore
gsave
/o {
gsave
newpath
translate
0.5 setlinewidth
1 setlinejoin
0 setlinecap
0 0 m
-4 0 l
gsave
0.000 setgray
fill
grestore
stroke
grestore
} bind def
526.5 221.979 o
grestore
gsave
55.562500 217.440296 translate
0.000000 rotate
0.000000 0.171875 m /five glyphshow
7.634766 0.171875 m /zero glyphshow
grestore
[1 3] 0 setdash
gsave
453.4 226.6 73.12 40.7 clipbox
73.125 267.3 m
526.5 267.3 l
stroke
grestore
[] 0 setdash
gsave
/o {
gsave
newpath
translate
0.5 setlinewidth
1 setlinejoin
0 setlinecap
0 0 m
4 0 l
gsave
0.000 setgray
fill
grestore
stroke
grestore
} bind def
73.125 267.3 o
grestore
gsave
/o {
gsave
newpath
translate
0.5 setlinewidth
1 setlinejoin
0 setlinecap
0 0 m
-4 0 l
gsave
0.000 setgray
fill
grestore
stroke
grestore
} bind def
526.5 267.3 o
grestore
gsave
48.312500 262.760938 translate
0.000000 rotate
0.000000 0.171875 m /one glyphshow
7.634766 0.171875 m /zero glyphshow
15.269531 0.171875 m /zero glyphshow
grestore
gsave
33.203125 120.998397 translate
90.000000 rotate
/Cmmi10 findfont
18.0 scalefont
setfont
0.000000 4.328125 moveto
/psi glyphshow

/DejaVuSans findfont
18.0 scalefont
setfont
11.715820 4.328125 moveto
/space glyphshow

17.437500 4.328125 moveto
/bracketleft glyphshow

24.459961 4.328125 moveto
/d glyphshow

35.885742 4.328125 moveto
/e glyphshow

46.959961 4.328125 moveto
/g glyphshow

58.385742 4.328125 moveto
/bracketright glyphshow


grestore
1.000 setlinewidth
2 setlinecap
gsave
73.125 267.3 m
526.5 267.3 l
stroke
grestore
gsave
526.5 40.6968 m
526.5 267.3 l
stroke
grestore
gsave
73.125 40.6968 m
526.5 40.6968 l
stroke
grestore
gsave
73.125 40.6968 m
73.125 267.3 l
stroke
grestore
gsave
183.312500 267.300000 translate
0.000000 rotate
/DejaVuSans findfont
24.0 scalefont
setfont
0.000000 5.765625 moveto
/P glyphshow

14.472656 5.765625 moveto
/o glyphshow

29.156250 5.765625 moveto
/s glyphshow

41.660156 5.765625 moveto
/i glyphshow

48.328125 5.765625 moveto
/t glyphshow

57.738281 5.765625 moveto
/i glyphshow

64.406250 5.765625 moveto
/o glyphshow

79.089844 5.765625 moveto
/n glyphshow

94.300781 5.765625 moveto
/space glyphshow

101.929688 5.765625 moveto
/parenleft glyphshow

/Cmmi10 findfont
24.0 scalefont
setfont
111.292969 5.765625 moveto
/psi glyphshow

/DejaVuSans findfont
24.0 scalefont
setfont
126.914062 5.765625 moveto
/parenright glyphshow

136.277344 5.765625 moveto
/space glyphshow

143.906250 5.765625 moveto
/v glyphshow

158.109375 5.765625 moveto
/s glyphshow

170.613281 5.765625 moveto
/space glyphshow

178.242188 5.765625 moveto
/t glyphshow

187.652344 5.765625 moveto
/i glyphshow

194.320312 5.765625 moveto
/m glyphshow

217.699219 5.765625 moveto
/e glyphshow


grestore
gsave
413.46 210.099 m
519.3 210.099 l
519.3 260.1 l
413.46 260.1 l
413.46 210.099 l
cl
gsave
1.000 setgray
fill
grestore
stroke
grestore
gsave
423.54 248.739 m
443.7 248.739 l
stroke
grestore
gsave
459.540000 237.699375 translate
0.000000 rotate
/Cmmi10 findfont
14.4 scalefont
setfont
0.000000 6.015625 moveto
/psi glyphshow

/Cmmi10 findfont
10.08 scalefont
setfont
9.366547 2.342275 moveto
/g glyphshow

14.172083 2.342275 moveto
/o glyphshow

19.046480 2.342275 moveto
/a glyphshow

24.363557 2.342275 moveto
/l glyphshow


grestore
1.000 0.000 0.000 setrgbcolor
gsave
423.54 224.899 m
443.7 224.899 l
stroke
grestore
0.000 setgray
gsave
459.540000 215.858750 translate
0.000000 rotate
/Cmmi10 findfont
14.4 scalefont
setfont
0.000000 4.015625 moveto
/psi glyphshow

/Cmmi10 findfont
10.08 scalefont
setfont
9.366547 0.342275 moveto
/m glyphshow

18.210316 0.342275 moveto
/e glyphshow

22.892891 0.342275 moveto
/a glyphshow

28.209969 0.342275 moveto
/s glyphshow

32.922055 0.342275 moveto
/u glyphshow

38.681813 0.342275 moveto
/r glyphshow

43.226665 0.342275 moveto
/e glyphshow

47.909239 0.342275 moveto
/d glyphshow


grestore

end
showpage
