%!PS-Adobe-3.0 EPSF-3.0
%%Title: /home/kariya/catkin_ws/src/crazyflieROS/logdata/20140626/yaw_filter.eps
%%Creator: matplotlib version 1.1.1rc, http://matplotlib.sourceforge.net/
%%CreationDate: Thu Jun 26 18:47:50 2014
%%Orientation: portrait
%%BoundingBox: 13 247 598 544
%%EndComments
%%BeginProlog
/mpldict 9 dict def
mpldict begin
/m { moveto } bind def
/l { lineto } bind def
/r { rlineto } bind def
/c { curveto } bind def
/cl { closepath } bind def
/box {
m
1 index 0 r
0 exch r
neg 0 r
cl
} bind def
/clipbox {
box
clip
newpath
} bind def
%!PS-Adobe-3.0 Resource-Font
%%Title: DejaVu Sans
%%Copyright: Copyright (c) 2003 by Bitstream, Inc. All Rights Reserved. Copyright (c) 2006 by Tavmjong Bah. All Rights Reserved. DejaVu changes are in public domain 
%%Creator: Converted from TrueType to type 3 by PPR
25 dict begin
/_d{bind def}bind def
/_m{moveto}_d
/_l{lineto}_d
/_cl{closepath eofill}_d
/_c{curveto}_d
/_sc{7 -1 roll{setcachedevice}{pop pop pop pop pop pop}ifelse}_d
/_e{exec}_d
/FontName /DejaVuSans def
/PaintType 0 def
/FontMatrix[.001 0 0 .001 0 0]def
/FontBBox[-1021 -415 1681 1167]def
/FontType 3 def
/Encoding [ /space /parenleft /parenright /zero /one /two /three /four /five /six /seven /colon /A /B /F /G /P /bracketleft /bracketright /a /d /e /f /g /i /l /m /n /o /r /s /t /minus ] def
/FontInfo 10 dict dup begin
/FamilyName (DejaVu Sans) def
/FullName (DejaVu Sans) def
/Notice (Copyright (c) 2003 by Bitstream, Inc. All Rights Reserved. Copyright (c) 2006 by Tavmjong Bah. All Rights Reserved. DejaVu changes are in public domain ) def
/Weight (Book) def
/Version (Version 2.33) def
/ItalicAngle 0.0 def
/isFixedPitch false def
/UnderlinePosition -130 def
/UnderlineThickness 90 def
end readonly def
/CharStrings 33 dict dup begin
/space{318 0 0 0 0 0 _sc
}_d
/parenleft{390 0 86 -131 310 759 _sc
310 759 _m
266 683 234 609 213 536 _c
191 463 181 389 181 314 _c
181 238 191 164 213 91 _c
234 17 266 -56 310 -131 _c
232 -131 _l
183 -54 146 20 122 94 _c
98 168 86 241 86 314 _c
86 386 98 459 122 533 _c
146 607 182 682 232 759 _c
310 759 _l
_cl}_d
/parenright{390 0 80 -131 304 759 _sc
80 759 _m
158 759 _l
206 682 243 607 267 533 _c
291 459 304 386 304 314 _c
304 241 291 168 267 94 _c
243 20 206 -54 158 -131 _c
80 -131 _l
123 -56 155 17 177 91 _c
198 164 209 238 209 314 _c
209 389 198 463 177 536 _c
155 609 123 683 80 759 _c
_cl}_d
/zero{636 0 66 -13 570 742 _sc
318 664 _m
267 664 229 639 203 589 _c
177 539 165 464 165 364 _c
165 264 177 189 203 139 _c
229 89 267 64 318 64 _c
369 64 407 89 433 139 _c
458 189 471 264 471 364 _c
471 464 458 539 433 589 _c
407 639 369 664 318 664 _c
318 742 _m
399 742 461 709 505 645 _c
548 580 570 486 570 364 _c
570 241 548 147 505 83 _c
461 19 399 -13 318 -13 _c
236 -13 173 19 130 83 _c
87 147 66 241 66 364 _c
66 486 87 580 130 645 _c
173 709 236 742 318 742 _c
_cl}_d
/one{636 0 110 0 544 729 _sc
124 83 _m
285 83 _l
285 639 _l
110 604 _l
110 694 _l
284 729 _l
383 729 _l
383 83 _l
544 83 _l
544 0 _l
124 0 _l
124 83 _l
_cl}_d
/two{{636 0 73 0 536 742 _sc
192 83 _m
536 83 _l
536 0 _l
73 0 _l
73 83 _l
110 121 161 173 226 239 _c
290 304 331 346 348 365 _c
380 400 402 430 414 455 _c
426 479 433 504 433 528 _c
433 566 419 598 392 622 _c
365 646 330 659 286 659 _c
255 659 222 653 188 643 _c
154 632 117 616 78 594 _c
78 694 _l
118 710 155 722 189 730 _c
223 738 255 742 284 742 _c
359 742 419 723 464 685 _c
509 647 532 597 532 534 _c
532 504 526 475 515 449 _c
504 422 484 390 454 354 _c
446 344 420 317 376 272 _c
332 227 271 164 192 83 _c
_cl}_e}_d
/three{{636 0 76 -13 556 742 _sc
406 393 _m
453 383 490 362 516 330 _c
542 298 556 258 556 212 _c
556 140 531 84 482 45 _c
432 6 362 -13 271 -13 _c
240 -13 208 -10 176 -4 _c
144 1 110 10 76 22 _c
76 117 _l
103 101 133 89 166 81 _c
198 73 232 69 268 69 _c
330 69 377 81 409 105 _c
441 129 458 165 458 212 _c
458 254 443 288 413 312 _c
383 336 341 349 287 349 _c
202 349 _l
202 430 _l
291 430 _l
339 430 376 439 402 459 _c
428 478 441 506 441 543 _c
441 580 427 609 401 629 _c
374 649 336 659 287 659 _c
260 659 231 656 200 650 _c
169 644 135 635 98 623 _c
98 711 _l
135 721 170 729 203 734 _c
235 739 266 742 296 742 _c
}_e{370 742 429 725 473 691 _c
517 657 539 611 539 553 _c
539 513 527 479 504 451 _c
481 423 448 403 406 393 _c
_cl}_e}_d
/four{636 0 49 0 580 729 _sc
378 643 _m
129 254 _l
378 254 _l
378 643 _l
352 729 _m
476 729 _l
476 254 _l
580 254 _l
580 172 _l
476 172 _l
476 0 _l
378 0 _l
378 172 _l
49 172 _l
49 267 _l
352 729 _l
_cl}_d
/five{{636 0 77 -13 549 729 _sc
108 729 _m
495 729 _l
495 646 _l
198 646 _l
198 467 _l
212 472 227 476 241 478 _c
255 480 270 482 284 482 _c
365 482 429 459 477 415 _c
525 370 549 310 549 234 _c
549 155 524 94 475 51 _c
426 8 357 -13 269 -13 _c
238 -13 207 -10 175 -6 _c
143 -1 111 6 77 17 _c
77 116 _l
106 100 136 88 168 80 _c
199 72 232 69 267 69 _c
323 69 368 83 401 113 _c
433 143 450 183 450 234 _c
450 284 433 324 401 354 _c
368 384 323 399 267 399 _c
241 399 214 396 188 390 _c
162 384 135 375 108 363 _c
108 729 _l
_cl}_e}_d
/six{{636 0 70 -13 573 742 _sc
330 404 _m
286 404 251 388 225 358 _c
199 328 186 286 186 234 _c
186 181 199 139 225 109 _c
251 79 286 64 330 64 _c
374 64 409 79 435 109 _c
461 139 474 181 474 234 _c
474 286 461 328 435 358 _c
409 388 374 404 330 404 _c
526 713 _m
526 623 _l
501 635 476 644 451 650 _c
425 656 400 659 376 659 _c
310 659 260 637 226 593 _c
192 549 172 482 168 394 _c
187 422 211 444 240 459 _c
269 474 301 482 336 482 _c
409 482 467 459 509 415 _c
551 371 573 310 573 234 _c
573 159 550 99 506 54 _c
462 9 403 -13 330 -13 _c
246 -13 181 19 137 83 _c
92 147 70 241 70 364 _c
70 479 97 571 152 639 _c
206 707 280 742 372 742 _c
}_e{396 742 421 739 447 735 _c
472 730 498 723 526 713 _c
_cl}_e}_d
/seven{636 0 82 0 551 729 _sc
82 729 _m
551 729 _l
551 687 _l
286 0 _l
183 0 _l
432 646 _l
82 646 _l
82 729 _l
_cl}_d
/colon{337 0 117 0 220 517 _sc
117 124 _m
220 124 _l
220 0 _l
117 0 _l
117 124 _l
117 517 _m
220 517 _l
220 393 _l
117 393 _l
117 517 _l
_cl}_d
/A{684 0 8 0 676 729 _sc
342 632 _m
208 269 _l
476 269 _l
342 632 _l
286 729 _m
398 729 _l
676 0 _l
573 0 _l
507 187 _l
178 187 _l
112 0 _l
8 0 _l
286 729 _l
_cl}_d
/B{{686 0 98 0 615 729 _sc
197 348 _m
197 81 _l
355 81 _l
408 81 447 92 473 114 _c
498 136 511 169 511 215 _c
511 260 498 293 473 315 _c
447 337 408 348 355 348 _c
197 348 _l
197 648 _m
197 428 _l
343 428 _l
391 428 426 437 450 455 _c
474 473 486 500 486 538 _c
486 574 474 602 450 620 _c
426 638 391 648 343 648 _c
197 648 _l
98 729 _m
350 729 _l
425 729 483 713 524 682 _c
564 650 585 606 585 549 _c
585 504 574 468 553 442 _c
532 416 502 399 462 393 _c
510 382 548 360 575 327 _c
601 294 615 253 615 204 _c
615 138 592 88 548 53 _c
504 17 441 0 360 0 _c
98 0 _l
98 729 _l
}_e{_cl}_e}_d
/F{575 0 98 0 517 729 _sc
98 729 _m
517 729 _l
517 646 _l
197 646 _l
197 431 _l
486 431 _l
486 348 _l
197 348 _l
197 0 _l
98 0 _l
98 729 _l
_cl}_d
/G{{775 0 56 -13 693 742 _sc
595 104 _m
595 300 _l
434 300 _l
434 381 _l
693 381 _l
693 68 _l
655 40 613 20 567 7 _c
521 -6 472 -13 420 -13 _c
306 -13 216 20 152 86 _c
88 152 56 245 56 364 _c
56 482 88 575 152 642 _c
216 708 306 742 420 742 _c
467 742 512 736 555 724 _c
598 712 638 695 674 673 _c
674 568 _l
637 598 598 621 557 637 _c
516 653 473 661 428 661 _c
338 661 271 636 227 586 _c
182 536 160 462 160 364 _c
160 265 182 191 227 141 _c
271 91 338 67 428 67 _c
462 67 493 70 521 76 _c
549 82 573 91 595 104 _c
_cl}_e}_d
/P{603 0 98 0 569 729 _sc
197 648 _m
197 374 _l
321 374 _l
367 374 402 385 427 409 _c
452 433 465 467 465 511 _c
465 555 452 588 427 612 _c
402 636 367 648 321 648 _c
197 648 _l
98 729 _m
321 729 _l
402 729 464 710 506 673 _c
548 636 569 582 569 511 _c
569 439 548 384 506 348 _c
464 311 402 293 321 293 _c
197 293 _l
197 0 _l
98 0 _l
98 729 _l
_cl}_d
/bracketleft{390 0 86 -131 293 760 _sc
86 760 _m
293 760 _l
293 690 _l
176 690 _l
176 -61 _l
293 -61 _l
293 -131 _l
86 -131 _l
86 760 _l
_cl}_d
/bracketright{390 0 97 -131 304 760 _sc
304 760 _m
304 -131 _l
97 -131 _l
97 -61 _l
214 -61 _l
214 690 _l
97 690 _l
97 760 _l
304 760 _l
_cl}_d
/a{{613 0 60 -13 522 560 _sc
343 275 _m
270 275 220 266 192 250 _c
164 233 150 205 150 165 _c
150 133 160 107 181 89 _c
202 70 231 61 267 61 _c
317 61 357 78 387 114 _c
417 149 432 196 432 255 _c
432 275 _l
343 275 _l
522 312 _m
522 0 _l
432 0 _l
432 83 _l
411 49 385 25 355 10 _c
325 -5 287 -13 243 -13 _c
187 -13 142 2 109 33 _c
76 64 60 106 60 159 _c
60 220 80 266 122 298 _c
163 329 224 345 306 345 _c
432 345 _l
432 354 _l
432 395 418 427 391 450 _c
364 472 326 484 277 484 _c
245 484 215 480 185 472 _c
155 464 127 453 100 439 _c
100 522 _l
}_e{132 534 164 544 195 550 _c
226 556 256 560 286 560 _c
365 560 424 539 463 498 _c
502 457 522 395 522 312 _c
_cl}_e}_d
/d{{635 0 55 -13 544 760 _sc
454 464 _m
454 760 _l
544 760 _l
544 0 _l
454 0 _l
454 82 _l
435 49 411 25 382 10 _c
353 -5 319 -13 279 -13 _c
213 -13 159 13 117 65 _c
75 117 55 187 55 273 _c
55 359 75 428 117 481 _c
159 533 213 560 279 560 _c
319 560 353 552 382 536 _c
411 520 435 496 454 464 _c
148 273 _m
148 207 161 155 188 117 _c
215 79 253 61 301 61 _c
348 61 385 79 413 117 _c
440 155 454 207 454 273 _c
454 339 440 390 413 428 _c
385 466 348 485 301 485 _c
253 485 215 466 188 428 _c
161 390 148 339 148 273 _c
_cl}_e}_d
/e{{615 0 55 -13 562 560 _sc
562 296 _m
562 252 _l
149 252 _l
153 190 171 142 205 110 _c
238 78 284 62 344 62 _c
378 62 412 66 444 74 _c
476 82 509 95 541 113 _c
541 28 _l
509 14 476 3 442 -3 _c
408 -9 373 -13 339 -13 _c
251 -13 182 12 131 62 _c
80 112 55 181 55 268 _c
55 357 79 428 127 481 _c
175 533 241 560 323 560 _c
397 560 455 536 498 489 _c
540 441 562 377 562 296 _c
472 322 _m
471 371 457 410 431 440 _c
404 469 368 484 324 484 _c
274 484 234 469 204 441 _c
174 413 156 373 152 322 _c
472 322 _l
_cl}_e}_d
/f{352 0 23 0 371 760 _sc
371 760 _m
371 685 _l
285 685 _l
253 685 230 678 218 665 _c
205 652 199 629 199 595 _c
199 547 _l
347 547 _l
347 477 _l
199 477 _l
199 0 _l
109 0 _l
109 477 _l
23 477 _l
23 547 _l
109 547 _l
109 585 _l
109 645 123 690 151 718 _c
179 746 224 760 286 760 _c
371 760 _l
_cl}_d
/g{{635 0 55 -207 544 560 _sc
454 280 _m
454 344 440 395 414 431 _c
387 467 349 485 301 485 _c
253 485 215 467 188 431 _c
161 395 148 344 148 280 _c
148 215 161 165 188 129 _c
215 93 253 75 301 75 _c
349 75 387 93 414 129 _c
440 165 454 215 454 280 _c
544 68 _m
544 -24 523 -93 482 -139 _c
440 -184 377 -207 292 -207 _c
260 -207 231 -204 203 -200 _c
175 -195 147 -188 121 -178 _c
121 -91 _l
147 -105 173 -115 199 -122 _c
225 -129 251 -133 278 -133 _c
336 -133 380 -117 410 -87 _c
439 -56 454 -10 454 52 _c
454 96 _l
435 64 411 40 382 24 _c
353 8 319 0 279 0 _c
211 0 157 25 116 76 _c
75 127 55 195 55 280 _c
55 364 75 432 116 483 _c
157 534 211 560 279 560 _c
}_e{319 560 353 552 382 536 _c
411 520 435 496 454 464 _c
454 547 _l
544 547 _l
544 68 _l
_cl}_e}_d
/i{278 0 94 0 184 760 _sc
94 547 _m
184 547 _l
184 0 _l
94 0 _l
94 547 _l
94 760 _m
184 760 _l
184 646 _l
94 646 _l
94 760 _l
_cl}_d
/l{278 0 94 0 184 760 _sc
94 760 _m
184 760 _l
184 0 _l
94 0 _l
94 760 _l
_cl}_d
/m{{974 0 91 0 889 560 _sc
520 442 _m
542 482 569 511 600 531 _c
631 550 668 560 711 560 _c
767 560 811 540 842 500 _c
873 460 889 403 889 330 _c
889 0 _l
799 0 _l
799 327 _l
799 379 789 418 771 444 _c
752 469 724 482 686 482 _c
639 482 602 466 575 435 _c
548 404 535 362 535 309 _c
535 0 _l
445 0 _l
445 327 _l
445 379 435 418 417 444 _c
398 469 369 482 331 482 _c
285 482 248 466 221 435 _c
194 404 181 362 181 309 _c
181 0 _l
91 0 _l
91 547 _l
181 547 _l
181 462 _l
201 495 226 520 255 536 _c
283 552 317 560 357 560 _c
397 560 430 550 458 530 _c
486 510 506 480 520 442 _c
}_e{_cl}_e}_d
/n{634 0 91 0 549 560 _sc
549 330 _m
549 0 _l
459 0 _l
459 327 _l
459 379 448 417 428 443 _c
408 469 378 482 338 482 _c
289 482 251 466 223 435 _c
195 404 181 362 181 309 _c
181 0 _l
91 0 _l
91 547 _l
181 547 _l
181 462 _l
202 494 227 519 257 535 _c
286 551 320 560 358 560 _c
420 560 468 540 500 501 _c
532 462 549 405 549 330 _c
_cl}_d
/o{612 0 55 -13 557 560 _sc
306 484 _m
258 484 220 465 192 427 _c
164 389 150 338 150 273 _c
150 207 163 156 191 118 _c
219 80 257 62 306 62 _c
354 62 392 80 420 118 _c
448 156 462 207 462 273 _c
462 337 448 389 420 427 _c
392 465 354 484 306 484 _c
306 560 _m
384 560 445 534 490 484 _c
534 433 557 363 557 273 _c
557 183 534 113 490 63 _c
445 12 384 -13 306 -13 _c
227 -13 165 12 121 63 _c
77 113 55 183 55 273 _c
55 363 77 433 121 484 _c
165 534 227 560 306 560 _c
_cl}_d
/r{411 0 91 0 411 560 _sc
411 463 _m
401 469 390 473 378 476 _c
366 478 353 480 339 480 _c
288 480 249 463 222 430 _c
194 397 181 350 181 288 _c
181 0 _l
91 0 _l
91 547 _l
181 547 _l
181 462 _l
199 495 224 520 254 536 _c
284 552 321 560 365 560 _c
371 560 378 559 386 559 _c
393 558 401 557 411 555 _c
411 463 _l
_cl}_d
/s{{521 0 54 -13 472 560 _sc
443 531 _m
443 446 _l
417 458 391 468 364 475 _c
336 481 308 485 279 485 _c
234 485 200 478 178 464 _c
156 450 145 430 145 403 _c
145 382 153 366 169 354 _c
185 342 217 330 265 320 _c
296 313 _l
360 299 405 279 432 255 _c
458 230 472 195 472 151 _c
472 100 452 60 412 31 _c
372 1 316 -13 246 -13 _c
216 -13 186 -10 154 -5 _c
122 0 89 8 54 20 _c
54 113 _l
87 95 120 82 152 74 _c
184 65 216 61 248 61 _c
290 61 323 68 346 82 _c
368 96 380 117 380 144 _c
380 168 371 187 355 200 _c
339 213 303 226 247 238 _c
216 245 _l
160 257 119 275 95 299 _c
70 323 58 356 58 399 _c
58 450 76 490 112 518 _c
148 546 200 560 268 560 _c
}_e{301 560 332 557 362 552 _c
391 547 418 540 443 531 _c
_cl}_e}_d
/t{392 0 27 0 368 702 _sc
183 702 _m
183 547 _l
368 547 _l
368 477 _l
183 477 _l
183 180 _l
183 135 189 106 201 94 _c
213 81 238 75 276 75 _c
368 75 _l
368 0 _l
276 0 _l
206 0 158 13 132 39 _c
106 65 93 112 93 180 _c
93 477 _l
27 477 _l
27 547 _l
93 547 _l
93 702 _l
183 702 _l
_cl}_d
/minus{838 0 106 272 732 355 _sc
106 355 _m
732 355 _l
732 272 _l
106 272 _l
106 355 _l
_cl}_d
end readonly def

/BuildGlyph
 {exch begin
 CharStrings exch
 2 copy known not{pop /.notdef}if
 true 3 1 roll get exec
 end}_d

/BuildChar {
 1 index /Encoding get exch get
 1 index /BuildGlyph get exec
}_d

FontName currentdict end definefont pop
%!PS-Adobe-3.0 Resource-Font
%%Title: cmmi10
%%Copyright: Copyright (C) 1994, Basil K. Malyshev. All Rights Reserved.012BaKoMa Fonts Collection, Level-B.
%%Creator: Converted from TrueType to type 3 by PPR
25 dict begin
/_d{bind def}bind def
/_m{moveto}_d
/_l{lineto}_d
/_cl{closepath eofill}_d
/_c{curveto}_d
/_sc{7 -1 roll{setcachedevice}{pop pop pop pop pop pop}ifelse}_d
/_e{exec}_d
/FontName /Cmmi10 def
/PaintType 0 def
/FontMatrix[.001 0 0 .001 0 0]def
/FontBBox[-34 -250 1048 750]def
/FontType 3 def
/Encoding [ /e /psi /t /i /d /f /l /r ] def
/FontInfo 10 dict dup begin
/FamilyName (cmmi10) def
/FullName (cmmi10) def
/Notice (Copyright (C) 1994, Basil K. Malyshev. All Rights Reserved.012BaKoMa Fonts Collection, Level-B. ) def
/Weight (Regular) def
/Version (1.1/12-Nov-94) def
/ItalicAngle 0.0 def
/isFixedPitch false def
/UnderlinePosition -133 def
/UnderlineThickness 20 def
end readonly def
/CharStrings 8 dict dup begin
/e{{465 0 44 -10 430 442 _sc
201 -10 _m
169 -10 141 -2 117 14 _c
93 30 75 53 63 81 _c
50 109 44 138 44 170 _c
44 217 56 262 80 304 _c
104 346 136 379 177 404 _c
218 429 262 442 309 442 _c
337 442 362 434 384 419 _c
405 404 416 383 416 356 _c
416 317 400 288 370 270 _c
339 251 304 239 266 235 _c
228 231 185 229 139 229 _c
136 229 _l
125 189 120 155 120 127 _c
120 97 126 71 140 49 _c
154 26 175 15 203 15 _c
243 15 281 24 318 42 _c
354 60 384 86 407 118 _c
409 120 411 121 415 121 _c
418 121 421 119 425 115 _c
428 111 430 108 430 105 _c
430 102 429 100 428 99 _c
404 65 371 38 330 19 _c
288 0 245 -10 201 -10 _c
142 255 _m
}_e{180 255 216 256 249 260 _c
282 264 312 273 339 287 _c
365 301 379 324 379 355 _c
379 367 375 378 368 387 _c
361 396 352 403 342 408 _c
331 413 320 416 308 416 _c
280 416 254 408 232 393 _c
209 377 190 357 176 333 _c
161 308 150 282 142 255 _c
_cl}_e}_d
/psi{{651 0 27 -204 634 694 _sc
238 -194 _m
285 -8 _l
256 -8 228 -2 201 8 _c
173 18 151 34 135 55 _c
118 76 110 102 110 133 _c
110 150 113 170 119 192 _c
125 214 131 234 138 253 _c
145 271 155 296 167 326 _c
175 350 180 370 180 386 _c
180 406 172 416 158 416 _c
132 416 110 402 93 375 _c
75 347 63 317 55 284 _c
53 280 51 278 47 278 _c
35 278 _l
29 278 27 281 27 287 _c
27 290 _l
37 330 54 365 76 396 _c
98 426 126 442 160 442 _c
184 442 204 434 220 418 _c
236 402 245 383 245 359 _c
245 346 242 333 237 320 _c
225 289 215 265 209 247 _c
202 229 195 209 189 187 _c
183 164 180 144 180 126 _c
}_e{180 93 190 68 210 50 _c
230 32 257 21 291 17 _c
459 688 _l
460 692 463 694 467 694 _c
479 694 _l
484 694 487 690 487 684 _c
320 15 _l
331 15 _l
359 15 388 23 419 40 _c
450 56 478 78 504 105 _c
530 132 550 161 565 192 _c
580 223 588 252 588 280 _c
588 300 584 315 578 327 _c
571 338 562 350 552 362 _c
542 374 537 383 537 391 _c
537 404 542 416 553 427 _c
563 437 575 443 589 443 _c
605 443 616 435 623 421 _c
630 406 634 389 634 371 _c
634 351 632 332 628 312 _c
624 292 618 269 612 243 _c
596 182 564 127 516 79 _c
499 62 481 47 461 33 _c
441 19 419 9 397 1 _c
375 -6 352 -10 330 -10 _c
314 -10 _l
267 -198 _l
265 -202 263 -204 259 -204 _c
}_e{247 -204 _l
244 -204 242 -203 240 -201 _c
238 -199 238 -196 238 -194 _c
_cl}_e}_d
/t{{361 0 22 -10 330 626 _sc
62 81 _m
62 91 63 100 65 109 _c
137 396 _l
32 396 _l
25 396 22 400 22 409 _c
24 423 29 431 35 431 _c
146 431 _l
186 594 _l
188 602 193 610 201 616 _c
209 622 218 626 228 626 _c
236 626 243 623 249 618 _c
255 613 258 606 258 598 _c
258 596 257 594 257 593 _c
257 592 257 591 257 590 _c
217 431 _l
320 431 _l
326 431 330 426 330 418 _c
330 416 329 414 328 410 _c
327 406 326 402 324 400 _c
322 397 320 396 317 396 _c
208 396 _l
136 107 _l
131 88 129 72 129 58 _c
}_e{129 29 138 15 158 15 _c
187 15 213 28 236 56 _c
258 84 276 114 288 147 _c
290 151 293 153 296 153 _c
308 153 _l
310 153 312 152 314 150 _c
316 148 317 146 317 144 _c
317 142 316 141 316 141 _c
301 101 280 65 252 35 _c
224 5 192 -10 156 -10 _c
129 -10 107 -1 89 15 _c
71 32 62 54 62 81 _c
_cl}_e}_d
/i{{344 0 27 -10 296 661 _sc
78 72 _m
78 84 80 97 86 111 _c
167 326 _l
175 350 180 370 180 386 _c
180 406 172 416 158 416 _c
132 416 110 402 93 375 _c
75 347 63 317 55 284 _c
53 280 51 278 47 278 _c
35 278 _l
29 278 27 281 27 287 _c
27 290 _l
37 330 54 365 76 396 _c
98 426 126 442 160 442 _c
184 442 204 434 220 418 _c
236 402 245 383 245 359 _c
245 346 242 333 237 320 _c
156 105 _l
146 83 142 63 142 45 _c
142 25 149 15 165 15 _c
}_e{191 15 212 29 230 57 _c
247 85 259 115 267 147 _c
268 151 271 153 275 153 _c
287 153 _l
289 153 291 152 293 150 _c
295 148 296 146 296 144 _c
296 143 295 142 295 141 _c
285 103 269 68 247 37 _c
224 5 196 -10 163 -10 _c
139 -10 119 -2 103 13 _c
86 29 78 48 78 72 _c
191 606 _m
191 620 196 632 208 644 _c
220 655 233 661 247 661 _c
258 661 267 657 275 650 _c
282 643 286 634 286 624 _c
286 609 280 596 268 585 _c
256 573 243 568 229 568 _c
218 568 209 571 202 579 _c
194 586 191 595 191 606 _c
_cl}_e}_d
/d{{520 0 38 -10 519 694 _sc
174 -10 _m
132 -10 98 5 74 37 _c
50 68 38 105 38 149 _c
38 191 49 236 71 282 _c
93 328 122 366 160 396 _c
198 426 238 442 282 442 _c
302 442 319 436 335 425 _c
351 414 363 400 372 382 _c
428 605 _l
430 616 432 625 433 632 _c
433 642 411 648 368 648 _c
361 648 358 652 358 661 _c
358 663 358 666 360 670 _c
361 674 362 677 364 679 _c
366 681 368 683 372 683 _c
507 694 _l
515 694 519 689 519 681 _c
375 106 _l
370 94 368 78 368 58 _c
368 29 377 15 397 15 _c
417 15 433 28 444 55 _c
455 81 464 112 472 147 _c
}_e{473 151 476 153 480 153 _c
492 153 _l
494 153 496 151 498 149 _c
500 147 501 145 501 143 _c
489 96 476 59 462 31 _c
448 3 426 -10 395 -10 _c
372 -10 352 -3 335 9 _c
318 21 307 39 303 61 _c
260 13 217 -10 174 -10 _c
175 15 _m
199 15 222 24 245 42 _c
267 60 287 81 303 106 _c
303 106 304 108 304 110 _c
359 330 _l
355 353 346 373 333 390 _c
319 407 302 416 280 416 _c
257 416 236 406 217 388 _c
197 370 181 348 168 323 _c
154 296 142 259 130 213 _c
118 167 113 131 113 105 _c
113 81 118 60 128 42 _c
138 24 153 15 175 15 _c
_cl}_e}_d
/f{{489 0 53 -204 552 705 _sc
97 -164 _m
109 -173 124 -178 142 -178 _c
166 -178 185 -151 200 -99 _c
206 -73 223 9 251 151 _c
297 396 _l
211 396 _l
204 396 201 400 201 409 _c
203 423 208 431 214 431 _c
303 431 _l
315 496 _l
319 516 322 533 326 548 _c
329 562 332 576 336 588 _c
340 600 345 614 353 630 _c
364 652 379 670 399 684 _c
418 698 439 705 462 705 _c
476 705 490 702 504 697 _c
518 691 529 683 538 673 _c
547 662 552 649 552 635 _c
552 617 546 602 535 590 _c
523 578 510 572 494 572 _c
483 572 474 575 466 582 _c
458 588 455 597 455 608 _c
455 622 460 635 470 646 _c
480 657 492 663 507 665 _c
}_e{494 674 479 679 461 679 _c
451 679 441 674 432 665 _c
423 655 417 645 415 635 _c
411 617 401 571 387 497 _c
375 431 _l
478 431 _l
484 431 488 426 488 418 _c
487 416 486 413 485 409 _c
484 405 483 401 481 399 _c
479 397 477 396 475 396 _c
368 396 _l
322 152 _l
316 116 309 80 301 44 _c
293 8 283 -29 269 -68 _c
255 -106 238 -139 216 -165 _c
194 -191 169 -204 140 -204 _c
117 -204 97 -197 79 -185 _c
61 -172 53 -155 53 -134 _c
53 -116 58 -101 69 -89 _c
80 -77 94 -71 111 -71 _c
121 -71 130 -74 138 -81 _c
146 -87 150 -96 150 -107 _c
150 -121 144 -134 134 -146 _c
123 -158 111 -164 97 -164 _c
_cl}_e}_d
/l{{298 0 44 -10 262 694 _sc
44 81 _m
44 83 44 86 44 90 _c
44 94 45 97 46 101 _c
46 105 47 108 47 110 _c
171 605 _l
173 616 175 625 176 632 _c
176 642 154 648 111 648 _c
104 648 101 652 101 661 _c
101 663 102 666 103 670 _c
104 674 105 677 107 679 _c
109 681 111 683 115 683 _c
250 694 _l
258 694 262 689 262 681 _c
118 106 _l
113 95 111 79 111 58 _c
111 29 120 15 140 15 _c
160 15 176 27 186 53 _c
196 79 206 110 214 147 _c
215 151 218 153 222 153 _c
234 153 _l
236 153 238 151 240 149 _c
242 147 243 145 243 143 _c
}_e{235 111 227 85 221 67 _c
215 48 205 30 191 14 _c
177 -2 159 -10 138 -10 _c
111 -10 89 -1 71 15 _c
53 32 44 54 44 81 _c
_cl}_e}_d
/r{{451 0 27 -10 434 442 _sc
77 17 _m
77 21 77 24 78 26 _c
153 324 _l
157 342 160 359 160 373 _c
160 401 150 416 131 416 _c
110 416 94 403 84 378 _c
74 353 64 322 55 284 _c
55 282 54 280 52 279 _c
50 278 48 278 47 278 _c
35 278 _l
33 278 31 279 29 281 _c
27 283 27 286 27 288 _c
34 317 41 342 48 362 _c
54 382 65 400 79 417 _c
93 433 110 442 132 442 _c
155 442 175 435 193 422 _c
210 408 221 391 225 369 _c
241 391 260 408 282 422 _c
304 435 328 442 354 442 _c
375 442 394 435 410 423 _c
426 411 434 394 434 373 _c
434 356 428 341 418 329 _c
407 316 393 310 376 310 _c
}_e{365 310 356 313 349 320 _c
341 326 338 335 338 346 _c
338 360 343 373 354 385 _c
364 397 377 403 391 403 _c
380 411 367 416 352 416 _c
323 416 298 405 277 385 _c
256 365 237 339 220 308 _c
149 22 _l
147 12 142 5 134 -1 _c
126 -7 117 -10 107 -10 _c
99 -10 92 -7 86 -3 _c
80 1 77 8 77 17 _c
_cl}_e}_d
end readonly def

/BuildGlyph
 {exch begin
 CharStrings exch
 2 copy known not{pop /.notdef}if
 true 3 1 roll get exec
 end}_d

/BuildChar {
 1 index /Encoding get exch get
 1 index /BuildGlyph get exec
}_d

FontName currentdict end definefont pop
end
%%EndProlog
mpldict begin
13.5 247.5 translate
585 297 0 0 clipbox
gsave
0 0 m
585 0 l
585 297 l
0 297 l
cl
1.000 setgray
fill
grestore
gsave
73.125 40.6968 m
526.5 40.6968 l
526.5 267.3 l
73.125 267.3 l
cl
1.000 setgray
fill
grestore
1.000 setlinewidth
1 setlinejoin
2 setlinecap
[] 0 setdash
1.000 0.000 0.000 setrgbcolor
gsave
453.4 226.6 73.12 40.7 clipbox
73.1895 255.97 m
139.708 255.97 l
139.836 71.8958 l
140.355 71.8958 l
140.484 69.9958 l
140.615 69.9958 l
140.743 72.8153 l
141.261 72.8153 l
141.391 83.9244 l
141.65 83.9244 l
141.78 87.9034 l
141.91 87.9034 l
142.039 82.4642 l
142.298 82.4642 l
142.427 78.3173 l
142.945 78.3173 l
143.075 73.881 l
143.399 73.881 l
143.529 95.5923 l
143.852 95.5923 l
143.982 86.9593 l
144.241 86.9593 l
144.37 82.0186 l
144.694 82.0186 l
144.823 80.865 l
145.147 80.865 l
145.276 74.7979 l
145.536 74.7979 l
145.665 77.8947 l
145.99 77.8947 l
146.118 94.2625 l
146.443 94.2625 l
146.573 94.0248 l
146.831 94.0248 l
146.897 92.734 l
146.961 92.7605 l
147.284 92.7605 l
147.415 91.5898 l
147.738 91.5898 l
147.868 85.4132 l
148.386 85.4132 l
148.515 84.6459 l
148.774 84.6459 l
148.904 85.1555 l
149.228 85.1555 l
149.357 88.076 l
149.681 88.076 l
149.811 101.835 l
150.07 101.835 l
150.135 106.834 l
150.2 106.801 l
150.523 106.801 l
150.652 110.409 l
150.977 110.409 l
151.106 115.814 l
151.365 115.814 l
151.495 123.539 l
151.624 123.539 l
151.753 121.434 l
152.078 121.434 l
152.207 119.491 l
152.466 119.491 l
152.596 118.546 l
152.92 118.546 l
153.049 121.837 l
153.114 121.837 l
153.244 95.7175 l
153.567 95.7175 l
153.697 92.69 l
153.956 92.69 l
154.024 88.8877 l
154.085 88.9177 l
154.215 88.9177 l
154.344 85.2799 l
154.409 85.2799 l
154.54 80.7216 l
154.605 80.7216 l
154.733 80.0459 l
155.057 80.0459 l
155.187 90.7565 l
155.511 90.7565 l
155.641 92.1609 l
155.964 92.1609 l
156.093 93.3746 l
156.352 93.3746 l
156.482 84.1538 l
156.806 84.1538 l
156.935 83.1526 l
157.259 83.1526 l
157.388 81.9805 l
157.648 81.9805 l
157.777 84.7029 l
158.101 84.7029 l
158.23 79.9566 l
158.295 79.9566 l
158.425 83.2942 l
158.554 83.2942 l
158.684 102.525 l
158.749 102.525 l
158.878 96.0389 l
159.137 96.0389 l
159.266 96.1951 l
159.591 96.1951 l
159.72 97.2321 l
159.785 97.2321 l
159.98 95.4401 l
160.046 95.4401 l
160.174 88.8969 l
160.253 88.8969 l
160.367 86.4341 l
160.497 86.4341 l
160.628 112.736 l
160.693 112.736 l
160.821 117.489 l
161.08 117.489 l
161.148 114.677 l
161.209 114.715 l
161.339 114.715 l
161.469 113.736 l
161.534 113.736 l
161.663 108.711 l
162.181 108.772 l
162.311 108.9 l
162.636 108.9 l
162.764 115.632 l
162.829 115.632 l
162.959 115.449 l
163.283 115.449 l
163.412 117.667 l
163.671 117.667 l
163.736 123.059 l
163.8 123.003 l
164.125 123.003 l
164.254 119.534 l
164.578 119.534 l
164.707 120.044 l
164.966 120.044 l
165.031 121.32 l
165.096 121.305 l
165.419 121.305 l
165.561 123.056 l
165.873 123.056 l
166.003 118.892 l
166.068 118.892 l
166.199 121.252 l
166.523 121.252 l
166.65 118.106 l
166.716 118.106 l
166.846 115.466 l
167.363 115.466 l
167.492 112.428 l
167.558 112.428 l
167.687 112.717 l
167.817 112.717 l
167.946 112.273 l
168.205 112.273 l
168.283 109.738 l
168.334 109.837 l
168.658 109.837 l
168.787 110.935 l
168.852 110.935 l
168.917 113.409 l
168.982 113.385 l
169.305 113.385 l
169.435 112.489 l
169.5 112.489 l
169.63 115.16 l
169.76 115.16 l
169.889 115.416 l
170.213 115.416 l
170.342 114.347 l
170.6 114.347 l
170.731 108.629 l
171.249 108.629 l
171.379 101.264 l
171.727 101.264 l
171.832 100.592 l
172.156 100.592 l
172.285 105.911 l
172.355 105.911 l
172.48 113.236 l
172.803 113.236 l
172.933 106.984 l
173.192 106.984 l
173.321 110.296 l
173.646 110.296 l
173.775 113.915 l
173.84 113.915 l
173.969 106.259 l
174.293 106.259 l
174.422 103.094 l
174.492 103.094 l
174.616 102.091 l
174.941 102.091 l
175.07 103.15 l
175.135 103.15 l
175.264 102.955 l
175.329 102.955 l
175.523 102.44 l
176.042 102.44 l
176.17 105.29 l
176.236 105.29 l
176.365 109.207 l
176.698 109.207 l
176.819 122.706 l
176.885 122.706 l
177.013 119.83 l
177.791 119.916 l
177.92 119.713 l
178.179 119.723 l
178.309 118.691 l
178.632 118.691 l
178.762 120.476 l
178.827 120.476 l
178.956 120.324 l
179.086 120.324 l
179.215 120.676 l
179.733 120.676 l
179.864 120.315 l
179.929 120.315 l
180.058 124.241 l
180.122 124.241 l
180.251 120.875 l
180.575 120.875 l
180.705 114.076 l
181.029 114.076 l
181.158 104.437 l
181.418 104.437 l
181.547 104.195 l
181.677 104.195 l
181.806 104.667 l
182.065 104.667 l
182.195 111.18 l
182.324 111.18 l
182.453 115.447 l
182.714 115.447 l
182.844 116.966 l
182.972 116.966 l
183.102 116.753 l
183.385 116.753 l
183.49 117.471 l
183.62 117.471 l
183.749 115.757 l
184.267 115.757 l
184.396 114.726 l
184.656 114.726 l
184.785 120.231 l
185.109 120.231 l
185.238 121.925 l
185.563 121.925 l
185.692 122.315 l
185.967 122.315 l
186.08 121.611 l
186.859 121.691 l
186.987 116.958 l
187.246 116.958 l
187.312 119.544 l
187.376 119.495 l
187.7 119.495 l
187.83 121.009 l
187.894 121.009 l
188.024 121.593 l
188.348 121.593 l
188.477 111.071 l
188.801 111.071 l
188.93 104.352 l
189.189 104.352 l
189.256 103.677 l
189.319 103.691 l
189.643 103.691 l
189.773 98.2569 l
190.096 98.2569 l
190.226 100.085 l
190.485 100.085 l
190.556 100.627 l
190.614 100.617 l
190.938 100.617 l
191.068 101.002 l
191.391 101.002 l
191.521 99.6673 l
191.781 99.6673 l
191.845 103.734 l
191.91 103.565 l
192.235 103.565 l
192.363 110.373 l
192.427 110.373 l
192.494 119.061 l
192.557 118.939 l
193.076 118.939 l
193.141 121.023 l
193.205 121.002 l
193.529 121.002 l
193.658 115.436 l
193.723 115.436 l
193.918 113.804 l
193.982 113.804 l
194.112 111.53 l
194.177 111.53 l
194.243 109.707 l
194.306 109.721 l
194.63 109.721 l
194.759 112.248 l
195.022 112.248 l
195.087 115.262 l
195.148 115.25 l
195.472 115.25 l
195.538 123.302 l
195.602 123.193 l
195.731 123.193 l
195.861 122.247 l
195.925 122.247 l
196.055 119.51 l
196.12 119.51 l
196.249 114.081 l
196.314 114.081 l
196.444 112.25 l
196.573 112.25 l
196.703 111.657 l
196.961 111.657 l
197.096 111.235 l
197.415 111.235 l
197.544 117.013 l
197.609 117.013 l
197.675 124.17 l
197.739 124.137 l
197.869 124.137 l
197.998 122.871 l
198.257 122.871 l
198.323 120.702 l
198.386 120.743 l
198.516 120.743 l
198.646 119.645 l
198.711 119.645 l
198.84 120.438 l
199.164 120.438 l
199.294 121.05 l
199.553 121.05 l
199.682 120.769 l
200.006 120.769 l
200.135 120.466 l
200.459 120.466 l
200.589 123.989 l
201.108 123.989 l
201.237 116.47 l
201.301 116.47 l
201.431 118.952 l
201.949 118.973 l
202.078 104.037 l
202.402 104.037 l
202.532 104.494 l
202.601 104.494 l
202.726 109.257 l
203.05 109.257 l
203.179 103.655 l
203.438 103.655 l
203.503 106.835 l
203.568 106.763 l
203.892 106.763 l
204.022 101.906 l
204.54 101.906 l
204.669 102.902 l
204.993 102.902 l
205.122 95.6592 l
205.449 95.6592 l
205.576 95.0065 l
205.834 95.0065 l
205.964 96.4466 l
206.288 96.4466 l
206.418 97.76 l
206.677 97.76 l
206.806 97.4841 l
207.13 97.4841 l
207.26 97.1863 l
207.988 97.2605 l
208.039 92.9094 l
208.102 92.9871 l
208.43 92.9871 l
208.555 90.4509 l
208.879 90.4509 l
209.008 96.726 l
209.073 96.726 l
209.203 103.731 l
209.527 103.731 l
209.656 105.444 l
209.721 105.444 l
209.851 103.149 l
210.175 103.149 l
210.304 102.376 l
210.369 102.376 l
210.498 99.8134 l
210.631 99.8134 l
210.757 98.3268 l
211.016 98.3268 l
211.146 98.7896 l
211.276 98.7896 l
211.405 100.538 l
211.664 100.538 l
211.793 99.778 l
212.117 99.778 l
212.247 100.621 l
212.572 100.621 l
212.7 101.082 l
212.765 101.082 l
212.894 100.869 l
212.96 100.869 l
213.089 100.658 l
213.219 100.658 l
213.348 100.492 l
213.607 100.492 l
213.736 104.752 l
214.061 104.752 l
214.191 103.803 l
214.255 103.803 l
214.384 103.036 l
214.708 103.036 l
214.838 100.128 l
214.908 100.128 l
215.097 103.153 l
215.161 103.153 l
215.291 104.886 l
215.55 104.886 l
215.679 110.502 l
215.809 110.502 l
215.939 109.495 l
216.028 109.495 l
216.133 112.652 l
216.198 112.652 l
216.327 100.288 l
216.652 100.288 l
216.78 97.1351 l
216.912 97.1351 l
217.04 97.8371 l
217.105 97.8371 l
217.234 101.616 l
217.558 101.616 l
217.688 100.936 l
217.947 100.936 l
218.076 103.88 l
218.4 103.88 l
218.53 101.363 l
218.853 101.363 l
218.983 97.3172 l
219.242 97.3172 l
219.372 93.6809 l
219.695 93.6809 l
219.825 100.09 l
220.149 100.09 l
220.278 103.332 l
220.537 103.332 l
220.667 109.082 l
220.991 109.082 l
221.12 113.93 l
221.444 113.93 l
221.574 95.5823 l
221.833 95.5823 l
221.962 95.0096 l
222.286 95.0096 l
222.416 95.5 l
222.739 95.5 l
222.868 95.1207 l
223.128 95.1207 l
223.257 95.5716 l
223.581 95.5716 l
223.711 95.2625 l
223.776 95.2625 l
223.905 95.494 l
224.229 95.494 l
224.359 89.4579 l
224.424 89.4579 l
224.553 91.5133 l
224.877 91.5133 l
225.006 92.2012 l
225.071 92.2012 l
225.138 93.0986 l
225.2 93.0827 l
225.525 93.0827 l
225.654 93.7846 l
225.978 93.7846 l
226.107 94.7135 l
226.172 94.7135 l
226.301 95.073 l
226.626 95.073 l
226.755 98.0692 l
227.079 98.0692 l
227.208 94.8055 l
227.469 94.8055 l
227.597 94.0836 l
227.923 94.0836 l
228.05 95.508 l
228.31 95.508 l
228.378 118.357 l
228.439 117.881 l
228.763 117.881 l
228.893 118.743 l
229.216 118.743 l
229.346 118.128 l
229.604 118.128 l
229.734 118.014 l
230.058 118.014 l
230.188 116.85 l
230.965 116.946 l
231.094 117.386 l
231.159 117.386 l
231.289 118.287 l
231.548 118.287 l
231.678 119.811 l
232.001 119.811 l
232.131 104.707 l
232.262 104.707 l
232.39 103.881 l
232.454 103.881 l
232.584 101.818 l
232.908 101.818 l
233.037 100.717 l
233.296 100.717 l
233.426 100.523 l
233.491 100.523 l
233.62 100.195 l
233.944 100.195 l
234.073 102.293 l
234.138 102.293 l
234.208 101.753 l
234.268 101.765 l
234.591 101.765 l
234.721 100.34 l
235.045 100.34 l
235.175 101.048 l
235.434 101.048 l
235.563 98.7351 l
235.888 98.7351 l
236.016 102.032 l
236.341 102.032 l
236.47 102.751 l
236.535 102.751 l
236.664 100.708 l
236.989 100.708 l
237.118 100.927 l
237.182 100.927 l
237.312 101.928 l
237.636 101.928 l
237.765 102.055 l
237.83 102.055 l
237.96 100.127 l
238.284 100.127 l
238.413 106.304 l
238.478 106.304 l
238.607 109.829 l
238.931 109.829 l
239.061 115.561 l
239.125 115.561 l
239.256 118.208 l
239.579 118.208 l
239.709 119.14 l
239.968 119.14 l
240.032 117.775 l
240.096 117.814 l
240.421 117.814 l
240.55 115.815 l
240.875 115.815 l
241.003 112.717 l
241.069 112.717 l
241.198 91.0486 l
241.523 91.0486 l
241.652 90.7321 l
241.91 90.7321 l
241.978 91.3317 l
242.04 91.3208 l
242.17 91.3208 l
242.299 92.4913 l
242.558 92.4913 l
242.623 96.3021 l
242.687 96.2623 l
242.818 96.2623 l
242.947 102.758 l
243.012 102.758 l
243.141 106.226 l
243.206 106.226 l
243.272 111.686 l
243.335 111.658 l
243.659 111.658 l
243.789 114.606 l
244.113 114.606 l
244.242 109.747 l
244.306 109.747 l
244.436 101.88 l
244.76 101.88 l
244.89 99.3707 l
244.954 99.3707 l
245.084 94.8843 l
245.408 94.8843 l
245.537 92.8961 l
245.796 92.8961 l
245.926 93.0716 l
246.249 93.0716 l
246.38 95.5011 l
246.705 95.5011 l
246.833 94.527 l
247.092 94.527 l
247.159 101.183 l
247.221 100.937 l
247.545 100.937 l
247.675 104.813 l
248.193 104.813 l
248.322 107.49 l
248.648 107.49 l
248.776 114.301 l
248.84 114.301 l
248.97 114.859 l
249.1 114.859 l
249.229 115.634 l
249.488 115.634 l
249.618 116.961 l
249.748 116.961 l
249.877 120.379 l
249.968 120.379 l
250.071 119.695 l
250.396 119.695 l
250.525 120.361 l
250.784 120.361 l
250.913 118.66 l
251.237 118.66 l
251.366 118.815 l
251.691 118.815 l
251.819 118.999 l
252.079 118.999 l
252.209 117.412 l
252.533 117.412 l
252.662 117.075 l
252.792 117.075 l
252.921 114.697 l
252.986 114.697 l
253.115 111.595 l
253.181 111.595 l
253.31 111.708 l
253.64 111.708 l
253.763 115.511 l
254.022 115.511 l
254.152 119.003 l
254.476 119.003 l
254.605 118.435 l
254.929 118.435 l
255.059 113.461 l
255.123 113.461 l
255.252 111.987 l
255.318 111.987 l
255.512 115.607 l
255.577 115.607 l
255.706 112.751 l
255.771 112.751 l
255.838 106.983 l
255.901 107.053 l
255.966 107.053 l
256.095 106.924 l
256.426 106.924 l
256.548 104.633 l
256.872 104.633 l
257.001 104.985 l
257.131 104.985 l
257.261 103.317 l
257.325 103.317 l
257.455 103.971 l
257.714 103.971 l
257.843 120.185 l
258.168 120.185 l
258.297 119.547 l
258.621 119.547 l
258.75 119.325 l
258.815 119.325 l
258.944 123.163 l
259.268 123.163 l
259.398 106.762 l
259.464 106.762 l
259.592 106.914 l
259.657 106.914 l
259.787 107.07 l
259.916 107.07 l
260.045 108.511 l
260.111 108.511 l
260.24 112.151 l
260.564 112.151 l
260.693 107.816 l
260.953 107.816 l
261.082 101.202 l
261.406 101.202 l
261.536 102.043 l
261.859 102.043 l
261.988 103.16 l
262.248 103.16 l
262.377 101.1 l
263.154 101.056 l
263.284 99.4819 l
263.544 99.4819 l
263.672 114.305 l
263.996 114.305 l
264.126 113.692 l
264.451 113.692 l
264.579 115.858 l
264.838 115.858 l
264.908 117.71 l
264.968 117.672 l
265.291 117.672 l
265.421 121.386 l
265.745 121.386 l
265.875 127.216 l
266.133 127.216 l
266.2 121.875 l
266.263 122.001 l
266.588 122.001 l
266.717 118.032 l
266.846 118.032 l
266.976 117.65 l
267.235 117.65 l
267.365 114.731 l
267.689 114.731 l
267.817 114.469 l
269.179 114.379 l
269.308 116.011 l
269.631 116.011 l
269.761 124.04 l
270.02 124.04 l
270.087 120.384 l
270.149 120.449 l
270.473 120.449 l
270.603 121.448 l
271.121 121.448 l
271.25 102.943 l
271.574 102.943 l
271.704 104.35 l
272.028 104.35 l
272.158 103.473 l
272.416 103.473 l
272.545 101.561 l
272.805 101.561 l
272.999 119.52 l
273.064 119.52 l
273.193 119.278 l
273.712 119.278 l
273.841 114.159 l
273.906 114.159 l
274.035 113.018 l
274.359 113.018 l
274.488 115.425 l
274.813 115.425 l
274.942 116.314 l
275.007 116.314 l
275.136 111.344 l
275.201 111.344 l
275.33 108.048 l
275.85 107.974 l
275.914 107.321 l
275.978 107.334 l
276.306 107.334 l
276.432 108.997 l
276.756 108.997 l
276.885 107.52 l
277.144 107.52 l
277.211 102.027 l
277.273 102.181 l
277.793 102.181 l
277.921 101.905 l
278.246 101.905 l
278.375 101.333 l
278.699 101.333 l
278.828 100.923 l
278.893 100.923 l
279.023 100.037 l
279.152 100.037 l
279.281 100.732 l
279.541 100.732 l
279.671 103.284 l
279.994 103.284 l
280.123 92.9431 l
280.188 92.9431 l
280.318 95.2128 l
280.383 95.2128 l
280.512 94.9081 l
280.836 94.9081 l
280.966 94.7106 l
281.03 94.7106 l
281.16 94.8653 l
281.29 94.8653 l
281.419 95.1435 l
281.678 95.1435 l
281.808 96.4369 l
282.585 96.4597 l
282.714 97.2162 l
282.779 97.2162 l
282.909 98.1524 l
283.233 98.1524 l
283.362 93.1888 l
283.426 93.1888 l
283.559 94.9362 l
283.88 94.9362 l
284.01 95.0864 l
284.074 95.0864 l
284.204 95.6841 l
284.53 95.6841 l
284.658 97.1121 l
284.916 97.1121 l
284.987 103.213 l
285.046 103.197 l
285.176 103.197 l
285.305 106.98 l
285.369 106.98 l
285.499 104.941 l
285.564 104.941 l
285.694 107.165 l
286.017 107.165 l
286.147 101.113 l
286.277 101.113 l
286.406 97.1713 l
286.664 97.1713 l
286.795 95.1323 l
287.507 95.0595 l
287.575 95.9048 l
287.637 95.8919 l
288.025 95.8919 l
288.155 95.7013 l
288.22 95.7013 l
288.349 95.5229 l
288.414 95.5229 l
288.543 103.3 l
288.609 103.3 l
288.737 105.092 l
288.867 105.092 l
288.997 109.982 l
289.256 109.982 l
289.385 108.154 l
289.71 108.154 l
289.838 111.722 l
290.163 111.722 l
290.291 114.491 l
290.551 114.491 l
290.68 113.054 l
290.81 113.054 l
290.94 114.541 l
291.199 114.541 l
291.328 113.09 l
291.653 113.09 l
291.781 102.034 l
292.106 102.034 l
292.235 100.678 l
292.494 100.678 l
292.624 101.931 l
292.972 101.931 l
293.077 103.647 l
293.157 103.647 l
293.272 104.021 l
293.595 104.021 l
293.725 102.783 l
294.049 102.783 l
294.178 105.733 l
294.243 105.733 l
294.372 111.001 l
294.437 111.001 l
294.566 109.856 l
294.891 109.856 l
295.02 108.755 l
295.085 108.755 l
295.15 107.663 l
295.214 107.67 l
295.344 107.67 l
295.473 108.777 l
295.539 108.777 l
295.668 112.826 l
295.992 112.826 l
296.121 114.381 l
296.445 114.381 l
296.575 115.549 l
296.841 115.549 l
296.963 115.418 l
297.093 115.418 l
297.223 117.474 l
297.483 117.474 l
297.614 117.229 l
297.935 117.229 l
298.064 97.9379 l
298.388 97.9379 l
298.518 94.6365 l
298.809 94.6365 l
298.906 95.5222 l
299.23 95.5222 l
299.36 95.2793 l
299.425 95.2793 l
299.554 94.6941 l
300.331 94.7839 l
300.461 96.1965 l
300.53 96.1965 l
300.656 100.62 l
301.627 100.713 l
301.691 97.1077 l
301.757 97.1214 l
302.017 97.1214 l
302.145 97.4689 l
302.468 97.4689 l
302.598 100.54 l
302.664 100.54 l
302.792 101.214 l
302.922 101.214 l
303.052 100.351 l
303.116 100.351 l
303.247 100.17 l
303.57 100.17 l
303.699 100.367 l
304.023 100.367 l
304.153 98.5379 l
304.414 98.5379 l
304.541 98.0121 l
304.613 98.0121 l
304.735 97.4953 l
304.865 97.4953 l
304.994 98.7967 l
305.253 98.7967 l
305.385 99.201 l
305.513 99.201 l
305.641 93.3531 l
305.901 93.3531 l
306.031 93.0056 l
306.355 93.0056 l
306.484 94.5208 l
306.808 94.5208 l
306.937 96.6114 l
307.002 96.6114 l
307.132 95.731 l
307.196 95.731 l
307.391 95.9486 l
307.456 95.9486 l
307.585 96.45 l
307.652 96.45 l
307.779 91.2745 l
307.909 91.2745 l
308.039 89.017 l
308.299 89.017 l
308.427 90.4614 l
308.751 90.4614 l
308.881 92.1359 l
308.946 92.1359 l
309.075 91.0248 l
309.399 91.0248 l
309.528 89.2027 l
309.787 89.2027 l
309.856 88.4835 l
309.917 88.4908 l
310.241 88.4908 l
310.37 90.2416 l
310.695 90.2416 l
310.824 95.4104 l
311.082 95.4104 l
311.277 94.3774 l
311.536 94.3774 l
311.665 94.026 l
311.99 94.026 l
312.119 97.2432 l
312.443 97.2432 l
312.572 99.4822 l
312.831 99.4822 l
312.961 93.4807 l
313.285 93.4807 l
313.414 92.7473 l
313.479 92.7473 l
313.608 93.8 l
313.933 93.8 l
314.063 82.8744 l
314.386 82.8744 l
314.515 89.8003 l
314.774 89.8003 l
314.904 94.0345 l
315.228 94.0345 l
315.357 96.6485 l
315.617 96.6485 l
315.745 97.4152 l
316.07 97.4152 l
316.199 98.4871 l
316.523 98.4871 l
316.655 100.05 l
316.912 100.05 l
316.976 101.026 l
317.041 101.014 l
317.365 101.014 l
317.495 105.499 l
317.818 105.499 l
317.948 101.426 l
318.013 101.426 l
318.142 99.1908 l
318.467 99.1908 l
318.596 97.8247 l
318.855 97.8247 l
318.984 98.12 l
319.308 98.12 l
319.438 90.425 l
319.762 90.425 l
319.891 88.0991 l
320.215 88.0991 l
320.344 86.7813 l
320.603 86.7813 l
320.733 88.4893 l
321.057 88.4893 l
321.186 93.516 l
321.445 93.516 l
321.514 90.2769 l
321.576 90.4172 l
321.898 90.4172 l
322.028 89.5355 l
322.742 89.492 l
322.87 89.1304 l
323 89.1304 l
323.13 91.2342 l
323.194 91.2342 l
323.323 91.8534 l
323.388 91.8534 l
323.471 93.587 l
323.518 93.58 l
323.842 93.58 l
323.971 96.8191 l
324.489 96.7309 l
324.619 96.2618 l
324.684 96.2618 l
324.813 96.6304 l
325.008 96.6304 l
325.137 97.0993 l
325.396 97.0993 l
325.526 100.9 l
325.594 100.9 l
325.72 95.4482 l
325.979 95.4482 l
326.044 99.4978 l
326.109 99.4124 l
326.432 99.4124 l
326.498 121.577 l
326.562 121.071 l
326.889 121.071 l
327.016 124.064 l
327.341 124.064 l
327.469 125.399 l
327.728 125.399 l
327.857 108.651 l
328.182 108.651 l
328.311 102.751 l
328.635 102.751 l
328.764 94.4878 l
329.024 94.4878 l
329.153 95.8508 l
329.283 95.8508 l
329.412 95.9997 l
329.931 95.9008 l
330.059 99.405 l
330.319 99.405 l
330.448 98.6907 l
330.578 98.6907 l
330.707 94.9466 l
330.966 94.9466 l
331.096 94.5306 l
331.226 94.5306 l
331.355 94.4139 l
331.614 94.4139 l
331.744 93.5663 l
331.873 93.5663 l
332.003 94.8474 l
332.262 94.8474 l
332.391 100.977 l
332.715 100.977 l
332.844 103.359 l
333.169 103.359 l
333.298 98.579 l
333.363 98.579 l
333.492 98.1938 l
333.557 98.1938 l
333.752 96.0369 l
333.816 96.0369 l
333.946 96.243 l
334.205 96.243 l
334.334 95.8994 l
334.66 95.8994 l
334.79 97.2925 l
335.306 97.2223 l
335.435 97.5073 l
335.759 97.5073 l
335.889 96.5752 l
336.213 96.5752 l
336.342 94.4567 l
336.624 94.4567 l
336.731 93.6924 l
337.055 93.6924 l
337.184 89.8187 l
337.508 89.8187 l
337.637 91.3275 l
337.897 91.3275 l
338.026 92.6434 l
338.544 92.6434 l
338.674 94.4273 l
338.998 94.4273 l
339.128 94.9097 l
339.193 94.9097 l
339.321 91.9556 l
339.646 91.9556 l
339.775 93.1733 l
339.84 93.1733 l
339.969 94.5212 l
340.293 94.5212 l
340.422 95.8254 l
340.941 95.8064 l
341.07 95.5342 l
341.394 95.5483 l
341.524 97.3734 l
341.588 97.3734 l
341.718 95.6659 l
342.042 95.6659 l
342.171 96.0051 l
342.43 96.0051 l
342.56 96.914 l
342.884 96.914 l
343.014 97.7945 l
343.078 97.7945 l
343.145 97.324 l
343.207 97.3382 l
343.337 97.3382 l
343.467 99.3331 l
343.725 99.3331 l
343.795 97.8673 l
343.855 97.8707 l
344.18 97.8707 l
344.308 94.7399 l
344.568 94.7399 l
344.762 96.349 l
345.021 96.349 l
345.089 98.5651 l
345.15 98.5254 l
345.474 98.5254 l
345.603 97.1093 l
345.94 97.1093 l
346.057 94.1225 l
346.382 94.1225 l
346.511 93.6869 l
346.579 93.6869 l
346.705 97.3169 l
346.963 97.3169 l
347.035 99.1809 l
347.094 99.1554 l
347.418 99.1554 l
347.547 98.7177 l
347.612 98.7177 l
347.742 98.5824 l
347.871 98.5824 l
348 98.9305 l
348.259 98.9305 l
348.325 96.2601 l
348.389 96.283 l
348.713 96.283 l
348.842 95.9133 l
349.167 95.9133 l
349.296 97.0373 l
349.557 97.0373 l
349.684 96.0675 l
350.008 96.0675 l
350.138 97.3519 l
350.461 97.3519 l
350.591 99.3103 l
350.658 99.3103 l
350.785 94.3671 l
351.109 94.3671 l
351.239 92.6919 l
351.757 92.6919 l
351.886 93.7221 l
352.145 93.7221 l
352.21 95.1155 l
352.275 95.1049 l
352.405 95.1049 l
352.534 96.09 l
352.793 96.0816 l
352.922 96.6638 l
353.053 96.6638 l
353.181 95.8546 l
353.246 95.8546 l
353.376 94.424 l
353.7 94.424 l
353.83 92.6342 l
353.894 92.6342 l
354.024 92.0893 l
354.348 92.0893 l
354.48 92.9535 l
354.542 92.9535 l
354.671 96.9421 l
354.996 96.9421 l
355.125 98.8516 l
355.449 98.8516 l
355.578 99.1625 l
355.837 99.1625 l
355.968 100.516 l
356.032 100.516 l
356.161 100.635 l
356.485 100.635 l
356.614 102.819 l
356.744 102.819 l
356.874 101.269 l
357.132 101.269 l
357.262 96.2491 l
357.586 96.2491 l
357.717 97.9621 l
357.78 97.9621 l
357.91 95.3552 l
358.234 95.3552 l
358.363 99.3807 l
358.428 99.3807 l
358.557 100.153 l
358.882 100.153 l
359.011 98.453 l
359.076 98.453 l
359.206 99.0346 l
359.529 99.0346 l
359.658 100.32 l
359.917 100.32 l
359.986 87.4028 l
360.047 87.6478 l
360.177 87.6478 l
360.306 94.327 l
360.371 94.327 l
360.501 109.861 l
360.631 109.861 l
360.759 120.954 l
361.019 120.954 l
361.148 121.753 l
361.472 121.753 l
361.601 91.2559 l
361.667 91.2559 l
361.796 90.5195 l
362.12 90.5195 l
362.25 91.7746 l
362.313 91.7746 l
362.443 94.3717 l
363.221 94.2831 l
363.35 93.6653 l
363.416 93.6653 l
363.545 97.5911 l
363.803 97.5911 l
363.873 106.593 l
363.933 106.26 l
364.451 106.26 l
364.581 100.492 l
364.907 100.492 l
365.034 89.2327 l
365.358 89.2327 l
365.488 93.1214 l
365.815 93.1214 l
365.941 92.2142 l
366.006 92.2142 l
366.135 98.5747 l
366.461 98.5747 l
366.589 96.6666 l
366.675 96.6666 l
366.783 94.2894 l
366.913 94.2894 l
367.042 95.5366 l
367.301 95.5366 l
367.431 98.6951 l
367.497 98.6951 l
367.625 99.025 l
367.951 99.025 l
368.078 96.2884 l
368.143 96.2884 l
368.273 94.3193 l
368.406 94.3193 l
368.531 95.2764 l
368.597 95.2764 l
368.726 96.026 l
368.791 96.026 l
368.92 93.2069 l
369.244 93.2069 l
369.374 89.7364 l
369.699 89.7364 l
369.827 87.58 l
369.916 87.58 l
370.021 88.4353 l
370.351 88.4353 l
370.475 90.6179 l
370.54 90.6179 l
370.669 91.0791 l
370.734 91.0791 l
370.928 91.79 l
371.005 91.79 l
371.122 90.9928 l
371.381 90.9928 l
371.511 89.449 l
371.835 89.449 l
371.965 88.0174 l
372.029 88.0174 l
372.158 85.6365 l
372.289 85.6365 l
372.418 84.4117 l
372.507 84.4117 l
372.613 83.6876 l
372.936 83.6876 l
373.066 84.4857 l
373.325 84.4857 l
373.454 85.1798 l
373.781 85.1798 l
373.907 84.7218 l
373.972 84.7218 l
374.102 85.263 l
374.426 85.263 l
374.555 86.8003 l
374.879 86.8003 l
375.008 86.9235 l
375.074 86.9235 l
375.203 86.7285 l
375.527 86.7285 l
375.657 86.2543 l
375.98 86.2543 l
376.109 85.5147 l
376.369 85.5147 l
376.498 85.3509 l
376.822 85.3509 l
376.952 83.7962 l
377.016 83.7962 l
377.146 84.146 l
377.664 84.146 l
377.794 84.5879 l
377.923 84.5879 l
378.052 86.8942 l
378.313 86.8942 l
378.442 88.0352 l
378.766 88.0352 l
378.894 88.7215 l
379.218 88.7215 l
379.348 89.619 l
379.609 89.619 l
379.737 86.2116 l
380.06 86.2116 l
380.19 86.4033 l
380.514 86.4033 l
380.644 89.272 l
380.902 89.272 l
381.032 88.9855 l
381.162 88.9855 l
381.291 88.6153 l
381.55 88.6153 l
381.681 89.0642 l
382.004 89.0642 l
382.133 88.5997 l
382.457 88.5997 l
382.587 85.3978 l
382.845 85.3978 l
382.91 83.2329 l
382.975 83.2692 l
383.299 83.2692 l
383.428 83.9645 l
383.493 83.9645 l
383.56 83.0323 l
383.623 83.0369 l
383.947 83.0369 l
384.076 79.7075 l
384.207 79.7075 l
384.335 78.573 l
384.613 78.573 l
384.723 80.476 l
385.048 80.476 l
385.178 81.0466 l
385.436 81.0466 l
385.501 82.4254 l
385.565 82.3961 l
385.695 82.3961 l
385.824 83.9964 l
386.149 83.9964 l
386.278 85.6775 l
386.538 85.6775 l
386.667 89.5265 l
386.991 89.5265 l
387.12 91.579 l
387.379 91.579 l
387.446 89.8905 l
387.508 89.9232 l
387.833 89.9232 l
387.962 86.3789 l
388.287 86.3789 l
388.416 82.5503 l
388.675 82.5503 l
388.742 80.466 l
388.804 80.4767 l
389.128 80.4767 l
389.257 80.8077 l
389.581 80.8077 l
389.711 81.7953 l
389.971 81.7953 l
390.037 80.5478 l
390.1 80.5564 l
390.877 80.5013 l
391.006 81.2869 l
391.071 81.2869 l
391.2 82.2229 l
391.333 82.2229 l
391.46 82.0689 l
392.172 81.9862 l
392.302 82.256 l
392.56 82.256 l
392.63 83.5806 l
392.69 83.5671 l
393.014 83.5671 l
393.143 83.9273 l
393.467 83.9273 l
393.597 85.8912 l
393.855 85.8912 l
393.997 86.0925 l
394.309 86.0925 l
394.439 85.6895 l
394.957 85.6895 l
395.087 85.8936 l
395.41 85.8936 l
395.541 86.5403 l
395.605 86.5403 l
395.735 86.7644 l
396.058 86.7644 l
396.187 86.3636 l
396.252 86.3636 l
396.382 85.3656 l
397.094 85.4411 l
397.224 83.3663 l
397.483 83.4081 l
397.548 83.4081 l
397.677 83.7139 l
397.742 83.7139 l
397.872 84.2629 l
398.649 84.1861 l
398.779 87.1741 l
399.037 87.1741 l
399.102 83.9703 l
399.167 84.0745 l
399.75 84.0399 l
399.879 82.8405 l
399.944 82.8405 l
400.074 83.4973 l
400.398 83.4973 l
400.527 84.2796 l
400.786 84.2796 l
400.915 84.0487 l
401.434 83.9781 l
401.628 84.6103 l
401.758 84.7247 l
401.888 84.7247 l
402.017 85.3434 l
402.082 85.3434 l
402.212 86.5337 l
402.56 86.5337 l
402.665 88.0931 l
402.923 88.0931 l
402.99 88.8184 l
403.053 88.8006 l
403.376 88.8006 l
403.506 87.1446 l
403.57 87.1446 l
403.644 85.6788 l
403.7 85.6886 l
404.026 85.6886 l
404.154 85.3496 l
404.485 85.3496 l
404.608 84.9073 l
404.867 84.9073 l
404.996 85.9107 l
405.126 85.9107 l
405.255 85.6915 l
405.514 85.6915 l
405.579 82.6898 l
405.644 82.7284 l
405.968 82.7284 l
406.097 82.1586 l
406.421 82.1586 l
406.55 82.7079 l
406.874 82.7079 l
407.004 82.1532 l
407.263 82.1532 l
407.457 82.3101 l
407.522 82.3101 l
407.651 82.1195 l
407.717 82.1195 l
407.846 84.3604 l
408.173 84.3604 l
408.299 83.7591 l
408.364 83.7591 l
408.493 84.0087 l
408.818 84.0087 l
408.947 83.1241 l
409.206 83.1241 l
409.335 83.8263 l
409.66 83.8263 l
409.789 85.0351 l
409.855 85.0351 l
409.983 85.4481 l
410.113 85.4481 l
410.242 86.912 l
410.307 86.912 l
410.436 87.2528 l
410.566 87.2528 l
410.696 88.7827 l
410.955 88.7827 l
411.085 87.4109 l
411.408 87.4109 l
411.537 85.821 l
411.801 85.821 l
411.926 85.137 l
412.25 85.137 l
412.379 84.1747 l
412.445 84.1747 l
412.574 85.3201 l
412.898 85.3201 l
413.027 87.3439 l
413.092 87.3439 l
413.222 86.1633 l
413.546 86.1633 l
413.675 86.9651 l
413.804 86.9651 l
413.934 85.0774 l
414.453 85.0774 l
414.582 85.5272 l
415.1 85.6078 l
415.229 83.549 l
415.294 83.549 l
415.424 82.1117 l
415.489 82.1117 l
415.618 83.4137 l
415.748 83.4137 l
415.877 83.7352 l
416.136 83.7352 l
416.266 79.7115 l
416.59 79.7115 l
416.719 81.7643 l
416.784 81.7643 l
416.913 82.8281 l
417.237 82.8281 l
417.367 82.2071 l
417.691 82.2071 l
417.821 80.8326 l
418.079 80.8326 l
418.209 79.8449 l
418.532 79.8449 l
418.662 81.6628 l
418.986 81.6628 l
419.115 83.5465 l
419.378 83.5465 l
419.504 84.7358 l
419.828 84.7358 l
419.958 86.0327 l
420.281 86.0327 l
420.411 86.3106 l
420.67 86.3106 l
420.799 86.5698 l
421.124 86.5698 l
421.253 86.9073 l
421.577 86.9073 l
421.706 87.4633 l
421.965 87.4633 l
422.031 86.8737 l
422.095 86.8812 l
422.613 86.8812 l
422.682 85.8865 l
422.742 85.8963 l
423.067 85.8963 l
423.196 85.6717 l
423.52 85.6717 l
423.649 87.5804 l
423.908 87.5804 l
423.974 92.8759 l
424.037 92.7911 l
424.362 92.7911 l
424.491 90.4716 l
425.009 90.3754 l
425.139 87.3442 l
425.204 87.3442 l
425.272 85.5394 l
425.333 85.5419 l
425.657 85.5419 l
425.786 85.3773 l
425.851 85.3773 l
425.917 86.8322 l
425.98 86.8262 l
426.305 86.8262 l
426.434 86.7137 l
426.758 86.7137 l
426.888 87.1743 l
427.212 87.1743 l
427.341 86.3777 l
427.6 86.3777 l
427.73 84.3237 l
428.053 84.3237 l
428.183 84.8213 l
428.443 84.8213 l
428.571 83.6821 l
429.089 83.7743 l
429.155 82.5185 l
429.219 82.5709 l
429.543 82.5709 l
429.673 83.07 l
429.738 83.07 l
429.804 83.9264 l
429.867 83.9193 l
430.19 83.9193 l
430.32 84.3297 l
430.385 84.3297 l
430.514 84.1236 l
431.486 84.031 l
431.615 86.1218 l
431.94 86.1218 l
432.069 86.2447 l
432.328 86.2447 l
432.393 85.7182 l
432.458 85.7315 l
432.781 85.7315 l
432.911 86.1985 l
433.235 86.1985 l
433.365 84.4246 l
433.623 84.4246 l
433.753 84.182 l
434.077 84.182 l
434.207 83.8547 l
434.53 83.8547 l
434.659 83.6025 l
434.725 83.6025 l
434.854 84.9383 l
435.178 84.9383 l
435.307 83.9482 l
435.373 83.9482 l
435.502 83.6819 l
436.02 83.6819 l
436.149 84.5399 l
436.214 84.5399 l
436.344 85.5514 l
437.121 85.559 l
437.251 85.3776 l
437.509 85.3776 l
437.578 86.1287 l
437.639 86.1193 l
437.963 86.1193 l
438.093 87.2101 l
438.157 87.2101 l
438.223 84.592 l
438.287 84.654 l
438.416 84.654 l
438.546 83.2289 l
438.611 83.2289 l
438.74 84.2799 l
439.065 84.2799 l
439.193 84.6989 l
439.258 84.6989 l
439.388 85.7362 l
439.712 85.7362 l
439.841 85.92 l
439.906 85.92 l
440.1 85.673 l
440.25 84.8078 l
440.386 84.8078 l
440.488 85.3886 l
440.748 85.3886 l
440.878 84.9905 l
441.007 84.9905 l
441.137 83.6455 l
441.234 83.6455 l
441.331 84.2841 l
441.655 84.2841 l
441.784 84.7398 l
441.849 84.7398 l
442.043 85.3777 l
442.496 85.4045 l
442.626 85.5649 l
442.951 85.5649 l
443.08 85.2661 l
443.996 85.1655 l
444.052 83.5443 l
444.116 83.5716 l
444.442 83.5716 l
444.57 83.9929 l
444.895 83.9929 l
445.023 84.693 l
445.088 84.693 l
445.217 85.1105 l
445.346 85.1105 l
445.476 86.1164 l
445.541 86.1164 l
445.672 85.899 l
445.994 85.899 l
446.124 88.5275 l
446.383 88.5275 l
446.513 97.5913 l
446.836 97.5913 l
446.965 105.995 l
447.03 105.995 l
447.16 113.435 l
447.289 113.435 l
447.419 115.078 l
447.678 115.078 l
447.807 117.238 l
448.16 117.238 l
448.261 123.895 l
448.585 123.895 l
448.715 146.348 l
448.781 146.348 l
448.908 145.405 l
448.974 145.405 l
449.103 143.667 l
449.427 143.667 l
449.556 148.187 l
449.88 148.187 l
450.009 148.743 l
450.269 148.743 l
450.398 142.443 l
450.722 142.443 l
450.852 142.655 l
451.175 142.655 l
451.305 141.057 l
451.565 141.057 l
451.694 146.114 l
452.018 146.114 l
452.147 142.079 l
452.212 142.079 l
452.276 131.58 l
452.342 131.666 l
452.473 131.666 l
452.601 121.556 l
452.859 121.556 l
452.989 118.746 l
453.313 118.746 l
453.442 64.2525 l
453.572 64.2525 l
453.701 56.3418 l
453.766 56.3418 l
453.896 50.9372 l
454.154 50.9372 l
454.285 52.3283 l
505.451 52.3283 l
505.451 52.3283 l
stroke
grestore
0.000 0.000 1.000 setrgbcolor
gsave
453.4 226.6 73.12 40.7 clipbox
73.125 255.97 m
152.66 255.97 l
153.503 205.131 l
154.215 175.339 l
154.928 154.028 l
155.641 138.785 l
156.352 127.881 l
157.065 120.082 l
157.777 114.503 l
158.49 110.512 l
159.203 107.658 l
159.915 105.616 l
160.694 104.045 l
161.469 102.956 l
162.311 102.148 l
163.283 101.538 l
164.383 101.113 l
165.808 100.807 l
167.881 100.607 l
171.638 100.507 l
172.998 100.497 l
173.84 103.894 l
174.552 105.885 l
175.329 107.417 l
175.588 107.815 l
176.365 108.756 l
177.272 109.496 l
178.309 110.033 l
179.539 110.408 l
181.223 110.671 l
183.814 110.823 l
189.578 110.883 l
234.657 110.86 l
236.859 110.675 l
241.069 110.587 l
260.111 110.573 l
310.888 110.573 l
311.73 104.876 l
312.507 101.286 l
313.285 98.7957 l
313.997 97.1887 l
314.775 95.9525 l
315.617 95.0365 l
316.523 94.3819 l
317.56 93.9071 l
318.855 93.5621 l
320.734 93.321 l
323.713 93.1928 l
331.485 93.1521 l
380.319 93.151 l
381.162 90.9145 l
382.392 88.8918 l
383.234 88.0479 l
384.207 87.4109 l
385.242 86.9866 l
386.667 86.6567 l
388.675 86.4455 l
392.366 86.3347 l
404.608 86.3111 l
459.012 86.311 l
459.855 78.2158 l
460.567 73.4719 l
461.279 70.0785 l
461.993 67.6513 l
462.704 65.9151 l
463.482 64.5795 l
464.259 63.6529 l
465.165 62.9238 l
466.201 62.395 l
467.497 62.0108 l
469.246 61.7541 l
472.031 61.6072 l
478.508 61.5554 l
505.451 61.5528 l
505.451 61.5528 l
stroke
grestore
0.500 setlinewidth
0 setlinecap
[1 3] 0 setdash
0.000 setgray
gsave
453.4 226.6 73.12 40.7 clipbox
73.125 40.6968 m
73.125 267.3 l
stroke
grestore
[] 0 setdash
gsave
/o {
gsave
newpath
translate
0.5 setlinewidth
1 setlinejoin
0 setlinecap
0 0 m
0 4 l
gsave
0.000 setgray
fill
grestore
stroke
grestore
} bind def
73.125 40.6968 o
grestore
gsave
/o {
gsave
newpath
translate
0.5 setlinewidth
1 setlinejoin
0 setlinecap
0 0 m
0 -4 l
gsave
0.000 setgray
fill
grestore
stroke
grestore
} bind def
73.125 267.3 o
grestore
/DejaVuSans findfont
12.000 scalefont
setfont
gsave
70.101562 27.618668 translate
0.000000 rotate
0.000000 0.171875 m /zero glyphshow
grestore
[1 3] 0 setdash
gsave
453.4 226.6 73.12 40.7 clipbox
137.893 40.6968 m
137.893 267.3 l
stroke
grestore
[] 0 setdash
gsave
/o {
gsave
newpath
translate
0.5 setlinewidth
1 setlinejoin
0 setlinecap
0 0 m
0 4 l
gsave
0.000 setgray
fill
grestore
stroke
grestore
} bind def
137.893 40.6968 o
grestore
gsave
/o {
gsave
newpath
translate
0.5 setlinewidth
1 setlinejoin
0 setlinecap
0 0 m
0 -4 l
gsave
0.000 setgray
fill
grestore
stroke
grestore
} bind def
137.893 267.3 o
grestore
gsave
131.306920 27.618668 translate
0.000000 rotate
0.000000 0.171875 m /one glyphshow
7.634766 0.171875 m /zero glyphshow
grestore
[1 3] 0 setdash
gsave
453.4 226.6 73.12 40.7 clipbox
202.661 40.6968 m
202.661 267.3 l
stroke
grestore
[] 0 setdash
gsave
/o {
gsave
newpath
translate
0.5 setlinewidth
1 setlinejoin
0 setlinecap
0 0 m
0 4 l
gsave
0.000 setgray
fill
grestore
stroke
grestore
} bind def
202.661 40.6968 o
grestore
gsave
/o {
gsave
newpath
translate
0.5 setlinewidth
1 setlinejoin
0 setlinecap
0 0 m
0 -4 l
gsave
0.000 setgray
fill
grestore
stroke
grestore
} bind def
202.661 267.3 o
grestore
gsave
195.856027 27.618668 translate
0.000000 rotate
0.000000 0.171875 m /two glyphshow
7.634766 0.171875 m /zero glyphshow
grestore
[1 3] 0 setdash
gsave
453.4 226.6 73.12 40.7 clipbox
267.429 40.6968 m
267.429 267.3 l
stroke
grestore
[] 0 setdash
gsave
/o {
gsave
newpath
translate
0.5 setlinewidth
1 setlinejoin
0 setlinecap
0 0 m
0 4 l
gsave
0.000 setgray
fill
grestore
stroke
grestore
} bind def
267.429 40.6968 o
grestore
gsave
/o {
gsave
newpath
translate
0.5 setlinewidth
1 setlinejoin
0 setlinecap
0 0 m
0 -4 l
gsave
0.000 setgray
fill
grestore
stroke
grestore
} bind def
267.429 267.3 o
grestore
gsave
260.647321 27.618668 translate
0.000000 rotate
0.000000 0.171875 m /three glyphshow
7.634766 0.171875 m /zero glyphshow
grestore
[1 3] 0 setdash
gsave
453.4 226.6 73.12 40.7 clipbox
332.196 40.6968 m
332.196 267.3 l
stroke
grestore
[] 0 setdash
gsave
/o {
gsave
newpath
translate
0.5 setlinewidth
1 setlinejoin
0 setlinecap
0 0 m
0 4 l
gsave
0.000 setgray
fill
grestore
stroke
grestore
} bind def
332.196 40.6968 o
grestore
gsave
/o {
gsave
newpath
translate
0.5 setlinewidth
1 setlinejoin
0 setlinecap
0 0 m
0 -4 l
gsave
0.000 setgray
fill
grestore
stroke
grestore
} bind def
332.196 267.3 o
grestore
gsave
325.251116 27.618668 translate
0.000000 rotate
0.000000 0.171875 m /four glyphshow
7.634766 0.171875 m /zero glyphshow
grestore
[1 3] 0 setdash
gsave
453.4 226.6 73.12 40.7 clipbox
396.964 40.6968 m
396.964 267.3 l
stroke
grestore
[] 0 setdash
gsave
/o {
gsave
newpath
translate
0.5 setlinewidth
1 setlinejoin
0 setlinecap
0 0 m
0 4 l
gsave
0.000 setgray
fill
grestore
stroke
grestore
} bind def
396.964 40.6968 o
grestore
gsave
/o {
gsave
newpath
translate
0.5 setlinewidth
1 setlinejoin
0 setlinecap
0 0 m
0 -4 l
gsave
0.000 setgray
fill
grestore
stroke
grestore
} bind def
396.964 267.3 o
grestore
gsave
390.183036 27.618668 translate
0.000000 rotate
0.000000 0.171875 m /five glyphshow
7.634766 0.171875 m /zero glyphshow
grestore
[1 3] 0 setdash
gsave
453.4 226.6 73.12 40.7 clipbox
461.732 40.6968 m
461.732 267.3 l
stroke
grestore
[] 0 setdash
gsave
/o {
gsave
newpath
translate
0.5 setlinewidth
1 setlinejoin
0 setlinecap
0 0 m
0 4 l
gsave
0.000 setgray
fill
grestore
stroke
grestore
} bind def
461.732 40.6968 o
grestore
gsave
/o {
gsave
newpath
translate
0.5 setlinewidth
1 setlinejoin
0 setlinecap
0 0 m
0 -4 l
gsave
0.000 setgray
fill
grestore
stroke
grestore
} bind def
461.732 267.3 o
grestore
gsave
454.911830 27.618668 translate
0.000000 rotate
0.000000 0.171875 m /six glyphshow
7.634766 0.171875 m /zero glyphshow
grestore
[1 3] 0 setdash
gsave
453.4 226.6 73.12 40.7 clipbox
526.5 40.6968 m
526.5 267.3 l
stroke
grestore
[] 0 setdash
gsave
/o {
gsave
newpath
translate
0.5 setlinewidth
1 setlinejoin
0 setlinecap
0 0 m
0 4 l
gsave
0.000 setgray
fill
grestore
stroke
grestore
} bind def
526.5 40.6968 o
grestore
gsave
/o {
gsave
newpath
translate
0.5 setlinewidth
1 setlinejoin
0 setlinecap
0 0 m
0 -4 l
gsave
0.000 setgray
fill
grestore
stroke
grestore
} bind def
526.5 267.3 o
grestore
gsave
519.750000 27.618668 translate
0.000000 rotate
0.000000 0.171875 m /seven glyphshow
7.634766 0.171875 m /zero glyphshow
grestore
/DejaVuSans findfont
18.000 scalefont
setfont
gsave
265.671875 6.571793 translate
0.000000 rotate
0.000000 2.375000 m /t glyphshow
7.057617 2.375000 m /i glyphshow
12.058594 2.375000 m /m glyphshow
29.592773 2.375000 m /e glyphshow
40.666992 2.375000 m /space glyphshow
46.388672 2.375000 m /bracketleft glyphshow
53.411133 2.375000 m /s glyphshow
62.789062 2.375000 m /bracketright glyphshow
grestore
[1 3] 0 setdash
gsave
453.4 226.6 73.12 40.7 clipbox
73.125 40.6968 m
526.5 40.6968 l
stroke
grestore
[] 0 setdash
gsave
/o {
gsave
newpath
translate
0.5 setlinewidth
1 setlinejoin
0 setlinecap
0 0 m
4 0 l
gsave
0.000 setgray
fill
grestore
stroke
grestore
} bind def
73.125 40.6968 o
grestore
gsave
/o {
gsave
newpath
translate
0.5 setlinewidth
1 setlinejoin
0 setlinecap
0 0 m
-4 0 l
gsave
0.000 setgray
fill
grestore
stroke
grestore
} bind def
526.5 40.6968 o
grestore
/DejaVuSans findfont
12.000 scalefont
setfont
gsave
38.203125 36.157731 translate
0.000000 rotate
0.000000 0.171875 m /minus glyphshow
10.054688 0.171875 m /one glyphshow
17.689453 0.171875 m /zero glyphshow
25.324219 0.171875 m /zero glyphshow
grestore
[1 3] 0 setdash
gsave
453.4 226.6 73.12 40.7 clipbox
73.125 97.3476 m
526.5 97.3476 l
stroke
grestore
[] 0 setdash
gsave
/o {
gsave
newpath
translate
0.5 setlinewidth
1 setlinejoin
0 setlinecap
0 0 m
4 0 l
gsave
0.000 setgray
fill
grestore
stroke
grestore
} bind def
73.125 97.3476 o
grestore
gsave
/o {
gsave
newpath
translate
0.5 setlinewidth
1 setlinejoin
0 setlinecap
0 0 m
-4 0 l
gsave
0.000 setgray
fill
grestore
stroke
grestore
} bind def
526.5 97.3476 o
grestore
gsave
45.843750 92.808532 translate
0.000000 rotate
0.000000 0.171875 m /minus glyphshow
10.054688 0.171875 m /five glyphshow
17.689453 0.171875 m /zero glyphshow
grestore
[1 3] 0 setdash
gsave
453.4 226.6 73.12 40.7 clipbox
73.125 153.998 m
526.5 153.998 l
stroke
grestore
[] 0 setdash
gsave
/o {
gsave
newpath
translate
0.5 setlinewidth
1 setlinejoin
0 setlinecap
0 0 m
4 0 l
gsave
0.000 setgray
fill
grestore
stroke
grestore
} bind def
73.125 153.998 o
grestore
gsave
/o {
gsave
newpath
translate
0.5 setlinewidth
1 setlinejoin
0 setlinecap
0 0 m
-4 0 l
gsave
0.000 setgray
fill
grestore
stroke
grestore
} bind def
526.5 153.998 o
grestore
gsave
63.078125 149.459334 translate
0.000000 rotate
0.000000 0.171875 m /zero glyphshow
grestore
[1 3] 0 setdash
gsave
453.4 226.6 73.12 40.7 clipbox
73.125 210.649 m
526.5 210.649 l
stroke
grestore
[] 0 setdash
gsave
/o {
gsave
newpath
translate
0.5 setlinewidth
1 setlinejoin
0 setlinecap
0 0 m
4 0 l
gsave
0.000 setgray
fill
grestore
stroke
grestore
} bind def
73.125 210.649 o
grestore
gsave
/o {
gsave
newpath
translate
0.5 setlinewidth
1 setlinejoin
0 setlinecap
0 0 m
-4 0 l
gsave
0.000 setgray
fill
grestore
stroke
grestore
} bind def
526.5 210.649 o
grestore
gsave
55.562500 206.110136 translate
0.000000 rotate
0.000000 0.171875 m /five glyphshow
7.634766 0.171875 m /zero glyphshow
grestore
[1 3] 0 setdash
gsave
453.4 226.6 73.12 40.7 clipbox
73.125 267.3 m
526.5 267.3 l
stroke
grestore
[] 0 setdash
gsave
/o {
gsave
newpath
translate
0.5 setlinewidth
1 setlinejoin
0 setlinecap
0 0 m
4 0 l
gsave
0.000 setgray
fill
grestore
stroke
grestore
} bind def
73.125 267.3 o
grestore
gsave
/o {
gsave
newpath
translate
0.5 setlinewidth
1 setlinejoin
0 setlinecap
0 0 m
-4 0 l
gsave
0.000 setgray
fill
grestore
stroke
grestore
} bind def
526.5 267.3 o
grestore
gsave
48.312500 262.760938 translate
0.000000 rotate
0.000000 0.171875 m /one glyphshow
7.634766 0.171875 m /zero glyphshow
15.269531 0.171875 m /zero glyphshow
grestore
gsave
33.203125 120.998397 translate
90.000000 rotate
/Cmmi10 findfont
18.0 scalefont
setfont
0.000000 4.328125 moveto
/psi glyphshow

/DejaVuSans findfont
18.0 scalefont
setfont
11.715820 4.328125 moveto
/space glyphshow

17.437500 4.328125 moveto
/bracketleft glyphshow

24.459961 4.328125 moveto
/d glyphshow

35.885742 4.328125 moveto
/e glyphshow

46.959961 4.328125 moveto
/g glyphshow

58.385742 4.328125 moveto
/bracketright glyphshow


grestore
1.000 setlinewidth
2 setlinecap
gsave
73.125 267.3 m
526.5 267.3 l
stroke
grestore
gsave
526.5 40.6968 m
526.5 267.3 l
stroke
grestore
gsave
73.125 40.6968 m
526.5 40.6968 l
stroke
grestore
gsave
73.125 40.6968 m
73.125 267.3 l
stroke
grestore
gsave
40.312500 267.300000 translate
0.000000 rotate
/DejaVuSans findfont
24.0 scalefont
setfont
0.000000 5.765625 moveto
/G glyphshow

18.597656 5.765625 moveto
/o glyphshow

33.281250 5.765625 moveto
/a glyphshow

47.988281 5.765625 moveto
/l glyphshow

54.656250 5.765625 moveto
/space glyphshow

62.285156 5.765625 moveto
/P glyphshow

76.757812 5.765625 moveto
/o glyphshow

91.441406 5.765625 moveto
/s glyphshow

103.945312 5.765625 moveto
/i glyphshow

110.613281 5.765625 moveto
/t glyphshow

120.023438 5.765625 moveto
/i glyphshow

126.691406 5.765625 moveto
/o glyphshow

141.375000 5.765625 moveto
/n glyphshow

156.585938 5.765625 moveto
/space glyphshow

164.214844 5.765625 moveto
/parenleft glyphshow

/Cmmi10 findfont
24.0 scalefont
setfont
173.578125 5.765625 moveto
/psi glyphshow

/DejaVuSans findfont
24.0 scalefont
setfont
189.199219 5.765625 moveto
/parenright glyphshow

198.562500 5.765625 moveto
/colon glyphshow

206.648438 5.765625 moveto
/space glyphshow

214.277344 5.765625 moveto
/B glyphshow

230.742188 5.765625 moveto
/e glyphshow

245.507812 5.765625 moveto
/f glyphshow

253.957031 5.765625 moveto
/o glyphshow

268.640625 5.765625 moveto
/r glyphshow

278.507812 5.765625 moveto
/e glyphshow

293.273438 5.765625 moveto
/space glyphshow

300.902344 5.765625 moveto
/a glyphshow

315.609375 5.765625 moveto
/n glyphshow

330.820312 5.765625 moveto
/d glyphshow

346.054688 5.765625 moveto
/space glyphshow

353.683594 5.765625 moveto
/A glyphshow

370.101562 5.765625 moveto
/f glyphshow

378.550781 5.765625 moveto
/t glyphshow

387.960938 5.765625 moveto
/e glyphshow

402.726562 5.765625 moveto
/r glyphshow

412.593750 5.765625 moveto
/space glyphshow

420.222656 5.765625 moveto
/F glyphshow

434.027344 5.765625 moveto
/i glyphshow

440.695312 5.765625 moveto
/l glyphshow

447.363281 5.765625 moveto
/t glyphshow

456.773438 5.765625 moveto
/e glyphshow

471.539062 5.765625 moveto
/r glyphshow

481.406250 5.765625 moveto
/i glyphshow

488.074219 5.765625 moveto
/n glyphshow

503.285156 5.765625 moveto
/g glyphshow


grestore
gsave
423.46 211.099 m
519.3 211.099 l
519.3 260.1 l
423.46 260.1 l
423.46 211.099 l
cl
gsave
1.000 setgray
fill
grestore
stroke
grestore
1.000 0.000 0.000 setrgbcolor
gsave
433.54 248.739 m
453.7 248.739 l
stroke
grestore
0.000 setgray
gsave
469.540000 240.699375 translate
0.000000 rotate
/Cmmi10 findfont
14.4 scalefont
setfont
0.000000 3.015625 moveto
/psi glyphshow


grestore
0.000 0.000 1.000 setrgbcolor
gsave
433.54 227.899 m
453.7 227.899 l
stroke
grestore
0.000 setgray
gsave
469.540000 216.858750 translate
0.000000 rotate
/Cmmi10 findfont
14.4 scalefont
setfont
0.000000 6.015625 moveto
/psi glyphshow

/Cmmi10 findfont
10.08 scalefont
setfont
9.366547 2.342275 moveto
/f glyphshow

14.290131 2.342275 moveto
/i glyphshow

17.757788 2.342275 moveto
/l glyphshow

20.758177 2.342275 moveto
/t glyphshow

24.393069 2.342275 moveto
/e glyphshow

29.075644 2.342275 moveto
/r glyphshow

33.620496 2.342275 moveto
/e glyphshow

38.303070 2.342275 moveto
/d glyphshow


grestore

end
showpage
