%!PS-Adobe-3.0 EPSF-3.0
%%Title: /home/kariya/catkin_ws/src/crazyflieROS/logdata/20140626/z_filter.eps
%%Creator: matplotlib version 1.1.1rc, http://matplotlib.sourceforge.net/
%%CreationDate: Thu Jun 26 12:12:35 2014
%%Orientation: portrait
%%BoundingBox: 13 247 598 544
%%EndComments
%%BeginProlog
/mpldict 9 dict def
mpldict begin
/m { moveto } bind def
/l { lineto } bind def
/r { rlineto } bind def
/c { curveto } bind def
/cl { closepath } bind def
/box {
m
1 index 0 r
0 exch r
neg 0 r
cl
} bind def
/clipbox {
box
clip
newpath
} bind def
%!PS-Adobe-3.0 Resource-Font
%%Title: DejaVu Sans
%%Copyright: Copyright (c) 2003 by Bitstream, Inc. All Rights Reserved. Copyright (c) 2006 by Tavmjong Bah. All Rights Reserved. DejaVu changes are in public domain 
%%Creator: Converted from TrueType to type 3 by PPR
25 dict begin
/_d{bind def}bind def
/_m{moveto}_d
/_l{lineto}_d
/_cl{closepath eofill}_d
/_c{curveto}_d
/_sc{7 -1 roll{setcachedevice}{pop pop pop pop pop pop}ifelse}_d
/_e{exec}_d
/FontName /DejaVuSans def
/PaintType 0 def
/FontMatrix[.001 0 0 .001 0 0]def
/FontBBox[-1021 -415 1681 1167]def
/FontType 3 def
/Encoding [ /space /parenleft /parenright /period /zero /one /two /three /four /five /six /seven /colon /A /B /F /G /P /bracketleft /bracketright /a /d /e /f /g /i /l /m /n /o /r /s /t /z ] def
/FontInfo 10 dict dup begin
/FamilyName (DejaVu Sans) def
/FullName (DejaVu Sans) def
/Notice (Copyright (c) 2003 by Bitstream, Inc. All Rights Reserved. Copyright (c) 2006 by Tavmjong Bah. All Rights Reserved. DejaVu changes are in public domain ) def
/Weight (Book) def
/Version (Version 2.33) def
/ItalicAngle 0.0 def
/isFixedPitch false def
/UnderlinePosition -130 def
/UnderlineThickness 90 def
end readonly def
/CharStrings 34 dict dup begin
/space{318 0 0 0 0 0 _sc
}_d
/parenleft{390 0 86 -131 310 759 _sc
310 759 _m
266 683 234 609 213 536 _c
191 463 181 389 181 314 _c
181 238 191 164 213 91 _c
234 17 266 -56 310 -131 _c
232 -131 _l
183 -54 146 20 122 94 _c
98 168 86 241 86 314 _c
86 386 98 459 122 533 _c
146 607 182 682 232 759 _c
310 759 _l
_cl}_d
/parenright{390 0 80 -131 304 759 _sc
80 759 _m
158 759 _l
206 682 243 607 267 533 _c
291 459 304 386 304 314 _c
304 241 291 168 267 94 _c
243 20 206 -54 158 -131 _c
80 -131 _l
123 -56 155 17 177 91 _c
198 164 209 238 209 314 _c
209 389 198 463 177 536 _c
155 609 123 683 80 759 _c
_cl}_d
/period{318 0 107 0 210 124 _sc
107 124 _m
210 124 _l
210 0 _l
107 0 _l
107 124 _l
_cl}_d
/zero{636 0 66 -13 570 742 _sc
318 664 _m
267 664 229 639 203 589 _c
177 539 165 464 165 364 _c
165 264 177 189 203 139 _c
229 89 267 64 318 64 _c
369 64 407 89 433 139 _c
458 189 471 264 471 364 _c
471 464 458 539 433 589 _c
407 639 369 664 318 664 _c
318 742 _m
399 742 461 709 505 645 _c
548 580 570 486 570 364 _c
570 241 548 147 505 83 _c
461 19 399 -13 318 -13 _c
236 -13 173 19 130 83 _c
87 147 66 241 66 364 _c
66 486 87 580 130 645 _c
173 709 236 742 318 742 _c
_cl}_d
/one{636 0 110 0 544 729 _sc
124 83 _m
285 83 _l
285 639 _l
110 604 _l
110 694 _l
284 729 _l
383 729 _l
383 83 _l
544 83 _l
544 0 _l
124 0 _l
124 83 _l
_cl}_d
/two{{636 0 73 0 536 742 _sc
192 83 _m
536 83 _l
536 0 _l
73 0 _l
73 83 _l
110 121 161 173 226 239 _c
290 304 331 346 348 365 _c
380 400 402 430 414 455 _c
426 479 433 504 433 528 _c
433 566 419 598 392 622 _c
365 646 330 659 286 659 _c
255 659 222 653 188 643 _c
154 632 117 616 78 594 _c
78 694 _l
118 710 155 722 189 730 _c
223 738 255 742 284 742 _c
359 742 419 723 464 685 _c
509 647 532 597 532 534 _c
532 504 526 475 515 449 _c
504 422 484 390 454 354 _c
446 344 420 317 376 272 _c
332 227 271 164 192 83 _c
_cl}_e}_d
/three{{636 0 76 -13 556 742 _sc
406 393 _m
453 383 490 362 516 330 _c
542 298 556 258 556 212 _c
556 140 531 84 482 45 _c
432 6 362 -13 271 -13 _c
240 -13 208 -10 176 -4 _c
144 1 110 10 76 22 _c
76 117 _l
103 101 133 89 166 81 _c
198 73 232 69 268 69 _c
330 69 377 81 409 105 _c
441 129 458 165 458 212 _c
458 254 443 288 413 312 _c
383 336 341 349 287 349 _c
202 349 _l
202 430 _l
291 430 _l
339 430 376 439 402 459 _c
428 478 441 506 441 543 _c
441 580 427 609 401 629 _c
374 649 336 659 287 659 _c
260 659 231 656 200 650 _c
169 644 135 635 98 623 _c
98 711 _l
135 721 170 729 203 734 _c
235 739 266 742 296 742 _c
}_e{370 742 429 725 473 691 _c
517 657 539 611 539 553 _c
539 513 527 479 504 451 _c
481 423 448 403 406 393 _c
_cl}_e}_d
/four{636 0 49 0 580 729 _sc
378 643 _m
129 254 _l
378 254 _l
378 643 _l
352 729 _m
476 729 _l
476 254 _l
580 254 _l
580 172 _l
476 172 _l
476 0 _l
378 0 _l
378 172 _l
49 172 _l
49 267 _l
352 729 _l
_cl}_d
/five{{636 0 77 -13 549 729 _sc
108 729 _m
495 729 _l
495 646 _l
198 646 _l
198 467 _l
212 472 227 476 241 478 _c
255 480 270 482 284 482 _c
365 482 429 459 477 415 _c
525 370 549 310 549 234 _c
549 155 524 94 475 51 _c
426 8 357 -13 269 -13 _c
238 -13 207 -10 175 -6 _c
143 -1 111 6 77 17 _c
77 116 _l
106 100 136 88 168 80 _c
199 72 232 69 267 69 _c
323 69 368 83 401 113 _c
433 143 450 183 450 234 _c
450 284 433 324 401 354 _c
368 384 323 399 267 399 _c
241 399 214 396 188 390 _c
162 384 135 375 108 363 _c
108 729 _l
_cl}_e}_d
/six{{636 0 70 -13 573 742 _sc
330 404 _m
286 404 251 388 225 358 _c
199 328 186 286 186 234 _c
186 181 199 139 225 109 _c
251 79 286 64 330 64 _c
374 64 409 79 435 109 _c
461 139 474 181 474 234 _c
474 286 461 328 435 358 _c
409 388 374 404 330 404 _c
526 713 _m
526 623 _l
501 635 476 644 451 650 _c
425 656 400 659 376 659 _c
310 659 260 637 226 593 _c
192 549 172 482 168 394 _c
187 422 211 444 240 459 _c
269 474 301 482 336 482 _c
409 482 467 459 509 415 _c
551 371 573 310 573 234 _c
573 159 550 99 506 54 _c
462 9 403 -13 330 -13 _c
246 -13 181 19 137 83 _c
92 147 70 241 70 364 _c
70 479 97 571 152 639 _c
206 707 280 742 372 742 _c
}_e{396 742 421 739 447 735 _c
472 730 498 723 526 713 _c
_cl}_e}_d
/seven{636 0 82 0 551 729 _sc
82 729 _m
551 729 _l
551 687 _l
286 0 _l
183 0 _l
432 646 _l
82 646 _l
82 729 _l
_cl}_d
/colon{337 0 117 0 220 517 _sc
117 124 _m
220 124 _l
220 0 _l
117 0 _l
117 124 _l
117 517 _m
220 517 _l
220 393 _l
117 393 _l
117 517 _l
_cl}_d
/A{684 0 8 0 676 729 _sc
342 632 _m
208 269 _l
476 269 _l
342 632 _l
286 729 _m
398 729 _l
676 0 _l
573 0 _l
507 187 _l
178 187 _l
112 0 _l
8 0 _l
286 729 _l
_cl}_d
/B{{686 0 98 0 615 729 _sc
197 348 _m
197 81 _l
355 81 _l
408 81 447 92 473 114 _c
498 136 511 169 511 215 _c
511 260 498 293 473 315 _c
447 337 408 348 355 348 _c
197 348 _l
197 648 _m
197 428 _l
343 428 _l
391 428 426 437 450 455 _c
474 473 486 500 486 538 _c
486 574 474 602 450 620 _c
426 638 391 648 343 648 _c
197 648 _l
98 729 _m
350 729 _l
425 729 483 713 524 682 _c
564 650 585 606 585 549 _c
585 504 574 468 553 442 _c
532 416 502 399 462 393 _c
510 382 548 360 575 327 _c
601 294 615 253 615 204 _c
615 138 592 88 548 53 _c
504 17 441 0 360 0 _c
98 0 _l
98 729 _l
}_e{_cl}_e}_d
/F{575 0 98 0 517 729 _sc
98 729 _m
517 729 _l
517 646 _l
197 646 _l
197 431 _l
486 431 _l
486 348 _l
197 348 _l
197 0 _l
98 0 _l
98 729 _l
_cl}_d
/G{{775 0 56 -13 693 742 _sc
595 104 _m
595 300 _l
434 300 _l
434 381 _l
693 381 _l
693 68 _l
655 40 613 20 567 7 _c
521 -6 472 -13 420 -13 _c
306 -13 216 20 152 86 _c
88 152 56 245 56 364 _c
56 482 88 575 152 642 _c
216 708 306 742 420 742 _c
467 742 512 736 555 724 _c
598 712 638 695 674 673 _c
674 568 _l
637 598 598 621 557 637 _c
516 653 473 661 428 661 _c
338 661 271 636 227 586 _c
182 536 160 462 160 364 _c
160 265 182 191 227 141 _c
271 91 338 67 428 67 _c
462 67 493 70 521 76 _c
549 82 573 91 595 104 _c
_cl}_e}_d
/P{603 0 98 0 569 729 _sc
197 648 _m
197 374 _l
321 374 _l
367 374 402 385 427 409 _c
452 433 465 467 465 511 _c
465 555 452 588 427 612 _c
402 636 367 648 321 648 _c
197 648 _l
98 729 _m
321 729 _l
402 729 464 710 506 673 _c
548 636 569 582 569 511 _c
569 439 548 384 506 348 _c
464 311 402 293 321 293 _c
197 293 _l
197 0 _l
98 0 _l
98 729 _l
_cl}_d
/bracketleft{390 0 86 -131 293 760 _sc
86 760 _m
293 760 _l
293 690 _l
176 690 _l
176 -61 _l
293 -61 _l
293 -131 _l
86 -131 _l
86 760 _l
_cl}_d
/bracketright{390 0 97 -131 304 760 _sc
304 760 _m
304 -131 _l
97 -131 _l
97 -61 _l
214 -61 _l
214 690 _l
97 690 _l
97 760 _l
304 760 _l
_cl}_d
/a{{613 0 60 -13 522 560 _sc
343 275 _m
270 275 220 266 192 250 _c
164 233 150 205 150 165 _c
150 133 160 107 181 89 _c
202 70 231 61 267 61 _c
317 61 357 78 387 114 _c
417 149 432 196 432 255 _c
432 275 _l
343 275 _l
522 312 _m
522 0 _l
432 0 _l
432 83 _l
411 49 385 25 355 10 _c
325 -5 287 -13 243 -13 _c
187 -13 142 2 109 33 _c
76 64 60 106 60 159 _c
60 220 80 266 122 298 _c
163 329 224 345 306 345 _c
432 345 _l
432 354 _l
432 395 418 427 391 450 _c
364 472 326 484 277 484 _c
245 484 215 480 185 472 _c
155 464 127 453 100 439 _c
100 522 _l
}_e{132 534 164 544 195 550 _c
226 556 256 560 286 560 _c
365 560 424 539 463 498 _c
502 457 522 395 522 312 _c
_cl}_e}_d
/d{{635 0 55 -13 544 760 _sc
454 464 _m
454 760 _l
544 760 _l
544 0 _l
454 0 _l
454 82 _l
435 49 411 25 382 10 _c
353 -5 319 -13 279 -13 _c
213 -13 159 13 117 65 _c
75 117 55 187 55 273 _c
55 359 75 428 117 481 _c
159 533 213 560 279 560 _c
319 560 353 552 382 536 _c
411 520 435 496 454 464 _c
148 273 _m
148 207 161 155 188 117 _c
215 79 253 61 301 61 _c
348 61 385 79 413 117 _c
440 155 454 207 454 273 _c
454 339 440 390 413 428 _c
385 466 348 485 301 485 _c
253 485 215 466 188 428 _c
161 390 148 339 148 273 _c
_cl}_e}_d
/e{{615 0 55 -13 562 560 _sc
562 296 _m
562 252 _l
149 252 _l
153 190 171 142 205 110 _c
238 78 284 62 344 62 _c
378 62 412 66 444 74 _c
476 82 509 95 541 113 _c
541 28 _l
509 14 476 3 442 -3 _c
408 -9 373 -13 339 -13 _c
251 -13 182 12 131 62 _c
80 112 55 181 55 268 _c
55 357 79 428 127 481 _c
175 533 241 560 323 560 _c
397 560 455 536 498 489 _c
540 441 562 377 562 296 _c
472 322 _m
471 371 457 410 431 440 _c
404 469 368 484 324 484 _c
274 484 234 469 204 441 _c
174 413 156 373 152 322 _c
472 322 _l
_cl}_e}_d
/f{352 0 23 0 371 760 _sc
371 760 _m
371 685 _l
285 685 _l
253 685 230 678 218 665 _c
205 652 199 629 199 595 _c
199 547 _l
347 547 _l
347 477 _l
199 477 _l
199 0 _l
109 0 _l
109 477 _l
23 477 _l
23 547 _l
109 547 _l
109 585 _l
109 645 123 690 151 718 _c
179 746 224 760 286 760 _c
371 760 _l
_cl}_d
/g{{635 0 55 -207 544 560 _sc
454 280 _m
454 344 440 395 414 431 _c
387 467 349 485 301 485 _c
253 485 215 467 188 431 _c
161 395 148 344 148 280 _c
148 215 161 165 188 129 _c
215 93 253 75 301 75 _c
349 75 387 93 414 129 _c
440 165 454 215 454 280 _c
544 68 _m
544 -24 523 -93 482 -139 _c
440 -184 377 -207 292 -207 _c
260 -207 231 -204 203 -200 _c
175 -195 147 -188 121 -178 _c
121 -91 _l
147 -105 173 -115 199 -122 _c
225 -129 251 -133 278 -133 _c
336 -133 380 -117 410 -87 _c
439 -56 454 -10 454 52 _c
454 96 _l
435 64 411 40 382 24 _c
353 8 319 0 279 0 _c
211 0 157 25 116 76 _c
75 127 55 195 55 280 _c
55 364 75 432 116 483 _c
157 534 211 560 279 560 _c
}_e{319 560 353 552 382 536 _c
411 520 435 496 454 464 _c
454 547 _l
544 547 _l
544 68 _l
_cl}_e}_d
/i{278 0 94 0 184 760 _sc
94 547 _m
184 547 _l
184 0 _l
94 0 _l
94 547 _l
94 760 _m
184 760 _l
184 646 _l
94 646 _l
94 760 _l
_cl}_d
/l{278 0 94 0 184 760 _sc
94 760 _m
184 760 _l
184 0 _l
94 0 _l
94 760 _l
_cl}_d
/m{{974 0 91 0 889 560 _sc
520 442 _m
542 482 569 511 600 531 _c
631 550 668 560 711 560 _c
767 560 811 540 842 500 _c
873 460 889 403 889 330 _c
889 0 _l
799 0 _l
799 327 _l
799 379 789 418 771 444 _c
752 469 724 482 686 482 _c
639 482 602 466 575 435 _c
548 404 535 362 535 309 _c
535 0 _l
445 0 _l
445 327 _l
445 379 435 418 417 444 _c
398 469 369 482 331 482 _c
285 482 248 466 221 435 _c
194 404 181 362 181 309 _c
181 0 _l
91 0 _l
91 547 _l
181 547 _l
181 462 _l
201 495 226 520 255 536 _c
283 552 317 560 357 560 _c
397 560 430 550 458 530 _c
486 510 506 480 520 442 _c
}_e{_cl}_e}_d
/n{634 0 91 0 549 560 _sc
549 330 _m
549 0 _l
459 0 _l
459 327 _l
459 379 448 417 428 443 _c
408 469 378 482 338 482 _c
289 482 251 466 223 435 _c
195 404 181 362 181 309 _c
181 0 _l
91 0 _l
91 547 _l
181 547 _l
181 462 _l
202 494 227 519 257 535 _c
286 551 320 560 358 560 _c
420 560 468 540 500 501 _c
532 462 549 405 549 330 _c
_cl}_d
/o{612 0 55 -13 557 560 _sc
306 484 _m
258 484 220 465 192 427 _c
164 389 150 338 150 273 _c
150 207 163 156 191 118 _c
219 80 257 62 306 62 _c
354 62 392 80 420 118 _c
448 156 462 207 462 273 _c
462 337 448 389 420 427 _c
392 465 354 484 306 484 _c
306 560 _m
384 560 445 534 490 484 _c
534 433 557 363 557 273 _c
557 183 534 113 490 63 _c
445 12 384 -13 306 -13 _c
227 -13 165 12 121 63 _c
77 113 55 183 55 273 _c
55 363 77 433 121 484 _c
165 534 227 560 306 560 _c
_cl}_d
/r{411 0 91 0 411 560 _sc
411 463 _m
401 469 390 473 378 476 _c
366 478 353 480 339 480 _c
288 480 249 463 222 430 _c
194 397 181 350 181 288 _c
181 0 _l
91 0 _l
91 547 _l
181 547 _l
181 462 _l
199 495 224 520 254 536 _c
284 552 321 560 365 560 _c
371 560 378 559 386 559 _c
393 558 401 557 411 555 _c
411 463 _l
_cl}_d
/s{{521 0 54 -13 472 560 _sc
443 531 _m
443 446 _l
417 458 391 468 364 475 _c
336 481 308 485 279 485 _c
234 485 200 478 178 464 _c
156 450 145 430 145 403 _c
145 382 153 366 169 354 _c
185 342 217 330 265 320 _c
296 313 _l
360 299 405 279 432 255 _c
458 230 472 195 472 151 _c
472 100 452 60 412 31 _c
372 1 316 -13 246 -13 _c
216 -13 186 -10 154 -5 _c
122 0 89 8 54 20 _c
54 113 _l
87 95 120 82 152 74 _c
184 65 216 61 248 61 _c
290 61 323 68 346 82 _c
368 96 380 117 380 144 _c
380 168 371 187 355 200 _c
339 213 303 226 247 238 _c
216 245 _l
160 257 119 275 95 299 _c
70 323 58 356 58 399 _c
58 450 76 490 112 518 _c
148 546 200 560 268 560 _c
}_e{301 560 332 557 362 552 _c
391 547 418 540 443 531 _c
_cl}_e}_d
/t{392 0 27 0 368 702 _sc
183 702 _m
183 547 _l
368 547 _l
368 477 _l
183 477 _l
183 180 _l
183 135 189 106 201 94 _c
213 81 238 75 276 75 _c
368 75 _l
368 0 _l
276 0 _l
206 0 158 13 132 39 _c
106 65 93 112 93 180 _c
93 477 _l
27 477 _l
27 547 _l
93 547 _l
93 702 _l
183 702 _l
_cl}_d
/z{525 0 43 0 482 547 _sc
55 547 _m
482 547 _l
482 465 _l
144 72 _l
482 72 _l
482 0 _l
43 0 _l
43 82 _l
381 475 _l
55 475 _l
55 547 _l
_cl}_d
end readonly def

/BuildGlyph
 {exch begin
 CharStrings exch
 2 copy known not{pop /.notdef}if
 true 3 1 roll get exec
 end}_d

/BuildChar {
 1 index /Encoding get exch get
 1 index /BuildGlyph get exec
}_d

FontName currentdict end definefont pop
%!PS-Adobe-3.0 Resource-Font
%%Title: cmmi10
%%Copyright: Copyright (C) 1994, Basil K. Malyshev. All Rights Reserved.012BaKoMa Fonts Collection, Level-B.
%%Creator: Converted from TrueType to type 3 by PPR
25 dict begin
/_d{bind def}bind def
/_m{moveto}_d
/_l{lineto}_d
/_cl{closepath eofill}_d
/_c{curveto}_d
/_sc{7 -1 roll{setcachedevice}{pop pop pop pop pop pop}ifelse}_d
/_e{exec}_d
/FontName /Cmmi10 def
/PaintType 0 def
/FontMatrix[.001 0 0 .001 0 0]def
/FontBBox[-34 -250 1048 750]def
/FontType 3 def
/Encoding [ /e /t /i /z /d /f /l /r ] def
/FontInfo 10 dict dup begin
/FamilyName (cmmi10) def
/FullName (cmmi10) def
/Notice (Copyright (C) 1994, Basil K. Malyshev. All Rights Reserved.012BaKoMa Fonts Collection, Level-B. ) def
/Weight (Regular) def
/Version (1.1/12-Nov-94) def
/ItalicAngle 0.0 def
/isFixedPitch false def
/UnderlinePosition -133 def
/UnderlineThickness 20 def
end readonly def
/CharStrings 8 dict dup begin
/e{{465 0 44 -10 430 442 _sc
201 -10 _m
169 -10 141 -2 117 14 _c
93 30 75 53 63 81 _c
50 109 44 138 44 170 _c
44 217 56 262 80 304 _c
104 346 136 379 177 404 _c
218 429 262 442 309 442 _c
337 442 362 434 384 419 _c
405 404 416 383 416 356 _c
416 317 400 288 370 270 _c
339 251 304 239 266 235 _c
228 231 185 229 139 229 _c
136 229 _l
125 189 120 155 120 127 _c
120 97 126 71 140 49 _c
154 26 175 15 203 15 _c
243 15 281 24 318 42 _c
354 60 384 86 407 118 _c
409 120 411 121 415 121 _c
418 121 421 119 425 115 _c
428 111 430 108 430 105 _c
430 102 429 100 428 99 _c
404 65 371 38 330 19 _c
288 0 245 -10 201 -10 _c
142 255 _m
}_e{180 255 216 256 249 260 _c
282 264 312 273 339 287 _c
365 301 379 324 379 355 _c
379 367 375 378 368 387 _c
361 396 352 403 342 408 _c
331 413 320 416 308 416 _c
280 416 254 408 232 393 _c
209 377 190 357 176 333 _c
161 308 150 282 142 255 _c
_cl}_e}_d
/t{{361 0 22 -10 330 626 _sc
62 81 _m
62 91 63 100 65 109 _c
137 396 _l
32 396 _l
25 396 22 400 22 409 _c
24 423 29 431 35 431 _c
146 431 _l
186 594 _l
188 602 193 610 201 616 _c
209 622 218 626 228 626 _c
236 626 243 623 249 618 _c
255 613 258 606 258 598 _c
258 596 257 594 257 593 _c
257 592 257 591 257 590 _c
217 431 _l
320 431 _l
326 431 330 426 330 418 _c
330 416 329 414 328 410 _c
327 406 326 402 324 400 _c
322 397 320 396 317 396 _c
208 396 _l
136 107 _l
131 88 129 72 129 58 _c
}_e{129 29 138 15 158 15 _c
187 15 213 28 236 56 _c
258 84 276 114 288 147 _c
290 151 293 153 296 153 _c
308 153 _l
310 153 312 152 314 150 _c
316 148 317 146 317 144 _c
317 142 316 141 316 141 _c
301 101 280 65 252 35 _c
224 5 192 -10 156 -10 _c
129 -10 107 -1 89 15 _c
71 32 62 54 62 81 _c
_cl}_e}_d
/i{{344 0 27 -10 296 661 _sc
78 72 _m
78 84 80 97 86 111 _c
167 326 _l
175 350 180 370 180 386 _c
180 406 172 416 158 416 _c
132 416 110 402 93 375 _c
75 347 63 317 55 284 _c
53 280 51 278 47 278 _c
35 278 _l
29 278 27 281 27 287 _c
27 290 _l
37 330 54 365 76 396 _c
98 426 126 442 160 442 _c
184 442 204 434 220 418 _c
236 402 245 383 245 359 _c
245 346 242 333 237 320 _c
156 105 _l
146 83 142 63 142 45 _c
142 25 149 15 165 15 _c
}_e{191 15 212 29 230 57 _c
247 85 259 115 267 147 _c
268 151 271 153 275 153 _c
287 153 _l
289 153 291 152 293 150 _c
295 148 296 146 296 144 _c
296 143 295 142 295 141 _c
285 103 269 68 247 37 _c
224 5 196 -10 163 -10 _c
139 -10 119 -2 103 13 _c
86 29 78 48 78 72 _c
191 606 _m
191 620 196 632 208 644 _c
220 655 233 661 247 661 _c
258 661 267 657 275 650 _c
282 643 286 634 286 624 _c
286 609 280 596 268 585 _c
256 573 243 568 229 568 _c
218 568 209 571 202 579 _c
194 586 191 595 191 606 _c
_cl}_e}_d
/z{{465 0 41 -10 468 442 _sc
49 -10 _m
43 -10 41 -7 41 -1 _c
41 1 41 3 43 5 _c
61 35 82 65 108 93 _c
133 121 162 150 194 179 _c
226 207 258 236 290 265 _c
322 294 349 320 369 343 _c
365 343 _l
350 343 328 347 300 357 _c
272 366 250 371 234 371 _c
216 371 199 367 183 359 _c
166 351 155 340 151 324 _c
149 319 147 317 143 317 _c
131 317 _l
125 317 123 320 123 327 _c
123 330 _l
128 349 137 367 149 384 _c
161 401 175 415 193 426 _c
210 436 228 442 247 442 _c
260 442 271 439 280 433 _c
288 427 299 417 311 405 _c
323 392 332 383 340 377 _c
347 371 356 369 367 369 _c
381 369 394 375 406 389 _c
418 402 429 419 441 439 _c
443 441 445 442 448 442 _c
460 442 _l
}_e{462 442 463 441 465 439 _c
467 437 468 435 468 433 _c
468 431 467 429 466 427 _c
448 395 427 366 403 340 _c
379 313 347 282 309 248 _c
270 213 237 184 211 160 _c
185 136 160 111 137 86 _c
142 87 149 88 158 88 _c
174 88 197 83 225 74 _c
253 64 274 60 290 60 _c
306 60 323 63 340 71 _c
357 78 372 88 384 101 _c
396 114 405 129 409 146 _c
411 150 413 153 417 153 _c
429 153 _l
431 153 433 151 435 149 _c
437 147 438 145 438 143 _c
438 142 437 141 437 140 _c
431 114 420 90 405 67 _c
389 44 370 25 348 11 _c
326 -3 302 -10 277 -10 _c
264 -10 253 -7 244 -2 _c
235 3 225 12 213 25 _c
201 38 192 47 184 53 _c
176 59 167 62 157 62 _c
123 62 94 39 68 -7 _c
65 -9 63 -10 61 -10 _c
49 -10 _l
}_e{_cl}_e}_d
/d{{520 0 38 -10 519 694 _sc
174 -10 _m
132 -10 98 5 74 37 _c
50 68 38 105 38 149 _c
38 191 49 236 71 282 _c
93 328 122 366 160 396 _c
198 426 238 442 282 442 _c
302 442 319 436 335 425 _c
351 414 363 400 372 382 _c
428 605 _l
430 616 432 625 433 632 _c
433 642 411 648 368 648 _c
361 648 358 652 358 661 _c
358 663 358 666 360 670 _c
361 674 362 677 364 679 _c
366 681 368 683 372 683 _c
507 694 _l
515 694 519 689 519 681 _c
375 106 _l
370 94 368 78 368 58 _c
368 29 377 15 397 15 _c
417 15 433 28 444 55 _c
455 81 464 112 472 147 _c
}_e{473 151 476 153 480 153 _c
492 153 _l
494 153 496 151 498 149 _c
500 147 501 145 501 143 _c
489 96 476 59 462 31 _c
448 3 426 -10 395 -10 _c
372 -10 352 -3 335 9 _c
318 21 307 39 303 61 _c
260 13 217 -10 174 -10 _c
175 15 _m
199 15 222 24 245 42 _c
267 60 287 81 303 106 _c
303 106 304 108 304 110 _c
359 330 _l
355 353 346 373 333 390 _c
319 407 302 416 280 416 _c
257 416 236 406 217 388 _c
197 370 181 348 168 323 _c
154 296 142 259 130 213 _c
118 167 113 131 113 105 _c
113 81 118 60 128 42 _c
138 24 153 15 175 15 _c
_cl}_e}_d
/f{{489 0 53 -204 552 705 _sc
97 -164 _m
109 -173 124 -178 142 -178 _c
166 -178 185 -151 200 -99 _c
206 -73 223 9 251 151 _c
297 396 _l
211 396 _l
204 396 201 400 201 409 _c
203 423 208 431 214 431 _c
303 431 _l
315 496 _l
319 516 322 533 326 548 _c
329 562 332 576 336 588 _c
340 600 345 614 353 630 _c
364 652 379 670 399 684 _c
418 698 439 705 462 705 _c
476 705 490 702 504 697 _c
518 691 529 683 538 673 _c
547 662 552 649 552 635 _c
552 617 546 602 535 590 _c
523 578 510 572 494 572 _c
483 572 474 575 466 582 _c
458 588 455 597 455 608 _c
455 622 460 635 470 646 _c
480 657 492 663 507 665 _c
}_e{494 674 479 679 461 679 _c
451 679 441 674 432 665 _c
423 655 417 645 415 635 _c
411 617 401 571 387 497 _c
375 431 _l
478 431 _l
484 431 488 426 488 418 _c
487 416 486 413 485 409 _c
484 405 483 401 481 399 _c
479 397 477 396 475 396 _c
368 396 _l
322 152 _l
316 116 309 80 301 44 _c
293 8 283 -29 269 -68 _c
255 -106 238 -139 216 -165 _c
194 -191 169 -204 140 -204 _c
117 -204 97 -197 79 -185 _c
61 -172 53 -155 53 -134 _c
53 -116 58 -101 69 -89 _c
80 -77 94 -71 111 -71 _c
121 -71 130 -74 138 -81 _c
146 -87 150 -96 150 -107 _c
150 -121 144 -134 134 -146 _c
123 -158 111 -164 97 -164 _c
_cl}_e}_d
/l{{298 0 44 -10 262 694 _sc
44 81 _m
44 83 44 86 44 90 _c
44 94 45 97 46 101 _c
46 105 47 108 47 110 _c
171 605 _l
173 616 175 625 176 632 _c
176 642 154 648 111 648 _c
104 648 101 652 101 661 _c
101 663 102 666 103 670 _c
104 674 105 677 107 679 _c
109 681 111 683 115 683 _c
250 694 _l
258 694 262 689 262 681 _c
118 106 _l
113 95 111 79 111 58 _c
111 29 120 15 140 15 _c
160 15 176 27 186 53 _c
196 79 206 110 214 147 _c
215 151 218 153 222 153 _c
234 153 _l
236 153 238 151 240 149 _c
242 147 243 145 243 143 _c
}_e{235 111 227 85 221 67 _c
215 48 205 30 191 14 _c
177 -2 159 -10 138 -10 _c
111 -10 89 -1 71 15 _c
53 32 44 54 44 81 _c
_cl}_e}_d
/r{{451 0 27 -10 434 442 _sc
77 17 _m
77 21 77 24 78 26 _c
153 324 _l
157 342 160 359 160 373 _c
160 401 150 416 131 416 _c
110 416 94 403 84 378 _c
74 353 64 322 55 284 _c
55 282 54 280 52 279 _c
50 278 48 278 47 278 _c
35 278 _l
33 278 31 279 29 281 _c
27 283 27 286 27 288 _c
34 317 41 342 48 362 _c
54 382 65 400 79 417 _c
93 433 110 442 132 442 _c
155 442 175 435 193 422 _c
210 408 221 391 225 369 _c
241 391 260 408 282 422 _c
304 435 328 442 354 442 _c
375 442 394 435 410 423 _c
426 411 434 394 434 373 _c
434 356 428 341 418 329 _c
407 316 393 310 376 310 _c
}_e{365 310 356 313 349 320 _c
341 326 338 335 338 346 _c
338 360 343 373 354 385 _c
364 397 377 403 391 403 _c
380 411 367 416 352 416 _c
323 416 298 405 277 385 _c
256 365 237 339 220 308 _c
149 22 _l
147 12 142 5 134 -1 _c
126 -7 117 -10 107 -10 _c
99 -10 92 -7 86 -3 _c
80 1 77 8 77 17 _c
_cl}_e}_d
end readonly def

/BuildGlyph
 {exch begin
 CharStrings exch
 2 copy known not{pop /.notdef}if
 true 3 1 roll get exec
 end}_d

/BuildChar {
 1 index /Encoding get exch get
 1 index /BuildGlyph get exec
}_d

FontName currentdict end definefont pop
end
%%EndProlog
mpldict begin
13.5 247.5 translate
585 297 0 0 clipbox
gsave
0 0 m
585 0 l
585 297 l
0 297 l
cl
1.000 setgray
fill
grestore
gsave
73.125 40.6968 m
526.5 40.6968 l
526.5 267.3 l
73.125 267.3 l
cl
1.000 setgray
fill
grestore
1.000 setlinewidth
1 setlinejoin
2 setlinecap
[] 0 setdash
1.000 0.000 0.000 setrgbcolor
gsave
453.4 226.6 73.12 40.7 clipbox
73.1895 69.0222 m
139.708 69.0222 l
139.836 190.141 l
140.355 190.141 l
140.484 169.777 l
140.615 169.777 l
140.743 164.729 l
141.261 164.729 l
141.391 170.841 l
141.65 170.841 l
141.78 128.445 l
141.91 128.445 l
142.039 134.194 l
142.945 134.267 l
143.075 140.136 l
143.399 140.136 l
143.529 105.931 l
143.852 105.931 l
143.982 127.05 l
144.694 127.095 l
144.823 124.61 l
145.147 124.61 l
145.276 120.669 l
145.536 120.669 l
145.665 115.325 l
145.99 115.325 l
146.118 106.436 l
146.443 106.436 l
146.573 124.345 l
146.831 124.345 l
146.961 131.879 l
147.284 131.879 l
147.415 143.104 l
147.738 143.104 l
147.868 153.091 l
148.386 153.091 l
148.515 163.44 l
148.774 163.44 l
148.904 167.462 l
149.228 167.462 l
149.357 165.419 l
150.07 165.407 l
150.2 165.863 l
150.523 165.863 l
150.652 167.262 l
150.977 167.262 l
151.106 167.439 l
151.365 167.439 l
151.495 166.267 l
151.624 166.267 l
151.753 164.826 l
152.078 164.826 l
152.207 164.457 l
152.466 164.457 l
152.596 164.345 l
152.92 164.345 l
153.049 171.644 l
153.114 171.644 l
153.244 164.921 l
153.567 164.921 l
153.697 163.36 l
153.956 163.36 l
154.085 161.815 l
154.215 161.815 l
154.344 162.324 l
154.409 162.324 l
154.54 161.623 l
154.605 161.623 l
154.733 161.417 l
155.057 161.417 l
155.187 161.868 l
155.511 161.868 l
155.641 161.409 l
155.964 161.409 l
156.093 160.182 l
156.352 160.182 l
156.482 159.166 l
156.806 159.166 l
156.935 158.658 l
157.259 158.658 l
157.388 157.258 l
157.648 157.258 l
157.777 157.578 l
158.101 157.578 l
158.23 158.513 l
158.295 158.513 l
158.425 158.896 l
158.554 158.896 l
158.684 154.284 l
158.749 154.284 l
158.878 152.185 l
159.137 152.185 l
159.266 155.788 l
159.591 155.788 l
159.72 159.605 l
159.785 159.605 l
159.98 160.187 l
160.046 160.187 l
160.174 160.608 l
160.253 160.608 l
160.367 159.388 l
160.497 159.388 l
160.628 156.629 l
160.693 156.629 l
160.821 155.754 l
161.08 155.754 l
161.209 156.349 l
161.339 156.349 l
161.469 156.537 l
161.534 156.537 l
161.663 155.815 l
161.793 155.815 l
161.922 153.535 l
162.181 153.535 l
162.311 152.046 l
162.636 152.046 l
162.764 150.641 l
162.829 150.641 l
162.959 148.064 l
163.283 148.064 l
163.412 147.586 l
163.671 147.586 l
163.8 157.14 l
164.125 157.14 l
164.254 153.334 l
164.578 153.334 l
164.707 150.796 l
164.966 150.796 l
165.096 149.964 l
165.419 149.964 l
165.561 149.811 l
165.873 149.811 l
166.003 148.965 l
166.068 148.965 l
166.199 146.939 l
166.523 146.939 l
166.65 146.027 l
166.716 146.027 l
166.846 143.55 l
167.363 143.55 l
167.492 139.491 l
167.558 139.491 l
167.687 143.837 l
167.817 143.837 l
167.946 147.411 l
168.205 147.411 l
168.334 148.512 l
168.658 148.512 l
168.787 149.529 l
168.852 149.529 l
168.982 150.478 l
169.305 150.478 l
169.435 153.54 l
169.5 153.54 l
169.63 157.594 l
169.76 157.594 l
169.889 159.242 l
170.213 159.242 l
170.342 157.6 l
170.6 157.6 l
170.731 155.544 l
171.249 155.544 l
171.379 153.273 l
171.727 153.273 l
171.832 152.943 l
172.156 152.943 l
172.285 152.736 l
172.803 152.808 l
172.933 152.053 l
173.192 152.053 l
173.321 151.662 l
173.84 151.615 l
173.969 151.356 l
174.293 151.356 l
174.422 150.956 l
174.492 150.956 l
174.616 153.624 l
174.941 153.624 l
175.07 154.63 l
175.135 154.63 l
175.264 154.776 l
175.329 154.776 l
175.523 153.483 l
176.042 153.483 l
176.17 154.247 l
176.236 154.247 l
176.365 152.048 l
176.698 152.048 l
176.819 150.052 l
176.885 150.052 l
177.013 148.259 l
177.338 148.259 l
177.467 146.512 l
177.791 146.512 l
177.92 145.911 l
177.985 145.911 l
178.115 146.266 l
178.179 146.266 l
178.309 147.009 l
178.632 147.009 l
178.762 147.488 l
178.827 147.488 l
178.956 147.69 l
179.086 147.69 l
179.215 148.014 l
179.733 148.014 l
179.864 148.516 l
179.929 148.516 l
180.058 159.395 l
180.122 159.395 l
180.251 153.323 l
180.575 153.323 l
180.705 153.841 l
181.029 153.841 l
181.158 152.753 l
181.418 152.753 l
181.547 154.218 l
181.677 154.218 l
181.806 153.695 l
182.065 153.695 l
182.195 151.413 l
182.324 151.413 l
182.453 153.091 l
182.714 153.091 l
182.844 151.869 l
182.972 151.869 l
183.102 150.424 l
183.385 150.424 l
183.49 150.732 l
183.62 150.732 l
183.749 150.533 l
184.267 150.533 l
184.396 149.048 l
184.656 149.048 l
184.785 147.387 l
185.109 147.387 l
185.238 146.844 l
185.563 146.844 l
185.692 146.602 l
185.967 146.602 l
186.08 147.524 l
186.859 147.421 l
186.987 147.951 l
187.246 147.951 l
187.376 148.185 l
187.7 148.185 l
187.83 148.047 l
187.894 148.047 l
188.024 146.001 l
188.348 146.001 l
188.477 144.846 l
189.189 144.868 l
189.319 141.507 l
189.643 141.507 l
189.773 139.359 l
190.096 139.359 l
190.226 140.493 l
190.485 140.493 l
190.614 137.954 l
190.938 137.954 l
191.068 138.682 l
191.391 138.682 l
191.521 138.805 l
191.781 138.805 l
191.91 137.472 l
192.427 137.556 l
192.557 150.512 l
193.076 150.512 l
193.205 148.648 l
193.529 148.648 l
193.658 146.233 l
193.723 146.233 l
193.918 148.774 l
193.982 148.774 l
194.112 147.746 l
195.022 147.807 l
195.148 147.034 l
195.731 147.121 l
195.861 145.472 l
195.925 145.472 l
196.055 145.736 l
196.12 145.736 l
196.249 147.14 l
196.314 147.14 l
196.444 148.744 l
196.573 148.744 l
196.703 149.736 l
196.961 149.736 l
197.096 149.217 l
197.609 149.148 l
197.739 159.328 l
197.869 159.328 l
197.998 156.164 l
198.257 156.164 l
198.386 152.542 l
198.516 152.542 l
198.646 152.833 l
198.711 152.833 l
198.84 151.632 l
199.164 151.632 l
199.294 149.361 l
199.553 149.361 l
199.682 150.238 l
200.006 150.238 l
200.135 149.387 l
200.459 149.387 l
200.589 148.82 l
201.301 148.821 l
201.431 148.114 l
201.755 148.114 l
201.884 145.774 l
201.949 145.774 l
202.078 141.66 l
202.402 141.66 l
202.532 141.036 l
202.601 141.036 l
202.726 132.372 l
203.05 132.372 l
203.179 135.647 l
203.438 135.647 l
203.568 147.325 l
203.892 147.325 l
204.022 144.279 l
204.54 144.279 l
204.669 143.347 l
205.449 143.366 l
205.576 141.785 l
205.834 141.785 l
205.964 141.617 l
206.288 141.617 l
206.418 139.497 l
206.677 139.497 l
206.806 139.097 l
207.13 139.097 l
207.26 139.421 l
207.583 139.421 l
207.713 139.865 l
207.988 139.865 l
208.102 140.899 l
208.43 140.899 l
208.555 142.036 l
208.879 142.036 l
209.008 141.892 l
209.073 141.892 l
209.203 140.85 l
209.527 140.85 l
209.656 139.944 l
209.721 139.944 l
209.851 145.115 l
210.175 145.115 l
210.304 145.486 l
210.631 145.593 l
210.757 145.253 l
211.016 145.253 l
211.146 146.387 l
211.276 146.387 l
211.405 146.862 l
211.664 146.862 l
211.793 146.221 l
212.572 146.187 l
212.7 146.581 l
212.765 146.581 l
212.894 146.397 l
212.96 146.397 l
213.089 146.829 l
213.219 146.829 l
213.348 148.208 l
213.607 148.208 l
213.736 151.354 l
214.061 151.354 l
214.191 151.704 l
214.255 151.704 l
214.384 153.664 l
214.708 153.664 l
214.838 141.496 l
214.908 141.496 l
215.097 146.741 l
215.161 146.741 l
215.291 150.551 l
215.55 150.551 l
215.679 152.06 l
215.809 152.06 l
215.939 152.372 l
216.198 152.271 l
216.327 149.047 l
217.105 148.983 l
217.299 148.884 l
217.558 148.884 l
217.688 146.662 l
217.947 146.662 l
218.076 146.21 l
218.4 146.21 l
218.53 147.062 l
218.853 147.062 l
218.983 145.967 l
219.242 145.967 l
219.372 145.639 l
219.695 145.639 l
219.825 144.789 l
220.149 144.789 l
220.278 145.154 l
220.537 145.154 l
220.667 145.836 l
220.991 145.836 l
221.12 144.247 l
221.444 144.247 l
221.574 145.286 l
221.833 145.286 l
221.962 146.207 l
222.286 146.207 l
222.416 147.077 l
223.128 147.059 l
223.257 147.759 l
223.581 147.759 l
223.711 147.523 l
223.776 147.523 l
223.905 147.334 l
224.229 147.334 l
224.359 147.126 l
224.424 147.126 l
224.553 146.328 l
224.877 146.328 l
225.006 144.809 l
225.071 144.809 l
225.2 142.1 l
225.525 142.1 l
225.654 142.493 l
226.172 142.59 l
226.301 141.06 l
226.626 141.06 l
226.755 140.886 l
227.079 140.886 l
227.208 141.003 l
227.469 141.003 l
227.597 141.379 l
227.923 141.379 l
228.05 139.22 l
228.31 139.22 l
228.439 137.512 l
228.763 137.512 l
228.893 137.85 l
229.216 137.85 l
229.346 138.072 l
229.604 138.072 l
229.734 137.06 l
230.058 137.06 l
230.188 135.833 l
230.965 135.769 l
231.094 136.221 l
231.159 136.221 l
231.289 136.65 l
231.548 136.65 l
231.742 136.887 l
232.001 136.887 l
232.131 138.085 l
232.262 138.085 l
232.39 139.394 l
232.454 139.394 l
232.584 138.183 l
232.908 138.183 l
233.037 140.849 l
233.296 140.849 l
233.426 140.002 l
233.491 140.002 l
233.62 138.83 l
233.944 138.83 l
234.073 143.634 l
234.138 143.634 l
234.268 147.052 l
234.591 147.052 l
234.721 148.914 l
235.045 148.914 l
235.175 151.18 l
235.434 151.18 l
235.563 149.463 l
235.888 149.463 l
236.016 148.014 l
236.341 148.014 l
236.47 148.548 l
236.535 148.548 l
236.664 148.89 l
236.989 148.89 l
237.118 149.683 l
237.182 149.683 l
237.312 149.981 l
237.636 149.981 l
237.765 147.756 l
237.83 147.756 l
237.96 145.638 l
238.284 145.638 l
238.413 144.46 l
238.478 144.46 l
238.607 142.833 l
238.931 142.833 l
239.061 145.555 l
239.125 145.555 l
239.256 144.92 l
239.579 144.92 l
239.709 141.108 l
239.968 141.108 l
240.096 138.935 l
240.421 138.935 l
240.55 135.646 l
240.875 135.646 l
241.003 134.987 l
241.069 134.987 l
241.198 138.603 l
241.523 138.603 l
241.652 137.645 l
241.91 137.645 l
242.04 136.963 l
242.558 136.932 l
242.687 139.328 l
242.818 139.328 l
242.947 146.718 l
243.012 146.718 l
243.141 143.425 l
243.206 143.425 l
243.335 142.015 l
243.659 142.015 l
243.789 141.099 l
244.113 141.099 l
244.242 126.673 l
244.306 126.673 l
244.436 125.248 l
244.76 125.248 l
244.89 132.027 l
244.954 132.027 l
245.084 135.342 l
245.408 135.342 l
245.537 135.799 l
245.796 135.799 l
245.926 136.21 l
246.705 136.321 l
246.833 125.781 l
247.092 125.781 l
247.221 128.944 l
247.545 128.944 l
247.675 132.386 l
248.193 132.386 l
248.322 133.354 l
248.648 133.354 l
248.776 129.332 l
248.84 129.332 l
248.97 131.413 l
249.1 131.413 l
249.229 132.276 l
249.488 132.276 l
249.618 133.134 l
249.748 133.134 l
249.877 133.892 l
249.968 133.892 l
250.071 133.484 l
250.396 133.484 l
250.525 133.33 l
250.784 133.33 l
250.913 133.889 l
251.237 133.889 l
251.366 134.537 l
252.079 134.52 l
252.209 134.295 l
252.792 134.198 l
252.921 132.682 l
252.986 132.682 l
253.115 133.6 l
253.181 133.6 l
253.31 134.808 l
253.64 134.808 l
253.763 133.805 l
254.022 133.805 l
254.152 138.116 l
254.476 138.116 l
254.605 135.156 l
254.929 135.156 l
255.059 134.079 l
255.123 134.079 l
255.252 134.462 l
255.318 134.462 l
255.512 128.483 l
255.577 128.483 l
255.706 129.757 l
255.771 129.757 l
255.901 131.563 l
255.966 131.563 l
256.095 131.915 l
256.426 131.915 l
256.548 132.905 l
256.872 132.905 l
257.001 135.259 l
257.131 135.259 l
257.261 135.634 l
257.325 135.634 l
257.455 134.222 l
257.714 134.222 l
257.843 131.569 l
258.168 131.569 l
258.297 132.693 l
258.621 132.693 l
258.75 133.9 l
258.815 133.9 l
258.944 133.673 l
259.268 133.673 l
259.398 135.508 l
259.464 135.508 l
259.592 134.914 l
259.657 134.914 l
259.787 132.512 l
259.916 132.512 l
260.045 132.821 l
260.111 132.821 l
260.24 138.214 l
260.564 138.214 l
260.693 136.552 l
260.953 136.552 l
261.082 135.786 l
261.406 135.786 l
261.536 137.88 l
261.859 137.88 l
261.988 137.704 l
262.248 137.704 l
262.377 141.036 l
263.154 140.95 l
263.349 140.879 l
263.544 140.879 l
263.672 141.48 l
264.451 141.446 l
264.579 141.764 l
264.838 141.764 l
264.968 143.242 l
265.291 143.242 l
265.421 144.29 l
265.745 144.29 l
265.875 143.998 l
266.133 143.998 l
266.263 137.835 l
266.588 137.835 l
266.717 138.472 l
266.846 138.472 l
266.976 140.26 l
267.235 140.26 l
267.365 140.018 l
267.689 140.018 l
267.817 139.47 l
268.077 139.47 l
268.206 141.214 l
268.725 141.214 l
268.854 139.772 l
269.179 139.772 l
269.308 138.313 l
269.631 138.313 l
269.761 137.242 l
270.02 137.242 l
270.149 136.01 l
270.473 136.01 l
270.603 135.455 l
271.121 135.455 l
271.25 136.232 l
271.574 136.232 l
271.704 142.561 l
272.028 142.561 l
272.158 138.229 l
272.416 138.229 l
272.545 137.511 l
272.805 137.511 l
272.999 135.556 l
273.064 135.556 l
273.193 135.387 l
273.712 135.387 l
273.841 134.681 l
274.359 134.714 l
274.488 137.31 l
274.813 137.31 l
274.942 133.901 l
275.007 133.901 l
275.136 135.441 l
275.201 135.441 l
275.33 135.814 l
275.46 135.814 l
275.59 136.256 l
275.85 136.256 l
275.978 135.561 l
276.306 135.561 l
276.432 136.014 l
276.756 136.014 l
276.885 138.276 l
277.144 138.276 l
277.273 127.477 l
277.793 127.477 l
277.921 130.548 l
278.246 130.548 l
278.375 135.938 l
278.699 135.938 l
278.828 137.729 l
278.893 137.729 l
279.023 142.316 l
279.541 142.363 l
279.671 138.291 l
279.994 138.291 l
280.123 139.339 l
280.188 139.339 l
280.318 140.369 l
280.383 140.369 l
280.512 140.047 l
280.836 140.047 l
280.966 137.532 l
281.03 137.532 l
281.16 141.903 l
281.29 141.903 l
281.419 140.764 l
281.678 140.764 l
281.808 140.516 l
282.132 140.516 l
282.261 140.886 l
282.585 140.886 l
282.714 137.349 l
282.779 137.349 l
282.909 135.677 l
283.233 135.677 l
283.362 133.441 l
283.426 133.441 l
283.559 132.225 l
283.88 132.225 l
284.01 131.175 l
284.074 131.175 l
284.204 131.71 l
284.53 131.71 l
284.658 132.225 l
284.916 132.225 l
285.046 137.998 l
285.176 137.998 l
285.305 143.463 l
285.369 143.463 l
285.499 150.771 l
285.564 150.771 l
285.694 149.521 l
286.017 149.521 l
286.147 142.524 l
286.277 142.524 l
286.406 139.69 l
286.664 139.69 l
286.795 141.859 l
287.118 141.859 l
287.248 141.659 l
287.507 141.659 l
287.637 143.062 l
288.025 143.062 l
288.155 142.008 l
288.22 142.008 l
288.349 140.388 l
288.609 140.333 l
288.737 133.706 l
288.867 133.706 l
288.997 130.222 l
289.256 130.222 l
289.385 119.369 l
289.71 119.369 l
289.838 118.924 l
290.163 118.924 l
290.291 126.733 l
290.551 126.733 l
290.68 125.832 l
290.81 125.832 l
290.94 125.38 l
291.199 125.38 l
291.328 127.183 l
291.653 127.183 l
291.781 130.154 l
292.106 130.154 l
292.235 133.865 l
292.494 133.865 l
292.624 135.653 l
292.972 135.653 l
293.077 134.984 l
293.157 134.984 l
293.272 136.513 l
293.595 136.513 l
293.725 136.201 l
294.049 136.201 l
294.178 134.896 l
294.243 134.896 l
294.372 127.221 l
294.437 127.221 l
294.566 127.959 l
294.891 127.959 l
295.02 128.225 l
295.085 128.225 l
295.214 127.323 l
295.344 127.323 l
295.473 125.794 l
295.539 125.794 l
295.668 126.788 l
296.445 126.725 l
296.575 128.617 l
296.841 128.617 l
296.963 128.956 l
297.093 128.956 l
297.223 121.604 l
297.483 121.604 l
297.614 124.693 l
297.935 124.693 l
298.064 129.193 l
298.388 129.193 l
298.518 137.758 l
298.809 137.758 l
298.906 138.069 l
299.23 138.069 l
299.36 136.736 l
299.425 136.736 l
299.554 136.212 l
299.878 136.212 l
300.007 136.79 l
300.331 136.79 l
300.461 139.566 l
300.53 139.566 l
300.656 135.889 l
300.98 135.889 l
301.109 135.653 l
301.627 135.653 l
301.757 136.591 l
302.017 136.591 l
302.145 136.78 l
302.664 136.878 l
302.857 136.924 l
302.922 136.924 l
303.052 136.342 l
303.57 136.35 l
303.699 137.273 l
304.023 137.273 l
304.153 137.743 l
304.414 137.743 l
304.541 137.22 l
304.613 137.22 l
304.735 136.658 l
304.865 136.658 l
304.994 135.774 l
305.253 135.774 l
305.385 136.049 l
305.901 136.043 l
306.031 135.082 l
306.355 135.082 l
306.484 134.645 l
306.808 134.645 l
306.937 141.073 l
307.002 141.073 l
307.132 138.065 l
307.196 138.065 l
307.391 137.872 l
307.456 137.872 l
307.585 134.487 l
307.652 134.487 l
307.779 135.321 l
307.909 135.321 l
308.039 137.448 l
308.299 137.448 l
308.427 138.327 l
308.751 138.327 l
308.881 139.766 l
308.946 139.766 l
309.075 140.358 l
309.399 140.358 l
309.528 139.998 l
309.787 139.998 l
309.917 140.244 l
310.241 140.244 l
310.37 140.756 l
310.695 140.756 l
310.824 139.574 l
311.082 139.574 l
311.277 139.93 l
311.536 139.93 l
311.665 140.797 l
311.99 140.797 l
312.119 141.338 l
312.443 141.338 l
312.572 141.996 l
312.831 141.996 l
312.961 142.479 l
313.285 142.479 l
313.414 143.105 l
313.479 143.105 l
313.608 142.901 l
313.933 142.901 l
314.063 144.443 l
314.386 144.443 l
314.515 143.613 l
314.774 143.613 l
314.904 142.888 l
315.617 142.975 l
315.745 143.299 l
316.07 143.299 l
316.199 144.735 l
316.523 144.735 l
316.655 148.208 l
316.912 148.208 l
317.041 147.552 l
317.365 147.552 l
317.495 145.905 l
317.818 145.905 l
317.948 146.269 l
318.013 146.269 l
318.142 146.407 l
318.467 146.407 l
318.596 146.559 l
318.855 146.559 l
318.984 146.352 l
319.762 146.434 l
319.891 146.208 l
320.215 146.208 l
320.344 146.547 l
320.603 146.547 l
320.733 145.405 l
321.057 145.405 l
321.186 142.796 l
321.445 142.796 l
321.576 142.426 l
321.898 142.426 l
322.028 141.568 l
322.093 141.568 l
322.223 141.292 l
322.742 141.292 l
322.87 140.874 l
323 140.874 l
323.13 139.039 l
323.194 139.039 l
323.323 137.134 l
323.388 137.134 l
323.583 135.85 l
323.842 135.85 l
323.971 135.155 l
324.296 135.155 l
324.424 135.715 l
324.489 135.715 l
324.619 136.814 l
324.684 136.814 l
324.813 137.003 l
325.008 137.003 l
325.137 136.496 l
325.396 136.496 l
325.526 135.459 l
325.594 135.459 l
325.72 138.157 l
325.979 138.157 l
326.109 143.184 l
326.432 143.184 l
326.562 142.568 l
326.889 142.568 l
327.016 143.641 l
327.341 143.641 l
327.469 141.924 l
327.728 141.924 l
327.857 140.222 l
328.182 140.222 l
328.311 138.841 l
328.635 138.841 l
328.764 138.721 l
329.024 138.721 l
329.153 138.031 l
329.283 138.031 l
329.412 137.24 l
329.671 137.24 l
329.8 136.772 l
329.931 136.772 l
330.059 141.725 l
330.319 141.725 l
330.448 138.033 l
330.578 138.033 l
330.707 137.816 l
330.966 137.816 l
331.096 138.553 l
331.226 138.553 l
331.355 138.979 l
331.614 138.979 l
331.744 139.567 l
331.873 139.567 l
332.003 140.735 l
332.262 140.735 l
332.391 139.872 l
332.715 139.872 l
332.844 139.565 l
333.169 139.565 l
333.298 142.137 l
333.363 142.137 l
333.492 142.741 l
333.557 142.741 l
333.752 143.271 l
333.816 143.271 l
333.946 144.505 l
334.205 144.505 l
334.334 146.353 l
334.66 146.353 l
334.79 144.241 l
334.852 144.241 l
334.982 143.639 l
335.306 143.639 l
335.435 143.319 l
335.759 143.319 l
335.889 144.26 l
336.213 144.26 l
336.342 141.988 l
336.624 141.988 l
336.731 140.366 l
337.508 140.418 l
337.637 139.83 l
337.897 139.83 l
338.026 140.467 l
338.544 140.467 l
338.674 139.638 l
338.998 139.638 l
339.128 137.347 l
339.193 137.347 l
339.321 137.178 l
339.646 137.178 l
339.775 136.904 l
339.84 136.904 l
339.969 136.249 l
340.293 136.249 l
340.422 135.567 l
340.746 135.567 l
340.876 135.383 l
341.135 135.408 l
341.265 136.257 l
341.394 136.257 l
341.524 137.068 l
341.588 137.068 l
341.718 135.316 l
342.042 135.316 l
342.171 133.338 l
342.43 133.338 l
342.56 131.432 l
342.884 131.432 l
343.014 130.429 l
343.078 130.429 l
343.207 129.618 l
343.337 129.618 l
343.467 129.397 l
343.725 129.397 l
343.855 129.769 l
344.18 129.769 l
344.308 130.626 l
344.568 130.626 l
344.762 132.217 l
345.021 132.217 l
345.15 132.869 l
345.474 132.869 l
345.603 133.604 l
345.94 133.604 l
346.057 127.145 l
346.382 127.145 l
346.511 129.007 l
346.579 129.007 l
346.705 129.453 l
346.963 129.453 l
347.094 129.901 l
347.418 129.901 l
347.547 130.76 l
347.612 130.76 l
347.742 132.343 l
347.871 132.343 l
348 130.561 l
348.259 130.561 l
348.389 131.454 l
348.713 131.454 l
348.842 132.611 l
349.167 132.611 l
349.296 133.612 l
350.008 133.507 l
350.138 133.345 l
350.461 133.345 l
350.591 133.568 l
350.658 133.568 l
350.785 135.873 l
351.109 135.873 l
351.239 137.907 l
351.757 137.907 l
351.886 138.14 l
352.405 138.118 l
352.534 137.926 l
352.599 137.926 l
352.729 137.243 l
352.793 137.243 l
352.922 136.021 l
353.053 136.021 l
353.181 135.055 l
353.246 135.055 l
353.376 133.423 l
353.7 133.423 l
353.83 134.049 l
353.894 134.049 l
354.024 134.33 l
354.348 134.33 l
354.48 133.632 l
354.542 133.632 l
354.671 131.669 l
354.996 131.669 l
355.125 132.276 l
355.449 132.276 l
355.578 134.826 l
355.837 134.826 l
355.968 136.803 l
356.032 136.803 l
356.161 135.605 l
356.485 135.605 l
356.614 135.368 l
356.744 135.368 l
356.874 135.973 l
357.132 135.973 l
357.262 136.425 l
357.586 136.425 l
357.717 144.502 l
357.78 144.502 l
357.91 141.993 l
358.234 141.993 l
358.363 139.332 l
358.428 139.332 l
358.622 135.656 l
358.882 135.656 l
359.011 133.601 l
359.076 133.601 l
359.206 132.006 l
359.529 132.006 l
359.658 131 l
359.917 131 l
360.047 132.6 l
360.177 132.6 l
360.306 130.312 l
360.371 130.312 l
360.501 128.079 l
360.631 128.079 l
360.759 118.425 l
361.019 118.425 l
361.148 121.759 l
361.472 121.759 l
361.601 126.279 l
361.667 126.279 l
361.796 126.167 l
362.12 126.167 l
362.25 127.842 l
362.313 127.842 l
362.443 129.172 l
362.769 129.172 l
362.897 129.36 l
363.221 129.36 l
363.35 128.575 l
363.416 128.575 l
363.545 128.294 l
363.803 128.294 l
363.933 127.191 l
364.451 127.191 l
364.581 126.24 l
364.907 126.24 l
365.034 128.938 l
365.358 128.938 l
365.488 121.054 l
365.815 121.054 l
365.941 130.291 l
366.006 130.291 l
366.135 159.084 l
366.461 159.084 l
366.589 154.995 l
366.675 154.995 l
366.783 149.697 l
366.913 149.697 l
367.042 147.109 l
367.301 147.109 l
367.431 158.152 l
367.497 158.152 l
367.625 163.354 l
367.951 163.354 l
368.078 165.523 l
368.143 165.523 l
368.273 171.604 l
368.597 171.652 l
368.726 167.434 l
368.791 167.434 l
368.92 167.605 l
369.244 167.605 l
369.374 169.864 l
369.699 169.864 l
369.827 177.15 l
369.916 177.15 l
370.021 179.763 l
370.351 179.763 l
370.475 183.72 l
370.54 183.72 l
370.669 189.56 l
370.734 189.56 l
370.928 193.163 l
371.005 193.163 l
371.122 196.292 l
371.381 196.292 l
371.511 199.427 l
371.835 199.427 l
371.965 200.365 l
372.029 200.365 l
372.158 199.614 l
372.289 199.614 l
372.418 200.911 l
372.507 200.911 l
372.613 205.534 l
372.936 205.534 l
373.066 209.946 l
373.325 209.946 l
373.454 208.24 l
373.781 208.24 l
373.907 211.154 l
373.972 211.154 l
374.102 215.302 l
374.426 215.302 l
374.555 216.786 l
374.879 216.786 l
375.008 217.371 l
375.074 217.371 l
375.203 216.917 l
375.527 216.917 l
375.657 216.358 l
375.98 216.358 l
376.109 217.161 l
376.369 217.161 l
376.498 216.324 l
376.822 216.324 l
376.952 212.733 l
377.016 212.733 l
377.146 213.971 l
377.664 213.971 l
377.794 214.461 l
377.923 214.461 l
378.052 214.317 l
378.313 214.317 l
378.442 214.147 l
378.766 214.147 l
378.894 213.345 l
379.218 213.345 l
379.348 212.446 l
380.06 212.349 l
380.19 212.865 l
380.902 212.866 l
381.032 212.405 l
381.162 212.405 l
381.356 212.241 l
381.55 212.241 l
381.681 212.897 l
382.457 212.826 l
382.587 212.667 l
382.845 212.667 l
382.975 211.534 l
383.299 211.534 l
383.428 209.148 l
383.493 209.148 l
383.623 207.636 l
383.947 207.636 l
384.076 207.392 l
384.207 207.392 l
384.335 214.553 l
384.613 214.553 l
384.723 211.933 l
385.048 211.933 l
385.178 211.367 l
385.436 211.367 l
385.565 212.681 l
385.695 212.681 l
385.824 213.251 l
386.149 213.251 l
386.278 216.572 l
386.538 216.572 l
386.667 215.882 l
386.991 215.882 l
387.12 215.575 l
387.379 215.575 l
387.508 216.8 l
387.833 216.8 l
387.962 215.262 l
388.287 215.262 l
388.416 213.007 l
388.675 213.007 l
388.804 206.109 l
389.128 206.109 l
389.257 207.502 l
389.581 207.502 l
389.711 207.623 l
389.971 207.623 l
390.1 203.304 l
390.423 203.304 l
390.553 203.5 l
390.877 203.5 l
391.006 206.255 l
391.071 206.255 l
391.2 210.519 l
391.333 210.519 l
391.46 208.127 l
391.718 208.127 l
391.848 206.967 l
392.172 206.967 l
392.302 206.329 l
392.56 206.329 l
392.69 204.033 l
393.014 204.033 l
393.143 206.296 l
393.467 206.296 l
393.597 214.023 l
393.855 214.023 l
393.997 215.385 l
394.309 215.385 l
394.439 212.363 l
394.957 212.363 l
395.087 211.228 l
395.41 211.228 l
395.541 212.125 l
395.605 212.125 l
395.735 212.763 l
396.058 212.763 l
396.187 213.366 l
396.252 213.366 l
396.382 212.751 l
396.706 212.751 l
396.835 213.4 l
397.094 213.4 l
397.224 212.394 l
397.548 212.386 l
397.677 212.049 l
397.742 212.049 l
397.872 213.241 l
398.194 213.241 l
398.325 213.755 l
398.649 213.755 l
398.779 214.446 l
399.037 214.446 l
399.167 214.18 l
399.297 214.18 l
399.426 213.293 l
399.75 213.293 l
399.879 207.953 l
399.944 207.953 l
400.074 209.572 l
400.398 209.572 l
400.527 210.497 l
400.786 210.497 l
400.915 210.992 l
401.271 210.992 l
401.369 210.857 l
401.434 210.857 l
401.628 210.179 l
401.758 209.96 l
401.888 209.96 l
402.017 211.215 l
402.082 211.215 l
402.275 210.662 l
402.56 210.662 l
402.665 215.139 l
402.923 215.139 l
403.053 212.856 l
403.376 212.856 l
403.506 216.687 l
403.57 216.687 l
403.7 211.474 l
404.026 211.474 l
404.154 210.067 l
404.485 210.067 l
404.608 209.305 l
404.867 209.305 l
404.996 213.487 l
405.126 213.487 l
405.255 209.967 l
405.514 209.967 l
405.644 197.405 l
405.968 197.405 l
406.097 201.566 l
406.421 201.566 l
406.55 205.045 l
406.874 205.045 l
407.004 203.604 l
407.263 203.604 l
407.392 205.404 l
407.522 205.404 l
407.651 205.689 l
407.717 205.689 l
407.846 216.888 l
408.173 216.888 l
408.299 213.012 l
408.364 213.012 l
408.493 212.635 l
408.818 212.635 l
408.947 204.304 l
409.206 204.304 l
409.335 207.955 l
409.66 207.955 l
409.789 208.34 l
409.855 208.34 l
409.983 207.392 l
410.113 207.392 l
410.242 206.86 l
410.307 206.86 l
410.436 207.218 l
410.566 207.218 l
410.696 206.725 l
410.955 206.725 l
411.085 206.278 l
411.408 206.278 l
411.537 206.756 l
411.801 206.756 l
411.926 207.471 l
412.25 207.471 l
412.379 205.694 l
412.445 205.694 l
412.574 205.902 l
412.898 205.902 l
413.027 206.241 l
413.092 206.241 l
413.222 206.733 l
413.546 206.733 l
413.675 207.607 l
413.804 207.607 l
413.934 209.035 l
414.453 209.035 l
414.582 210.053 l
414.647 210.053 l
414.776 210.79 l
415.1 210.79 l
415.229 202.285 l
415.294 202.285 l
415.424 198.725 l
415.489 198.725 l
415.618 204.616 l
415.748 204.616 l
415.877 204.236 l
416.136 204.236 l
416.266 203.131 l
416.59 203.131 l
416.719 202.451 l
416.784 202.451 l
416.913 204.264 l
417.237 204.264 l
417.367 203.03 l
417.691 203.03 l
417.821 196.514 l
418.079 196.514 l
418.209 200.233 l
418.532 200.233 l
418.662 202.918 l
418.986 202.918 l
419.115 208.697 l
419.378 208.697 l
419.504 211.596 l
419.828 211.596 l
419.958 215.68 l
420.281 215.68 l
420.411 216.313 l
420.67 216.313 l
420.799 215.982 l
421.577 215.953 l
421.706 216.488 l
421.965 216.488 l
422.095 214.699 l
422.613 214.699 l
422.742 212.287 l
423.067 212.287 l
423.196 213.561 l
423.52 213.561 l
423.649 214.879 l
423.908 214.879 l
424.102 214.765 l
424.362 214.765 l
424.491 214.499 l
424.556 214.499 l
424.751 215.211 l
425.009 215.211 l
425.139 215.405 l
425.204 215.405 l
425.333 214.392 l
425.657 214.392 l
425.786 212.868 l
426.305 212.972 l
426.434 213.199 l
426.758 213.199 l
426.888 213.723 l
427.212 213.723 l
427.341 209.207 l
427.6 209.207 l
427.73 208.006 l
428.053 208.006 l
428.183 210.014 l
428.443 210.014 l
428.571 208.352 l
428.702 208.352 l
428.83 209.426 l
429.089 209.426 l
429.219 208.45 l
429.543 208.45 l
429.673 208.577 l
429.738 208.577 l
429.867 209.877 l
430.19 209.877 l
430.32 210.381 l
430.385 210.381 l
430.514 210.615 l
430.644 210.615 l
430.775 212.333 l
431.033 212.333 l
431.162 213.52 l
431.486 213.52 l
431.615 217.191 l
431.94 217.191 l
432.069 217.843 l
432.328 217.843 l
432.458 215.555 l
432.781 215.555 l
432.911 215.221 l
433.235 215.221 l
433.365 214.21 l
433.623 214.21 l
433.753 212.854 l
434.077 212.854 l
434.207 213.129 l
434.53 213.129 l
434.659 212.012 l
434.725 212.012 l
434.854 215.329 l
435.178 215.329 l
435.307 215.567 l
435.373 215.567 l
435.502 214.593 l
436.02 214.593 l
436.149 214.909 l
436.214 214.909 l
436.344 215.547 l
436.667 215.547 l
436.797 214.531 l
437.121 214.531 l
437.251 215.255 l
437.509 215.255 l
437.639 216.066 l
437.963 216.066 l
438.093 215.47 l
438.416 215.575 l
438.546 216.183 l
438.611 216.183 l
438.74 216.894 l
439.065 216.894 l
439.193 217.592 l
439.258 217.592 l
439.388 217.705 l
439.906 217.75 l
440.1 216.346 l
440.25 218.933 l
440.386 218.933 l
440.488 219.096 l
440.748 219.096 l
440.878 217.945 l
441.007 217.945 l
441.137 210.371 l
441.234 210.371 l
441.331 212.54 l
441.655 212.54 l
441.784 209.692 l
441.849 209.692 l
442.043 211.69 l
442.108 211.69 l
442.237 213.241 l
442.951 213.171 l
443.08 212.56 l
443.598 212.56 l
443.727 213.456 l
444.442 213.508 l
444.57 214.038 l
445.346 213.935 l
445.476 209.787 l
445.541 209.787 l
445.672 209.264 l
445.994 209.264 l
446.124 203.645 l
446.383 203.645 l
446.513 216.109 l
446.836 216.109 l
446.965 207.407 l
447.03 207.407 l
447.16 208.846 l
447.289 208.846 l
447.419 210.013 l
447.678 210.013 l
447.807 213.999 l
448.16 213.999 l
448.261 211.825 l
448.585 211.825 l
448.715 219.07 l
448.781 219.07 l
448.908 215.676 l
448.974 215.676 l
449.103 209.99 l
449.427 209.99 l
449.556 217.709 l
449.88 217.709 l
450.009 213.401 l
450.269 213.401 l
450.398 186.238 l
450.528 186.238 l
450.657 195.527 l
450.722 195.527 l
450.852 198.935 l
451.175 198.935 l
451.305 197.586 l
451.565 197.586 l
451.694 238.344 l
452.018 238.344 l
452.147 221.076 l
452.212 221.076 l
452.342 233.221 l
452.473 233.221 l
452.601 233.48 l
452.859 233.48 l
452.989 240.171 l
453.313 240.171 l
453.442 266.368 l
453.572 266.368 l
453.701 263.628 l
453.766 263.628 l
453.896 245.356 l
505.451 245.356 l
505.451 245.356 l
stroke
grestore
0.000 0.000 1.000 setrgbcolor
gsave
453.4 226.6 73.12 40.7 clipbox
73.125 69.0222 m
152.66 69.0222 l
153.503 97.3508 l
154.215 113.952 l
154.928 125.826 l
155.641 134.32 l
156.352 140.396 l
157.065 144.742 l
157.777 147.851 l
158.49 150.074 l
159.266 151.785 l
160.046 152.972 l
160.821 153.795 l
161.728 154.443 l
162.764 154.913 l
164.125 155.266 l
165.938 155.493 l
168.982 155.621 l
172.998 155.655 l
173.84 154.223 l
174.617 153.32 l
175.523 152.61 l
176.559 152.095 l
177.855 151.72 l
179.604 151.47 l
182.389 151.327 l
188.93 151.277 l
234.462 151.274 l
235.24 147.336 l
235.952 144.795 l
236.665 142.978 l
238.153 140.678 l
239.061 139.891 l
240.032 139.348 l
241.199 138.953 l
242.753 138.672 l
245.149 138.496 l
249.749 138.421 l
272.351 138.411 l
311.277 138.302 l
312.831 138.019 l
315.228 137.842 l
320.021 137.766 l
342.689 137.757 l
380.319 137.757 l
381.096 161.319 l
381.874 177.668 l
382.587 188.216 l
383.299 195.761 l
384.011 201.158 l
384.724 205.019 l
386.149 209.756 l
386.861 211.169 l
387.638 212.255 l
388.48 213.061 l
389.452 213.669 l
390.553 214.093 l
392.042 214.408 l
394.18 214.605 l
398.069 214.7 l
412.121 214.718 l
459.012 214.719 l
459.855 224.838 l
460.567 230.767 l
461.279 235.009 l
461.993 238.043 l
462.704 240.213 l
463.417 241.766 l
464.194 242.96 l
464.971 243.788 l
465.878 244.44 l
466.914 244.913 l
468.274 245.269 l
470.087 245.497 l
473.132 245.626 l
480.904 245.665 l
505.451 245.666 l
505.451 245.666 l
stroke
grestore
0.500 setlinewidth
0 setlinecap
[1 3] 0 setdash
0.000 setgray
gsave
453.4 226.6 73.12 40.7 clipbox
73.125 40.6968 m
73.125 267.3 l
stroke
grestore
[] 0 setdash
gsave
/o {
gsave
newpath
translate
0.5 setlinewidth
1 setlinejoin
0 setlinecap
0 0 m
0 4 l
gsave
0.000 setgray
fill
grestore
stroke
grestore
} bind def
73.125 40.6968 o
grestore
gsave
/o {
gsave
newpath
translate
0.5 setlinewidth
1 setlinejoin
0 setlinecap
0 0 m
0 -4 l
gsave
0.000 setgray
fill
grestore
stroke
grestore
} bind def
73.125 267.3 o
grestore
/DejaVuSans findfont
12.000 scalefont
setfont
gsave
70.101562 27.618668 translate
0.000000 rotate
0.000000 0.171875 m /zero glyphshow
grestore
[1 3] 0 setdash
gsave
453.4 226.6 73.12 40.7 clipbox
137.893 40.6968 m
137.893 267.3 l
stroke
grestore
[] 0 setdash
gsave
/o {
gsave
newpath
translate
0.5 setlinewidth
1 setlinejoin
0 setlinecap
0 0 m
0 4 l
gsave
0.000 setgray
fill
grestore
stroke
grestore
} bind def
137.893 40.6968 o
grestore
gsave
/o {
gsave
newpath
translate
0.5 setlinewidth
1 setlinejoin
0 setlinecap
0 0 m
0 -4 l
gsave
0.000 setgray
fill
grestore
stroke
grestore
} bind def
137.893 267.3 o
grestore
gsave
131.306920 27.618668 translate
0.000000 rotate
0.000000 0.171875 m /one glyphshow
7.634766 0.171875 m /zero glyphshow
grestore
[1 3] 0 setdash
gsave
453.4 226.6 73.12 40.7 clipbox
202.661 40.6968 m
202.661 267.3 l
stroke
grestore
[] 0 setdash
gsave
/o {
gsave
newpath
translate
0.5 setlinewidth
1 setlinejoin
0 setlinecap
0 0 m
0 4 l
gsave
0.000 setgray
fill
grestore
stroke
grestore
} bind def
202.661 40.6968 o
grestore
gsave
/o {
gsave
newpath
translate
0.5 setlinewidth
1 setlinejoin
0 setlinecap
0 0 m
0 -4 l
gsave
0.000 setgray
fill
grestore
stroke
grestore
} bind def
202.661 267.3 o
grestore
gsave
195.856027 27.618668 translate
0.000000 rotate
0.000000 0.171875 m /two glyphshow
7.634766 0.171875 m /zero glyphshow
grestore
[1 3] 0 setdash
gsave
453.4 226.6 73.12 40.7 clipbox
267.429 40.6968 m
267.429 267.3 l
stroke
grestore
[] 0 setdash
gsave
/o {
gsave
newpath
translate
0.5 setlinewidth
1 setlinejoin
0 setlinecap
0 0 m
0 4 l
gsave
0.000 setgray
fill
grestore
stroke
grestore
} bind def
267.429 40.6968 o
grestore
gsave
/o {
gsave
newpath
translate
0.5 setlinewidth
1 setlinejoin
0 setlinecap
0 0 m
0 -4 l
gsave
0.000 setgray
fill
grestore
stroke
grestore
} bind def
267.429 267.3 o
grestore
gsave
260.647321 27.618668 translate
0.000000 rotate
0.000000 0.171875 m /three glyphshow
7.634766 0.171875 m /zero glyphshow
grestore
[1 3] 0 setdash
gsave
453.4 226.6 73.12 40.7 clipbox
332.196 40.6968 m
332.196 267.3 l
stroke
grestore
[] 0 setdash
gsave
/o {
gsave
newpath
translate
0.5 setlinewidth
1 setlinejoin
0 setlinecap
0 0 m
0 4 l
gsave
0.000 setgray
fill
grestore
stroke
grestore
} bind def
332.196 40.6968 o
grestore
gsave
/o {
gsave
newpath
translate
0.5 setlinewidth
1 setlinejoin
0 setlinecap
0 0 m
0 -4 l
gsave
0.000 setgray
fill
grestore
stroke
grestore
} bind def
332.196 267.3 o
grestore
gsave
325.251116 27.618668 translate
0.000000 rotate
0.000000 0.171875 m /four glyphshow
7.634766 0.171875 m /zero glyphshow
grestore
[1 3] 0 setdash
gsave
453.4 226.6 73.12 40.7 clipbox
396.964 40.6968 m
396.964 267.3 l
stroke
grestore
[] 0 setdash
gsave
/o {
gsave
newpath
translate
0.5 setlinewidth
1 setlinejoin
0 setlinecap
0 0 m
0 4 l
gsave
0.000 setgray
fill
grestore
stroke
grestore
} bind def
396.964 40.6968 o
grestore
gsave
/o {
gsave
newpath
translate
0.5 setlinewidth
1 setlinejoin
0 setlinecap
0 0 m
0 -4 l
gsave
0.000 setgray
fill
grestore
stroke
grestore
} bind def
396.964 267.3 o
grestore
gsave
390.183036 27.618668 translate
0.000000 rotate
0.000000 0.171875 m /five glyphshow
7.634766 0.171875 m /zero glyphshow
grestore
[1 3] 0 setdash
gsave
453.4 226.6 73.12 40.7 clipbox
461.732 40.6968 m
461.732 267.3 l
stroke
grestore
[] 0 setdash
gsave
/o {
gsave
newpath
translate
0.5 setlinewidth
1 setlinejoin
0 setlinecap
0 0 m
0 4 l
gsave
0.000 setgray
fill
grestore
stroke
grestore
} bind def
461.732 40.6968 o
grestore
gsave
/o {
gsave
newpath
translate
0.5 setlinewidth
1 setlinejoin
0 setlinecap
0 0 m
0 -4 l
gsave
0.000 setgray
fill
grestore
stroke
grestore
} bind def
461.732 267.3 o
grestore
gsave
454.911830 27.618668 translate
0.000000 rotate
0.000000 0.171875 m /six glyphshow
7.634766 0.171875 m /zero glyphshow
grestore
[1 3] 0 setdash
gsave
453.4 226.6 73.12 40.7 clipbox
526.5 40.6968 m
526.5 267.3 l
stroke
grestore
[] 0 setdash
gsave
/o {
gsave
newpath
translate
0.5 setlinewidth
1 setlinejoin
0 setlinecap
0 0 m
0 4 l
gsave
0.000 setgray
fill
grestore
stroke
grestore
} bind def
526.5 40.6968 o
grestore
gsave
/o {
gsave
newpath
translate
0.5 setlinewidth
1 setlinejoin
0 setlinecap
0 0 m
0 -4 l
gsave
0.000 setgray
fill
grestore
stroke
grestore
} bind def
526.5 267.3 o
grestore
gsave
519.750000 27.618668 translate
0.000000 rotate
0.000000 0.171875 m /seven glyphshow
7.634766 0.171875 m /zero glyphshow
grestore
/DejaVuSans findfont
18.000 scalefont
setfont
gsave
265.671875 6.571793 translate
0.000000 rotate
0.000000 2.375000 m /t glyphshow
7.057617 2.375000 m /i glyphshow
12.058594 2.375000 m /m glyphshow
29.592773 2.375000 m /e glyphshow
40.666992 2.375000 m /space glyphshow
46.388672 2.375000 m /bracketleft glyphshow
53.411133 2.375000 m /s glyphshow
62.789062 2.375000 m /bracketright glyphshow
grestore
[1 3] 0 setdash
gsave
453.4 226.6 73.12 40.7 clipbox
73.125 40.6968 m
526.5 40.6968 l
stroke
grestore
[] 0 setdash
gsave
/o {
gsave
newpath
translate
0.5 setlinewidth
1 setlinejoin
0 setlinecap
0 0 m
4 0 l
gsave
0.000 setgray
fill
grestore
stroke
grestore
} bind def
73.125 40.6968 o
grestore
gsave
/o {
gsave
newpath
translate
0.5 setlinewidth
1 setlinejoin
0 setlinecap
0 0 m
-4 0 l
gsave
0.000 setgray
fill
grestore
stroke
grestore
} bind def
526.5 40.6968 o
grestore
/DejaVuSans findfont
12.000 scalefont
setfont
gsave
51.875000 36.157731 translate
0.000000 rotate
0.000000 0.171875 m /zero glyphshow
7.634766 0.171875 m /period glyphshow
11.449219 0.171875 m /five glyphshow
grestore
[1 3] 0 setdash
gsave
453.4 226.6 73.12 40.7 clipbox
73.125 97.3476 m
526.5 97.3476 l
stroke
grestore
[] 0 setdash
gsave
/o {
gsave
newpath
translate
0.5 setlinewidth
1 setlinejoin
0 setlinecap
0 0 m
4 0 l
gsave
0.000 setgray
fill
grestore
stroke
grestore
} bind def
73.125 97.3476 o
grestore
gsave
/o {
gsave
newpath
translate
0.5 setlinewidth
1 setlinejoin
0 setlinecap
0 0 m
-4 0 l
gsave
0.000 setgray
fill
grestore
stroke
grestore
} bind def
526.5 97.3476 o
grestore
gsave
52.140625 92.808532 translate
0.000000 rotate
0.000000 0.171875 m /one glyphshow
7.634766 0.171875 m /period glyphshow
11.449219 0.171875 m /zero glyphshow
grestore
[1 3] 0 setdash
gsave
453.4 226.6 73.12 40.7 clipbox
73.125 153.998 m
526.5 153.998 l
stroke
grestore
[] 0 setdash
gsave
/o {
gsave
newpath
translate
0.5 setlinewidth
1 setlinejoin
0 setlinecap
0 0 m
4 0 l
gsave
0.000 setgray
fill
grestore
stroke
grestore
} bind def
73.125 153.998 o
grestore
gsave
/o {
gsave
newpath
translate
0.5 setlinewidth
1 setlinejoin
0 setlinecap
0 0 m
-4 0 l
gsave
0.000 setgray
fill
grestore
stroke
grestore
} bind def
526.5 153.998 o
grestore
gsave
52.390625 149.537459 translate
0.000000 rotate
0.000000 0.171875 m /one glyphshow
7.634766 0.171875 m /period glyphshow
11.449219 0.171875 m /five glyphshow
grestore
[1 3] 0 setdash
gsave
453.4 226.6 73.12 40.7 clipbox
73.125 210.649 m
526.5 210.649 l
stroke
grestore
[] 0 setdash
gsave
/o {
gsave
newpath
translate
0.5 setlinewidth
1 setlinejoin
0 setlinecap
0 0 m
4 0 l
gsave
0.000 setgray
fill
grestore
stroke
grestore
} bind def
73.125 210.649 o
grestore
gsave
/o {
gsave
newpath
translate
0.5 setlinewidth
1 setlinejoin
0 setlinecap
0 0 m
-4 0 l
gsave
0.000 setgray
fill
grestore
stroke
grestore
} bind def
526.5 210.649 o
grestore
gsave
51.703125 206.110136 translate
0.000000 rotate
0.000000 0.171875 m /two glyphshow
7.634766 0.171875 m /period glyphshow
11.449219 0.171875 m /zero glyphshow
grestore
[1 3] 0 setdash
gsave
453.4 226.6 73.12 40.7 clipbox
73.125 267.3 m
526.5 267.3 l
stroke
grestore
[] 0 setdash
gsave
/o {
gsave
newpath
translate
0.5 setlinewidth
1 setlinejoin
0 setlinecap
0 0 m
4 0 l
gsave
0.000 setgray
fill
grestore
stroke
grestore
} bind def
73.125 267.3 o
grestore
gsave
/o {
gsave
newpath
translate
0.5 setlinewidth
1 setlinejoin
0 setlinecap
0 0 m
-4 0 l
gsave
0.000 setgray
fill
grestore
stroke
grestore
} bind def
526.5 267.3 o
grestore
gsave
51.953125 262.760938 translate
0.000000 rotate
0.000000 0.171875 m /two glyphshow
7.634766 0.171875 m /period glyphshow
11.449219 0.171875 m /five glyphshow
grestore
gsave
46.703125 130.998397 translate
90.000000 rotate
/Cmmi10 findfont
18.0 scalefont
setfont
0.000000 3.328125 moveto
/z glyphshow

/DejaVuSans findfont
18.0 scalefont
setfont
8.367188 3.328125 moveto
/space glyphshow

14.088867 3.328125 moveto
/bracketleft glyphshow

21.111328 3.328125 moveto
/m glyphshow

38.645508 3.328125 moveto
/bracketright glyphshow


grestore
1.000 setlinewidth
2 setlinecap
gsave
73.125 267.3 m
526.5 267.3 l
stroke
grestore
gsave
526.5 40.6968 m
526.5 267.3 l
stroke
grestore
gsave
73.125 40.6968 m
526.5 40.6968 l
stroke
grestore
gsave
73.125 40.6968 m
73.125 267.3 l
stroke
grestore
/DejaVuSans findfont
24.000 scalefont
setfont
gsave
45.312500 267.300000 translate
0.000000 rotate
0.000000 5.000000 m /G glyphshow
18.597656 5.000000 m /o glyphshow
33.281250 5.000000 m /a glyphshow
47.988281 5.000000 m /l glyphshow
54.656250 5.000000 m /space glyphshow
62.285156 5.000000 m /P glyphshow
75.882812 5.000000 m /o glyphshow
90.566406 5.000000 m /s glyphshow
103.070312 5.000000 m /i glyphshow
109.738281 5.000000 m /t glyphshow
119.148438 5.000000 m /i glyphshow
125.816406 5.000000 m /o glyphshow
140.500000 5.000000 m /n glyphshow
155.710938 5.000000 m /space glyphshow
163.339844 5.000000 m /parenleft glyphshow
172.703125 5.000000 m /z glyphshow
185.300781 5.000000 m /parenright glyphshow
194.664062 5.000000 m /colon glyphshow
202.750000 5.000000 m /space glyphshow
210.378906 5.000000 m /B glyphshow
226.843750 5.000000 m /e glyphshow
241.609375 5.000000 m /f glyphshow
250.058594 5.000000 m /o glyphshow
264.742188 5.000000 m /r glyphshow
274.109375 5.000000 m /e glyphshow
288.875000 5.000000 m /space glyphshow
296.503906 5.000000 m /a glyphshow
311.210938 5.000000 m /n glyphshow
326.421875 5.000000 m /d glyphshow
341.656250 5.000000 m /space glyphshow
349.285156 5.000000 m /A glyphshow
364.828125 5.000000 m /f glyphshow
372.902344 5.000000 m /t glyphshow
382.312500 5.000000 m /e glyphshow
397.078125 5.000000 m /r glyphshow
406.945312 5.000000 m /space glyphshow
414.574219 5.000000 m /F glyphshow
426.628906 5.000000 m /i glyphshow
433.296875 5.000000 m /l glyphshow
439.964844 5.000000 m /t glyphshow
449.375000 5.000000 m /e glyphshow
464.140625 5.000000 m /r glyphshow
474.007812 5.000000 m /i glyphshow
480.675781 5.000000 m /n glyphshow
495.886719 5.000000 m /g glyphshow
grestore
gsave
80.325 211.193 m
173.165 211.193 l
173.165 260.1 l
80.325 260.1 l
80.325 211.193 l
cl
gsave
1.000 setgray
fill
grestore
stroke
grestore
1.000 0.000 0.000 setrgbcolor
gsave
90.405 248.739 m
110.565 248.739 l
stroke
grestore
0.000 setgray
gsave
126.405000 242.699375 translate
0.000000 rotate
/Cmmi10 findfont
14.4 scalefont
setfont
0.000000 1.640625 moveto
/z glyphshow


grestore
0.000 0.000 1.000 setrgbcolor
gsave
90.405 227.993 m
110.565 227.993 l
stroke
grestore
0.000 setgray
gsave
126.405000 216.952500 translate
0.000000 rotate
/Cmmi10 findfont
14.4 scalefont
setfont
0.000000 6.640625 moveto
/z glyphshow

/Cmmi10 findfont
10.08 scalefont
setfont
6.689392 2.967275 moveto
/f glyphshow

11.612976 2.967275 moveto
/i glyphshow

15.080634 2.967275 moveto
/l glyphshow

18.081023 2.967275 moveto
/t glyphshow

21.715915 2.967275 moveto
/e glyphshow

26.398489 2.967275 moveto
/r glyphshow

30.943341 2.967275 moveto
/e glyphshow

35.625916 2.967275 moveto
/d glyphshow


grestore

end
showpage
