%!PS-Adobe-3.0 EPSF-3.0
%%Title: /home/kariya/catkin_ws/src/crazyflieROS/logdata/20140626/z_manual.eps
%%Creator: matplotlib version 1.1.1rc, http://matplotlib.sourceforge.net/
%%CreationDate: Thu Jun 26 12:53:30 2014
%%Orientation: portrait
%%BoundingBox: 13 247 598 544
%%EndComments
%%BeginProlog
/mpldict 9 dict def
mpldict begin
/m { moveto } bind def
/l { lineto } bind def
/r { rlineto } bind def
/c { curveto } bind def
/cl { closepath } bind def
/box {
m
1 index 0 r
0 exch r
neg 0 r
cl
} bind def
/clipbox {
box
clip
newpath
} bind def
%!PS-Adobe-3.0 Resource-Font
%%Title: DejaVu Sans
%%Copyright: Copyright (c) 2003 by Bitstream, Inc. All Rights Reserved. Copyright (c) 2006 by Tavmjong Bah. All Rights Reserved. DejaVu changes are in public domain 
%%Creator: Converted from TrueType to type 3 by PPR
25 dict begin
/_d{bind def}bind def
/_m{moveto}_d
/_l{lineto}_d
/_cl{closepath eofill}_d
/_c{curveto}_d
/_sc{7 -1 roll{setcachedevice}{pop pop pop pop pop pop}ifelse}_d
/_e{exec}_d
/FontName /DejaVuSans def
/PaintType 0 def
/FontMatrix[.001 0 0 .001 0 0]def
/FontBBox[-1021 -415 1681 1167]def
/FontType 3 def
/Encoding [ /space /parenleft /parenright /period /zero /one /two /five /P /bracketleft /bracketright /e /i /m /n /o /s /t /v /z ] def
/FontInfo 10 dict dup begin
/FamilyName (DejaVu Sans) def
/FullName (DejaVu Sans) def
/Notice (Copyright (c) 2003 by Bitstream, Inc. All Rights Reserved. Copyright (c) 2006 by Tavmjong Bah. All Rights Reserved. DejaVu changes are in public domain ) def
/Weight (Book) def
/Version (Version 2.33) def
/ItalicAngle 0.0 def
/isFixedPitch false def
/UnderlinePosition -130 def
/UnderlineThickness 90 def
end readonly def
/CharStrings 20 dict dup begin
/space{318 0 0 0 0 0 _sc
}_d
/parenleft{390 0 86 -131 310 759 _sc
310 759 _m
266 683 234 609 213 536 _c
191 463 181 389 181 314 _c
181 238 191 164 213 91 _c
234 17 266 -56 310 -131 _c
232 -131 _l
183 -54 146 20 122 94 _c
98 168 86 241 86 314 _c
86 386 98 459 122 533 _c
146 607 182 682 232 759 _c
310 759 _l
_cl}_d
/parenright{390 0 80 -131 304 759 _sc
80 759 _m
158 759 _l
206 682 243 607 267 533 _c
291 459 304 386 304 314 _c
304 241 291 168 267 94 _c
243 20 206 -54 158 -131 _c
80 -131 _l
123 -56 155 17 177 91 _c
198 164 209 238 209 314 _c
209 389 198 463 177 536 _c
155 609 123 683 80 759 _c
_cl}_d
/period{318 0 107 0 210 124 _sc
107 124 _m
210 124 _l
210 0 _l
107 0 _l
107 124 _l
_cl}_d
/zero{636 0 66 -13 570 742 _sc
318 664 _m
267 664 229 639 203 589 _c
177 539 165 464 165 364 _c
165 264 177 189 203 139 _c
229 89 267 64 318 64 _c
369 64 407 89 433 139 _c
458 189 471 264 471 364 _c
471 464 458 539 433 589 _c
407 639 369 664 318 664 _c
318 742 _m
399 742 461 709 505 645 _c
548 580 570 486 570 364 _c
570 241 548 147 505 83 _c
461 19 399 -13 318 -13 _c
236 -13 173 19 130 83 _c
87 147 66 241 66 364 _c
66 486 87 580 130 645 _c
173 709 236 742 318 742 _c
_cl}_d
/one{636 0 110 0 544 729 _sc
124 83 _m
285 83 _l
285 639 _l
110 604 _l
110 694 _l
284 729 _l
383 729 _l
383 83 _l
544 83 _l
544 0 _l
124 0 _l
124 83 _l
_cl}_d
/two{{636 0 73 0 536 742 _sc
192 83 _m
536 83 _l
536 0 _l
73 0 _l
73 83 _l
110 121 161 173 226 239 _c
290 304 331 346 348 365 _c
380 400 402 430 414 455 _c
426 479 433 504 433 528 _c
433 566 419 598 392 622 _c
365 646 330 659 286 659 _c
255 659 222 653 188 643 _c
154 632 117 616 78 594 _c
78 694 _l
118 710 155 722 189 730 _c
223 738 255 742 284 742 _c
359 742 419 723 464 685 _c
509 647 532 597 532 534 _c
532 504 526 475 515 449 _c
504 422 484 390 454 354 _c
446 344 420 317 376 272 _c
332 227 271 164 192 83 _c
_cl}_e}_d
/five{{636 0 77 -13 549 729 _sc
108 729 _m
495 729 _l
495 646 _l
198 646 _l
198 467 _l
212 472 227 476 241 478 _c
255 480 270 482 284 482 _c
365 482 429 459 477 415 _c
525 370 549 310 549 234 _c
549 155 524 94 475 51 _c
426 8 357 -13 269 -13 _c
238 -13 207 -10 175 -6 _c
143 -1 111 6 77 17 _c
77 116 _l
106 100 136 88 168 80 _c
199 72 232 69 267 69 _c
323 69 368 83 401 113 _c
433 143 450 183 450 234 _c
450 284 433 324 401 354 _c
368 384 323 399 267 399 _c
241 399 214 396 188 390 _c
162 384 135 375 108 363 _c
108 729 _l
_cl}_e}_d
/P{603 0 98 0 569 729 _sc
197 648 _m
197 374 _l
321 374 _l
367 374 402 385 427 409 _c
452 433 465 467 465 511 _c
465 555 452 588 427 612 _c
402 636 367 648 321 648 _c
197 648 _l
98 729 _m
321 729 _l
402 729 464 710 506 673 _c
548 636 569 582 569 511 _c
569 439 548 384 506 348 _c
464 311 402 293 321 293 _c
197 293 _l
197 0 _l
98 0 _l
98 729 _l
_cl}_d
/bracketleft{390 0 86 -131 293 760 _sc
86 760 _m
293 760 _l
293 690 _l
176 690 _l
176 -61 _l
293 -61 _l
293 -131 _l
86 -131 _l
86 760 _l
_cl}_d
/bracketright{390 0 97 -131 304 760 _sc
304 760 _m
304 -131 _l
97 -131 _l
97 -61 _l
214 -61 _l
214 690 _l
97 690 _l
97 760 _l
304 760 _l
_cl}_d
/e{{615 0 55 -13 562 560 _sc
562 296 _m
562 252 _l
149 252 _l
153 190 171 142 205 110 _c
238 78 284 62 344 62 _c
378 62 412 66 444 74 _c
476 82 509 95 541 113 _c
541 28 _l
509 14 476 3 442 -3 _c
408 -9 373 -13 339 -13 _c
251 -13 182 12 131 62 _c
80 112 55 181 55 268 _c
55 357 79 428 127 481 _c
175 533 241 560 323 560 _c
397 560 455 536 498 489 _c
540 441 562 377 562 296 _c
472 322 _m
471 371 457 410 431 440 _c
404 469 368 484 324 484 _c
274 484 234 469 204 441 _c
174 413 156 373 152 322 _c
472 322 _l
_cl}_e}_d
/i{278 0 94 0 184 760 _sc
94 547 _m
184 547 _l
184 0 _l
94 0 _l
94 547 _l
94 760 _m
184 760 _l
184 646 _l
94 646 _l
94 760 _l
_cl}_d
/m{{974 0 91 0 889 560 _sc
520 442 _m
542 482 569 511 600 531 _c
631 550 668 560 711 560 _c
767 560 811 540 842 500 _c
873 460 889 403 889 330 _c
889 0 _l
799 0 _l
799 327 _l
799 379 789 418 771 444 _c
752 469 724 482 686 482 _c
639 482 602 466 575 435 _c
548 404 535 362 535 309 _c
535 0 _l
445 0 _l
445 327 _l
445 379 435 418 417 444 _c
398 469 369 482 331 482 _c
285 482 248 466 221 435 _c
194 404 181 362 181 309 _c
181 0 _l
91 0 _l
91 547 _l
181 547 _l
181 462 _l
201 495 226 520 255 536 _c
283 552 317 560 357 560 _c
397 560 430 550 458 530 _c
486 510 506 480 520 442 _c
}_e{_cl}_e}_d
/n{634 0 91 0 549 560 _sc
549 330 _m
549 0 _l
459 0 _l
459 327 _l
459 379 448 417 428 443 _c
408 469 378 482 338 482 _c
289 482 251 466 223 435 _c
195 404 181 362 181 309 _c
181 0 _l
91 0 _l
91 547 _l
181 547 _l
181 462 _l
202 494 227 519 257 535 _c
286 551 320 560 358 560 _c
420 560 468 540 500 501 _c
532 462 549 405 549 330 _c
_cl}_d
/o{612 0 55 -13 557 560 _sc
306 484 _m
258 484 220 465 192 427 _c
164 389 150 338 150 273 _c
150 207 163 156 191 118 _c
219 80 257 62 306 62 _c
354 62 392 80 420 118 _c
448 156 462 207 462 273 _c
462 337 448 389 420 427 _c
392 465 354 484 306 484 _c
306 560 _m
384 560 445 534 490 484 _c
534 433 557 363 557 273 _c
557 183 534 113 490 63 _c
445 12 384 -13 306 -13 _c
227 -13 165 12 121 63 _c
77 113 55 183 55 273 _c
55 363 77 433 121 484 _c
165 534 227 560 306 560 _c
_cl}_d
/s{{521 0 54 -13 472 560 _sc
443 531 _m
443 446 _l
417 458 391 468 364 475 _c
336 481 308 485 279 485 _c
234 485 200 478 178 464 _c
156 450 145 430 145 403 _c
145 382 153 366 169 354 _c
185 342 217 330 265 320 _c
296 313 _l
360 299 405 279 432 255 _c
458 230 472 195 472 151 _c
472 100 452 60 412 31 _c
372 1 316 -13 246 -13 _c
216 -13 186 -10 154 -5 _c
122 0 89 8 54 20 _c
54 113 _l
87 95 120 82 152 74 _c
184 65 216 61 248 61 _c
290 61 323 68 346 82 _c
368 96 380 117 380 144 _c
380 168 371 187 355 200 _c
339 213 303 226 247 238 _c
216 245 _l
160 257 119 275 95 299 _c
70 323 58 356 58 399 _c
58 450 76 490 112 518 _c
148 546 200 560 268 560 _c
}_e{301 560 332 557 362 552 _c
391 547 418 540 443 531 _c
_cl}_e}_d
/t{392 0 27 0 368 702 _sc
183 702 _m
183 547 _l
368 547 _l
368 477 _l
183 477 _l
183 180 _l
183 135 189 106 201 94 _c
213 81 238 75 276 75 _c
368 75 _l
368 0 _l
276 0 _l
206 0 158 13 132 39 _c
106 65 93 112 93 180 _c
93 477 _l
27 477 _l
27 547 _l
93 547 _l
93 702 _l
183 702 _l
_cl}_d
/v{592 0 30 0 562 547 _sc
30 547 _m
125 547 _l
296 88 _l
467 547 _l
562 547 _l
357 0 _l
235 0 _l
30 547 _l
_cl}_d
/z{525 0 43 0 482 547 _sc
55 547 _m
482 547 _l
482 465 _l
144 72 _l
482 72 _l
482 0 _l
43 0 _l
43 82 _l
381 475 _l
55 475 _l
55 547 _l
_cl}_d
end readonly def

/BuildGlyph
 {exch begin
 CharStrings exch
 2 copy known not{pop /.notdef}if
 true 3 1 roll get exec
 end}_d

/BuildChar {
 1 index /Encoding get exch get
 1 index /BuildGlyph get exec
}_d

FontName currentdict end definefont pop
%!PS-Adobe-3.0 Resource-Font
%%Title: cmmi10
%%Copyright: Copyright (C) 1994, Basil K. Malyshev. All Rights Reserved.012BaKoMa Fonts Collection, Level-B.
%%Creator: Converted from TrueType to type 3 by PPR
25 dict begin
/_d{bind def}bind def
/_m{moveto}_d
/_l{lineto}_d
/_cl{closepath eofill}_d
/_c{curveto}_d
/_sc{7 -1 roll{setcachedevice}{pop pop pop pop pop pop}ifelse}_d
/_e{exec}_d
/FontName /Cmmi10 def
/PaintType 0 def
/FontMatrix[.001 0 0 .001 0 0]def
/FontBBox[-34 -250 1048 750]def
/FontType 3 def
/Encoding [ /e /g /m /z /o /d /s /u /l /a /r ] def
/FontInfo 10 dict dup begin
/FamilyName (cmmi10) def
/FullName (cmmi10) def
/Notice (Copyright (C) 1994, Basil K. Malyshev. All Rights Reserved.012BaKoMa Fonts Collection, Level-B. ) def
/Weight (Regular) def
/Version (1.1/12-Nov-94) def
/ItalicAngle 0.0 def
/isFixedPitch false def
/UnderlinePosition -133 def
/UnderlineThickness 20 def
end readonly def
/CharStrings 11 dict dup begin
/e{{465 0 44 -10 430 442 _sc
201 -10 _m
169 -10 141 -2 117 14 _c
93 30 75 53 63 81 _c
50 109 44 138 44 170 _c
44 217 56 262 80 304 _c
104 346 136 379 177 404 _c
218 429 262 442 309 442 _c
337 442 362 434 384 419 _c
405 404 416 383 416 356 _c
416 317 400 288 370 270 _c
339 251 304 239 266 235 _c
228 231 185 229 139 229 _c
136 229 _l
125 189 120 155 120 127 _c
120 97 126 71 140 49 _c
154 26 175 15 203 15 _c
243 15 281 24 318 42 _c
354 60 384 86 407 118 _c
409 120 411 121 415 121 _c
418 121 421 119 425 115 _c
428 111 430 108 430 105 _c
430 102 429 100 428 99 _c
404 65 371 38 330 19 _c
288 0 245 -10 201 -10 _c
142 255 _m
}_e{180 255 216 256 249 260 _c
282 264 312 273 339 287 _c
365 301 379 324 379 355 _c
379 367 375 378 368 387 _c
361 396 352 403 342 408 _c
331 413 320 416 308 416 _c
280 416 254 408 232 393 _c
209 377 190 357 176 333 _c
161 308 150 282 142 255 _c
_cl}_e}_d
/g{{477 0 14 -204 476 442 _sc
14 -142 _m
14 -126 19 -111 31 -99 _c
42 -87 56 -81 72 -81 _c
82 -81 91 -84 99 -91 _c
106 -97 110 -106 110 -117 _c
110 -129 106 -139 99 -149 _c
92 -159 83 -166 73 -170 _c
91 -175 119 -178 157 -178 _c
187 -178 215 -166 241 -142 _c
266 -118 283 -91 291 -61 _c
320 55 _l
284 18 246 0 207 0 _c
178 0 153 7 133 22 _c
113 36 97 56 87 80 _c
76 104 71 130 71 158 _c
71 188 77 220 89 254 _c
101 288 119 319 142 348 _c
164 376 190 399 220 416 _c
249 433 280 442 313 442 _c
332 442 349 436 365 426 _c
381 415 393 401 403 383 _c
409 409 424 422 446 422 _c
454 422 461 419 467 414 _c
473 409 476 402 476 394 _c
476 392 476 390 476 389 _c
476 388 475 387 475 386 _c
}_e{361 -67 _l
355 -87 346 -106 332 -124 _c
318 -141 301 -155 282 -167 _c
263 -179 242 -188 220 -194 _c
198 -200 176 -204 156 -204 _c
118 -204 84 -200 56 -193 _c
28 -185 14 -168 14 -142 _c
209 26 _m
251 26 293 55 335 114 _c
390 332 _l
385 355 376 375 362 391 _c
348 407 331 416 311 416 _c
289 416 268 407 248 389 _c
228 371 212 349 199 324 _c
187 300 175 265 163 220 _c
151 175 146 140 146 114 _c
146 91 151 71 161 53 _c
171 35 187 26 209 26 _c
_cl}_e}_d
/m{{878 0 27 -10 851 442 _sc
77 17 _m
77 21 77 24 78 26 _c
153 324 _l
157 342 160 359 160 373 _c
160 401 150 416 131 416 _c
110 416 94 403 84 378 _c
74 353 64 322 55 284 _c
55 282 54 280 52 279 _c
50 278 48 278 47 278 _c
35 278 _l
33 278 31 279 29 281 _c
27 283 27 286 27 288 _c
34 317 41 342 48 362 _c
54 382 65 400 79 417 _c
93 433 110 442 132 442 _c
156 442 178 434 198 418 _c
217 402 227 382 227 358 _c
247 384 270 404 297 419 _c
323 434 352 442 382 442 _c
413 442 440 434 463 418 _c
486 402 498 379 498 349 _c
518 378 542 401 570 417 _c
597 433 627 442 660 442 _c
}_e{694 442 722 432 743 414 _c
764 395 775 368 775 334 _c
775 306 768 273 756 235 _c
744 196 729 153 711 105 _c
701 81 697 61 697 45 _c
697 25 704 15 720 15 _c
746 15 767 29 785 57 _c
802 85 814 115 822 147 _c
824 151 826 153 830 153 _c
842 153 _l
844 153 846 152 848 150 _c
850 148 851 146 851 144 _c
851 143 850 142 850 141 _c
840 103 824 68 802 37 _c
780 5 752 -10 718 -10 _c
694 -10 674 -2 658 13 _c
641 29 633 48 633 72 _c
633 83 635 96 641 111 _c
659 161 675 205 688 245 _c
700 284 707 319 707 349 _c
707 367 703 383 696 396 _c
688 409 676 416 658 416 _c
}_e{622 416 590 404 563 382 _c
536 360 513 330 494 294 _c
492 287 491 282 491 279 _c
427 22 _l
424 12 419 5 411 -1 _c
403 -7 394 -10 385 -10 _c
377 -10 370 -7 364 -3 _c
358 1 355 8 355 17 _c
355 21 355 24 356 26 _c
420 281 _l
426 308 430 331 430 349 _c
430 367 426 383 418 396 _c
410 409 398 416 380 416 _c
355 416 332 410 312 400 _c
292 389 274 375 259 357 _c
243 339 229 318 217 294 _c
149 22 _l
147 12 142 5 134 -1 _c
126 -7 117 -10 107 -10 _c
99 -10 92 -7 86 -3 _c
80 1 77 8 77 17 _c
_cl}_e}_d
/z{{465 0 41 -10 468 442 _sc
49 -10 _m
43 -10 41 -7 41 -1 _c
41 1 41 3 43 5 _c
61 35 82 65 108 93 _c
133 121 162 150 194 179 _c
226 207 258 236 290 265 _c
322 294 349 320 369 343 _c
365 343 _l
350 343 328 347 300 357 _c
272 366 250 371 234 371 _c
216 371 199 367 183 359 _c
166 351 155 340 151 324 _c
149 319 147 317 143 317 _c
131 317 _l
125 317 123 320 123 327 _c
123 330 _l
128 349 137 367 149 384 _c
161 401 175 415 193 426 _c
210 436 228 442 247 442 _c
260 442 271 439 280 433 _c
288 427 299 417 311 405 _c
323 392 332 383 340 377 _c
347 371 356 369 367 369 _c
381 369 394 375 406 389 _c
418 402 429 419 441 439 _c
443 441 445 442 448 442 _c
460 442 _l
}_e{462 442 463 441 465 439 _c
467 437 468 435 468 433 _c
468 431 467 429 466 427 _c
448 395 427 366 403 340 _c
379 313 347 282 309 248 _c
270 213 237 184 211 160 _c
185 136 160 111 137 86 _c
142 87 149 88 158 88 _c
174 88 197 83 225 74 _c
253 64 274 60 290 60 _c
306 60 323 63 340 71 _c
357 78 372 88 384 101 _c
396 114 405 129 409 146 _c
411 150 413 153 417 153 _c
429 153 _l
431 153 433 151 435 149 _c
437 147 438 145 438 143 _c
438 142 437 141 437 140 _c
431 114 420 90 405 67 _c
389 44 370 25 348 11 _c
326 -3 302 -10 277 -10 _c
264 -10 253 -7 244 -2 _c
235 3 225 12 213 25 _c
201 38 192 47 184 53 _c
176 59 167 62 157 62 _c
123 62 94 39 68 -7 _c
65 -9 63 -10 61 -10 _c
49 -10 _l
}_e{_cl}_e}_d
/o{{484 0 40 -10 471 442 _sc
201 -10 _m
169 -10 141 -2 117 12 _c
92 26 73 46 60 72 _c
46 97 40 126 40 158 _c
40 203 52 248 78 292 _c
103 336 136 372 178 400 _c
220 428 264 442 310 442 _c
334 442 356 437 376 429 _c
395 421 412 409 426 394 _c
440 378 451 360 459 340 _c
467 319 471 297 471 273 _c
471 238 463 204 449 170 _c
434 136 414 106 389 78 _c
363 50 334 29 301 13 _c
268 -2 235 -10 201 -10 _c
203 15 _m
233 15 260 25 284 45 _c
308 65 329 91 345 122 _c
361 152 373 185 381 219 _c
389 253 394 284 394 312 _c
394 340 386 365 372 385 _c
358 405 336 416 308 416 _c
269 416 235 399 206 366 _c
176 332 154 292 139 246 _c
124 200 117 157 117 119 _c
117 90 124 65 139 45 _c
154 25 175 15 203 15 _c
_cl}_e}_d
/d{{520 0 38 -10 519 694 _sc
174 -10 _m
132 -10 98 5 74 37 _c
50 68 38 105 38 149 _c
38 191 49 236 71 282 _c
93 328 122 366 160 396 _c
198 426 238 442 282 442 _c
302 442 319 436 335 425 _c
351 414 363 400 372 382 _c
428 605 _l
430 616 432 625 433 632 _c
433 642 411 648 368 648 _c
361 648 358 652 358 661 _c
358 663 358 666 360 670 _c
361 674 362 677 364 679 _c
366 681 368 683 372 683 _c
507 694 _l
515 694 519 689 519 681 _c
375 106 _l
370 94 368 78 368 58 _c
368 29 377 15 397 15 _c
417 15 433 28 444 55 _c
455 81 464 112 472 147 _c
}_e{473 151 476 153 480 153 _c
492 153 _l
494 153 496 151 498 149 _c
500 147 501 145 501 143 _c
489 96 476 59 462 31 _c
448 3 426 -10 395 -10 _c
372 -10 352 -3 335 9 _c
318 21 307 39 303 61 _c
260 13 217 -10 174 -10 _c
175 15 _m
199 15 222 24 245 42 _c
267 60 287 81 303 106 _c
303 106 304 108 304 110 _c
359 330 _l
355 353 346 373 333 390 _c
319 407 302 416 280 416 _c
257 416 236 406 217 388 _c
197 370 181 348 168 323 _c
154 296 142 259 130 213 _c
118 167 113 131 113 105 _c
113 81 118 60 128 42 _c
138 24 153 15 175 15 _c
_cl}_e}_d
/s{{468 0 52 -10 419 442 _sc
87 61 _m
105 30 141 15 195 15 _c
218 15 240 19 261 27 _c
282 35 300 47 314 63 _c
328 79 335 98 335 121 _c
335 138 328 152 316 163 _c
304 174 289 182 271 186 _c
217 197 _l
192 203 172 214 156 231 _c
140 248 132 269 132 293 _c
132 322 140 348 156 371 _c
172 394 193 412 219 424 _c
245 436 273 442 302 442 _c
332 442 359 434 383 420 _c
407 405 419 384 419 356 _c
419 340 414 327 406 315 _c
397 303 385 298 370 298 _c
361 298 353 300 347 306 _c
341 312 338 319 338 328 _c
338 336 340 343 344 351 _c
348 358 354 364 362 368 _c
369 372 377 375 385 375 _c
379 389 368 399 352 406 _c
336 412 318 416 300 416 _c
282 416 265 412 249 406 _c
232 399 218 389 208 376 _c
198 362 193 347 193 329 _c
193 317 197 306 205 297 _c
213 288 224 282 237 278 _c
}_e{295 266 _l
313 262 330 255 346 245 _c
361 235 373 222 382 207 _c
391 192 396 175 396 156 _c
396 131 389 106 375 82 _c
361 58 344 39 324 25 _c
288 1 245 -10 194 -10 _c
158 -10 126 -2 96 14 _c
66 30 52 54 52 86 _c
52 104 57 119 67 133 _c
77 147 92 154 111 154 _c
121 154 130 150 138 144 _c
145 137 149 128 149 118 _c
149 102 143 89 132 78 _c
120 66 107 61 92 61 _c
87 61 _l
_cl}_e}_d
/u{{572 0 27 -10 546 442 _sc
106 109 _m
106 131 109 153 115 176 _c
121 198 129 224 139 252 _c
149 280 159 305 167 326 _c
175 350 180 370 180 386 _c
180 406 172 416 158 416 _c
132 416 110 402 93 375 _c
75 347 63 317 55 284 _c
53 280 51 278 47 278 _c
35 278 _l
29 278 27 281 27 287 _c
27 290 _l
37 330 54 365 76 396 _c
98 426 126 442 160 442 _c
184 442 204 434 220 418 _c
236 402 245 383 245 359 _c
245 346 242 333 237 320 _c
233 312 226 294 216 267 _c
206 239 198 217 193 199 _c
187 181 183 163 179 146 _c
175 128 174 111 174 94 _c
174 72 178 53 188 38 _c
197 22 212 15 234 15 _c
}_e{276 15 314 41 346 94 _c
346 96 347 99 348 101 _c
348 103 349 106 349 109 _c
421 399 _l
423 407 428 415 436 421 _c
444 427 453 431 463 431 _c
471 431 478 428 484 423 _c
490 418 493 411 493 403 _c
493 399 492 396 492 395 _c
420 107 _l
415 87 413 70 413 58 _c
413 29 422 15 442 15 _c
463 15 479 28 490 55 _c
500 81 509 112 517 147 _c
518 151 521 153 525 153 _c
537 153 _l
539 153 541 151 543 149 _c
545 147 546 145 546 143 _c
538 114 531 89 525 69 _c
518 49 507 30 493 14 _c
479 -2 461 -10 440 -10 _c
418 -10 399 -4 383 6 _c
366 17 355 33 349 53 _c
}_e{333 33 316 18 296 7 _c
276 -4 254 -10 232 -10 _c
193 -10 162 0 140 21 _c
117 41 106 71 106 109 _c
_cl}_e}_d
/l{{298 0 44 -10 262 694 _sc
44 81 _m
44 83 44 86 44 90 _c
44 94 45 97 46 101 _c
46 105 47 108 47 110 _c
171 605 _l
173 616 175 625 176 632 _c
176 642 154 648 111 648 _c
104 648 101 652 101 661 _c
101 663 102 666 103 670 _c
104 674 105 677 107 679 _c
109 681 111 683 115 683 _c
250 694 _l
258 694 262 689 262 681 _c
118 106 _l
113 95 111 79 111 58 _c
111 29 120 15 140 15 _c
160 15 176 27 186 53 _c
196 79 206 110 214 147 _c
215 151 218 153 222 153 _c
234 153 _l
236 153 238 151 240 149 _c
242 147 243 145 243 143 _c
}_e{235 111 227 85 221 67 _c
215 48 205 30 191 14 _c
177 -2 159 -10 138 -10 _c
111 -10 89 -1 71 15 _c
53 32 44 54 44 81 _c
_cl}_e}_d
/a{{528 0 38 -10 501 442 _sc
174 -10 _m
132 -10 98 5 74 37 _c
50 68 38 105 38 149 _c
38 191 49 236 71 282 _c
93 328 122 366 160 396 _c
198 426 238 442 282 442 _c
302 442 319 436 335 426 _c
351 415 363 400 372 382 _c
379 408 394 422 416 422 _c
424 422 431 419 437 414 _c
443 409 446 402 446 394 _c
446 392 445 390 445 389 _c
445 388 445 387 445 386 _c
375 107 _l
370 87 368 70 368 58 _c
368 29 377 15 397 15 _c
417 15 433 28 444 55 _c
455 81 464 112 472 147 _c
473 151 476 153 480 153 _c
492 153 _l
494 153 496 151 498 149 _c
500 147 501 145 501 143 _c
}_e{489 96 476 59 462 31 _c
448 3 426 -10 395 -10 _c
372 -10 352 -3 335 9 _c
318 21 307 39 303 61 _c
260 13 217 -10 174 -10 _c
175 15 _m
199 15 222 24 245 42 _c
267 60 287 81 303 106 _c
303 106 304 107 304 109 _c
358 326 _l
359 329 _l
355 353 346 373 333 390 _c
319 407 302 416 280 416 _c
257 416 236 406 217 388 _c
197 370 181 348 168 323 _c
154 296 142 259 130 213 _c
118 167 113 131 113 105 _c
113 81 118 60 128 42 _c
138 24 153 15 175 15 _c
_cl}_e}_d
/r{{451 0 27 -10 434 442 _sc
77 17 _m
77 21 77 24 78 26 _c
153 324 _l
157 342 160 359 160 373 _c
160 401 150 416 131 416 _c
110 416 94 403 84 378 _c
74 353 64 322 55 284 _c
55 282 54 280 52 279 _c
50 278 48 278 47 278 _c
35 278 _l
33 278 31 279 29 281 _c
27 283 27 286 27 288 _c
34 317 41 342 48 362 _c
54 382 65 400 79 417 _c
93 433 110 442 132 442 _c
155 442 175 435 193 422 _c
210 408 221 391 225 369 _c
241 391 260 408 282 422 _c
304 435 328 442 354 442 _c
375 442 394 435 410 423 _c
426 411 434 394 434 373 _c
434 356 428 341 418 329 _c
407 316 393 310 376 310 _c
}_e{365 310 356 313 349 320 _c
341 326 338 335 338 346 _c
338 360 343 373 354 385 _c
364 397 377 403 391 403 _c
380 411 367 416 352 416 _c
323 416 298 405 277 385 _c
256 365 237 339 220 308 _c
149 22 _l
147 12 142 5 134 -1 _c
126 -7 117 -10 107 -10 _c
99 -10 92 -7 86 -3 _c
80 1 77 8 77 17 _c
_cl}_e}_d
end readonly def

/BuildGlyph
 {exch begin
 CharStrings exch
 2 copy known not{pop /.notdef}if
 true 3 1 roll get exec
 end}_d

/BuildChar {
 1 index /Encoding get exch get
 1 index /BuildGlyph get exec
}_d

FontName currentdict end definefont pop
end
%%EndProlog
mpldict begin
13.5 247.5 translate
585 297 0 0 clipbox
gsave
0 0 m
585 0 l
585 297 l
0 297 l
cl
1.000 setgray
fill
grestore
gsave
73.125 41.5627 m
526.5 41.5627 l
526.5 267.3 l
73.125 267.3 l
cl
1.000 setgray
fill
grestore
1.000 setlinewidth
1 setlinejoin
2 setlinecap
[] 0 setdash
0.000 setgray
gsave
453.4 225.7 73.12 41.56 clipbox
73.125 106.575 m
137.069 106.656 l
137.541 109.176 l
137.994 114.419 l
138.737 129.127 l
139.009 132.778 l
139.147 133.048 l
139.227 135.344 l
139.297 135.806 l
139.448 138.088 l
139.514 138.648 l
139.587 139.475 l
139.656 139.913 l
139.732 140.561 l
139.802 140.905 l
139.877 141.413 l
139.948 141.682 l
140.025 142.08 l
140.091 142.291 l
140.167 142.603 l
140.237 142.769 l
140.314 143.013 l
140.448 143.223 l
140.53 143.468 l
140.669 143.64 l
140.747 143.784 l
140.959 143.971 l
141.038 144.06 l
141.394 144.245 l
141.474 144.287 l
144.659 144.498 l
147.93 144.499 l
227.69 144.58 l
227.98 146.305 l
228.542 151.16 l
229.431 158.167 l
229.775 160.493 l
229.861 160.752 l
229.993 161.401 l
230.464 163.399 l
232.677 182.431 l
233.094 183.791 l
233.511 184.466 l
233.982 184.83 l
234.635 185.031 l
235.814 185.118 l
240.801 185.132 l
293.812 185.05 l
293.991 183.651 l
294.337 176.894 l
294.698 170.766 l
295.097 167.199 l
295.496 165.373 l
295.913 164.41 l
296.367 163.904 l
296.911 163.639 l
297.763 163.503 l
299.957 163.462 l
314.919 163.301 l
315.033 162.631 l
315.481 152.202 l
316.008 137.704 l
316.388 131.955 l
316.787 128.821 l
317.204 127.167 l
317.621 126.346 l
318.201 125.842 l
318.854 125.639 l
320.015 125.552 l
325.092 125.537 l
455.048 125.456 l
455.16 124.951 l
455.209 124.663 l
455.395 121.981 l
455.792 115.287 l
456.571 103.085 l
457.333 98.0833 l
457.75 96.9028 l
458.185 96.2996 l
458.675 95.9857 l
459.636 95.7886 l
461.649 95.7413 l
487.201 95.6584 l
487.751 92.8725 l
488.017 90.9436 l
488.434 89.266 l
488.87 88.4089 l
489.323 87.9847 l
489.903 87.7533 l
491.082 87.6324 l
492.388 87.534 l
492.805 85.2159 l
493.422 81.6637 l
493.839 77.4907 l
494.256 73.0382 l
494.655 70.8959 l
495.072 69.7652 l
495.507 69.1875 l
496.015 68.8797 l
496.761 68.7167 l
498.119 68.6578 l
509.997 68.6512 l
510.759 68.6512 l
510.759 68.6512 l
stroke
grestore
1.000 0.000 0.000 setrgbcolor
gsave
453.4 225.7 73.12 41.56 clipbox
97.4996 69.94 m
98.0075 69.9978 l
98.116 70.2872 l
98.2431 69.94 l
98.37 70.2872 l
98.4969 70.2872 l
98.6057 69.94 l
98.7328 70.2872 l
98.8597 69.9978 l
98.9683 69.94 l
99.0954 70.2872 l
99.2224 69.9978 l
99.3493 69.94 l
100.292 69.94 l
100.365 70.2872 l
100.401 69.94 l
100.601 69.94 l
100.728 70.2872 l
100.8 69.94 l
100.836 70.0026 l
101.091 69.94 l
101.163 70.2872 l
101.199 69.9619 l
101.217 69.94 l
101.217 69.94 l
101.217 69.94 l
101.344 69.9978 l
101.471 69.94 l
101.942 69.9978 l
102.069 70.2872 l
102.179 69.94 l
102.251 70.2872 l
102.287 69.94 l
102.777 69.9978 l
102.903 70.2872 l
103.158 70.2872 l
103.285 69.94 l
103.684 69.9978 l
103.81 70.2872 l
104.119 70.2872 l
104.246 69.9978 l
104.373 69.94 l
104.79 70.0026 l
104.899 70.2872 l
105.025 69.94 l
105.515 69.94 l
105.588 70.2872 l
105.624 69.94 l
105.823 69.94 l
105.878 70.2872 l
105.932 69.94 l
106.005 69.94 l
106.059 70.2872 l
106.114 69.94 l
106.295 69.94 l
106.349 70.2872 l
106.404 69.9978 l
106.422 69.9978 l
106.549 70.2872 l
107.02 70.2872 l
107.147 69.94 l
107.256 70.2872 l
107.383 69.9978 l
108.344 69.9978 l
108.471 70.2872 l
108.544 70.2872 l
108.671 69.9978 l
108.907 69.9978 l
109.033 70.2872 l
109.142 69.9978 l
109.271 70.2872 l
109.451 70.2872 l
109.577 69.9978 l
109.686 69.9978 l
109.813 70.2872 l
109.941 69.9424 l
110.176 69.9978 l
110.285 70.2872 l
110.43 69.9978 l
110.539 69.9978 l
110.665 70.2872 l
110.774 70.2872 l
110.901 70.0026 l
110.974 69.9448 l
111.155 71.4179 l
111.301 76.1488 l
111.336 76.1747 l
112.044 115.288 l
112.189 122.531 l
112.225 122.531 l
112.352 135.31 l
112.407 135.31 l
112.552 148.673 l
112.57 148.673 l
112.66 156.615 l
112.878 165.842 l
112.95 165.842 l
113.096 175.258 l
113.205 175.385 l
113.35 180.64 l
113.422 180.64 l
113.549 182.772 l
113.676 184.024 l
113.803 185.571 l
113.857 185.571 l
113.984 184.745 l
114.166 184.781 l
114.292 183.637 l
114.456 181.058 l
114.474 181.058 l
114.691 176.574 l
114.71 176.574 l
114.855 172.644 l
114.946 172.644 l
115 169.127 l
115.072 169.694 l
115.217 166.706 l
115.254 166.706 l
115.381 164.08 l
115.489 164.026 l
115.616 160.982 l
115.762 156.841 l
116.215 153.588 l
116.342 150.44 l
116.487 147.509 l
116.524 147.509 l
116.65 147.378 l
116.759 147.378 l
116.904 142.077 l
117.013 142.068 l
117.158 140.603 l
117.194 140.603 l
117.303 140.876 l
117.448 138.519 l
117.502 138.461 l
117.629 136.732 l
117.774 134.308 l
117.847 134.272 l
117.974 131.532 l
118.137 129.456 l
118.209 129.456 l
118.336 125.963 l
118.355 125.963 l
118.536 123.868 l
118.645 124.545 l
118.772 121.039 l
118.881 121.039 l
118.953 119.639 l
119.007 119.99 l
119.062 119.99 l
119.19 117.829 l
119.317 116.359 l
119.443 116.359 l
119.606 113.717 l
119.733 113.717 l
119.86 111.841 l
119.969 111.841 l
120.097 110.055 l
120.241 108.51 l
120.349 108.51 l
120.476 106.23 l
120.64 106.232 l
120.785 104.432 l
121.003 104.432 l
121.057 103.003 l
121.111 103.36 l
121.129 103.36 l
121.256 102.284 l
121.329 102.284 l
121.583 100.676 l
121.601 100.676 l
121.764 101.388 l
122.036 101.4 l
122.163 100.004 l
122.399 100.021 l
122.544 99 l
122.635 99 l
122.761 98.4805 l
122.87 98.1452 l
122.997 98.7 l
123.07 98.7 l
123.179 99.062 l
123.306 98.8973 l
123.433 99.2555 l
123.541 99.2555 l
123.668 98.9103 l
123.795 99.094 l
123.904 99.094 l
123.977 98.0541 l
124.013 98.792 l
124.085 99.094 l
124.085 99.094 l
124.085 99.094 l
124.212 96.8061 l
124.249 97.1491 l
124.321 97.1491 l
124.394 97.3302 l
124.394 97.3302 l
124.394 97.3302 l
124.503 97.1356 l
124.666 98.7062 l
124.757 98.7062 l
124.811 99.7222 l
124.865 99.3662 l
124.938 99.3662 l
125.065 100.742 l
125.173 99.87 l
125.283 100.559 l
125.409 100.029 l
125.536 100.896 l
125.554 100.896 l
125.663 100.359 l
125.718 100.533 l
125.718 100.533 l
125.718 100.533 l
125.844 99.8301 l
125.922 99.8262 l
126.026 100.691 l
126.08 100.344 l
126.135 100.688 l
126.28 100.684 l
126.407 101.032 l
126.479 101.032 l
126.534 101.2 l
126.534 101.2 l
126.534 101.2 l
126.624 100.857 l
126.661 100.861 l
126.751 100.861 l
126.824 101.911 l
126.86 100.872 l
126.933 100.872 l
127.005 102.265 l
127.041 101.745 l
127.06 101.745 l
127.169 102.098 l
127.223 101.767 l
127.295 101.777 l
127.368 101.777 l
127.531 102.344 l
127.658 102.355 l
127.785 101.707 l
127.839 101.707 l
127.984 100.884 l
128.021 100.884 l
128.093 100.745 l
128.202 101.103 l
128.365 99.615 l
128.384 99.615 l
128.546 100.68 l
128.637 100.68 l
128.765 101.067 l
128.873 101.067 l
128.927 100.742 l
128.927 100.742 l
128.927 100.742 l
129 101.618 l
129.039 100.927 l
129.073 100.927 l
129.181 102.143 l
129.236 101.637 l
129.29 101.982 l
129.472 102.001 l
129.599 101.655 l
129.84 101.655 l
129.961 101.301 l
130.088 101.465 l
130.197 102.319 l
130.216 102.304 l
130.251 102.302 l
130.451 101.592 l
130.505 101.592 l
130.615 101.411 l
130.687 101.574 l
130.723 101.411 l
130.795 101.411 l
130.941 101.735 l
130.977 101.735 l
131.104 102.084 l
131.159 102.076 l
131.321 101.029 l
131.358 101.029 l
131.466 100.68 l
131.611 102.244 l
131.72 102.244 l
131.848 103.27 l
132.011 103.753 l
132.137 102.679 l
132.192 102.679 l
132.337 102.997 l
132.373 102.997 l
132.518 102.656 l
132.627 102.56 l
132.682 103.245 l
132.736 102.886 l
132.808 102.886 l
132.917 103.377 l
132.935 103.363 l
133.044 103.362 l
133.171 104.183 l
133.225 104.183 l
133.28 103.821 l
133.34 103.954 l
133.352 103.954 l
133.479 104.44 l
133.679 104.417 l
133.716 104.417 l
133.824 105.225 l
133.969 104.332 l
134.132 104.327 l
134.259 105.806 l
134.314 105.806 l
134.441 105.602 l
134.567 106.268 l
134.622 105.595 l
134.676 105.928 l
134.749 105.928 l
134.876 105.592 l
134.985 105.726 l
135.112 104.584 l
135.221 105.057 l
135.347 104.248 l
135.402 104.248 l
135.528 104.723 l
135.583 104.723 l
135.71 105.055 l
135.765 105.055 l
135.91 104.582 l
136.073 104.582 l
136.2 104.441 l
136.254 104.441 l
136.363 104.639 l
136.435 103.819 l
136.471 104.159 l
136.544 104.159 l
136.725 102.313 l
136.78 102.313 l
136.907 103.341 l
136.925 103.341 l
137.034 103.004 l
137.163 104.033 l
137.271 103.195 l
137.397 103.885 l
137.414 103.885 l
137.526 104.384 l
137.596 103.751 l
137.651 103.894 l
137.778 103.896 l
137.941 104.388 l
138.032 104.388 l
138.177 107.345 l
138.269 107.345 l
138.401 110.305 l
138.629 111.419 l
138.775 117.763 l
138.847 117.763 l
138.992 122.619 l
139.01 122.69 l
139.38 131.673 l
139.45 131.673 l
140.027 147.268 l
140.168 152.417 l
140.308 152.417 l
140.386 156.139 l
140.531 157.475 l
140.677 161.302 l
140.748 161.306 l
140.821 161.532 l
140.966 161.149 l
141.039 161.221 l
141.186 159.075 l
141.619 154.897 l
141.691 154.897 l
141.765 155.487 l
141.836 155.309 l
141.909 155.269 l
142.127 159.32 l
142.571 161.273 l
142.774 160.256 l
142.78 160.256 l
142.929 158.3 l
143.003 158.286 l
143.209 155.329 l
143.215 155.329 l
143.36 177.294 l
143.505 177.294 l
143.65 151.279 l
143.935 148.549 l
143.941 148.549 l
144.086 147.375 l
144.158 147.25 l
144.303 146.86 l
144.37 147.124 l
144.47 147.894 l
144.594 147.889 l
144.667 148.404 l
144.733 147.11 l
144.739 148.401 l
144.817 148.401 l
145.02 147.355 l
145.028 147.355 l
145.176 146.589 l
145.32 146.839 l
145.464 144.272 l
145.536 144.169 l
145.751 142.928 l
145.758 142.928 l
145.898 142.452 l
146.044 142.452 l
146.189 144.979 l
146.261 144.979 l
146.406 145.974 l
146.552 145.977 l
146.697 145.862 l
146.769 145.862 l
147.196 143.011 l
147.205 143.011 l
147.419 140.965 l
147.422 140.965 l
147.568 140.81 l
147.858 142.665 l
148.004 142.5 l
148.14 144.451 l
148.208 144.364 l
148.367 144.271 l
148.44 144.505 l
148.511 144.418 l
148.585 144.418 l
148.873 139.7 l
148.948 139.578 l
149.161 136.536 l
149.171 136.536 l
149.308 135.52 l
149.453 135.197 l
149.52 135.16 l
149.599 136.166 l
150.034 139.531 l
150.11 139.531 l
150.243 140.164 l
150.324 138.785 l
150.397 138.785 l
150.469 138.104 l
150.626 138.672 l
150.686 137.695 l
150.761 137.95 l
150.905 138.508 l
150.977 138.406 l
151.196 138.902 l
151.268 138.252 l
151.485 139.441 l
151.63 138.493 l
151.776 138.493 l
151.92 138.789 l
151.993 138.789 l
152.134 137.94 l
152.137 137.947 l
152.21 137.947 l
152.353 137.35 l
152.369 137.442 l
152.422 137.442 l
152.501 137.139 l
152.648 137.138 l
152.718 136.576 l
152.782 136.895 l
152.863 136.919 l
153.011 137.176 l
153.085 136.306 l
153.228 137.924 l
153.298 137.924 l
153.443 137.614 l
153.524 137.614 l
153.683 137.969 l
154.088 135.491 l
154.197 136.141 l
154.318 136.487 l
154.388 135.236 l
154.532 137.185 l
154.676 137.523 l
154.75 137.523 l
154.895 138.245 l
155.257 138.431 l
155.402 137.928 l
155.477 137.982 l
155.547 137.982 l
155.619 137.422 l
155.692 137.467 l
155.764 137.47 l
155.838 137.239 l
155.982 137.968 l
156.055 137.683 l
156.127 137.797 l
156.199 137.797 l
156.345 138.267 l
156.43 137.975 l
156.562 138.452 l
156.708 138.158 l
156.854 138.709 l
156.997 138.705 l
157.142 136.988 l
157.206 136.695 l
157.361 137.04 l
157.512 136.662 l
157.65 137.892 l
157.795 137.176 l
157.94 139.513 l
158.087 139.571 l
158.233 140.062 l
158.547 140.028 l
158.6 140.49 l
158.673 140.472 l
158.885 139.388 l
158.956 139.773 l
159.029 139.437 l
159.177 139.865 l
159.319 139.845 l
159.464 140.651 l
159.608 140.773 l
159.675 140.773 l
159.681 140.034 l
159.681 140.034 l
159.681 140.034 l
159.827 141.206 l
160.039 141.445 l
160.121 141.445 l
160.264 142.431 l
160.398 142.412 l
160.479 143.026 l
160.629 143.108 l
160.697 143.098 l
160.769 143.322 l
160.99 142.153 l
161.059 142.153 l
161.132 142.681 l
161.279 141.373 l
161.423 141.364 l
161.572 141.115 l
161.642 141.115 l
161.999 142.817 l
162.148 142.916 l
162.229 143.363 l
162.439 142.817 l
162.656 142.827 l
162.729 142.948 l
162.874 142.054 l
162.948 142.506 l
163.163 141.362 l
163.236 141.362 l
163.381 141.039 l
163.599 141.075 l
163.673 142.155 l
163.745 141.675 l
163.964 144.407 l
164.034 143.936 l
164.186 143.474 l
164.326 143.494 l
164.542 144.723 l
164.69 143.79 l
164.832 143.325 l
164.904 143.244 l
165.049 142.778 l
165.122 142.786 l
165.195 142.103 l
165.268 142.235 l
165.487 142.235 l
165.632 143.06 l
165.71 143.06 l
165.917 144.319 l
165.923 144.319 l
166.067 144.822 l
166.21 144.714 l
166.428 144.73 l
166.5 144.302 l
166.572 144.78 l
166.646 144.687 l
166.862 144.584 l
166.937 144.012 l
167.09 144.529 l
167.152 144.529 l
167.226 144.105 l
167.298 144.121 l
167.45 144.375 l
167.523 144.38 l
167.665 143.949 l
167.677 143.97 l
167.812 143.872 l
167.958 143.89 l
168.035 143.332 l
168.175 143.797 l
168.321 143.359 l
168.539 144.401 l
168.684 144.287 l
168.757 144.287 l
168.901 145.198 l
169.05 144.299 l
169.121 144.303 l
169.267 143.857 l
169.414 143.86 l
169.627 142.746 l
169.699 142.746 l
169.838 143.637 l
169.844 143.343 l
170.067 143.308 l
170.209 142.863 l
170.351 143.199 l
170.5 143.199 l
170.643 156.129 l
170.715 156.129 l
170.861 145.556 l
170.932 145.556 l
171.078 145.107 l
171.222 145.106 l
171.295 144.977 l
171.441 145.103 l
171.516 145.103 l
171.66 145.998 l
171.732 145.998 l
171.88 145.858 l
172.02 145.857 l
172.095 147.185 l
172.238 145.725 l
172.31 145.852 l
172.451 145.349 l
172.533 145.28 l
172.746 145.279 l
172.891 145.148 l
172.964 145.148 l
173.109 145.024 l
173.255 145.459 l
173.399 145.028 l
173.617 145.028 l
173.762 145.288 l
173.979 145.292 l
174.125 144.851 l
174.268 144.979 l
174.421 144.412 l
174.482 144.412 l
174.587 144.091 l
174.707 144.212 l
174.792 143.646 l
174.873 144.091 l
175.006 143.764 l
175.078 144.332 l
175.084 144.032 l
175.142 144.004 l
175.222 144.459 l
175.352 144.004 l
175.5 144.255 l
175.726 144.255 l
175.866 143.909 l
176.156 144.288 l
176.301 144.285 l
176.447 143.926 l
176.518 144.05 l
176.663 144.525 l
176.808 143.549 l
176.872 143.174 l
176.872 143.174 l
176.872 143.174 l
176.955 143.654 l
177.103 143.999 l
177.173 143.497 l
177.319 143.121 l
177.462 143.582 l
177.607 142.465 l
177.752 142.921 l
177.899 142.894 l
178.186 144.238 l
178.255 144.238 l
178.339 144.54 l
178.404 144.05 l
178.477 144.856 l
178.622 143.091 l
178.694 143.536 l
178.903 142.11 l
178.913 142.11 l
178.985 142.694 l
179.129 141.372 l
179.274 141.956 l
179.351 142.067 l
179.419 141.583 l
179.647 142.673 l
179.782 142.673 l
179.927 144.137 l
180.145 145.736 l
180.293 145.736 l
180.436 145.339 l
180.507 145.338 l
180.805 142.831 l
180.945 141.331 l
181.09 141.311 l
181.161 140.8 l
181.38 142.35 l
181.454 142.35 l
181.668 144.174 l
181.814 143.871 l
181.886 143.871 l
182.095 145.133 l
182.106 145.133 l
182.249 144.99 l
182.318 144.972 l
182.394 145.432 l
182.612 145.281 l
182.829 144.19 l
182.975 144.047 l
183.038 142.765 l
183.121 143.108 l
183.269 143.108 l
183.419 141.716 l
183.633 141.606 l
183.844 142.519 l
183.917 142.519 l
184.062 143.555 l
184.419 143.616 l
184.569 143.159 l
184.642 143.301 l
184.715 143.184 l
184.787 143.301 l
185.077 141.606 l
185.214 142.188 l
185.295 141.258 l
185.442 139.846 l
185.513 139.846 l
185.948 142.822 l
186.096 142.822 l
186.238 143.768 l
186.383 143.628 l
186.533 143.628 l
186.674 143.148 l
186.751 143.148 l
186.964 142.081 l
187.03 142.081 l
187.108 140.213 l
187.255 140.213 l
187.396 140.579 l
187.399 140.484 l
187.472 140.476 l
187.619 143.127 l
187.689 143.127 l
187.979 145.684 l
188.052 145.684 l
188.198 147.316 l
188.276 147.316 l
188.415 146.828 l
188.489 146.828 l
188.632 145.79 l
188.993 143.957 l
188.997 143.957 l
189.068 142.927 l
189.14 143.364 l
189.212 143.364 l
189.357 142.893 l
189.575 142.858 l
189.72 143.718 l
190.012 144.962 l
190.228 144.226 l
190.298 144.226 l
190.386 144.094 l
190.582 142.759 l
190.736 142.842 l
191.171 144.362 l
191.244 144.362 l
191.389 144.713 l
191.534 144.702 l
191.68 144.503 l
191.824 143.23 l
191.896 143.23 l
192.042 142.799 l
192.356 142.907 l
192.632 143.06 l
192.704 143.194 l
192.767 142.897 l
192.767 142.897 l
192.767 142.897 l
192.876 143.467 l
192.982 143.488 l
193.071 143.168 l
193.093 143.334 l
193.298 143.344 l
193.398 143.344 l
193.506 142.555 l
193.67 142.573 l
193.742 141.707 l
193.796 141.715 l
193.923 141.836 l
194.232 140.788 l
194.377 141.731 l
194.395 141.731 l
194.54 142.506 l
194.851 142.522 l
194.975 142.998 l
195.12 143.021 l
195.193 142.829 l
195.247 142.836 l
195.428 142.858 l
195.556 142.343 l
195.755 142.404 l
195.973 142.447 l
195.991 142.361 l
196.172 142.38 l
196.227 142.38 l
196.335 141.955 l
196.462 142.546 l
196.589 141.665 l
196.698 142.144 l
196.825 141.712 l
196.97 142.652 l
197.006 142.652 l
197.133 141.76 l
197.26 141.685 l
197.315 141.685 l
197.478 142.169 l
197.496 142.169 l
197.623 141.637 l
197.913 141.668 l
198.04 141.781 l
198.239 141.244 l
198.403 141.149 l
198.53 141.608 l
198.639 141.16 l
198.82 141.618 l
198.893 141.618 l
199.055 142.977 l
199.128 142.977 l
199.255 141.62 l
199.309 142.977 l
199.367 142.525 l
199.545 142.525 l
199.672 142.976 l
199.853 142.976 l
200.034 143.426 l
200.089 143.426 l
200.216 143.999 l
200.27 143.544 l
200.27 143.544 l
200.27 143.544 l
200.397 144.454 l
200.525 144.454 l
200.633 143.422 l
200.651 143.531 l
200.706 143.542 l
200.833 143.872 l
200.963 142.858 l
201.431 142.858 l
201.558 143.306 l
201.668 142.746 l
201.794 144.081 l
202.03 144.081 l
202.157 142.747 l
202.284 143.305 l
202.303 143.305 l
202.43 143.868 l
202.484 143.868 l
202.556 142.965 l
202.723 143.533 l
202.847 142.615 l
202.96 142.608 l
203.031 142.143 l
203.031 142.143 l
203.031 142.143 l
203.136 143.158 l
203.263 142.235 l
203.426 142.19 l
203.48 142.19 l
203.535 141.705 l
203.589 141.8 l
203.662 141.8 l
203.734 142.103 l
203.788 142.081 l
203.843 142.081 l
203.97 142.937 l
204.079 142.544 l
204.097 142.591 l
204.226 142.602 l
204.351 142.9 l
204.46 143.083 l
204.587 142.855 l
204.877 142.886 l
205.004 143.389 l
205.112 143.364 l
205.24 143.77 l
205.53 143.816 l
205.657 143.366 l
205.784 143.933 l
205.838 143.338 l
205.856 143.865 l
205.856 143.865 l
205.965 143.943 l
206.11 143.284 l
206.328 143.284 l
206.456 143.427 l
206.6 142.642 l
206.655 142.746 l
206.745 142.781 l
206.873 143.308 l
206.944 143.308 l
207.071 143.449 l
207.289 143.466 l
207.416 142.984 l
207.542 143.632 l
207.597 143.632 l
207.724 143.5 l
207.779 143.5 l
207.906 143.991 l
208.015 143.991 l
208.141 143.5 l
208.159 143.5 l
208.286 143 l
208.377 143 l
208.504 143.466 l
208.685 143.406 l
208.812 142.874 l
209.012 142.328 l
209.048 142.328 l
209.175 141.326 l
209.302 141.75 l
209.429 141.698 l
209.592 141.601 l
209.737 142.617 l
209.773 142.681 l
209.9 142.188 l
210.027 142.13 l
210.082 142.13 l
210.136 143.126 l
210.19 142.743 l
210.317 142.831 l
210.444 143.286 l
210.517 143.107 l
210.554 143.267 l
210.698 143.796 l
210.807 143.796 l
210.934 143.488 l
211.17 143.517 l
211.297 144.103 l
211.351 144.103 l
211.405 145.188 l
211.46 145.021 l
215.395 145.021 l
215.523 139.607 l
215.541 139.607 l
215.668 139.141 l
215.776 139.141 l
215.903 138.712 l
216.03 139.241 l
216.139 139.241 l
216.266 140.889 l
216.321 140.945 l
216.374 141.823 l
216.429 141.471 l
216.483 141.471 l
216.574 142.54 l
216.592 142.093 l
216.665 142.049 l
216.791 143.104 l
216.81 143.104 l
216.918 142.631 l
216.991 143.375 l
217.027 142.92 l
217.228 142.826 l
217.354 143.36 l
217.481 143.473 l
217.535 143.478 l
217.68 143.293 l
217.771 143.293 l
217.898 143.485 l
218.061 143.301 l
218.134 143.301 l
218.261 144.006 l
218.369 144.006 l
218.498 143.2 l
218.624 143.73 l
218.732 143.636 l
218.986 144.23 l
219.095 143.986 l
219.167 144.678 l
219.203 144.209 l
219.222 144.209 l
219.349 144.567 l
219.457 144.473 l
219.585 145.49 l
219.711 144.759 l
219.82 144.759 l
219.947 145.465 l
220.001 145.49 l
220.183 144.91 l
220.256 144.91 l
220.382 145.419 l
220.437 145.419 l
220.546 145.789 l
220.6 145.181 l
220.6 145.181 l
220.6 145.181 l
220.691 145.961 l
220.854 145.826 l
220.983 145.355 l
221.09 145.367 l
221.216 145.235 l
221.343 145.235 l
221.579 144.162 l
221.633 144.638 l
221.688 144.165 l
221.815 144.167 l
221.869 143.692 l
221.869 143.692 l
221.869 143.692 l
221.942 144.641 l
221.978 144.167 l
222.015 144.167 l
222.123 144.642 l
222.159 144.642 l
222.286 145.115 l
222.359 145.115 l
222.486 145.254 l
222.667 145.253 l
222.794 144.91 l
222.903 145.051 l
223.03 143.593 l
223.212 143.591 l
223.338 144.208 l
223.574 144.208 l
223.701 143.34 l
223.828 143.461 l
223.937 143.452 l
224.081 142.314 l
224.118 142.314 l
224.172 142.919 l
224.227 142.535 l
224.3 142.535 l
224.427 142.391 l
224.553 142.863 l
224.608 142.972 l
224.608 142.972 l
224.608 142.972 l
224.717 142.825 l
224.843 142.932 l
224.988 142.883 l
225.025 142.883 l
225.152 143.71 l
225.279 143.162 l
225.388 143.161 l
225.515 143.756 l
225.641 143.212 l
225.696 143.21 l
225.823 143.053 l
225.932 143.052 l
226.059 143.38 l
226.167 143.373 l
226.24 143.965 l
226.259 143.415 l
226.259 143.415 l
226.385 143.353 l
226.421 143.353 l
226.548 143.468 l
226.712 143.461 l
226.839 143.943 l
226.965 143.447 l
227.346 143.447 l
227.473 143.95 l
227.673 143.95 l
227.784 144.098 l
227.982 143.36 l
228.061 143.965 l
228.09 143.838 l
228.126 143.838 l
228.235 143.38 l
228.362 143.873 l
228.543 143.914 l
228.67 144.896 l
228.851 146.864 l
228.906 146.864 l
229.051 149.607 l
229.161 149.607 l
229.45 153.005 l
229.504 153.005 l
229.631 154.226 l
229.776 157.105 l
230.103 157.105 l
230.23 159.895 l
230.358 161.289 l
230.393 161.289 l
230.521 162.473 l
230.557 162.473 l
230.666 162.63 l
230.69 162.63 l
230.738 162.114 l
230.792 162.371 l
230.847 162.371 l
230.973 163.48 l
231.209 163.637 l
231.373 164.911 l
231.391 164.911 l
231.537 166.532 l
231.572 166.532 l
231.699 167.856 l
231.718 167.856 l
231.845 170.815 l
231.917 170.815 l
232.061 174.258 l
232.17 174.258 l
232.297 175.964 l
232.533 178.995 l
232.587 178.968 l
232.66 178.968 l
232.786 180.362 l
232.968 180.362 l
233.095 186.2 l
233.204 186.2 l
233.349 188.032 l
233.385 188.032 l
233.512 189.427 l
233.621 189.427 l
233.748 190.389 l
234.038 190.389 l
234.166 217.994 l
234.292 190.389 l
234.437 189.527 l
234.473 189.527 l
234.6 188.297 l
234.709 187.791 l
234.763 216.105 l
234.817 188.833 l
235.017 188.833 l
235.144 215.473 l
235.253 189.841 l
235.271 190.309 l
235.453 190.345 l
235.58 191.207 l
235.67 191.22 l
235.797 192.693 l
235.924 194.007 l
236.142 195.19 l
236.232 195.19 l
236.341 194.51 l
236.359 194.607 l
236.414 194.609 l
236.54 193.605 l
236.667 193.029 l
236.74 193.029 l
236.867 191.486 l
236.903 191.486 l
237.012 217.8 l
237.139 189.029 l
237.194 189.029 l
237.32 187.598 l
237.484 187.598 l
237.61 185.577 l
237.665 185.577 l
237.81 184.601 l
237.919 184.601 l
238.028 185.105 l
238.154 184.475 l
238.336 184.377 l
238.463 184.345 l
238.572 184.832 l
238.59 184.788 l
238.826 184.411 l
238.971 183.477 l
239.061 183.477 l
239.188 210.161 l
239.297 182.729 l
239.315 183.158 l
239.424 183.171 l
239.551 181.83 l
239.623 181.822 l
239.678 180.914 l
239.732 181.372 l
239.787 181.372 l
239.859 180.914 l
239.895 181.372 l
240.168 181.401 l
240.243 181.847 l
240.258 181.427 l
240.258 181.427 l
240.404 181.312 l
240.53 181.282 l
240.639 181.756 l
240.712 180.703 l
240.766 180.741 l
240.911 181.596 l
241.002 181.549 l
241.129 181.022 l
241.238 180.971 l
241.31 181.352 l
241.383 203.849 l
241.437 203.485 l
241.491 203.485 l
241.618 179.717 l
241.727 179.687 l
241.854 179.156 l
241.981 178.665 l
242.09 178.602 l
242.217 177.576 l
242.347 177.48 l
242.471 201.17 l
242.526 201.17 l
242.598 177.303 l
242.651 178.163 l
242.815 178.196 l
242.942 177.688 l
242.96 177.688 l
243.087 178.586 l
243.25 178.586 l
243.377 179.488 l
243.486 179.488 l
243.631 180.391 l
243.668 180.391 l
243.795 179.963 l
243.921 180.535 l
244.212 180.637 l
244.322 180.357 l
244.342 180.357 l
244.466 179.989 l
244.654 180.011 l
244.759 181.044 l
244.777 181.044 l
244.901 180.14 l
245.029 180.592 l
245.173 179.59 l
245.303 180.037 l
245.428 179.939 l
245.681 179.74 l
245.735 199.095 l
245.753 180.699 l
245.753 180.699 l
245.88 179.673 l
245.971 179.673 l
246.098 180.884 l
246.225 180.923 l
246.315 180.923 l
246.442 183.079 l
246.46 183.079 l
246.587 183.518 l
246.696 183.518 l
246.823 186.236 l
246.914 186.236 l
247.04 186.971 l
247.059 186.971 l
247.132 208.122 l
247.168 187.323 l
247.186 187.323 l
247.331 186.454 l
247.494 186.413 l
247.603 186.848 l
247.73 186.37 l
247.839 186.332 l
247.929 186.899 l
248.074 186.373 l
248.092 186.491 l
248.328 186.537 l
248.455 187.136 l
248.51 187.136 l
248.564 186.686 l
248.636 205.502 l
248.673 187.34 l
248.745 187.34 l
248.873 205.324 l
249.017 203.845 l
249.108 203.845 l
249.236 186.705 l
249.255 186.705 l
249.381 184.757 l
249.489 184.757 l
249.616 184.413 l
249.67 184.413 l
249.725 185.564 l
249.78 184.562 l
249.906 185.666 l
249.924 185.666 l
250.069 186.814 l
250.196 186.925 l
250.341 186.998 l
250.486 188.132 l
250.523 188.132 l
250.65 187.661 l
250.686 187.661 l
250.813 187.206 l
250.94 209.647 l
251.067 187.352 l
251.285 187.352 l
251.412 184.84 l
251.484 185.339 l
251.484 185.339 l
251.484 185.339 l
251.611 184.394 l
251.665 184.394 l
251.792 183.109 l
251.828 183.109 l
251.956 183.959 l
252.155 184.493 l
252.318 184.586 l
252.445 215.518 l
252.499 184.7 l
252.572 185.698 l
252.626 185.698 l
252.772 184.494 l
252.935 184.494 l
253.098 183.921 l
253.17 183.921 l
253.297 184.538 l
253.352 184.538 l
253.479 185.605 l
253.606 184.909 l
253.769 184.909 l
253.932 184.346 l
254.023 184.346 l
254.204 182.731 l
254.258 182.731 l
254.313 183.236 l
254.368 182.871 l
254.494 182.96 l
254.639 182.208 l
254.748 182.208 l
254.857 181.83 l
254.966 182.329 l
254.986 182.329 l
255.111 181.1 l
255.292 181.185 l
255.346 182.089 l
255.401 181.675 l
255.474 181.675 l
255.582 182.135 l
255.709 181.743 l
255.764 182.631 l
255.764 182.631 l
255.764 182.631 l
255.892 181.366 l
256.199 181.881 l
256.326 181.484 l
256.453 181.938 l
256.562 181.94 l
256.67 182.38 l
256.743 181.531 l
256.797 181.549 l
257.16 181.571 l
257.287 182.001 l
257.396 181.591 l
257.541 182.39 l
257.65 182.452 l
257.704 181.608 l
257.758 182.043 l
257.831 182.043 l
257.885 180.797 l
257.94 181.219 l
258.012 181.219 l
258.139 180.39 l
258.194 180.787 l
258.194 180.787 l
258.194 180.787 l
258.303 180.367 l
258.466 181.629 l
258.484 181.631 l
258.611 181.214 l
258.683 181.214 l
258.792 182.484 l
258.919 182.058 l
259.064 181.211 l
259.119 181.211 l
259.246 182.062 l
259.264 182.057 l
259.336 182.057 l
259.39 181.629 l
259.409 182.011 l
259.409 182.011 l
259.518 182.063 l
259.572 180.771 l
259.626 181.197 l
260.062 181.196 l
260.189 180.762 l
260.243 181.153 l
260.243 181.153 l
260.243 181.153 l
260.406 179.888 l
260.443 179.888 l
260.588 180.719 l
260.66 180.719 l
260.732 179.842 l
260.769 180.711 l
260.792 180.711 l
260.914 181.572 l
260.968 180.703 l
261.023 181.112 l
261.116 181.112 l
261.241 180.686 l
261.349 180.652 l
261.496 181.491 l
261.585 181.504 l
261.713 181.038 l
261.971 181.023 l
262.077 181.454 l
262.095 181.434 l
262.294 181.425 l
262.369 181.861 l
262.395 181.421 l
262.395 181.421 l
262.512 181.414 l
262.711 181.415 l
262.839 180.966 l
262.947 180.966 l
263.074 181.402 l
263.183 181.42 l
263.31 182.283 l
263.417 182.283 l
263.553 183.561 l
263.87 183.58 l
263.979 184.043 l
263.997 184.02 l
264.124 184.028 l
264.269 183.134 l
264.305 183.134 l
264.451 183.944 l
264.613 183.944 l
264.759 183.09 l
264.777 183.09 l
264.904 184.337 l
265.031 183.076 l
265.158 183.037 l
265.302 183.877 l
265.339 183.877 l
265.393 182.615 l
265.448 183.844 l
265.593 183.844 l
265.665 183.353 l
265.703 183.364 l
265.78 183.364 l
265.903 183.744 l
265.944 183.744 l
266.064 184.155 l
266.554 184.116 l
266.67 183.697 l
266.755 183.67 l
266.826 184.116 l
266.88 184.089 l
267.353 184.155 l
267.46 183.731 l
267.479 183.762 l
267.805 183.815 l
267.932 183.432 l
268.295 183.482 l
268.422 183.898 l
268.549 183.678 l
268.658 183.493 l
268.786 183.518 l
268.858 183.126 l
268.858 183.126 l
268.858 183.126 l
268.986 183.926 l
269.076 183.526 l
269.166 183.962 l
269.184 183.61 l
269.202 183.547 l
269.329 183.966 l
269.383 183.557 l
269.455 183.57 l
269.619 183.59 l
269.746 183.207 l
269.764 183.207 l
269.837 184.008 l
269.891 184.002 l
269.927 184.002 l
270.036 183.628 l
270.054 183.632 l
270.163 183.636 l
270.29 184.065 l
270.508 184.055 l
270.544 184.055 l
270.689 184.875 l
270.726 184.875 l
270.834 184.481 l
270.961 184.879 l
271.015 184.851 l
271.16 184.101 l
271.272 184.065 l
271.397 184.901 l
271.542 185.714 l
271.599 185.714 l
271.669 184.492 l
271.705 184.911 l
271.724 184.911 l
271.867 185.748 l
271.922 185.748 l
271.995 185.305 l
272.031 185.751 l
272.105 185.751 l
272.23 185.343 l
272.376 185.374 l
272.466 185.374 l
272.593 223.92 l
272.611 223.92 l
272.738 183.751 l
272.793 183.751 l
272.905 184.606 l
273.082 182.475 l
273.137 182.475 l
273.264 183.31 l
273.409 181.555 l
273.5 181.555 l
273.554 182.794 l
273.608 182.358 l
273.938 182.276 l
274.061 183.086 l
274.372 182.983 l
274.428 183.766 l
274.484 183.358 l
274.554 183.358 l
274.679 183.737 l
274.769 183.737 l
274.896 184.593 l
275.023 184.582 l
275.132 184.177 l
275.259 184.616 l
275.386 184.669 l
275.494 184.689 l
275.621 184.331 l
275.767 184.411 l
275.803 184.411 l
275.93 184.031 l
276.039 184.049 l
276.165 183.643 l
276.312 183.665 l
276.43 184.45 l
276.491 184.095 l
276.564 184.102 l
276.607 184.102 l
276.711 183.7 l
276.728 183.703 l
276.836 183.703 l
276.964 184.517 l
277.072 184.103 l
277.09 184.11 l
277.435 184.099 l
277.562 184.941 l
277.616 185.396 l
277.67 184.982 l
277.744 184.982 l
277.86 185.408 l
277.997 184.151 l
278.215 184.169 l
278.342 183.321 l
278.469 183.754 l
278.65 183.774 l
278.705 184.201 l
278.723 183.825 l
278.723 183.825 l
278.849 183.761 l
279.502 183.78 l
279.611 183.323 l
279.666 183.751 l
279.738 183.747 l
279.792 183.747 l
279.847 183.296 l
279.865 183.566 l
279.865 183.566 l
279.974 184.583 l
280.101 183.263 l
280.336 183.221 l
280.464 183.599 l
280.59 183.567 l
280.699 183.934 l
280.718 183.909 l
280.898 183.843 l
280.935 183.843 l
281.062 184.616 l
281.189 184.592 l
281.243 183.695 l
281.297 184.49 l
281.37 184.49 l
281.424 184.053 l
281.479 184.449 l
281.552 184.449 l
281.66 184.83 l
281.679 184.772 l
281.787 184.77 l
281.933 185.166 l
282.023 184.738 l
282.041 185.103 l
282.096 185.135 l
282.15 184.738 l
282.204 185.135 l
282.35 185.135 l
282.458 184.262 l
282.513 185.135 l
282.567 184.703 l
282.64 184.703 l
282.676 184.27 l
282.877 184.27 l
283.002 185.11 l
283.147 185.966 l
283.238 185.993 l
283.365 186.419 l
283.474 186.419 l
283.601 186.844 l
284.109 186.879 l
284.163 186.454 l
284.181 186.716 l
284.181 186.716 l
284.272 186.913 l
284.399 186.499 l
284.453 186.499 l
284.526 186.093 l
284.544 186.39 l
284.544 186.39 l
284.581 186.538 l
284.689 185.286 l
284.707 185.342 l
284.816 185.384 l
284.943 185.015 l
285.052 185.53 l
285.179 185.187 l
285.306 185.676 l
285.432 184.476 l
285.723 184.535 l
285.85 184.64 l
286.013 183.799 l
286.049 183.799 l
286.163 184.243 l
286.267 183.808 l
286.395 184.249 l
286.521 183.811 l
286.629 184.25 l
286.937 184.251 l
287.065 185.131 l
287.482 185.132 l
287.627 184.248 l
287.663 184.248 l
287.79 184.686 l
287.901 182.93 l
287.917 183.355 l
288.171 183.343 l
288.207 183.343 l
288.335 182.919 l
288.479 183.751 l
288.57 183.751 l
288.697 183.335 l
288.933 183.334 l
288.987 182.918 l
289.041 183.334 l
289.35 183.332 l
289.477 221.802 l
289.604 222.503 l
289.73 184.3 l
289.985 183.336 l
290.022 183.336 l
290.13 182.907 l
290.148 182.916 l
290.241 182.917 l
290.412 183.776 l
290.547 183.776 l
290.639 184.614 l
290.657 184.202 l
290.718 184.177 l
290.856 185.026 l
290.894 185.026 l
290.946 185.495 l
290.964 185.072 l
290.964 185.072 l
291.018 185.015 l
291.073 185.448 l
291.145 185.442 l
291.236 185.425 l
291.363 184.52 l
291.471 184.938 l
291.49 184.925 l
291.544 184.925 l
291.653 184.493 l
291.762 184.464 l
291.998 183.2 l
292.016 183.6 l
292.052 183.614 l
292.124 184.021 l
292.179 183.997 l
292.233 184.003 l
292.36 183.572 l
292.451 183.572 l
292.578 182.407 l
292.705 183.173 l
293.054 183.117 l
293.194 184.065 l
293.285 184.101 l
293.43 183.013 l
293.521 182.996 l
293.648 183.598 l
293.847 183.52 l
293.994 184.033 l
294.047 184.033 l
294.178 183.61 l
294.356 183.537 l
294.446 183.77 l
294.464 183.692 l
294.573 183.69 l
294.899 179.715 l
294.917 179.715 l
295.044 175.874 l
295.171 174.526 l
295.316 172.61 l
295.352 172.61 l
295.48 167.126 l
295.588 167.126 l
295.751 164.939 l
295.824 164.939 l
295.951 162.199 l
296.077 161.047 l
296.132 161.047 l
296.259 160.024 l
296.386 160.565 l
296.459 160.565 l
296.513 159.554 l
296.568 160.385 l
296.676 160.657 l
296.803 160.468 l
296.876 160.468 l
296.984 160.788 l
297.112 159.544 l
297.238 160.988 l
297.347 160.939 l
297.474 161.126 l
297.492 161.126 l
297.583 160.896 l
297.601 161.063 l
297.728 161.092 l
297.927 159.804 l
297.964 159.804 l
298.073 160.442 l
298.127 158.951 l
298.199 159.152 l
298.254 159.152 l
298.381 159.388 l
298.453 159.388 l
298.58 160.436 l
298.744 160.541 l
298.798 159.91 l
298.798 159.91 l
298.798 159.91 l
298.925 161.365 l
298.998 161.005 l
298.998 161.005 l
298.998 161.005 l
299.107 161.676 l
299.234 160.717 l
299.36 161.746 l
299.415 161.748 l
299.524 160.27 l
299.542 160.667 l
299.777 160.869 l
299.904 161.421 l
300.013 160.889 l
300.031 160.928 l
300.086 160.928 l
300.213 160.079 l
300.321 160.077 l
300.43 159.875 l
300.503 160.144 l
300.503 160.144 l
300.503 160.144 l
300.612 159.729 l
300.684 160.19 l
300.721 159.783 l
300.738 159.783 l
300.794 159.964 l
300.928 159.074 l
300.993 159.074 l
301.101 159.232 l
301.301 158.633 l
301.337 158.633 l
301.464 159.697 l
301.5 159.656 l
301.573 159.656 l
301.7 160.643 l
301.827 160.501 l
301.972 161.494 l
302.008 161.51 l
302.153 162.021 l
302.243 162.021 l
302.371 161.64 l
302.498 162.039 l
302.733 162.039 l
302.86 162.38 l
302.969 162.263 l
303.023 162.64 l
303.078 162.342 l
303.169 162.342 l
303.277 162.542 l
303.386 162.39 l
303.513 162.483 l
303.64 162.325 l
303.767 162.401 l
303.84 162.122 l
303.876 162.284 l
304.239 162.232 l
304.311 162.651 l
304.311 162.651 l
304.311 162.651 l
304.42 162.149 l
304.548 162.283 l
304.655 162.334 l
304.784 161.763 l
304.91 161.519 l
304.982 161.519 l
305.109 161.856 l
305.2 161.857 l
305.327 161.594 l
305.453 161.857 l
305.58 161.857 l
305.689 161.594 l
305.852 162.282 l
306.052 162.355 l
306.197 162.734 l
306.234 162.734 l
306.36 163.016 l
306.505 163.3 l
306.542 163.3 l
306.669 163.148 l
306.85 163.725 l
306.904 163.725 l
307.031 163.534 l
307.14 163.962 l
307.213 163.379 l
307.249 163.69 l
307.322 163.69 l
307.448 163.273 l
307.521 163.247 l
307.63 162.885 l
307.684 163.12 l
307.738 162.912 l
307.811 162.912 l
307.974 163.503 l
308.065 163.393 l
308.21 162.958 l
308.355 162.996 l
308.482 162.802 l
308.609 163.429 l
308.736 163.862 l
308.881 163.31 l
308.899 163.31 l
309.026 162.848 l
309.099 164.167 l
309.153 163.978 l
309.208 163.978 l
309.334 162.042 l
309.391 162.042 l
309.516 163.21 l
309.57 163.21 l
309.699 162.316 l
309.86 162.695 l
309.914 162.782 l
310.115 163.047 l
310.242 162.782 l
310.35 164.895 l
310.423 163.761 l
310.459 164.851 l
310.64 165.081 l
310.785 165.089 l
310.912 165.263 l
311.039 164.838 l
311.149 164.837 l
311.257 163.223 l
311.275 163.384 l
311.384 163.406 l
311.511 163.136 l
311.638 163.588 l
311.746 163.04 l
311.873 163.768 l
312.001 163.768 l
312.127 163.128 l
312.254 163.957 l
312.435 164.325 l
312.49 164.325 l
312.617 164.058 l
312.653 164.058 l
312.726 163.097 l
312.78 163.239 l
312.853 163.239 l
312.962 163.065 l
313.088 163.704 l
313.342 163.706 l
313.47 163.523 l
313.505 163.523 l
313.632 163.252 l
313.759 163.249 l
313.904 161.997 l
313.941 161.997 l
314.05 160.629 l
314.177 161.866 l
314.322 161.562 l
314.358 161.562 l
314.485 160.178 l
314.612 161.507 l
314.739 160.245 l
314.793 160.245 l
314.921 160.358 l
315.036 162.018 l
315.158 161.707 l
315.267 162.121 l
315.391 161.537 l
315.468 162.321 l
315.501 162.067 l
315.556 162.067 l
315.664 162.861 l
315.81 162.195 l
315.9 162.177 l
316.045 159.526 l
316.066 159.526 l
316.588 137.033 l
316.734 127.785 l
316.824 127.785 l
316.951 123.635 l
317.079 120.077 l
317.205 115.959 l
317.422 114.561 l
317.459 114.561 l
317.586 113.425 l
317.676 113.425 l
317.824 113.966 l
317.913 113.966 l
318.076 114.791 l
318.166 114.791 l
318.293 116.532 l
318.348 116.532 l
318.475 117.434 l
318.583 117.442 l
318.765 118.31 l
318.892 118.298 l
319 119.766 l
319.254 119.837 l
319.418 120.785 l
319.436 120.785 l
319.545 120.236 l
319.671 121.519 l
319.853 121.582 l
319.998 121.109 l
320.034 121.109 l
320.108 120.829 l
320.108 120.829 l
320.108 120.829 l
320.234 121.719 l
320.469 121.779 l
320.596 122.134 l
320.833 122.159 l
320.944 122.482 l
321.068 122.213 l
321.231 123.303 l
321.249 123.303 l
321.322 123.59 l
321.358 123.324 l
321.43 123.324 l
321.557 123.61 l
321.684 123.348 l
321.829 123.346 l
321.956 123.893 l
321.975 123.893 l
322.102 124.156 l
322.156 124.156 l
322.283 124.42 l
322.428 123.326 l
322.518 123.326 l
322.646 123.858 l
322.791 124.375 l
322.882 124.375 l
322.954 123.583 l
322.972 124.3 l
322.972 124.3 l
323.008 124.383 l
323.117 123.855 l
323.244 124.127 l
323.371 124.119 l
323.498 124.668 l
323.552 124.668 l
323.607 124.41 l
323.628 124.663 l
323.628 124.663 l
323.788 124.963 l
323.915 124.696 l
324.024 125.231 l
324.151 124.981 l
324.278 125.239 l
324.405 125.25 l
324.479 125.519 l
324.568 124.731 l
324.604 124.741 l
324.713 124.741 l
324.84 125.535 l
324.899 125.535 l
325.021 125.272 l
325.148 125.011 l
325.239 125.011 l
325.366 125.263 l
325.438 125.491 l
325.547 125.526 l
325.675 125.016 l
325.801 125.275 l
325.964 125.264 l
326.109 125.77 l
326.146 125.77 l
326.218 125.494 l
326.254 125.745 l
326.273 125.745 l
326.4 125.467 l
326.708 125.422 l
326.817 125.7 l
326.943 124.878 l
327.052 125.4 l
327.18 124.566 l
327.234 125.396 l
327.291 124.836 l
327.38 124.836 l
327.471 125.364 l
327.488 125.189 l
327.614 125.087 l
327.959 125.07 l
328.068 124.791 l
328.34 124.786 l
328.449 125.06 l
328.503 124.76 l
328.557 125.032 l
328.576 125.032 l
328.631 125.308 l
328.684 125.027 l
328.757 125.303 l
328.757 125.303 l
328.757 125.303 l
328.884 124.996 l
329.174 124.939 l
329.228 124.646 l
329.283 124.927 l
329.356 124.927 l
329.483 124.627 l
329.591 124.886 l
329.609 124.857 l
329.845 124.824 l
329.9 125.116 l
329.936 124.845 l
329.936 124.845 l
329.99 124.814 l
330.045 125.091 l
330.081 124.838 l
330.081 124.838 l
330.207 124.798 l
330.262 124.798 l
330.389 125.702 l
330.534 125.117 l
330.571 125.117 l
330.625 125.424 l
330.679 125.159 l
330.879 125.172 l
331.006 126.077 l
331.242 126.401 l
331.351 126.14 l
331.477 126.713 l
331.604 126.188 l
331.713 126.197 l
331.84 125.665 l
331.895 126.225 l
331.949 125.957 l
332.257 125.968 l
332.384 125.434 l
332.511 125.958 l
332.62 125.968 l
332.747 125.69 l
333.019 125.657 l
333.164 125.658 l
333.291 125.361 l
333.345 125.899 l
333.399 125.625 l
333.599 125.613 l
333.708 125.89 l
333.835 125.311 l
333.98 125.836 l
334.143 125.856 l
334.379 125.843 l
334.451 125.265 l
334.488 125.56 l
334.56 125.56 l
334.687 124.432 l
334.814 125.544 l
334.869 125.555 l
334.941 124.975 l
334.977 125.555 l
335.05 125.555 l
335.177 124.975 l
335.34 125.84 l
335.358 125.84 l
335.467 125.559 l
335.666 125.566 l
335.776 125.849 l
335.92 125.299 l
335.958 125.299 l
336.011 125.58 l
336.083 125.571 l
336.156 125.571 l
336.301 126.129 l
336.374 126.129 l
336.501 125.841 l
336.646 126.382 l
336.736 126.382 l
336.863 125.815 l
336.882 125.817 l
336.936 125.817 l
337.063 124.939 l
337.153 124.933 l
337.335 126.361 l
337.462 125.786 l
337.589 126.062 l
337.662 126.063 l
337.788 126.354 l
337.952 126.353 l
338.06 126.063 l
338.187 126.641 l
338.496 126.638 l
338.622 126.346 l
338.749 126.64 l
338.858 126.64 l
338.931 126.348 l
338.967 126.637 l
339.166 126.644 l
339.348 125.192 l
339.457 125.757 l
339.584 125.462 l
339.711 125.752 l
339.819 124.855 l
339.946 125.455 l
340.074 125.143 l
340.182 125.729 l
340.2 125.715 l
340.31 125.714 l
340.363 125.402 l
340.418 125.699 l
340.617 125.71 l
340.726 126.313 l
340.853 126.005 l
340.98 126.598 l
341.107 126.014 l
341.161 126.014 l
341.288 126.319 l
341.416 125.728 l
341.524 125.728 l
341.633 125.154 l
341.76 126.328 l
341.888 126.337 l
342.014 125.586 l
342.123 125.489 l
342.249 125.79 l
342.613 125.807 l
342.739 125.523 l
342.848 125.81 l
342.975 125.528 l
343.102 126.384 l
343.211 126.386 l
343.338 125.805 l
343.483 126.38 l
343.591 126.38 l
343.718 125.213 l
343.827 125.213 l
343.936 125.776 l
343.954 125.775 l
344.063 125.775 l
344.19 124.907 l
344.244 125.472 l
344.299 125.181 l
344.607 125.142 l
344.734 125.419 l
344.843 124.526 l
344.988 125.064 l
345.024 125.064 l
345.151 124.777 l
345.26 125.059 l
345.387 124.433 l
345.64 124.416 l
345.768 124.725 l
345.931 124.712 l
346.058 125.038 l
346.205 125.044 l
346.462 125.702 l
346.556 125.702 l
346.665 126.004 l
346.696 126.004 l
346.784 125.723 l
346.806 125.979 l
346.875 126.02 l
347.003 125.726 l
347.074 126.022 l
347.11 125.728 l
347.2 125.728 l
347.273 125.141 l
347.273 125.141 l
347.273 125.141 l
347.309 126.013 l
347.382 125.704 l
347.4 125.704 l
347.527 125.378 l
347.69 125.345 l
347.762 125.928 l
347.817 125.915 l
347.98 125.876 l
347.999 125.876 l
348.125 125.212 l
348.27 125.805 l
348.288 125.805 l
348.415 125.431 l
348.56 125.345 l
348.597 125.345 l
348.724 124.598 l
348.869 125.193 l
348.959 125.193 l
349.086 124.791 l
349.213 125.479 l
349.268 124.276 l
349.323 124.628 l
349.504 126.117 l
349.631 126.103 l
349.776 125.269 l
349.812 125.269 l
349.866 126.059 l
349.921 125.645 l
349.939 125.645 l
350.047 126.043 l
350.066 126.028 l
350.12 126.028 l
350.247 126.416 l
350.301 126.416 l
350.519 123.968 l
350.556 123.968 l
350.665 124.78 l
350.775 124.402 l
350.791 124.403 l
350.846 124.403 l
350.955 124.032 l
351.099 124.857 l
351.136 124.857 l
351.263 124.488 l
351.39 124.884 l
351.571 124.953 l
351.697 125.319 l
351.807 125.34 l
351.934 125.726 l
352.06 125.34 l
352.169 125.36 l
352.297 124.976 l
352.423 125.359 l
352.532 124.995 l
352.659 125.394 l
352.768 125.393 l
352.913 124.632 l
352.972 124.632 l
353.076 125.011 l
353.221 124.25 l
353.566 124.243 l
353.693 123.863 l
353.82 124.999 l
353.874 124.999 l
353.93 124.594 l
353.983 124.998 l
354.056 124.998 l
354.11 124.592 l
354.164 124.974 l
354.473 124.952 l
354.617 124.18 l
355.071 124.205 l
355.198 124.588 l
355.288 124.205 l
355.488 124.589 l
355.56 124.589 l
355.688 124.952 l
355.797 124.952 l
355.923 124.567 l
355.978 124.567 l
356.105 124.181 l
356.159 124.181 l
356.286 124.567 l
356.649 124.591 l
356.776 123.798 l
356.885 123.799 l
357.03 123.057 l
357.084 123.033 l
357.211 123.803 l
357.356 124.576 l
357.501 124.577 l
357.628 124.17 l
357.737 124.583 l
357.845 124.202 l
357.864 124.205 l
357.918 124.205 l
358.045 124.589 l
358.19 123.765 l
358.208 123.765 l
358.335 123.411 l
358.462 123.411 l
358.589 124.519 l
358.698 125.319 l
358.825 124.908 l
358.952 124.907 l
359.061 125.296 l
359.079 125.294 l
359.569 125.27 l
359.677 124.872 l
359.75 125.266 l
359.786 124.87 l
359.967 124.87 l
360.094 125.283 l
360.221 124.89 l
360.276 124.889 l
360.403 125.282 l
360.511 124.494 l
360.638 125.691 l
360.784 124.952 l
360.893 124.932 l
361.019 125.319 l
361.074 125.319 l
361.201 124.931 l
361.672 124.931 l
361.799 124.542 l
361.999 124.517 l
362.107 124.931 l
362.217 124.126 l
362.343 124.908 l
362.398 124.908 l
362.524 124.518 l
362.706 124.495 l
362.814 125.282 l
362.96 124.498 l
362.996 124.498 l
363.141 125.282 l
363.195 125.286 l
363.304 124.502 l
363.431 124.895 l
363.594 124.877 l
363.794 124.877 l
363.921 125.272 l
364.048 124.831 l
364.594 124.798 l
364.721 125.18 l
364.85 124.772 l
365.082 124.769 l
365.136 125.197 l
365.19 124.792 l
365.245 124.792 l
365.372 125.197 l
365.48 124.817 l
365.626 125.24 l
365.735 125.24 l
365.861 124.867 l
366.152 124.893 l
366.297 124.119 l
366.514 124.125 l
366.642 124.523 l
366.877 124.562 l
366.95 125.323 l
366.968 124.574 l
366.968 124.574 l
367.131 124.556 l
367.258 124.937 l
367.421 124.92 l
367.548 125.685 l
367.783 125.68 l
367.91 126.064 l
368.037 126.053 l
368.146 125.646 l
368.273 126.033 l
368.4 126.036 l
368.509 125.63 l
368.527 125.631 l
369.053 125.631 l
369.162 126.033 l
369.289 125.653 l
369.416 126.071 l
369.434 126.071 l
369.543 125.678 l
369.67 126.076 l
369.815 125.296 l
369.923 125.296 l
370.05 125.708 l
370.214 125.727 l
370.341 125.344 l
371.048 125.409 l
371.175 125.035 l
371.283 125.411 l
371.302 125.406 l
371.411 125.406 l
371.537 125.783 l
372.445 125.756 l
372.571 126.505 l
372.699 125.74 l
372.716 125.756 l
372.934 125.744 l
373.061 125.347 l
373.569 125.338 l
373.696 125.732 l
374.149 125.739 l
374.294 126.507 l
374.33 126.507 l
374.457 125.725 l
374.475 125.744 l
374.929 125.71 l
375.056 126.118 l
375.237 126.104 l
375.346 126.492 l
375.491 125.724 l
375.6 125.724 l
375.727 125.332 l
376.018 125.331 l
376.144 125.722 l
376.271 125.723 l
376.397 126.114 l
376.978 126.129 l
377.16 125.346 l
377.178 125.346 l
377.232 125.729 l
377.286 125.346 l
377.54 125.344 l
377.594 124.94 l
377.667 124.961 l
377.776 125.348 l
377.903 124.959 l
377.957 124.961 l
378.012 125.731 l
378.066 125.373 l
378.211 125.352 l
378.556 125.361 l
378.629 125.747 l
378.664 125.39 l
378.701 125.39 l
378.773 125.767 l
378.773 125.767 l
378.773 125.767 l
378.828 125.367 l
378.864 125.769 l
378.974 125.757 l
379.027 126.136 l
379.1 126.07 l
379.173 126.14 l
379.227 125.762 l
379.227 125.762 l
379.227 125.762 l
379.281 126.16 l
379.354 126.147 l
379.662 126.17 l
379.773 126.534 l
379.826 126.161 l
379.844 126.522 l
379.844 126.522 l
379.916 126.544 l
380.044 126.168 l
380.588 126.156 l
380.679 125.777 l
380.698 126.143 l
380.77 126.151 l
380.841 125.755 l
380.897 125.763 l
381.349 125.719 l
381.475 126.085 l
381.585 126.08 l
381.711 126.467 l
381.838 126.463 l
381.893 126.857 l
381.893 126.857 l
381.893 126.857 l
382.038 126.067 l
382.31 126.068 l
382.382 125.656 l
382.436 125.677 l
382.491 125.677 l
382.509 126.02 l
382.72 125.675 l
383.086 125.675 l
383.228 126.052 l
383.446 125.26 l
383.883 125.304 l
384.031 124.918 l
384.099 124.918 l
384.243 124.531 l
384.607 124.617 l
384.679 124.617 l
384.826 125.026 l
384.968 125.023 l
385.114 125.367 l
385.333 125.342 l
385.477 124.943 l
386.275 124.902 l
386.42 125.282 l
386.493 125.282 l
386.725 124.475 l
387.075 124.467 l
387.292 125.225 l
387.508 125.284 l
387.726 125.287 l
387.872 125.687 l
387.944 125.3 l
388.016 125.686 l
388.185 125.296 l
388.312 125.285 l
388.421 124.884 l
388.439 124.895 l
388.603 124.868 l
388.729 124.426 l
388.784 124.426 l
388.911 124.838 l
388.984 124.575 l
389.092 124.398 l
389.147 125.197 l
389.219 125.195 l
389.328 125.192 l
389.455 125.59 l
389.509 125.59 l
389.654 126.399 l
389.745 126.399 l
389.872 127.219 l
389.981 126.398 l
390.053 126.815 l
390.089 126.424 l
390.289 126.438 l
390.416 126.043 l
390.543 126.456 l
390.688 125.691 l
390.724 125.691 l
390.833 126.875 l
390.96 126.504 l
391.087 126.507 l
391.142 126.902 l
391.196 126.526 l
391.504 126.555 l
391.633 126.186 l
391.635 126.186 l
391.758 126.562 l
391.867 126.196 l
391.939 126.568 l
391.939 126.568 l
391.939 126.568 l
392.085 125.818 l
392.176 125.818 l
392.302 125.449 l
392.411 125.806 l
392.429 125.793 l
392.719 125.773 l
392.774 126.136 l
392.792 125.786 l
392.792 125.786 l
392.846 125.737 l
392.901 126.122 l
392.955 125.774 l
392.973 125.737 l
393.082 126.103 l
393.209 125.696 l
393.445 125.67 l
393.499 124.906 l
393.553 125.271 l
393.571 125.271 l
393.717 124.627 l
393.825 124.471 l
393.844 124.489 l
393.88 124.491 l
393.989 123.665 l
394.007 123.689 l
394.714 123.715 l
394.841 124.127 l
394.968 124.151 l
395.023 123.76 l
395.076 124.147 l
395.131 124.147 l
395.258 123.755 l
395.805 123.779 l
395.929 124.166 l
396.001 124.166 l
396.129 123.778 l
396.782 123.782 l
396.89 124.141 l
397.017 123.751 l
397.144 123.784 l
397.307 123.722 l
397.507 123.722 l
397.634 124.142 l
397.688 124.113 l
397.797 124.481 l
397.924 124.084 l
398.087 124.135 l
398.541 124.157 l
398.649 123.379 l
398.722 123.766 l
398.758 123.377 l
398.832 123.377 l
398.903 123.765 l
398.903 123.765 l
398.903 123.765 l
398.957 122.988 l
398.957 122.988 l
398.957 122.988 l
399.085 124.153 l
399.193 124.205 l
399.212 124.18 l
399.32 124.18 l
399.375 123.409 l
399.375 123.409 l
399.375 123.409 l
399.448 124.566 l
399.484 123.409 l
399.556 123.409 l
399.683 124.206 l
399.81 124.206 l
399.973 123.056 l
400.046 123.056 l
400.173 123.822 l
400.282 122.672 l
400.463 124.257 l
400.609 124.257 l
400.662 123.47 l
400.826 123.879 l
400.952 124.637 l
401.025 125.038 l
401.025 125.038 l
401.025 125.038 l
401.134 124.287 l
401.261 125.415 l
401.388 125.04 l
401.497 125.041 l
401.696 126.897 l
402.041 127.294 l
402.167 127.294 l
402.33 126.168 l
402.403 126.168 l
402.548 126.872 l
402.585 126.909 l
402.73 125.758 l
402.82 125.758 l
402.893 126.9 l
402.929 126.124 l
403.074 126.124 l
403.183 126.507 l
403.201 126.496 l
403.31 126.496 l
403.437 126.11 l
403.456 126.11 l
403.582 125.724 l
404.163 125.724 l
404.325 126.89 l
404.526 126.89 l
404.635 126.529 l
404.779 127.286 l
404.815 127.286 l
404.961 125.395 l
405.069 125.395 l
405.124 125.775 l
405.124 125.775 l
405.124 125.775 l
405.179 125.02 l
405.232 125.397 l
405.378 125.399 l
405.486 125.778 l
405.613 125.384 l
405.722 125.366 l
405.849 125.766 l
406.067 125.735 l
406.084 125.735 l
406.212 126.12 l
406.34 126.121 l
406.447 124.948 l
406.465 124.949 l
406.574 124.949 l
406.701 124.562 l
406.883 124.536 l
407.011 124.903 l
407.118 124.121 l
407.245 124.486 l
407.3 124.486 l
407.426 124.88 l
407.971 124.923 l
408.098 124.533 l
408.225 124.945 l
408.388 124.946 l
408.533 124.205 l
408.642 124.2 l
408.769 123.843 l
408.878 123.843 l
408.95 123.525 l
409.004 124.277 l
409.059 123.901 l
409.113 123.901 l
409.24 123.557 l
409.313 123.557 l
409.458 124.33 l
409.73 124.352 l
409.966 123.643 l
410.021 124.744 l
410.074 124.009 l
410.147 124.009 l
410.219 124.376 l
410.255 124.009 l
410.328 124.009 l
410.455 123.642 l
410.564 123.642 l
410.691 123.982 l
410.745 123.982 l
410.873 124.351 l
411.652 124.328 l
411.779 124.7 l
411.906 124.352 l
412.051 125.09 l
412.142 125.09 l
412.269 125.477 l
412.396 124.74 l
412.686 124.76 l
412.74 124.417 l
412.758 124.676 l
412.758 124.676 l
412.885 124.78 l
413.048 123.716 l
413.121 123.716 l
413.23 124.778 l
413.357 124.415 l
413.502 125.121 l
413.719 125.105 l
413.846 124.723 l
413.901 124.72 l
414.028 125.111 l
414.137 125.115 l
414.264 124.693 l
414.463 124.697 l
414.59 125.077 l
414.808 125.065 l
414.953 125.789 l
415.297 125.773 l
415.424 126.138 l
415.478 126.127 l
415.587 126.511 l
415.606 126.504 l
416.023 126.472 l
416.131 126.854 l
416.259 126.449 l
416.331 126.449 l
416.44 127.241 l
416.494 126.835 l
416.548 127.233 l
417.582 127.204 l
417.728 126.382 l
418.797 126.364 l
419.01 126.776 l
419.158 126.776 l
419.294 125.961 l
419.298 126.355 l
419.373 126.385 l
419.592 125.562 l
419.815 125.578 l
419.883 126 l
420.105 124.432 l
420.316 125.665 l
420.453 124.509 l
420.464 124.871 l
420.531 124.921 l
420.678 125.734 l
420.747 125.752 l
420.891 126.188 l
421.181 126.241 l
421.262 125.923 l
421.399 126.291 l
421.544 125.268 l
421.613 125.268 l
421.689 123.696 l
421.906 123.803 l
422.487 127.772 l
422.779 126.925 l
422.85 126.912 l
423.203 123.695 l
423.357 123.782 l
423.502 123.885 l
423.649 124.502 l
423.72 124.81 l
423.793 126.127 l
423.865 125.892 l
424.228 126.003 l
424.373 125.811 l
424.518 124.507 l
424.881 123.74 l
425.026 123.977 l
425.097 124.028 l
425.678 125.799 l
425.753 125.799 l
425.823 126.02 l
425.961 125.403 l
425.971 125.405 l
426.04 125.405 l
426.251 124.39 l
426.257 124.408 l
426.331 124.408 l
426.477 124.226 l
426.695 124.276 l
426.983 124.93 l
427.056 124.944 l
427.201 125.162 l
427.419 125.197 l
427.638 124.831 l
427.709 124.831 l
427.854 124.255 l
427.919 124.255 l
428.072 124.453 l
428.217 123.656 l
428.364 124.608 l
428.427 124.608 l
428.508 125.007 l
428.87 125.775 l
429.015 125.569 l
429.16 125.569 l
429.375 124.578 l
429.523 124.587 l
429.668 124.805 l
430.176 124.828 l
430.249 125.035 l
430.396 124.841 l
430.683 124.85 l
430.968 124.054 l
430.976 124.216 l
431.265 124.259 l
431.334 124.259 l
431.407 124.071 l
431.628 124.112 l
431.771 124.881 l
431.917 124.89 l
432.062 125.298 l
432.134 125.295 l
432.279 125.503 l
432.569 124.961 l
432.715 125.155 l
432.788 124.773 l
432.933 125.152 l
433.077 123.455 l
433.152 124.753 l
433.296 123.04 l
433.372 124.928 l
433.438 124 l
433.6 124 l
433.736 124.565 l
433.807 124 l
433.95 126.511 l
434.02 125.126 l
434.17 126.443 l
434.324 126.816 l
434.39 126.63 l
434.46 126.991 l
434.601 126.227 l
434.746 122.891 l
434.892 125.225 l
442.872 125.225 l
443.02 117.531 l
443.161 117.395 l
443.306 117.651 l
443.375 117.651 l
443.452 118.156 l
443.525 118.156 l
443.742 119.788 l
443.813 119.788 l
443.959 121.033 l
444.168 121.526 l
444.176 121.306 l
444.249 121.348 l
444.394 121.012 l
444.467 121.139 l
444.539 120.952 l
444.757 121.707 l
444.829 121.707 l
444.902 121.525 l
444.978 122.542 l
445.047 122.3 l
445.12 122.3 l
445.266 123.177 l
445.337 123.177 l
445.485 124.352 l
445.7 124.834 l
445.844 125.346 l
445.917 124.416 l
445.984 124.917 l
446.054 124.986 l
446.157 124.561 l
446.207 124.604 l
446.28 124.604 l
446.344 123.701 l
446.416 124.212 l
446.425 124.212 l
446.643 122.935 l
446.789 122.793 l
446.859 121.736 l
446.932 122.218 l
447.005 122.218 l
447.078 121.373 l
447.295 123.171 l
447.372 123.171 l
447.514 124.027 l
447.659 124.027 l
447.804 125.159 l
447.877 125.16 l
448.165 121.028 l
448.238 121.028 l
448.457 117.711 l
448.603 117.377 l
448.819 118.64 l
449.109 122.202 l
449.181 122.202 l
449.254 123.036 l
449.326 122.853 l
449.547 122.834 l
449.618 123.87 l
449.765 122.454 l
449.911 123.668 l
449.989 122.657 l
450.046 123.235 l
450.125 123.279 l
450.273 124.289 l
450.342 124.288 l
450.56 124.703 l
450.64 124.703 l
450.706 124.894 l
450.851 124.691 l
450.999 124.894 l
451.43 124.894 l
451.576 124.286 l
451.725 124.272 l
451.793 126.092 l
451.864 126.085 l
452.084 127.318 l
452.155 127.517 l
452.306 128.341 l
452.446 128.341 l
453.028 126.7 l
453.099 126.706 l
453.244 125.482 l
453.389 126.927 l
453.463 126.927 l
453.897 129.925 l
454.041 130.51 l
454.188 129.127 l
454.332 129.717 l
454.622 127.552 l
454.692 127.552 l
454.767 126.965 l
454.985 126.578 l
455.374 129.116 l
455.382 129.116 l
455.506 130.775 l
455.74 131.412 l
455.865 130.631 l
455.92 130.631 l
456.065 128.709 l
456.155 128.709 l
456.3 124.052 l
456.319 124.052 l
456.482 119.347 l
456.523 119.347 l
456.664 115.85 l
456.683 115.85 l
456.809 112.465 l
456.846 112.465 l
457.007 108.632 l
457.062 108.632 l
457.207 104.135 l
457.244 104.135 l
457.353 104.313 l
457.479 102.209 l
457.552 101.091 l
457.588 101.569 l
457.661 101.569 l
457.77 99.8804 l
457.842 100.407 l
457.842 100.407 l
457.842 100.407 l
457.969 99.5801 l
458.078 99.5774 l
458.204 97.9122 l
458.259 97.9122 l
458.313 98.4267 l
458.368 97.9595 l
458.441 97.9595 l
458.567 96.3519 l
458.676 96.4451 l
458.803 96.742 l
458.93 95.6418 l
458.985 95.7874 l
459.039 95.6635 l
459.057 95.6635 l
459.185 94.6121 l
459.347 94.5312 l
459.42 94.2404 l
459.474 94.9748 l
459.528 94.7634 l
459.601 94.7634 l
459.764 94.159 l
459.786 94.159 l
459.964 92.5148 l
460.018 93.6359 l
460.072 93.126 l
460.127 92.0031 l
460.2 92.2628 l
460.236 92.2628 l
460.254 92.9458 l
460.345 92.4501 l
460.382 92.4501 l
460.508 91.93 l
460.617 90.9361 l
460.653 91.5923 l
460.671 91.6573 l
460.798 90.9297 l
460.925 91.519 l
461.053 90.8457 l
461.179 92.272 l
461.342 92.4345 l
461.469 92.6709 l
461.65 92.945 l
461.706 92.945 l
461.832 92.7628 l
461.959 93.0149 l
462.067 92.4273 l
462.195 92.8808 l
462.212 92.8808 l
462.358 92.3369 l
462.376 92.3369 l
462.503 92.8756 l
462.612 92.8545 l
462.738 91.751 l
462.865 92.4094 l
462.992 91.9625 l
463.047 91.9625 l
463.155 91.2931 l
463.283 92.8191 l
463.409 92.9015 l
463.591 92.8165 l
463.718 92.1291 l
463.827 92.1291 l
463.953 93.3131 l
464.08 92.7202 l
464.171 92.7121 l
464.372 93.0429 l
464.481 92.9509 l
464.59 90.9906 l
464.698 92.9558 l
464.788 91.5091 l
464.806 92.9548 l
464.915 92.9548 l
465.042 92.719 l
465.062 92.719 l
465.187 92.8828 l
465.223 92.8828 l
465.35 93.1925 l
465.459 93.2023 l
465.588 92.2499 l
465.716 92.8832 l
465.768 92.3196 l
465.768 92.3196 l
465.768 92.3196 l
465.876 93.0494 l
465.948 92.309 l
465.948 92.309 l
465.948 92.309 l
466.076 93.3175 l
466.131 93.3175 l
466.275 92.7316 l
466.311 92.7316 l
466.366 92.2157 l
466.384 92.6785 l
466.384 92.6785 l
466.492 92.7409 l
466.619 91.9465 l
466.765 93.4375 l
466.892 93.5 l
466.932 93.5 l
467.055 94.2243 l
467.091 94.2243 l
467.218 94.3508 l
467.327 93.6304 l
467.475 95.5823 l
467.599 95.9229 l
467.635 95.9229 l
467.78 96.546 l
467.816 96.546 l
467.925 97.4535 l
467.998 96.8951 l
468.124 97.9457 l
468.251 97.2959 l
468.306 97.2959 l
468.361 98.6216 l
468.419 98.3417 l
468.451 98.3417 l
468.65 99.1212 l
468.705 99.1691 l
468.777 99.2856 l
468.85 98.6125 l
468.886 98.8999 l
468.977 98.8999 l
469.086 98.2281 l
469.104 98.2806 l
469.158 98.2825 l
469.303 97.7272 l
469.339 97.7272 l
469.468 96.7942 l
469.595 97.3263 l
469.614 97.3263 l
469.685 97.8423 l
469.685 97.8423 l
469.685 97.8423 l
469.829 97.1461 l
469.884 97.4101 l
469.992 96.145 l
470.119 97.0707 l
470.246 96.2179 l
470.3 96.174 l
470.428 97.3911 l
470.501 97.2086 l
470.555 97.2049 l
470.609 97.0337 l
470.663 97.172 l
470.682 97.172 l
470.772 97.4645 l
470.899 96.6634 l
471.026 96.7426 l
471.153 96.3449 l
471.28 97.2299 l
471.334 97.2299 l
471.443 97.0115 l
471.57 97.7908 l
471.698 96.5775 l
471.806 97.7156 l
471.933 97.1487 l
472.06 97.9611 l
472.187 97.5713 l
472.241 97.8746 l
472.351 96.8172 l
472.477 97.2965 l
472.55 96.7148 l
472.586 96.8842 l
472.604 96.8842 l
472.658 97.2231 l
472.658 97.2231 l
472.658 97.2231 l
472.713 96.5016 l
472.767 96.6411 l
472.84 96.6411 l
472.967 96.9848 l
473.094 96.2378 l
473.239 96.2142 l
473.456 95.8289 l
473.601 96.9242 l
473.692 96.9242 l
473.855 95.745 l
473.927 95.745 l
474.058 95.3938 l
474.073 95.3938 l
474.109 96.3324 l
474.182 95.9878 l
474.236 95.9878 l
474.472 94.6873 l
474.544 96.0903 l
474.58 95.2905 l
474.655 95.2905 l
474.78 95.4928 l
474.889 94.0682 l
475.016 94.94 l
475.161 94.2079 l
475.197 94.2079 l
475.342 95.0677 l
475.56 94.9731 l
475.687 93.9374 l
475.814 95.2264 l
475.941 93.7461 l
476.049 93.7428 l
476.176 93.1566 l
476.304 94.2556 l
476.412 94.2772 l
476.485 94.1276 l
476.54 94.7775 l
476.593 94.5747 l
476.648 94.5747 l
476.775 93.9629 l
476.829 94.7496 l
476.884 94.442 l
476.958 94.442 l
477.101 95.079 l
477.138 95.079 l
477.265 94.5707 l
477.373 94.8696 l
477.5 94.3374 l
477.645 93.7698 l
477.755 93.7698 l
477.9 92.8832 l
477.937 92.8832 l
477.991 92.5163 l
478.009 92.8068 l
478.117 93.4763 l
478.226 93.1116 l
478.425 93.8099 l
478.534 93.2442 l
478.661 93.6818 l
478.77 93.4921 l
478.915 94.5656 l
478.951 94.5656 l
479.078 94.2232 l
479.151 94.6696 l
479.205 94.6579 l
479.259 94.6579 l
479.386 95.3169 l
479.495 94.9649 l
479.642 95.7616 l
479.731 95.7722 l
479.985 94.5984 l
480.112 95.6226 l
480.167 95.6244 l
480.293 95.2832 l
480.402 95.9702 l
480.475 95.2913 l
480.529 95.4968 l
480.601 95.4968 l
480.71 96.0282 l
480.783 94.3473 l
480.783 94.3473 l
480.783 94.3473 l
480.855 96.2387 l
480.892 95.568 l
480.91 95.568 l
480.983 95.2382 l
481.018 95.433 l
481.2 95.4388 l
481.254 94.1141 l
481.274 95.301 l
481.274 95.301 l
481.417 95.6402 l
481.49 95.6402 l
481.653 96.1609 l
481.671 96.1609 l
481.818 94.9867 l
482.034 94.9942 l
482.198 94.479 l
482.307 94.4834 l
482.417 94.2396 l
482.505 94.2948 l
482.578 94.3042 l
482.705 94.6423 l
482.724 94.6423 l
482.85 94.0541 l
482.959 94.0388 l
483.086 93.5298 l
483.195 93.497 l
483.306 92.8216 l
483.448 93.9286 l
483.576 93.9486 l
483.666 93.9486 l
483.793 95.1115 l
483.866 94.0658 l
483.902 94.3544 l
484.156 94.8767 l
484.283 94.1597 l
484.301 94.1597 l
484.409 94.0091 l
484.519 95.1904 l
484.663 94.8333 l
484.954 94.826 l
485.081 93.7718 l
485.153 95.1725 l
485.189 94.8206 l
485.318 94.8206 l
485.462 94.1202 l
485.553 94.1202 l
485.679 95.1713 l
485.734 95.3711 l
485.806 93.9799 l
485.842 95.3711 l
485.951 95.3711 l
486.006 95.5719 l
486.06 95.3711 l
486.151 94.1881 l
486.278 95.9175 l
486.641 95.9175 l
486.767 96.4613 l
487.003 96.4601 l
487.13 95.9175 l
487.276 95.9175 l
487.366 94.8771 l
487.384 95.2222 l
487.565 95.2222 l
487.711 94.3922 l
487.73 94.3922 l
487.81 94.7342 l
487.81 94.7342 l
487.81 94.7342 l
487.91 94.1818 l
488.037 94.5272 l
488.164 94.1813 l
488.345 94.1814 l
488.472 93.28 l
488.526 93.28 l
488.654 91.5528 l
488.708 91.6772 l
488.853 88.9148 l
488.944 88.9148 l
489.016 89.8391 l
489.052 89.498 l
489.126 89.498 l
489.197 88.2385 l
489.234 88.9263 l
489.306 88.9263 l
489.379 87.9029 l
489.415 88.249 l
489.433 88.249 l
489.597 87.5792 l
489.669 87.5792 l
489.796 86.8211 l
489.959 85.8447 l
490.05 85.8503 l
490.109 86.7909 l
490.158 86.4667 l
490.323 86.4074 l
490.449 87.0159 l
490.521 86.0524 l
490.557 86.3211 l
490.757 86.3287 l
490.902 87.4851 l
490.993 87.5104 l
491.192 87.1195 l
491.482 87.049 l
491.573 86.4111 l
491.591 87.049 l
491.664 87.049 l
491.797 86.7129 l
491.918 86.7129 l
492.045 85.1054 l
492.171 86.6885 l
492.227 86.6885 l
492.316 86.9252 l
492.428 86.3538 l
492.465 86.3538 l
492.589 86.0197 l
492.752 86.0197 l
492.934 84.8037 l
493.025 84.8037 l
493.084 86.0773 l
493.137 85.7564 l
493.296 85.7638 l
493.46 84.8864 l
493.535 84.8864 l
493.659 83.6443 l
493.681 83.6443 l
493.805 82.726 l
493.914 82.7044 l
494.057 79.2831 l
494.203 79.2733 l
494.348 76.4282 l
494.384 76.4282 l
494.547 74.2741 l
494.62 74.2741 l
494.747 72.7048 l
494.801 72.7048 l
494.964 70.2739 l
495.164 70.2518 l
495.291 69.6375 l
495.364 69.6162 l
495.49 68.0949 l
495.545 68.0949 l
495.653 69.854 l
495.671 69.8346 l
495.781 69.8346 l
495.907 70.4256 l
496.016 70.0566 l
496.143 71.2811 l
496.27 71.2316 l
496.379 71.5354 l
496.506 70.2899 l
496.633 69.31 l
496.687 69.8915 l
496.741 69.5771 l
496.869 69.5771 l
496.995 68.9414 l
497.177 68.9414 l
497.232 67.9876 l
497.286 68.604 l
497.34 68.604 l
497.413 65.7254 l
497.467 66.0362 l
497.521 66.0362 l
497.648 66.9496 l
497.903 65.8891 l
498.011 66.1912 l
498.138 65.0781 l
498.301 64.0174 l
498.446 64.0016 l
498.573 63.6634 l
498.682 63.6632 l
498.809 63.336 l
498.863 63.336 l
498.991 63.0166 l
499.607 63.0166 l
499.716 62.2547 l
499.843 62.8951 l
499.951 62.8059 l
500.078 63.1401 l
500.133 63.0371 l
500.187 63.1452 l
500.387 63.8902 l
500.459 63.4812 l
500.805 64.1296 l
500.876 63.8865 l
500.912 64.1262 l
501.094 64.1171 l
501.221 64.2991 l
501.348 63.9781 l
501.402 63.974 l
501.584 65.2521 l
501.711 65.2517 l
501.765 65.5731 l
501.765 65.5731 l
501.765 65.5731 l
501.892 65.1473 l
502.019 65.972 l
502.096 64.5884 l
502.096 64.5884 l
502.096 64.5884 l
502.218 66.9212 l
502.255 66.9212 l
502.331 67.1042 l
502.331 67.1042 l
502.331 67.1042 l
502.456 66.7004 l
502.509 66.6519 l
502.617 66.999 l
502.762 64.799 l
502.871 64.7544 l
502.998 65.8053 l
503.125 64.2958 l
503.216 64.2958 l
503.346 63.9474 l
503.47 64.7496 l
503.578 64.7726 l
503.706 65.567 l
503.724 65.567 l
503.778 64.89 l
503.832 65.2462 l
503.887 65.2462 l
503.942 64.5756 l
504.014 64.6734 l
504.141 65.9696 l
504.249 65.994 l
504.394 63.4355 l
504.702 62.7002 l
510.76 62.7002 l
510.76 62.7002 l
stroke
grestore
0.500 setlinewidth
0 setlinecap
[1 3] 0 setdash
0.000 setgray
gsave
453.4 225.7 73.12 41.56 clipbox
73.125 41.5627 m
73.125 267.3 l
stroke
grestore
[] 0 setdash
gsave
/o {
gsave
newpath
translate
0.5 setlinewidth
1 setlinejoin
0 setlinecap
0 0 m
0 4 l
gsave
0.000 setgray
fill
grestore
stroke
grestore
} bind def
73.125 41.5627 o
grestore
gsave
/o {
gsave
newpath
translate
0.5 setlinewidth
1 setlinejoin
0 setlinecap
0 0 m
0 -4 l
gsave
0.000 setgray
fill
grestore
stroke
grestore
} bind def
73.125 267.3 o
grestore
/DejaVuSans findfont
12.000 scalefont
setfont
gsave
70.101562 28.484557 translate
0.000000 rotate
0.000000 0.171875 m /zero glyphshow
grestore
[1 3] 0 setdash
gsave
453.4 225.7 73.12 41.56 clipbox
163.8 41.5627 m
163.8 267.3 l
stroke
grestore
[] 0 setdash
gsave
/o {
gsave
newpath
translate
0.5 setlinewidth
1 setlinejoin
0 setlinecap
0 0 m
0 4 l
gsave
0.000 setgray
fill
grestore
stroke
grestore
} bind def
163.8 41.5627 o
grestore
gsave
/o {
gsave
newpath
translate
0.5 setlinewidth
1 setlinejoin
0 setlinecap
0 0 m
0 -4 l
gsave
0.000 setgray
fill
grestore
stroke
grestore
} bind def
163.8 267.3 o
grestore
gsave
157.018750 28.484557 translate
0.000000 rotate
0.000000 0.171875 m /five glyphshow
7.634766 0.171875 m /zero glyphshow
grestore
[1 3] 0 setdash
gsave
453.4 225.7 73.12 41.56 clipbox
254.475 41.5627 m
254.475 267.3 l
stroke
grestore
[] 0 setdash
gsave
/o {
gsave
newpath
translate
0.5 setlinewidth
1 setlinejoin
0 setlinecap
0 0 m
0 4 l
gsave
0.000 setgray
fill
grestore
stroke
grestore
} bind def
254.475 41.5627 o
grestore
gsave
/o {
gsave
newpath
translate
0.5 setlinewidth
1 setlinejoin
0 setlinecap
0 0 m
0 -4 l
gsave
0.000 setgray
fill
grestore
stroke
grestore
} bind def
254.475 267.3 o
grestore
gsave
244.068750 28.484557 translate
0.000000 rotate
0.000000 0.171875 m /one glyphshow
7.634766 0.171875 m /zero glyphshow
15.269531 0.171875 m /zero glyphshow
grestore
[1 3] 0 setdash
gsave
453.4 225.7 73.12 41.56 clipbox
345.15 41.5627 m
345.15 267.3 l
stroke
grestore
[] 0 setdash
gsave
/o {
gsave
newpath
translate
0.5 setlinewidth
1 setlinejoin
0 setlinecap
0 0 m
0 4 l
gsave
0.000 setgray
fill
grestore
stroke
grestore
} bind def
345.15 41.5627 o
grestore
gsave
/o {
gsave
newpath
translate
0.5 setlinewidth
1 setlinejoin
0 setlinecap
0 0 m
0 -4 l
gsave
0.000 setgray
fill
grestore
stroke
grestore
} bind def
345.15 267.3 o
grestore
gsave
334.743750 28.484557 translate
0.000000 rotate
0.000000 0.171875 m /one glyphshow
7.634766 0.171875 m /five glyphshow
15.269531 0.171875 m /zero glyphshow
grestore
[1 3] 0 setdash
gsave
453.4 225.7 73.12 41.56 clipbox
435.825 41.5627 m
435.825 267.3 l
stroke
grestore
[] 0 setdash
gsave
/o {
gsave
newpath
translate
0.5 setlinewidth
1 setlinejoin
0 setlinecap
0 0 m
0 4 l
gsave
0.000 setgray
fill
grestore
stroke
grestore
} bind def
435.825 41.5627 o
grestore
gsave
/o {
gsave
newpath
translate
0.5 setlinewidth
1 setlinejoin
0 setlinecap
0 0 m
0 -4 l
gsave
0.000 setgray
fill
grestore
stroke
grestore
} bind def
435.825 267.3 o
grestore
gsave
425.200000 28.484557 translate
0.000000 rotate
0.000000 0.171875 m /two glyphshow
7.634766 0.171875 m /zero glyphshow
15.269531 0.171875 m /zero glyphshow
grestore
[1 3] 0 setdash
gsave
453.4 225.7 73.12 41.56 clipbox
526.5 41.5627 m
526.5 267.3 l
stroke
grestore
[] 0 setdash
gsave
/o {
gsave
newpath
translate
0.5 setlinewidth
1 setlinejoin
0 setlinecap
0 0 m
0 4 l
gsave
0.000 setgray
fill
grestore
stroke
grestore
} bind def
526.5 41.5627 o
grestore
gsave
/o {
gsave
newpath
translate
0.5 setlinewidth
1 setlinejoin
0 setlinecap
0 0 m
0 -4 l
gsave
0.000 setgray
fill
grestore
stroke
grestore
} bind def
526.5 267.3 o
grestore
gsave
515.875000 28.484557 translate
0.000000 rotate
0.000000 0.171875 m /two glyphshow
7.634766 0.171875 m /five glyphshow
15.269531 0.171875 m /zero glyphshow
grestore
/DejaVuSans findfont
18.000 scalefont
setfont
gsave
265.671875 7.437682 translate
0.000000 rotate
0.000000 2.375000 m /t glyphshow
7.057617 2.375000 m /i glyphshow
12.058594 2.375000 m /m glyphshow
29.592773 2.375000 m /e glyphshow
40.666992 2.375000 m /space glyphshow
46.388672 2.375000 m /bracketleft glyphshow
53.411133 2.375000 m /s glyphshow
62.789062 2.375000 m /bracketright glyphshow
grestore
[1 3] 0 setdash
gsave
453.4 225.7 73.12 41.56 clipbox
73.125 41.5627 m
526.5 41.5627 l
stroke
grestore
[] 0 setdash
gsave
/o {
gsave
newpath
translate
0.5 setlinewidth
1 setlinejoin
0 setlinecap
0 0 m
4 0 l
gsave
0.000 setgray
fill
grestore
stroke
grestore
} bind def
73.125 41.5627 o
grestore
gsave
/o {
gsave
newpath
translate
0.5 setlinewidth
1 setlinejoin
0 setlinecap
0 0 m
-4 0 l
gsave
0.000 setgray
fill
grestore
stroke
grestore
} bind def
526.5 41.5627 o
grestore
/DejaVuSans findfont
12.000 scalefont
setfont
gsave
51.625000 37.023620 translate
0.000000 rotate
0.000000 0.171875 m /zero glyphshow
7.634766 0.171875 m /period glyphshow
11.449219 0.171875 m /zero glyphshow
grestore
[1 3] 0 setdash
gsave
453.4 225.7 73.12 41.56 clipbox
73.125 86.7101 m
526.5 86.7101 l
stroke
grestore
[] 0 setdash
gsave
/o {
gsave
newpath
translate
0.5 setlinewidth
1 setlinejoin
0 setlinecap
0 0 m
4 0 l
gsave
0.000 setgray
fill
grestore
stroke
grestore
} bind def
73.125 86.7101 o
grestore
gsave
/o {
gsave
newpath
translate
0.5 setlinewidth
1 setlinejoin
0 setlinecap
0 0 m
-4 0 l
gsave
0.000 setgray
fill
grestore
stroke
grestore
} bind def
526.5 86.7101 o
grestore
gsave
51.875000 82.171083 translate
0.000000 rotate
0.000000 0.171875 m /zero glyphshow
7.634766 0.171875 m /period glyphshow
11.449219 0.171875 m /five glyphshow
grestore
[1 3] 0 setdash
gsave
453.4 225.7 73.12 41.56 clipbox
73.125 131.858 m
526.5 131.858 l
stroke
grestore
[] 0 setdash
gsave
/o {
gsave
newpath
translate
0.5 setlinewidth
1 setlinejoin
0 setlinecap
0 0 m
4 0 l
gsave
0.000 setgray
fill
grestore
stroke
grestore
} bind def
73.125 131.858 o
grestore
gsave
/o {
gsave
newpath
translate
0.5 setlinewidth
1 setlinejoin
0 setlinecap
0 0 m
-4 0 l
gsave
0.000 setgray
fill
grestore
stroke
grestore
} bind def
526.5 131.858 o
grestore
gsave
52.140625 127.318547 translate
0.000000 rotate
0.000000 0.171875 m /one glyphshow
7.634766 0.171875 m /period glyphshow
11.449219 0.171875 m /zero glyphshow
grestore
[1 3] 0 setdash
gsave
453.4 225.7 73.12 41.56 clipbox
73.125 177.005 m
526.5 177.005 l
stroke
grestore
[] 0 setdash
gsave
/o {
gsave
newpath
translate
0.5 setlinewidth
1 setlinejoin
0 setlinecap
0 0 m
4 0 l
gsave
0.000 setgray
fill
grestore
stroke
grestore
} bind def
73.125 177.005 o
grestore
gsave
/o {
gsave
newpath
translate
0.5 setlinewidth
1 setlinejoin
0 setlinecap
0 0 m
-4 0 l
gsave
0.000 setgray
fill
grestore
stroke
grestore
} bind def
526.5 177.005 o
grestore
gsave
52.390625 172.544135 translate
0.000000 rotate
0.000000 0.171875 m /one glyphshow
7.634766 0.171875 m /period glyphshow
11.449219 0.171875 m /five glyphshow
grestore
[1 3] 0 setdash
gsave
453.4 225.7 73.12 41.56 clipbox
73.125 222.153 m
526.5 222.153 l
stroke
grestore
[] 0 setdash
gsave
/o {
gsave
newpath
translate
0.5 setlinewidth
1 setlinejoin
0 setlinecap
0 0 m
4 0 l
gsave
0.000 setgray
fill
grestore
stroke
grestore
} bind def
73.125 222.153 o
grestore
gsave
/o {
gsave
newpath
translate
0.5 setlinewidth
1 setlinejoin
0 setlinecap
0 0 m
-4 0 l
gsave
0.000 setgray
fill
grestore
stroke
grestore
} bind def
526.5 222.153 o
grestore
gsave
51.703125 217.613474 translate
0.000000 rotate
0.000000 0.171875 m /two glyphshow
7.634766 0.171875 m /period glyphshow
11.449219 0.171875 m /zero glyphshow
grestore
[1 3] 0 setdash
gsave
453.4 225.7 73.12 41.56 clipbox
73.125 267.3 m
526.5 267.3 l
stroke
grestore
[] 0 setdash
gsave
/o {
gsave
newpath
translate
0.5 setlinewidth
1 setlinejoin
0 setlinecap
0 0 m
4 0 l
gsave
0.000 setgray
fill
grestore
stroke
grestore
} bind def
73.125 267.3 o
grestore
gsave
/o {
gsave
newpath
translate
0.5 setlinewidth
1 setlinejoin
0 setlinecap
0 0 m
-4 0 l
gsave
0.000 setgray
fill
grestore
stroke
grestore
} bind def
526.5 267.3 o
grestore
gsave
51.953125 262.760938 translate
0.000000 rotate
0.000000 0.171875 m /two glyphshow
7.634766 0.171875 m /period glyphshow
11.449219 0.171875 m /five glyphshow
grestore
gsave
46.625000 131.431341 translate
90.000000 rotate
/Cmmi10 findfont
18.0 scalefont
setfont
0.000000 3.328125 moveto
/z glyphshow

/DejaVuSans findfont
18.0 scalefont
setfont
8.367188 3.328125 moveto
/space glyphshow

14.088867 3.328125 moveto
/bracketleft glyphshow

21.111328 3.328125 moveto
/m glyphshow

38.645508 3.328125 moveto
/bracketright glyphshow


grestore
1.000 setlinewidth
2 setlinecap
gsave
73.125 267.3 m
526.5 267.3 l
stroke
grestore
gsave
526.5 41.5627 m
526.5 267.3 l
stroke
grestore
gsave
73.125 41.5627 m
526.5 41.5627 l
stroke
grestore
gsave
73.125 41.5627 m
73.125 267.3 l
stroke
grestore
/DejaVuSans findfont
24.000 scalefont
setfont
gsave
186.179688 269.128125 translate
0.000000 rotate
0.000000 3.171875 m /P glyphshow
13.597656 3.171875 m /o glyphshow
28.281250 3.171875 m /s glyphshow
40.785156 3.171875 m /i glyphshow
47.453125 3.171875 m /t glyphshow
56.863281 3.171875 m /i glyphshow
63.531250 3.171875 m /o glyphshow
78.214844 3.171875 m /n glyphshow
93.425781 3.171875 m /space glyphshow
101.054688 3.171875 m /parenleft glyphshow
110.417969 3.171875 m /z glyphshow
123.015625 3.171875 m /parenright glyphshow
132.378906 3.171875 m /space glyphshow
140.007812 3.171875 m /v glyphshow
154.210938 3.171875 m /s glyphshow
166.714844 3.171875 m /space glyphshow
174.343750 3.171875 m /t glyphshow
183.753906 3.171875 m /i glyphshow
190.421875 3.171875 m /m glyphshow
213.800781 3.171875 m /e glyphshow
grestore
gsave
416.46 210.099 m
519.3 210.099 l
519.3 260.1 l
416.46 260.1 l
416.46 210.099 l
cl
gsave
1.000 setgray
fill
grestore
stroke
grestore
gsave
426.54 248.739 m
446.7 248.739 l
stroke
grestore
gsave
462.540000 237.699375 translate
0.000000 rotate
/Cmmi10 findfont
14.4 scalefont
setfont
0.000000 6.640625 moveto
/z glyphshow

/Cmmi10 findfont
10.08 scalefont
setfont
6.689392 2.967275 moveto
/g glyphshow

11.494928 2.967275 moveto
/o glyphshow

16.369325 2.967275 moveto
/a glyphshow

21.686403 2.967275 moveto
/l glyphshow


grestore
1.000 0.000 0.000 setrgbcolor
gsave
426.54 224.899 m
446.7 224.899 l
stroke
grestore
0.000 setgray
gsave
462.540000 215.858750 translate
0.000000 rotate
/Cmmi10 findfont
14.4 scalefont
setfont
0.000000 4.640625 moveto
/z glyphshow

/Cmmi10 findfont
10.08 scalefont
setfont
6.689392 0.967275 moveto
/m glyphshow

15.533162 0.967275 moveto
/e glyphshow

20.215736 0.967275 moveto
/a glyphshow

25.532814 0.967275 moveto
/s glyphshow

30.244901 0.967275 moveto
/u glyphshow

36.004659 0.967275 moveto
/r glyphshow

40.549510 0.967275 moveto
/e glyphshow

45.232085 0.967275 moveto
/d glyphshow


grestore

end
showpage
